{
  "header": {
    "version": 4,
    "description": "Karaoke Mugen Karaoke Data File"
  },
  "medias": [
    {
      "version": "Default",
      "filename": "CHI - Tian Yiming - AUDIO - reai1050Cdeni ~ Cover Vers.mp3",
      "audiogain": -7.55,
      "loudnorm": "-9.80,0.56,3.80,-19.87,-0.56",
      "filesize": 3295096,
      "duration": 197,
      "default": true,
      "lyrics": [
        {
          "filename": "CHI - Tian Yiming - AUDIO - reai1050Cdeni ~ Cover Vers.ass",
          "default": true,
          "version": "Default"
        }
      ]
    }
  ],
  "data": {
    "created_at": "2022-07-20T21:21:50.631Z",
    "ignoreHooks": false,
    "kid": "e5982c12-c92c-4d3a-8242-5ddde61333ae",
    "modified_at": "2023-01-12T13:37:58.023Z",
    "repository": "kara.moe",
    "tags": {
      "authors": [
        "aa819a8e-444b-4460-974c-d927f92a3f05"
      ],
      "collections": [
        "dbcf2c22-524d-4708-99bb-601703633927"
      ],
      "groups": [
        "8e209ae4-4381-438f-89dc-1b21752027d2",
        "df5f446f-d161-4760-8e0c-822e70ea03ae"
      ],
      "langs": [
        "ad109694-16f7-4386-b8c2-a6db05ad3530"
      ],
      "singers": [
        "b8e3ce6b-ebe7-4dc8-9645-ee5df8d4a629"
      ],
      "songtypes": [
        "42a262ae-acba-4ab5-a446-c5789c96c821"
      ],
      "songwriters": [
        "f07b915b-d1bf-4781-b27f-ba569ede2c35"
      ],
      "versions": [
        "03e1e1d2-8641-47b7-bbcb-39a3df9ff21c"
      ]
    },
    "titles": {
      "chi": "热爱105℃的你",
      "qro": "rèài105℃denǐ"
    },
    "titles_default_language": "qro",
    "titles_aliases": [
      "Super idol de xiàoróng",
      "Super idol 的笑容",
      "reai105℃deni"
    ],
    "year": 2021
  }
}