{
  "header": {
    "version": 4,
    "description": "Karaoke Mugen Karaoke Data File"
  },
  "medias": [
    {
      "version": "Default",
      "filename": "ENG - Glee - IN - The Fox (What Does The Fox Say question_mark ) ~ Cover Vers.mp4",
      "audiogain": 4.26,
      "loudnorm": "-21.13,-6.30,4.60,-31.22,-0.99",
      "filesize": 91216217,
      "duration": 164,
      "default": true,
      "lyrics": [
        {
          "filename": "ENG - Glee - IN - The Fox (What Does The Fox Say question_mark ) ~ Cover Vers.ass",
          "default": true,
          "version": "Default"
        }
      ]
    }
  ],
  "data": {
    "created_at": "2022-04-22T23:15:44.270Z",
    "ignoreHooks": false,
    "kid": "e7f1a4da-4263-4631-b453-bd703ca86010",
    "modified_at": "2022-04-24T12:52:33.798Z",
    "parents": [
      "d7e7bb77-9a81-4684-a6e1-1636677f43ee"
    ],
    "repository": "kara.moe",
    "tags": {
      "authors": [
        "aea68e75-e469-45bd-be80-67f2af0e6b2d"
      ],
      "collections": [
        "efe171c0-e8a1-4d03-98c0-60ecf741ad52"
      ],
      "creators": [
        "ac5f4b76-3d0e-4e80-9583-d3ba1cafef0d"
      ],
      "families": [
        "5391f9fe-638c-415f-8dc9-958e3a2c5787"
      ],
      "groups": [
        "ae613721-1fbe-480d-ba6b-d6d0702b184d"
      ],
      "langs": [
        "de5eda1c-5fb3-46a6-9606-d4554fc5a1d6"
      ],
      "origins": [
        "938de218-5343-4865-94d3-fb33f2eaa152"
      ],
      "series": [
        "c0724ccb-da73-4fc6-bf55-d17759e05bfc"
      ],
      "singers": [
        "a7f9ceaf-ee64-4f6d-884f-bd7214aedf3a",
        "fecc2f02-dfcd-44fa-b695-273f5169ba3d"
      ],
      "songtypes": [
        "5e5250d9-351a-4a82-98eb-55db50ad8962"
      ],
      "songwriters": [
        "17bc11bc-1d50-4201-ae8a-c4f66f19144a",
        "3ce7e501-b961-4764-857c-a341a6d2ec43",
        "5ad8ffc6-e1d9-442c-a78f-f076c5a3d77f",
        "6a673e74-7f35-487e-9452-286b1ca4e026",
        "c57b7caf-7989-479e-bd8e-1aa43081c471"
      ],
      "versions": [
        "03e1e1d2-8641-47b7-bbcb-39a3df9ff21c"
      ]
    },
    "titles": {
      "eng": "The Fox (What Does The Fox Say?)"
    },
    "titles_default_language": "eng",
    "title": "The Fox (What Does The Fox Say?)",
    "year": 2013
  }
}