{
  "header": {
    "version": 4,
    "description": "Karaoke Mugen Karaoke Data File"
  },
  "medias": [
    {
      "version": "Default",
      "filename": "ENG - Scorpions - MV - Wind of Change.mp4",
      "audiogain": -8.72,
      "loudnorm": "-10.60,1.05,9.70,-20.85,-1.71",
      "filesize": 108235195,
      "duration": 282,
      "default": true,
      "lyrics": [
        {
          "filename": "ENG - Scorpions - MV - Wind of Change.ass",
          "default": true,
          "version": "Default"
        }
      ]
    }
  ],
  "data": {
    "created_at": "2023-05-06T12:58:09.495Z",
    "ignoreHooks": false,
    "kid": "9a460662-e6af-4bed-aa1f-a1b163d05ef6",
    "modified_at": "2023-05-06T12:58:09.495Z",
    "repository": "kara.moe",
    "tags": {
      "authors": [
        "0c8e4377-ee35-4896-89ed-9d06a1b5acd5",
        "f70c7314-b8d3-4bf4-96a0-dc8b2c5a6c94"
      ],
      "collections": [
        "efe171c0-e8a1-4d03-98c0-60ecf741ad52"
      ],
      "creators": [
        "438a4f9a-8573-40ed-a436-364aa3505f36",
        "0b551a13-6552-4fe4-917e-d767e985e8a0"
      ],
      "families": [
        "5391f9fe-638c-415f-8dc9-958e3a2c5787"
      ],
      "groups": [
        "24db50aa-a126-4d34-a48a-e45db79c4245"
      ],
      "langs": [
        "de5eda1c-5fb3-46a6-9606-d4554fc5a1d6"
      ],
      "singers": [
        "88af9430-4c88-4792-b602-97b79ee0c828"
      ],
      "songtypes": [
        "7be1b15c-cff8-4b37-a649-5c90f3d569a9"
      ],
      "songwriters": [
        "790c8568-d919-4f21-9b8e-7196a03e99d7"
      ]
    },
    "titles": {
      "eng": "Wind of Change"
    },
    "titles_default_language": "eng",
    "titles_aliases": [],
    "year": 1991
  }
}