{
  "header": {
    "version": 4,
    "description": "Karaoke Mugen Karaoke Data File"
  },
  "medias": [
    {
      "version": "Default",
      "filename": "ENG - Sonic CD - GAME SEGACD OP - Sonic Boom.mp4",
      "audiogain": -4.33,
      "loudnorm": "-13.50,-0.29,7.40,-23.91,-1.64",
      "filesize": 47014248,
      "duration": 90,
      "default": true,
      "lyrics": [
        {
          "filename": "ENG - Sonic CD - GAME SEGACD OP - Sonic Boom.ass",
          "default": true,
          "version": "Default"
        }
      ]
    }
  ],
  "data": {
    "created_at": "2017-10-11T17:01:48.000Z",
    "ignoreHooks": false,
    "kid": "67544cf9-7d23-4015-b74e-49b67b7fa9c5",
    "modified_at": "2022-06-30T18:17:50.025Z",
    "repository": "kara.moe",
    "tags": {
      "authors": [
        "fa399f2f-ea1d-4902-8796-ea6d8218aff0"
      ],
      "collections": [
        "c7db86a0-ff64-4044-9be4-66dd1ef1d1c1"
      ],
      "creators": [
        "b8a3778d-0864-4135-9053-1def02d3262e"
      ],
      "groups": [
        "24db50aa-a126-4d34-a48a-e45db79c4245"
      ],
      "langs": [
        "de5eda1c-5fb3-46a6-9606-d4554fc5a1d6"
      ],
      "platforms": [
        "873b0e44-fe48-4add-a85f-0fcb4cccf45f"
      ],
      "series": [
        "c0da16bc-4cd1-4f04-aab8-e1d73233cab9"
      ],
      "singers": [
        "3aaf9667-1d2f-42d8-ad7c-726a1f5b7fc2",
        "86979ed8-4ea9-4512-a3d7-0911b5d5aaca",
        "bef41c79-d10f-480f-9136-569e0c6c7238"
      ],
      "songtypes": [
        "f02ad9b3-0bd9-4aad-85b3-9976739ba0e4"
      ],
      "songwriters": [
        "e6fbb6d9-c70b-4229-96f4-4fc006719d3e"
      ],
      "franchises": [
        "09c42215-106e-4379-b6cf-787fb812aaae"
      ],
      "origins": [
        "dbedd6b3-d125-4cd8-aa32-c4175e4ca3a3"
      ]
    },
    "titles": {
      "eng": "Sonic Boom"
    },
    "titles_default_language": "eng",
    "title": "Sonic Boom",
    "year": 1993
  }
}