{
  "header": {
    "version": 4,
    "description": "Karaoke Mugen Karaoke Data File"
  },
  "medias": [
    {
      "version": "Default",
      "filename": "ENG - Brain Powerd - AUDIO IS - True Love.mp3",
      "audiogain": -6.77,
      "loudnorm": "-10.84,1.14,4.80,-20.98,-0.97",
      "filesize": 4928113,
      "duration": 279,
      "default": true,
      "lyrics": [
        {
          "filename": "ENG - Brain Powerd - AUDIO IS - True Love.ass",
          "default": true,
          "version": "Default",
          "subchecksum": "cd0044f3e7cf1c5413c459a06f1df76f"
        }
      ]
    }
  ],
  "data": {
    "created_at": "2019-11-24T16:20:49.893Z",
    "kid": "21e821db-cabe-4dc0-8ac4-6a4c18929bd7",
    "modified_at": "2021-02-25T10:03:42.420Z",
    "repository": "kara.moe",
    "tags": {
      "authors": [
        "1db1738f-acdc-42fc-aec3-60f4bddf660d"
      ],
      "collections": [
        "c7db86a0-ff64-4044-9be4-66dd1ef1d1c1"
      ],
      "groups": [
        "24db50aa-a126-4d34-a48a-e45db79c4245"
      ],
      "langs": [
        "de5eda1c-5fb3-46a6-9606-d4554fc5a1d6"
      ],
      "series": [
        "af54dbb7-c1c1-4419-9a62-2443a69719be"
      ],
      "singers": [
        "a772a8cb-5f3e-40fc-9c58-5467bf982b52"
      ],
      "songtypes": [
        "10a1ad3e-a05c-4f5c-84b6-f491e3e3a92e",
        "42a262ae-acba-4ab5-a446-c5789c96c821"
      ],
      "songwriters": [
        "af0be06d-ea2d-4f46-85d1-58cf9f42532a",
        "c5b23531-a03f-45ea-b567-3034d0e17b2d"
      ]
    },
    "title": "True Love",
    "titles": {
      "eng": "True Love"
    },
    "year": 1998
  }
}