{
  "header": {
    "version": 4,
    "description": "Karaoke Mugen Karaoke Data File"
  },
  "medias": [
    {
      "version": "Default",
      "filename": "ENG - Orchestral Manoeuvres In The Dark - MV - Enola Gay.mp4",
      "audiogain": -7.41,
      "loudnorm": "-9.50,1.29,4.70,-19.67,-0.88",
      "filesize": 138898292,
      "duration": 204,
      "default": true,
      "lyrics": [
        {
          "filename": "ENG - Orchestral Manoeuvres In The Dark - MV - Enola Gay.ass",
          "default": true,
          "version": "Default"
        }
      ]
    }
  ],
  "data": {
    "created_at": "2021-09-05T21:28:15.260Z",
    "kid": "3acaa08e-6149-46ee-bde1-a3bd51f637fb",
    "modified_at": "2021-11-11T22:51:01.541Z",
    "repository": "kara.moe",
    "tags": {
      "authors": [
        "9bea7e05-2dec-434e-92ff-fcb53f69fdb7"
      ],
      "collections": [
        "efe171c0-e8a1-4d03-98c0-60ecf741ad52"
      ],
      "creators": [
        "264c3a5c-f3de-49ef-973f-9804bf0bd88b"
      ],
      "families": [
        "5391f9fe-638c-415f-8dc9-958e3a2c5787"
      ],
      "groups": [
        "7792cc27-9ff9-4d47-9287-2338b7db1575"
      ],
      "langs": [
        "de5eda1c-5fb3-46a6-9606-d4554fc5a1d6"
      ],
      "singers": [
        "34e6d38a-0660-4037-88b2-eed3ce66d56a"
      ],
      "songtypes": [
        "7be1b15c-cff8-4b37-a649-5c90f3d569a9"
      ],
      "songwriters": [
        "b33687a9-61b8-402c-9764-34e1882cad6a"
      ]
    },
    "titles": {
      "eng": "Enola Gay"
    },
    "title": "Enola Gay",
    "year": 1980
  }
}