{
  "header": {
    "version": 4,
    "description": "Karaoke Mugen Karaoke Data File"
  },
  "medias": [
    {
      "version": "Default",
      "filename": "ENG - Franz Ferdinand - MV - This Fire.mp4",
      "audiogain": -8.12,
      "loudnorm": "-9.14,0.30,6.70,-19.50,-1.31",
      "filesize": 124939615,
      "duration": 223,
      "default": true,
      "lyrics": [
        {
          "filename": "ENG - Franz Ferdinand - MV - This Fire.ass",
          "default": true,
          "version": "Default"
        }
      ]
    }
  ],
  "data": {
    "created_at": "2022-09-17T14:29:45.600Z",
    "ignoreHooks": false,
    "kid": "890401f2-54f0-41f5-a440-c802612194b7",
    "modified_at": "2022-09-17T14:29:45.820Z",
    "repository": "kara.moe",
    "tags": {
      "authors": [
        "9cdf3b70-3550-457c-bdb9-038f3253c6ad"
      ],
      "collections": [
        "efe171c0-e8a1-4d03-98c0-60ecf741ad52"
      ],
      "creators": [
        "f963181a-1214-47f8-b6f9-1705cbc33779"
      ],
      "families": [
        "5391f9fe-638c-415f-8dc9-958e3a2c5787"
      ],
      "groups": [
        "8e209ae4-4381-438f-89dc-1b21752027d2",
        "3c14c864-533c-49e6-a3cc-6969f1233775"
      ],
      "langs": [
        "de5eda1c-5fb3-46a6-9606-d4554fc5a1d6"
      ],
      "singers": [
        "33d92b1e-ef0b-401e-b0c7-ed5f59b65a6a"
      ],
      "songtypes": [
        "7be1b15c-cff8-4b37-a649-5c90f3d569a9"
      ],
      "songwriters": [
        "8387b795-00a2-44c9-9afb-846458a34b6a",
        "cd90dd9f-1007-4025-9d18-f64fa18b6c5d"
      ]
    },
    "titles": {
      "eng": "This Fire"
    },
    "titles_default_language": "eng",
    "titles_aliases": [
      "This Fffire"
    ],
    "title": "This Fire",
    "year": 2004
  }
}