{
  "header": {
    "version": 4,
    "description": "Karaoke Mugen Karaoke Data File"
  },
  "medias": [
    {
      "version": "Default",
      "filename": "ENG - Bleach - IN - Number One.mp4",
      "audiogain": -5.93,
      "loudnorm": "-12.02,0.94,7.30,-22.23,-0.99",
      "filesize": 15659884,
      "duration": 109,
      "default": true,
      "lyrics": [
        {
          "filename": "ENG - Bleach - IN - Number One.ass",
          "default": true,
          "version": "Default"
        }
      ]
    }
  ],
  "data": {
    "created_at": "2021-03-13T16:48:34.420Z",
    "ignoreHooks": false,
    "kid": "055fbbe1-abaa-470c-a0e1-26e5f7f0df1a",
    "modified_at": "2023-04-10T22:39:02.398Z",
    "repository": "kara.moe",
    "tags": {
      "authors": [
        "4d71ce82-eed1-4c44-ac85-5f7255f3dad3"
      ],
      "collections": [
        "c7db86a0-ff64-4044-9be4-66dd1ef1d1c1"
      ],
      "creators": [
        "aaff4ba6-9a12-4bac-9bd0-c0cb783e4177"
      ],
      "families": [
        "0377db02-3af6-43b8-9b08-c759df3d25c3"
      ],
      "genres": [
        "a0aeef4a-6428-45ff-a6e1-468b595930c2"
      ],
      "groups": [
        "3c14c864-533c-49e6-a3cc-6969f1233775"
      ],
      "langs": [
        "de5eda1c-5fb3-46a6-9606-d4554fc5a1d6"
      ],
      "origins": [
        "938de218-5343-4865-94d3-fb33f2eaa152"
      ],
      "series": [
        "d68e6557-fdc3-4c8b-805c-9778918abd03"
      ],
      "singers": [
        "84be0d21-fab7-4132-b0b9-e660aa6bb8d8"
      ],
      "songtypes": [
        "5e5250d9-351a-4a82-98eb-55db50ad8962"
      ],
      "songwriters": [
        "5999862c-f141-4d99-acb7-3701f5cbf1f9",
        "edb4d1ea-74cb-480d-a224-11fc29eded3d"
      ],
      "franchises": [
        "d68e6557-fdc3-4c8b-805c-9778918abd03"
      ]
    },
    "titles": {
      "eng": "Number One"
    },
    "titles_default_language": "eng",
    "year": 2004
  }
}