{
  "header": {
    "version": 4,
    "description": "Karaoke Mugen Karaoke Data File"
  },
  "medias": [
    {
      "version": "Default",
      "filename": "ENG - Skillet - MV - Hero.mp4",
      "audiogain": -10.6,
      "loudnorm": "-6.27,1.51,2.50,-16.33,-0.76",
      "filesize": 87125760,
      "duration": 196,
      "default": true,
      "lyrics": [
        {
          "filename": "ENG - Skillet - MV - Hero.ass",
          "default": true,
          "version": "Default"
        }
      ]
    }
  ],
  "data": {
    "created_at": "2023-03-04T21:50:24.784Z",
    "kid": "c677f402-270b-435a-b43a-bf2a2e0e29f2",
    "modified_at": "2023-03-04T21:50:24.784Z",
    "tags": {
      "authors": [
        "643ec800-2e2f-43b6-986a-b9b84b78c6b9",
        "f70c7314-b8d3-4bf4-96a0-dc8b2c5a6c94"
      ],
      "collections": [
        "efe171c0-e8a1-4d03-98c0-60ecf741ad52"
      ],
      "creators": [
        "7c0165a9-138a-4ca8-9da5-ccf13dbd9cec",
        "dfbafe55-1e10-42dc-bb2c-8d160f4c4ba6",
        "45924098-30ef-4f74-a1e8-18be7d2fbb3f"
      ],
      "families": [
        "5391f9fe-638c-415f-8dc9-958e3a2c5787"
      ],
      "groups": [
        "3c14c864-533c-49e6-a3cc-6969f1233775"
      ],
      "langs": [
        "de5eda1c-5fb3-46a6-9606-d4554fc5a1d6"
      ],
      "singergroups": [
        "5a4bc855-1fe0-4451-b756-e0e944753179"
      ],
      "songtypes": [
        "7be1b15c-cff8-4b37-a649-5c90f3d569a9"
      ],
      "songwriters": [
        "89a4e125-87b4-4815-8406-a55ab70eb2cb",
        "e87e19c9-3013-49bf-aa79-fc7a9f9594c1"
      ]
    },
    "titles": {
      "eng": "Hero"
    },
    "titles_default_language": "eng",
    "titles_aliases": [],
    "year": "2009",
    "repository": "kara.moe"
  }
}