{
  "header": {
    "version": 4,
    "description": "Karaoke Mugen Karaoke Data File"
  },
  "medias": [
    {
      "version": "Default",
      "filename": "ENG - Street Fighter III 3rd Strike - Fight for the Future - GAME DC OP - Third Strike.mp4",
      "audiogain": -1.41,
      "loudnorm": "-15.84,-1.17,1.30,-25.86,-0.15",
      "filesize": 17456211,
      "duration": 32,
      "default": true,
      "lyrics": [
        {
          "filename": "ENG - Street Fighter III 3rd Strike - Fight for the Future - GAME DC OP - Third Strike.ass",
          "default": true,
          "version": "Default"
        }
      ]
    }
  ],
  "data": {
    "created_at": "2022-07-15T00:25:10.609Z",
    "ignoreHooks": false,
    "kid": "882b0d01-a498-4d6e-82d2-f7a97422524f",
    "modified_at": "2022-07-15T00:31:18.579Z",
    "repository": "kara.moe",
    "tags": {
      "authors": [
        "06852e02-b77e-4106-b6f7-2d03942ad0ea"
      ],
      "collections": [
        "c7db86a0-ff64-4044-9be4-66dd1ef1d1c1"
      ],
      "creators": [
        "a9b563c0-8ead-481e-9071-277ad918982e"
      ],
      "groups": [
        "24db50aa-a126-4d34-a48a-e45db79c4245"
      ],
      "langs": [
        "de5eda1c-5fb3-46a6-9606-d4554fc5a1d6"
      ],
      "platforms": [
        "cf4a3dd9-affa-49b4-ad4c-67cbadf09c8d"
      ],
      "series": [
        "da092eac-d6eb-4f8d-975f-57d761cc1eff"
      ],
      "singers": [
        "b1178fc7-2226-4145-9cdb-f56767dd7ed0"
      ],
      "songtypes": [
        "f02ad9b3-0bd9-4aad-85b3-9976739ba0e4"
      ],
      "songwriters": [
        "92600954-ae12-45f8-88ce-77c501d21f50"
      ],
      "franchises": [
        "ad3881f4-9f8c-4269-b2ad-ae576d9b00ba"
      ],
      "origins": [
        "dbedd6b3-d125-4cd8-aa32-c4175e4ca3a3"
      ]
    },
    "titles": {
      "eng": "Third Strike"
    },
    "titles_default_language": "eng",
    "title": "Third Strike",
    "year": 1999
  }
}