{
  "header": {
    "version": 4,
    "description": "Karaoke Mugen Karaoke Data File"
  },
  "medias": [
    {
      "version": "Default",
      "filename": "ENG - Vinland Saga Season 2 - OP1 - River.mp4",
      "audiogain": 3.94,
      "loudnorm": "-20.88,-12.19,6.80,-30.92,-1.62",
      "filesize": 39709996,
      "duration": 90,
      "default": true,
      "lyrics": [
        {
          "filename": "ENG - Vinland Saga Season 2 - OP1 - River.ass",
          "default": true,
          "version": "Default"
        }
      ]
    }
  ],
  "data": {
    "created_at": "2023-01-13T03:02:48.387Z",
    "ignoreHooks": false,
    "kid": "329c109d-8e14-47c2-85d5-97e33dac3978",
    "modified_at": "2023-04-03T23:45:24.582Z",
    "repository": "kara.moe",
    "songorder": 1,
    "tags": {
      "authors": [
        "06852e02-b77e-4106-b6f7-2d03942ad0ea"
      ],
      "collections": [
        "c7db86a0-ff64-4044-9be4-66dd1ef1d1c1"
      ],
      "creators": [
        "0a86e9ea-5e17-4371-8f2a-60c818324d58"
      ],
      "families": [
        "0377db02-3af6-43b8-9b08-c759df3d25c3"
      ],
      "genres": [
        "a0aeef4a-6428-45ff-a6e1-468b595930c2"
      ],
      "groups": [
        "8e209ae4-4381-438f-89dc-1b21752027d2"
      ],
      "langs": [
        "de5eda1c-5fb3-46a6-9606-d4554fc5a1d6"
      ],
      "misc": [
        "fe819ff1-9db8-4a0f-85dc-0e322c9126c4"
      ],
      "origins": [
        "938de218-5343-4865-94d3-fb33f2eaa152"
      ],
      "series": [
        "d4e084d2-c61e-474f-b13e-e97c089a896a"
      ],
      "singers": [
        "640b28fe-3869-4c93-93a2-56f4cb58d9ad"
      ],
      "songtypes": [
        "f02ad9b3-0bd9-4aad-85b3-9976739ba0e4"
      ],
      "songwriters": [
        "2e046b20-fc51-4d31-a7e7-0d4da7b4c8d9",
        "640b28fe-3869-4c93-93a2-56f4cb58d9ad",
        "957c31c1-bb1f-4552-9082-a89dbf8a668a",
        "cbff48fb-9ab1-446b-a42d-6110d79b4fed"
      ],
      "franchises": [
        "20d9ed38-94ef-4e03-87a4-4014ddff9ebb"
      ]
    },
    "titles": {
      "eng": "River"
    },
    "titles_default_language": "eng",
    "year": 2023
  }
}