{
  "header": {
    "version": 4,
    "description": "Karaoke Mugen Karaoke Data File"
  },
  "medias": [
    {
      "version": "Default",
      "filename": "ENG - Banana Fish - OP2 - FREEDOM.mp4",
      "audiogain": 4.81,
      "loudnorm": "-21.03,-10.74,10.50,-31.16,-0.69",
      "filesize": 31976304,
      "duration": 90,
      "default": true,
      "lyrics": [
        {
          "filename": "ENG - Banana Fish - OP2 - FREEDOM.ass",
          "default": true,
          "version": "Default",
          "subchecksum": "c5f302dd1700a697fbbbed9970671139"
        }
      ]
    }
  ],
  "data": {
    "created_at": "2019-01-24T14:33:24.000Z",
    "kid": "5323e94f-8f74-4152-888b-fbb3044376bd",
    "modified_at": "2021-02-25T10:02:44.767Z",
    "repository": "kara.moe",
    "songorder": 2,
    "tags": {
      "authors": [
        "b5116310-e69b-4ed4-9e47-c5c53ee69023"
      ],
      "collections": [
        "c7db86a0-ff64-4044-9be4-66dd1ef1d1c1"
      ],
      "creators": [
        "0a86e9ea-5e17-4371-8f2a-60c818324d58"
      ],
      "families": [
        "0377db02-3af6-43b8-9b08-c759df3d25c3"
      ],
      "groups": [
        "33881a14-788e-4e2a-a97d-1e5f51542a26",
        "ae613721-1fbe-480d-ba6b-d6d0702b184d"
      ],
      "langs": [
        "4dcf9614-7914-42aa-99f4-dbce2e059133",
        "de5eda1c-5fb3-46a6-9606-d4554fc5a1d6"
      ],
      "origins": [
        "938de218-5343-4865-94d3-fb33f2eaa152"
      ],
      "series": [
        "2e5d7ae7-89a0-4108-9787-1fbf98e82aa8"
      ],
      "singers": [
        "fa13197d-df5f-4c5d-b621-ea4e12474f3d"
      ],
      "songtypes": [
        "f02ad9b3-0bd9-4aad-85b3-9976739ba0e4"
      ],
      "songwriters": [
        "ff930e72-47be-4a28-8168-756d59f45935"
      ]
    },
    "title": "FREEDOM",
    "titles": {
      "eng": "FREEDOM"
    },
    "year": 2018,
    "titles_default_language": "eng"
  }
}