{
  "header": {
    "version": 4,
    "description": "Karaoke Mugen Karaoke Data File"
  },
  "medias": [
    {
      "version": "Distant Worlds",
      "filename": "ENG - Final Fantasy XI - GAME PS2 LIVE - Memoro de la Stono ~ Distant Worlds ~ Full Vers.mp4",
      "audiogain": -1.99,
      "loudnorm": "-18.32,-1.68,18.00,-29.66,-0.01",
      "filesize": 105573676,
      "duration": 515,
      "default": true,
      "lyrics": [
        {
          "filename": "ENG - Final Fantasy XI - GAME PS2 LIVE - Memoro de la Stono ~ Distant Worlds ~ Full Vers.ass",
          "default": true,
          "version": "Default"
        }
      ]
    }
  ],
  "data": {
    "created_at": "2020-08-15T16:27:48.202Z",
    "ignoreHooks": false,
    "kid": "ba8449f5-c47f-4e0a-9213-0ea9f4e7fcf6",
    "modified_at": "2022-12-21T22:36:36.406Z",
    "repository": "kara.moe",
    "tags": {
      "authors": [
        "60defa7b-774e-4680-8321-51b742c2e009"
      ],
      "collections": [
        "c7db86a0-ff64-4044-9be4-66dd1ef1d1c1"
      ],
      "creators": [
        "ac4a5180-97af-4679-adcd-70ab39919d48"
      ],
      "families": [
        "5391f9fe-638c-415f-8dc9-958e3a2c5787"
      ],
      "groups": [
        "3c14c864-533c-49e6-a3cc-6969f1233775",
        "60defa7b-774e-4680-8321-51b742c2e009"
      ],
      "langs": [
        "28384f45-903a-4fe6-b60d-d9c03ae2c55f",
        "de5eda1c-5fb3-46a6-9606-d4554fc5a1d6"
      ],
      "misc": [
        "86705d4b-24e4-4756-9687-2b9c98bcf366"
      ],
      "platforms": [
        "2173004e-21da-45c9-9dfb-26014423c566"
      ],
      "series": [
        "6aa208b0-847e-44f4-a8d2-86224ef2bb80"
      ],
      "singers": [
        "8e1e7d4c-8d57-4495-9d60-52b22d6c3016"
      ],
      "songtypes": [
        "a0167949-580c-4de3-bf13-497e462e02f3"
      ],
      "songwriters": [
        "22973edc-2b1d-4c54-9219-f5470f862bee"
      ],
      "versions": [
        "c2143a7f-6970-450e-8a79-0302db9220a9"
      ],
      "franchises": [
        "595c5b14-54f8-4885-a689-02296506a704"
      ],
      "origins": [
        "dbedd6b3-d125-4cd8-aa32-c4175e4ca3a3"
      ]
    },
    "titles": {
      "eng": "Memoro de la Ŝtono ~ Distant Worlds"
    },
    "titles_default_language": "eng",
    "year": 2006
  }
}