{
  "header": {
    "version": 4,
    "description": "Karaoke Mugen Karaoke Data File"
  },
  "medias": [
    {
      "version": "Default",
      "filename": "ENG - Avenged Sevenfold - MV - Bat Country ~ Short Vers.mp4",
      "audiogain": -3.28,
      "loudnorm": "-13.60,-3.05,4.30,-23.61,-0.09",
      "filesize": 29409125,
      "duration": 250,
      "default": true,
      "lyrics": [
        {
          "filename": "ENG - Avenged Sevenfold - MV - Bat Country ~ Short Vers.ass",
          "default": true,
          "version": "Default"
        }
      ]
    }
  ],
  "data": {
    "created_at": "2022-07-31T20:42:32.057Z",
    "ignoreHooks": false,
    "kid": "7bceffce-48d5-495a-b26a-22e6f5c61a96",
    "modified_at": "2022-07-31T20:46:36.004Z",
    "repository": "kara.moe",
    "tags": {
      "authors": [
        "c621a8d7-4f75-4453-aebb-941ea0c2be90"
      ],
      "collections": [
        "efe171c0-e8a1-4d03-98c0-60ecf741ad52"
      ],
      "creators": [
        "bd43efab-3cf4-4b4b-8888-dda16ecd0e04"
      ],
      "families": [
        "5391f9fe-638c-415f-8dc9-958e3a2c5787"
      ],
      "groups": [
        "3c14c864-533c-49e6-a3cc-6969f1233775"
      ],
      "langs": [
        "de5eda1c-5fb3-46a6-9606-d4554fc5a1d6"
      ],
      "singers": [
        "190bad17-5b55-4ca0-b911-15af9a4edc3c"
      ],
      "songtypes": [
        "7be1b15c-cff8-4b37-a649-5c90f3d569a9"
      ],
      "songwriters": [
        "190bad17-5b55-4ca0-b911-15af9a4edc3c"
      ],
      "versions": [
        "d125c80a-86c1-4321-88e9-07b7800679b6"
      ]
    },
    "titles": {
      "eng": "Bat Country"
    },
    "titles_default_language": "eng",
    "title": "Bat Country",
    "year": 2005
  }
}