{
  "header": {
    "version": 4,
    "description": "Karaoke Mugen Karaoke Data File"
  },
  "medias": [
    {
      "version": "Default",
      "filename": "ENG - Sonic R - GAME PC SATURN GAMECUBE PS2 AUDIO - Can You Feel the Sunshine question_mark.mp3",
      "audiogain": -9.07,
      "loudnorm": "-8.52,2.03,3.60,-18.66,-0.82",
      "filesize": 5251490,
      "duration": 303,
      "default": true,
      "lyrics": [
        {
          "filename": "ENG - Sonic R - GAME PC SATURN GAMECUBE PS2 AUDIO - Can You Feel the Sunshine question_mark.ass",
          "default": true,
          "version": "Default"
        }
      ]
    }
  ],
  "data": {
    "created_at": "2021-11-02T23:39:56.680Z",
    "kid": "97c187a3-e6af-4359-b972-bcb8fd5af91c",
    "modified_at": "2021-11-02T23:56:56.092Z",
    "repository": "kara.moe",
    "tags": {
      "authors": [
        "9cdf3b70-3550-457c-bdb9-038f3253c6ad"
      ],
      "collections": [
        "c7db86a0-ff64-4044-9be4-66dd1ef1d1c1"
      ],
      "creators": [
        "b8a3778d-0864-4135-9053-1def02d3262e"
      ],
      "groups": [
        "24db50aa-a126-4d34-a48a-e45db79c4245"
      ],
      "langs": [
        "de5eda1c-5fb3-46a6-9606-d4554fc5a1d6"
      ],
      "misc": [
        "86705d4b-24e4-4756-9687-2b9c98bcf366"
      ],
      "platforms": [
        "2173004e-21da-45c9-9dfb-26014423c566",
        "3c15f758-e1bc-4266-8bb9-3c14112f504a",
        "9c2e70a6-ac40-4701-9f3e-268cc52500c8",
        "e6778c89-1d6b-455e-bd53-37a3b12b7140"
      ],
      "series": [
        "3a50e595-fcbc-43ef-8f3b-66709118914f"
      ],
      "singers": [
        "674a18cc-3d3b-4126-a12a-e82436325454"
      ],
      "songtypes": [
        "42a262ae-acba-4ab5-a446-c5789c96c821"
      ],
      "songwriters": [
        "ffa13989-47f2-4b20-b581-aa2cfc7c9d2f"
      ],
      "franchises": [
        "09c42215-106e-4379-b6cf-787fb812aaae"
      ]
    },
    "titles": {
      "eng": "Can You Feel the Sunshine?"
    },
    "title": "Can You Feel the Sunshine?",
    "year": 1997
  }
}