{
  "header": {
    "version": 4,
    "description": "Karaoke Mugen Karaoke Data File"
  },
  "medias": [
    {
      "version": "Default",
      "filename": "ENG - Eiffel 65 - MV - Blue (Da Ba Dee).mp4",
      "audiogain": 5.35,
      "loudnorm": "-21.92,-8.42,5.30,-32.12,-1.00",
      "filesize": 17466718,
      "duration": 228,
      "default": true,
      "lyrics": [
        {
          "filename": "ENG - Eiffel 65 - MV - Blue (Da Ba Dee).ass",
          "default": true,
          "version": "Default",
          "subchecksum": "79a901ce7b595e0412f16cce4f2be8ec"
        }
      ]
    }
  ],
  "data": {
    "created_at": "2020-07-10T22:08:09.015Z",
    "kid": "1c506b9b-f664-43d6-b601-898d87c0ad5f",
    "modified_at": "2021-02-25T14:48:35.598Z",
    "repository": "kara.moe",
    "tags": {
      "authors": [
        "820d381a-254e-4e16-ad10-6a0478a89d72"
      ],
      "collections": [
        "efe171c0-e8a1-4d03-98c0-60ecf741ad52"
      ],
      "creators": [
        "91b1baa9-8d8d-4711-924c-8064fbcfe752"
      ],
      "families": [
        "0377db02-3af6-43b8-9b08-c759df3d25c3",
        "5391f9fe-638c-415f-8dc9-958e3a2c5787"
      ],
      "groups": [
        "24db50aa-a126-4d34-a48a-e45db79c4245"
      ],
      "langs": [
        "de5eda1c-5fb3-46a6-9606-d4554fc5a1d6"
      ],
      "singers": [
        "51ebf44e-26f9-46fa-af09-6b27b6ac65cc"
      ],
      "songtypes": [
        "7be1b15c-cff8-4b37-a649-5c90f3d569a9"
      ],
      "songwriters": [
        "6c7e5729-735c-4f4a-90c1-27d1103cc77b",
        "bd144bf2-5d39-4e33-b789-9a0d1af2f857",
        "fbe71bb7-f33f-461a-b9b0-b814800a6ae0"
      ]
    },
    "title": "Blue (Da Ba Dee)",
    "titles": {
      "eng": "Blue (Da Ba Dee)"
    },
    "year": 1999
  }
}