{
  "header": {
    "version": 4,
    "description": "Karaoke Mugen Karaoke Data File"
  },
  "medias": [
    {
      "version": "Default",
      "filename": "ENG - Vengaboys - MV - Boom, Boom, Boom, Boom!!.mp4",
      "audiogain": -7.87,
      "loudnorm": "-8.02,1.53,2.50,-18.26,-0.56",
      "filesize": 79338938,
      "duration": 203,
      "default": true,
      "lyrics": [
        {
          "filename": "ENG - Vengaboys - MV - Boom, Boom, Boom, Boom!!.ass",
          "default": true,
          "version": "Default"
        }
      ]
    }
  ],
  "data": {
    "created_at": "2022-04-24T13:20:25.293Z",
    "ignoreHooks": false,
    "kid": "475fd7e5-2874-4397-aabf-2051ab0186cd",
    "modified_at": "2022-04-24T13:20:27.164Z",
    "repository": "kara.moe",
    "tags": {
      "authors": [
        "ad7338c3-cd2b-459b-8849-e22df5cdadae"
      ],
      "collections": [
        "efe171c0-e8a1-4d03-98c0-60ecf741ad52"
      ],
      "creators": [
        "f2cabdb3-30eb-4dd2-a526-81344cc99078",
        "23846f4f-a00c-4132-aab6-7156388e9fe8",
        "cca56dad-2503-4a51-bc90-3490b4e979f4"
      ],
      "families": [
        "5391f9fe-638c-415f-8dc9-958e3a2c5787"
      ],
      "langs": [
        "de5eda1c-5fb3-46a6-9606-d4554fc5a1d6"
      ],
      "singers": [
        "62a207d6-d4b4-42b0-b430-a17be3500f9e"
      ],
      "songtypes": [
        "7be1b15c-cff8-4b37-a649-5c90f3d569a9"
      ],
      "songwriters": [
        "f7b9bca6-925f-4c8d-a9ec-8af8d5c28dd5",
        "a7015d78-357a-468c-91d5-5bd23ee48656",
        "9559b81d-e63d-4a45-a357-dffe0ed4678b",
        "4af14e96-9960-4074-9518-c4a6a35b38d5"
      ],
      "groups": [
        "24db50aa-a126-4d34-a48a-e45db79c4245"
      ]
    },
    "titles": {
      "eng": "Boom, Boom, Boom, Boom!!"
    },
    "titles_default_language": "eng",
    "title": "Boom, Boom, Boom, Boom!!",
    "year": 1998
  }
}