{
  "header": {
    "version": 4,
    "description": "Karaoke Mugen Karaoke Data File"
  },
  "medias": [
    {
      "version": "Default",
      "filename": "ENG - Back to the Future - MOVIE MV - The Power of Love.mp4",
      "audiogain": -8.79,
      "loudnorm": "-9.21,2.39,2.80,-19.50,-0.33",
      "filesize": 70945200,
      "duration": 250,
      "default": true,
      "lyrics": [
        {
          "filename": "ENG - Back to the Future - MOVIE MV - The Power of Love.ass",
          "default": true,
          "version": "Default"
        }
      ]
    }
  ],
  "data": {
    "created_at": "2023-02-05T13:54:47.183Z",
    "ignoreHooks": false,
    "kid": "bd3c0e42-999c-40b9-9bcb-e89284dd44dc",
    "modified_at": "2023-02-05T13:54:48.265Z",
    "repository": "kara.moe",
    "tags": {
      "authors": [
        "9bea7e05-2dec-434e-92ff-fcb53f69fdb7",
        "df82c984-d5d6-40bb-b1d7-7dd2a08d4004"
      ],
      "collections": [
        "efe171c0-e8a1-4d03-98c0-60ecf741ad52"
      ],
      "creators": [
        "afb348fc-c802-46ac-a227-aa8066a5635f"
      ],
      "families": [
        "5391f9fe-638c-415f-8dc9-958e3a2c5787"
      ],
      "langs": [
        "de5eda1c-5fb3-46a6-9606-d4554fc5a1d6"
      ],
      "origins": [
        "c8ca9dea-d8b4-48fe-8427-d911653232e9"
      ],
      "series": [
        "bf7db9ae-f8bc-443d-8918-927bb4823379"
      ],
      "singers": [
        "2f1baa03-3bc7-4915-acb2-91a203340b8d"
      ],
      "songtypes": [
        "7be1b15c-cff8-4b37-a649-5c90f3d569a9"
      ],
      "songwriters": [
        "7bd9fa57-af1e-4632-bbf8-e76ca7e755f0",
        "faefa569-fff8-4c5f-b25b-969651e9c393",
        "4a6be9bb-d475-4cba-9b53-e19397817c86"
      ],
      "groups": [
        "7792cc27-9ff9-4d47-9287-2338b7db1575"
      ]
    },
    "titles": {
      "eng": "The Power of Love"
    },
    "titles_default_language": "eng",
    "year": 1985
  }
}