{
  "header": {
    "version": 4,
    "description": "Karaoke Mugen Karaoke Data File"
  },
  "medias": [
    {
      "version": "Default",
      "filename": "ENG - Project SEKAI COLORFUL STAGE! - GAME MV - Miku ~ Short Vers.mp4",
      "audiogain": -9.57,
      "loudnorm": "-7.62,-0.99,5.80,-17.69,-1.26",
      "filesize": 108732164,
      "duration": 152,
      "default": true,
      "lyrics": [
        {
          "filename": "ENG - Project SEKAI COLORFUL STAGE! - GAME MV - Miku ~ Short Vers.ass",
          "default": true,
          "version": "Default"
        }
      ]
    }
  ],
  "data": {
    "created_at": "2023-02-25T09:49:30.472Z",
    "ignoreHooks": false,
    "kid": "ce6b4674-9b19-4f97-8ce1-d08579d7f727",
    "modified_at": "2023-02-25T14:08:48.416Z",
    "parents": [
      "32b62909-0c02-4ecc-8f7a-ea9366aad1af"
    ],
    "repository": "kara.moe",
    "tags": {
      "authors": [
        "fb28c6d3-a81e-40c0-9a4c-e3268c60a64b"
      ],
      "collections": [
        "c7db86a0-ff64-4044-9be4-66dd1ef1d1c1"
      ],
      "creators": [
        "1e5648fb-22fc-474d-b865-254eb31fa000"
      ],
      "genres": [
        "45623cae-6d68-4304-a49b-896d1d6f4580"
      ],
      "groups": [
        "8e209ae4-4381-438f-89dc-1b21752027d2"
      ],
      "langs": [
        "de5eda1c-5fb3-46a6-9606-d4554fc5a1d6"
      ],
      "platforms": [
        "213a1a15-e73a-4a08-b3f6-b6e2745a82e5"
      ],
      "series": [
        "192b33fb-638a-4680-bdb2-a5adb9889849"
      ],
      "singers": [
        "4407ba0e-5de7-4add-870f-7ac95a4804c9"
      ],
      "songtypes": [
        "7be1b15c-cff8-4b37-a649-5c90f3d569a9"
      ],
      "songwriters": [
        "327a091c-aa9e-4b74-a63b-3128fc219d8d"
      ],
      "versions": [
        "d125c80a-86c1-4321-88e9-07b7800679b6"
      ],
      "origins": [
        "dbedd6b3-d125-4cd8-aa32-c4175e4ca3a3"
      ]
    },
    "titles": {
      "eng": "Miku"
    },
    "titles_default_language": "eng",
    "year": 2021
  }
}