{
  "header": {
    "version": 4,
    "description": "Karaoke Mugen Karaoke Data File"
  },
  "medias": [
    {
      "version": "Default",
      "filename": "ENG - Ghostbusters - MOVIE MV - Ghostbusters.mp4",
      "audiogain": -1.33,
      "loudnorm": "-16.78,-0.59,4.30,-26.98,-1.05",
      "filesize": 18375382,
      "duration": 244,
      "default": true,
      "lyrics": [
        {
          "filename": "ENG - Ghostbusters - MOVIE MV - Ghostbusters.ass",
          "default": true,
          "version": "Default"
        }
      ]
    }
  ],
  "data": {
    "created_at": "2021-09-12T13:35:12.547Z",
    "kid": "8f854766-825b-4ae7-bf64-a4d8f44d05aa",
    "modified_at": "2021-09-12T13:41:40.485Z",
    "repository": "kara.moe",
    "tags": {
      "authors": [
        "9bea7e05-2dec-434e-92ff-fcb53f69fdb7"
      ],
      "collections": [
        "efe171c0-e8a1-4d03-98c0-60ecf741ad52"
      ],
      "creators": [
        "e9f734dc-1c41-4087-99a6-badb07a87a3d"
      ],
      "families": [
        "5391f9fe-638c-415f-8dc9-958e3a2c5787"
      ],
      "groups": [
        "7792cc27-9ff9-4d47-9287-2338b7db1575"
      ],
      "langs": [
        "de5eda1c-5fb3-46a6-9606-d4554fc5a1d6"
      ],
      "origins": [
        "c8ca9dea-d8b4-48fe-8427-d911653232e9"
      ],
      "series": [
        "029fcd9d-3769-41c4-8e5a-2f44bf9d5f2d"
      ],
      "singers": [
        "86c0e274-4db3-4eae-b48b-7c985593f25d"
      ],
      "songtypes": [
        "7be1b15c-cff8-4b37-a649-5c90f3d569a9"
      ],
      "songwriters": [
        "86c0e274-4db3-4eae-b48b-7c985593f25d"
      ],
      "franchises": [
        "029fcd9d-3769-41c4-8e5a-2f44bf9d5f2d"
      ]
    },
    "titles": {
      "eng": "Ghostbusters"
    },
    "title": "Ghostbusters",
    "year": 1984
  }
}