{
  "header": {
    "version": 4,
    "description": "Karaoke Mugen Karaoke Data File"
  },
  "medias": [
    {
      "version": "Default",
      "filename": "ENG - Mili - MV - world.execute(me).mp4",
      "audiogain": -11,
      "loudnorm": "-6.40,2.33,6.00,-16.42,-0.84",
      "filesize": 41498579,
      "duration": 212,
      "default": true,
      "lyrics": [
        {
          "filename": "ENG - Mili - MV - world.execute(me).ass",
          "default": true,
          "version": "Default"
        }
      ]
    }
  ],
  "data": {
    "created_at": "2023-03-17T23:08:23.942Z",
    "ignoreHooks": false,
    "kid": "f9a9946c-3f8d-458c-9d96-88f0f49ac8db",
    "modified_at": "2023-03-17T23:08:24.143Z",
    "repository": "kara.moe",
    "tags": {
      "authors": [
        "1631228b-9125-497a-aafc-66f920a44a02"
      ],
      "collections": [
        "c7db86a0-ff64-4044-9be4-66dd1ef1d1c1"
      ],
      "families": [
        "0377db02-3af6-43b8-9b08-c759df3d25c3"
      ],
      "groups": [
        "8c22c899-b3ed-42da-a548-ce00f950798b",
        "ae613721-1fbe-480d-ba6b-d6d0702b184d"
      ],
      "langs": [
        "de5eda1c-5fb3-46a6-9606-d4554fc5a1d6"
      ],
      "singers": [
        "f6cd900b-9a73-446f-b54e-84663b3cfb75"
      ],
      "songtypes": [
        "7be1b15c-cff8-4b37-a649-5c90f3d569a9"
      ],
      "songwriters": [
        "d1026da5-b413-42c7-912a-3d2c068cad34",
        "a1b5be43-a6b7-40a5-88cf-7449a9da5422"
      ]
    },
    "titles": {
      "eng": "world.execute(me);"
    },
    "titles_default_language": "eng",
    "year": 2016
  }
}