{
  "header": {
    "version": 4,
    "description": "Karaoke Mugen Karaoke Data File"
  },
  "medias": [
    {
      "version": "JohnBlue.",
      "filename": "ENG - Boogiepop wa Warawanai (2019) - OP - shadowgraph ~ JohnBlue Vers. ~ Alternative Cover Vers.mp4",
      "audiogain": -0.09,
      "loudnorm": "-17.13,-6.76,4.40,-27.23,-1.03",
      "filesize": 17955556,
      "duration": 91,
      "default": true,
      "lyrics": [
        {
          "filename": "ENG - Boogiepop wa Warawanai (2019) - OP - shadowgraph ~ JohnBlue Vers. ~ Alternative Cover Vers.ass",
          "default": true,
          "version": "Default",
          "subchecksum": "79ed1e200b7c7b0118224569a874d852"
        }
      ]
    }
  ],
  "data": {
    "created_at": "2021-01-13T20:24:22.512Z",
    "kid": "40367d4c-ffb2-45c4-9b4f-d507a1079d86",
    "modified_at": "2021-05-15T16:29:05.778Z",
    "parents": [
      "b47d59b5-e612-4261-9874-cdee0d023db7"
    ],
    "repository": "kara.moe",
    "tags": {
      "authors": [
        "faa8becc-83b6-45d9-a3d0-a4c2c8b336c8"
      ],
      "collections": [
        "c7db86a0-ff64-4044-9be4-66dd1ef1d1c1"
      ],
      "creators": [
        "9c5cf6ba-0bc8-4cfe-a63c-e9be3a14e9fd",
        "af5f7dde-28a9-47a7-aa17-37188ef39b50"
      ],
      "families": [
        "5391f9fe-638c-415f-8dc9-958e3a2c5787"
      ],
      "groups": [
        "8c22c899-b3ed-42da-a548-ce00f950798b",
        "ae613721-1fbe-480d-ba6b-d6d0702b184d"
      ],
      "langs": [
        "4dcf9614-7914-42aa-99f4-dbce2e059133",
        "de5eda1c-5fb3-46a6-9606-d4554fc5a1d6"
      ],
      "origins": [
        "938de218-5343-4865-94d3-fb33f2eaa152"
      ],
      "series": [
        "8cb10254-b414-4b81-92d1-7af54431de31"
      ],
      "singers": [
        "af5f7dde-28a9-47a7-aa17-37188ef39b50"
      ],
      "songtypes": [
        "f02ad9b3-0bd9-4aad-85b3-9976739ba0e4"
      ],
      "songwriters": [
        "80421b19-c148-48d8-af54-ac45aae600c6"
      ],
      "versions": [
        "03e1e1d2-8641-47b7-bbcb-39a3df9ff21c",
        "9f63c359-d1bf-425a-bcf5-b245c2c9211d"
      ],
      "franchises": [
        "e2f65a6d-8ce1-4d02-8ba5-5df13aaef74b"
      ]
    },
    "title": "shadowgraph ~ JohnBlue Vers.",
    "titles": {
      "eng": "shadowgraph ~ JohnBlue Vers."
    },
    "year": 2019,
    "titles_default_language": "eng"
  }
}