{
  "header": {
    "version": 4,
    "description": "Karaoke Mugen Karaoke Data File"
  },
  "medias": [
    {
      "version": "Default",
      "filename": "ENG - Dorohedoro - ED6 - 404.mp4",
      "audiogain": -7.35,
      "loudnorm": "-9.55,0.72,4.80,-19.79,-0.62",
      "filesize": 31579673,
      "duration": 90,
      "default": true,
      "lyrics": [
        {
          "filename": "ENG - Dorohedoro - ED6 - 404.ass",
          "default": true,
          "version": "Default"
        }
      ]
    }
  ],
  "data": {
    "created_at": "2020-05-29T18:43:48.185Z",
    "ignoreHooks": false,
    "kid": "f6253034-1279-4946-9872-cc99f1b9a27d",
    "modified_at": "2022-10-15T19:35:03.911Z",
    "repository": "kara.moe",
    "songorder": 6,
    "tags": {
      "authors": [
        "06852e02-b77e-4106-b6f7-2d03942ad0ea"
      ],
      "collections": [
        "c7db86a0-ff64-4044-9be4-66dd1ef1d1c1"
      ],
      "creators": [
        "0a86e9ea-5e17-4371-8f2a-60c818324d58"
      ],
      "families": [
        "0377db02-3af6-43b8-9b08-c759df3d25c3"
      ],
      "groups": [
        "8e209ae4-4381-438f-89dc-1b21752027d2"
      ],
      "langs": [
        "4dcf9614-7914-42aa-99f4-dbce2e059133",
        "de5eda1c-5fb3-46a6-9606-d4554fc5a1d6"
      ],
      "misc": [
        "fe819ff1-9db8-4a0f-85dc-0e322c9126c4"
      ],
      "origins": [
        "938de218-5343-4865-94d3-fb33f2eaa152"
      ],
      "series": [
        "8c46d4fc-027f-404d-89f0-6d90365e1b45"
      ],
      "singers": [
        "02268bf0-9541-48a7-9fa2-66edf5a96091"
      ],
      "songtypes": [
        "38c77c56-2b95-4040-b676-0994a8cb0597"
      ],
      "songwriters": [
        "becf46b1-2c2a-48ca-bbb2-a63e084aa820",
        "f3829b25-1d19-4a77-be88-70d9a3f1d5a3",
        "8e441486-caa4-4627-9232-ddc4ee01d518"
      ]
    },
    "titles": {
      "eng": "404"
    },
    "titles_default_language": "eng",
    "title": "404",
    "year": 2020
  }
}