{
  "header": {
    "version": 4,
    "description": "Karaoke Mugen Karaoke Data File"
  },
  "medias": [
    {
      "version": "Default",
      "filename": "ENG - Cascada - MV - Last Christmas ~ Cover Vers.mp4",
      "audiogain": -3.76,
      "loudnorm": "-13.49,-2.44,7.60,-23.70,-0.65",
      "filesize": 15556409,
      "duration": 232,
      "default": true,
      "lyrics": [
        {
          "filename": "ENG - Cascada - MV - Last Christmas ~ Cover Vers.ass",
          "default": true,
          "version": "Default"
        }
      ]
    }
  ],
  "data": {
    "created_at": "2022-04-25T19:00:43.009Z",
    "ignoreHooks": false,
    "kid": "e068236b-f04b-4ab7-9042-a9be60d5de0e",
    "modified_at": "2023-01-01T17:51:02.787Z",
    "parents": [
      "6ab7397f-8751-4f5e-9bba-ef97d8d20fa0"
    ],
    "repository": "kara.moe",
    "tags": {
      "authors": [
        "3604bf97-ef54-4ca2-9dca-82b8dcbb7225"
      ],
      "collections": [
        "efe171c0-e8a1-4d03-98c0-60ecf741ad52"
      ],
      "creators": [
        "a3c96955-47c7-4105-bb9b-74e0fdf9b0e6",
        "c6bea900-1938-415d-90d8-86eb97402ee4"
      ],
      "families": [
        "5391f9fe-638c-415f-8dc9-958e3a2c5787"
      ],
      "groups": [
        "3c14c864-533c-49e6-a3cc-6969f1233775"
      ],
      "langs": [
        "de5eda1c-5fb3-46a6-9606-d4554fc5a1d6"
      ],
      "singers": [
        "eac4b7fe-9a46-464a-bebb-34ae73729eb4"
      ],
      "songtypes": [
        "7be1b15c-cff8-4b37-a649-5c90f3d569a9"
      ],
      "songwriters": [
        "45df453a-c794-493a-9940-26e61d1badff"
      ],
      "versions": [
        "03e1e1d2-8641-47b7-bbcb-39a3df9ff21c"
      ]
    },
    "titles": {
      "eng": "Last Christmas"
    },
    "titles_default_language": "eng",
    "year": 2007
  }
}