{
  "header": {
    "version": 4,
    "description": "Karaoke Mugen Karaoke Data File"
  },
  "medias": [
    {
      "version": "Default",
      "filename": "ENG - Shokei Shoujo no Virgin Road - OP - Paper Bouquet.mp4",
      "audiogain": 1.25,
      "loudnorm": "-18.65,-6.34,8.00,-28.90,-1.15",
      "filesize": 29460832,
      "duration": 89,
      "default": true,
      "lyrics": [
        {
          "filename": "ENG - Shokei Shoujo no Virgin Road - OP - Paper Bouquet.ass",
          "default": true,
          "version": "Default"
        }
      ]
    }
  ],
  "data": {
    "created_at": "2022-04-01T20:11:10.390Z",
    "ignoreHooks": false,
    "kid": "ec5ac594-3e77-4e25-a2b5-179422a51c83",
    "modified_at": "2022-04-15T20:41:32.100Z",
    "repository": "kara.moe",
    "tags": {
      "authors": [
        "da677ad5-b5dd-4ab9-a1fe-5461e36338a2"
      ],
      "collections": [
        "c7db86a0-ff64-4044-9be4-66dd1ef1d1c1"
      ],
      "creators": [
        "802a8ac8-b16f-40a4-944b-99956798c906"
      ],
      "families": [
        "0377db02-3af6-43b8-9b08-c759df3d25c3"
      ],
      "genres": [
        "4b80eca6-f44f-4262-a8d0-b6879d6b70cb",
        "c994fbce-5c5a-441c-88b4-9a6805f7ee85"
      ],
      "groups": [
        "8e209ae4-4381-438f-89dc-1b21752027d2"
      ],
      "langs": [
        "de5eda1c-5fb3-46a6-9606-d4554fc5a1d6"
      ],
      "origins": [
        "938de218-5343-4865-94d3-fb33f2eaa152"
      ],
      "series": [
        "a2e5ab0e-71a1-4837-a883-5ba5f8b1e79f"
      ],
      "singers": [
        "f6cd900b-9a73-446f-b54e-84663b3cfb75"
      ],
      "songtypes": [
        "f02ad9b3-0bd9-4aad-85b3-9976739ba0e4"
      ],
      "songwriters": [
        "a1b5be43-a6b7-40a5-88cf-7449a9da5422",
        "d1026da5-b413-42c7-912a-3d2c068cad34"
      ]
    },
    "titles": {
      "eng": "Paper Bouquet"
    },
    "titles_default_language": "eng",
    "title": "Paper Bouquet",
    "year": 2022
  }
}