{
  "header": {
    "version": 4,
    "description": "Karaoke Mugen Karaoke Data File"
  },
  "medias": [
    {
      "version": "Default",
      "filename": "ENG - Tokio Hotel - MV - Monsoon.mp4",
      "audiogain": 0.7,
      "loudnorm": "-18.90,-7.95,6.60,-28.92,-1.04",
      "filesize": 34050566,
      "duration": 245,
      "default": true,
      "lyrics": [
        {
          "filename": "ENG - Tokio Hotel - MV - Monsoon.ass",
          "default": true,
          "version": "Default",
          "subchecksum": "e0800952672e136efea8bb0aec509642"
        }
      ]
    }
  ],
  "data": {
    "created_at": "2021-07-18T17:54:29.339Z",
    "kid": "534c08c0-abf5-44b9-ad7d-2908e3534fe7",
    "modified_at": "2021-07-18T18:07:04.296Z",
    "repository": "kara.moe",
    "tags": {
      "authors": [
        "3d250b8d-f341-48f6-a51d-386e74242056"
      ],
      "collections": [
        "efe171c0-e8a1-4d03-98c0-60ecf741ad52"
      ],
      "creators": [
        "f963181a-1214-47f8-b6f9-1705cbc33779"
      ],
      "families": [
        "5391f9fe-638c-415f-8dc9-958e3a2c5787"
      ],
      "groups": [
        "3c14c864-533c-49e6-a3cc-6969f1233775"
      ],
      "langs": [
        "de5eda1c-5fb3-46a6-9606-d4554fc5a1d6"
      ],
      "singers": [
        "c1957878-3453-47ca-9e7e-9264870e33df"
      ],
      "songtypes": [
        "7be1b15c-cff8-4b37-a649-5c90f3d569a9"
      ],
      "songwriters": [
        "0f6f01ba-7991-4318-9640-a56d941bec3e",
        "1583bcb0-1af1-4a91-8d01-8ea0de0f46b5",
        "6012ee1f-89e0-4ecb-aa6f-af3a2711d6b8",
        "6b16a8e5-33eb-42c9-949f-c5cbba52ace6",
        "8319b2e8-c10b-4c18-ba83-a15e68cf0bfe"
      ]
    },
    "title": "Monsoon",
    "titles": {
      "eng": "Monsoon"
    },
    "year": 2007
  }
}