{
  "header": {
    "version": 4,
    "description": "Karaoke Mugen Karaoke Data File"
  },
  "medias": [
    {
      "version": "Default",
      "filename": "ENG - Michael Jackson - MV - Earth Song.mp4",
      "audiogain": -9.07,
      "loudnorm": "-9.45,1.49,21.20,-21.10,-2.36",
      "filesize": 28111912,
      "duration": 404,
      "default": true,
      "lyrics": [
        {
          "filename": "ENG - Michael Jackson - MV - Earth Song.ass",
          "default": true,
          "version": "Default"
        }
      ]
    }
  ],
  "data": {
    "created_at": "2022-06-08T20:13:15.877Z",
    "ignoreHooks": false,
    "kid": "0ed03f2f-58d3-4b10-8e4b-9ce4bfd27224",
    "modified_at": "2022-10-15T19:21:45.142Z",
    "repository": "kara.moe",
    "tags": {
      "authors": [
        "df82c984-d5d6-40bb-b1d7-7dd2a08d4004"
      ],
      "collections": [
        "efe171c0-e8a1-4d03-98c0-60ecf741ad52"
      ],
      "creators": [
        "1cd2f13e-05cb-49b5-b42f-96260f7a162b"
      ],
      "families": [
        "5391f9fe-638c-415f-8dc9-958e3a2c5787"
      ],
      "groups": [
        "24db50aa-a126-4d34-a48a-e45db79c4245"
      ],
      "langs": [
        "de5eda1c-5fb3-46a6-9606-d4554fc5a1d6"
      ],
      "misc": [
        "86705d4b-24e4-4756-9687-2b9c98bcf366"
      ],
      "singers": [
        "d549402e-4aa6-4fde-806d-f24be1f40a3f"
      ],
      "songtypes": [
        "7be1b15c-cff8-4b37-a649-5c90f3d569a9"
      ],
      "songwriters": [
        "d549402e-4aa6-4fde-806d-f24be1f40a3f"
      ]
    },
    "titles": {
      "eng": "Earth Song"
    },
    "titles_default_language": "eng",
    "title": "Earth Song",
    "year": 1995
  }
}