{
  "header": {
    "version": 4,
    "description": "Karaoke Mugen Karaoke Data File"
  },
  "medias": [
    {
      "version": "Default",
      "filename": "ENG - Xenogears - GAME PSX AMV - Small Two of Pieces.mp4",
      "audiogain": -4.89,
      "loudnorm": "-13.48,0.01,6.60,-23.62,-1.15",
      "filesize": 17926977,
      "duration": 380,
      "default": true,
      "lyrics": [
        {
          "filename": "ENG - Xenogears - GAME PSX AMV - Small Two of Pieces.ass",
          "default": true,
          "version": "Default"
        }
      ]
    }
  ],
  "data": {
    "created_at": "2017-10-11T17:03:16.000Z",
    "kid": "c3fa460a-2121-46bc-8bf3-e1887136f5ca",
    "modified_at": "2022-07-20T11:40:35.943Z",
    "repository": "kara.moe",
    "tags": {
      "authors": [
        "5e93f02a-bcd1-40a9-ba7a-91ada6683aea"
      ],
      "creators": [
        "d253acf3-8bf8-46f2-ac15-76bb0cef2145"
      ],
      "groups": [
        "24db50aa-a126-4d34-a48a-e45db79c4245"
      ],
      "langs": [
        "de5eda1c-5fb3-46a6-9606-d4554fc5a1d6"
      ],
      "misc": [
        "86705d4b-24e4-4756-9687-2b9c98bcf366"
      ],
      "platforms": [
        "f84b68ac-943a-495a-9c6e-d90ec959b19e"
      ],
      "series": [
        "fee085ce-9e7b-4e80-bcf3-53b518c00e7d"
      ],
      "singers": [
        "f10a209d-1fc8-4e87-97c9-0e4981746e36"
      ],
      "songtypes": [
        "a6c79ce5-89ee-4d50-afe8-3abd7317f6c2"
      ],
      "songwriters": [
        "5dc7f428-5414-4629-b57e-42406c80b4ad"
      ],
      "collections": [
        "c7db86a0-ff64-4044-9be4-66dd1ef1d1c1"
      ],
      "warnings": [
        "24371984-5e4c-4485-a937-fb0c480ca23b"
      ],
      "origins": [
        "dbedd6b3-d125-4cd8-aa32-c4175e4ca3a3"
      ]
    },
    "titles": {
      "eng": "Small Two of Pieces"
    },
    "titles_default_language": "eng",
    "title": "Small Two of Pieces",
    "year": 1998
  }
}