{
  "header": {
    "version": 4,
    "description": "Karaoke Mugen Karaoke Data File"
  },
  "medias": [
    {
      "version": "Default",
      "filename": "ENG - Tai Phong - MV - Sister Jane.mp4",
      "audiogain": -0.16,
      "loudnorm": "-16.23,-5.26,1.30,-26.23,-0.00",
      "filesize": 44368024,
      "duration": 227,
      "default": true,
      "lyrics": [
        {
          "filename": "ENG - Tai Phong - MV - Sister Jane.ass",
          "default": true,
          "version": "Default"
        }
      ]
    }
  ],
  "data": {
    "created_at": "2022-04-22T16:50:26.968Z",
    "ignoreHooks": false,
    "kid": "cf5660f4-abd3-4336-923d-0eef94643f73",
    "modified_at": "2022-04-22T17:03:54.012Z",
    "repository": "kara.moe",
    "tags": {
      "authors": [
        "90414ca0-ab36-4879-8810-b032c6bfdab0"
      ],
      "collections": [
        "efe171c0-e8a1-4d03-98c0-60ecf741ad52"
      ],
      "creators": [
        "45ff46f8-862b-4f84-8479-505cc223d430"
      ],
      "families": [
        "5391f9fe-638c-415f-8dc9-958e3a2c5787"
      ],
      "groups": [
        "57e5e0c0-e02e-4871-a6cb-d48ea604ebab"
      ],
      "langs": [
        "de5eda1c-5fb3-46a6-9606-d4554fc5a1d6"
      ],
      "singers": [
        "c1c16956-79e2-4c17-bf42-b85a2151cd76"
      ],
      "songtypes": [
        "7be1b15c-cff8-4b37-a649-5c90f3d569a9"
      ],
      "songwriters": [
        "bff2c013-c962-41d3-acb0-475dc4f09102"
      ]
    },
    "titles": {
      "eng": "Sister Jane"
    },
    "titles_default_language": "eng",
    "title": "Sister Jane",
    "year": 1975
  }
}