{
  "header": {
    "version": 4,
    "description": "Karaoke Mugen Karaoke Data File"
  },
  "medias": [
    {
      "version": "Default",
      "filename": "ENG - AC DC - LIVE - Dirty Deeds Done Dirt Cheap ~ Full Vers.mp4",
      "audiogain": -7.04,
      "loudnorm": "-10.33,0.14,3.50,-20.36,-0.69",
      "filesize": 50950284,
      "duration": 283,
      "default": true,
      "lyrics": [
        {
          "filename": "ENG - AC DC - LIVE - Dirty Deeds Done Dirt Cheap ~ Full Vers.ass",
          "default": true,
          "version": "Default"
        }
      ]
    }
  ],
  "data": {
    "created_at": "2022-07-31T19:36:11.010Z",
    "ignoreHooks": false,
    "kid": "10c6bfd7-e2d1-4910-b12b-02aec74be2af",
    "modified_at": "2022-12-21T22:36:30.122Z",
    "repository": "kara.moe",
    "tags": {
      "authors": [
        "9bea7e05-2dec-434e-92ff-fcb53f69fdb7"
      ],
      "collections": [
        "efe171c0-e8a1-4d03-98c0-60ecf741ad52"
      ],
      "creators": [
        "604d14e8-4585-4b94-a50e-6922f58cdb65"
      ],
      "families": [
        "5391f9fe-638c-415f-8dc9-958e3a2c5787"
      ],
      "groups": [
        "57e5e0c0-e02e-4871-a6cb-d48ea604ebab"
      ],
      "langs": [
        "de5eda1c-5fb3-46a6-9606-d4554fc5a1d6"
      ],
      "singers": [
        "e99a65f7-5e04-4f1a-b893-18bc421752c3"
      ],
      "songtypes": [
        "a0167949-580c-4de3-bf13-497e462e02f3"
      ],
      "songwriters": [
        "0f3b2a6d-3171-4467-a6c4-8d707858685c",
        "df4c7181-83af-4032-b398-0c8c82809a08",
        "ed15bd24-b7ea-4334-9203-1c3acbab8f0f"
      ],
      "versions": [
        "c2143a7f-6970-450e-8a79-0302db9220a9"
      ]
    },
    "titles": {
      "eng": "Dirty Deeds Done Dirt Cheap"
    },
    "titles_default_language": "eng",
    "year": 1976
  }
}