{
  "header": {
    "version": 4,
    "description": "Karaoke Mugen Karaoke Data File"
  },
  "medias": [
    {
      "version": "Default",
      "filename": "ENG - Steven Wilson - AUDIO - Drown With Me.mp3",
      "audiogain": -3.21,
      "loudnorm": "-14.24,0.50,9.70,-24.44,-1.71",
      "filesize": 5432607,
      "duration": 321,
      "default": true,
      "lyrics": [
        {
          "filename": "ENG - Steven Wilson - AUDIO - Drown With Me.ass",
          "default": true,
          "version": "Default"
        }
      ]
    }
  ],
  "data": {
    "created_at": "2022-06-08T21:25:37.932Z",
    "ignoreHooks": false,
    "kid": "8082d04f-07b1-4144-b768-5bfa5de10d32",
    "modified_at": "2022-06-08T21:25:38.271Z",
    "repository": "kara.moe",
    "tags": {
      "authors": [
        "d2e0d16d-987b-4b2e-8b34-803290078d02"
      ],
      "collections": [
        "efe171c0-e8a1-4d03-98c0-60ecf741ad52"
      ],
      "creators": [
        "5214684a-b59b-406c-aafb-003ebf6a20b2"
      ],
      "groups": [
        "3c14c864-533c-49e6-a3cc-6969f1233775"
      ],
      "langs": [
        "de5eda1c-5fb3-46a6-9606-d4554fc5a1d6"
      ],
      "misc": [
        "1d6ceadf-a885-47e5-b23b-c07bf668a424",
        "86705d4b-24e4-4756-9687-2b9c98bcf366",
        "ec4fee75-71fb-45b4-9772-2ca374b4b600"
      ],
      "singers": [
        "3d4ab532-4b49-41f9-a167-f0a6787b04c8"
      ],
      "songtypes": [
        "42a262ae-acba-4ab5-a446-c5789c96c821"
      ],
      "songwriters": [
        "3d4ab532-4b49-41f9-a167-f0a6787b04c8"
      ]
    },
    "titles": {
      "eng": "Drown With Me"
    },
    "titles_default_language": "eng",
    "title": "Drown With Me",
    "year": 2002
  }
}