{
  "header": {
    "version": 4,
    "description": "Karaoke Mugen Karaoke Data File"
  },
  "medias": [
    {
      "version": "Default",
      "filename": "ENG - Bonnie Tyler - MV - Holding Out for a Hero.mp4",
      "audiogain": -4.09,
      "loudnorm": "-13.67,-0.63,5.00,-23.84,-0.86",
      "filesize": 61253518,
      "duration": 284,
      "default": true,
      "lyrics": [
        {
          "filename": "ENG - Bonnie Tyler - MV - Holding Out for a Hero.ass",
          "default": true,
          "version": "Default",
          "subchecksum": "d643f67c21ffeae870e19fc8ff28b4c9"
        }
      ]
    }
  ],
  "data": {
    "comment": "Fait partie de la BO de Footloose",
    "created_at": "2021-07-24T09:39:44.364Z",
    "kid": "602a069e-b8c9-4ed9-8d50-b13d2c884f4f",
    "modified_at": "2021-07-24T09:48:56.908Z",
    "repository": "kara.moe",
    "tags": {
      "authors": [
        "71fa8328-ef48-4a8c-a965-7db0f182d05d"
      ],
      "collections": [
        "efe171c0-e8a1-4d03-98c0-60ecf741ad52"
      ],
      "creators": [
        "28a02f79-daaf-4037-8897-3458e80a5b41",
        "6636a1e5-8d00-4735-aedb-704fdf52242b",
        "9f10c180-4ed1-4a4e-9e39-c37e09b91d5f"
      ],
      "families": [
        "5391f9fe-638c-415f-8dc9-958e3a2c5787"
      ],
      "groups": [
        "7792cc27-9ff9-4d47-9287-2338b7db1575"
      ],
      "langs": [
        "de5eda1c-5fb3-46a6-9606-d4554fc5a1d6"
      ],
      "singers": [
        "1d6391ec-3375-4d7f-b4d0-1eeaf42f5b58"
      ],
      "songtypes": [
        "7be1b15c-cff8-4b37-a649-5c90f3d569a9"
      ],
      "songwriters": [
        "99d699a4-b943-4bfd-b48e-501e8f2dc7c6",
        "fd5cd00e-a3a5-4ef0-b20f-b90baaa4aafc"
      ]
    },
    "title": "Holding Out for a Hero",
    "titles": {
      "eng": "Holding Out for a Hero"
    },
    "year": 1984
  }
}