{
  "header": {
    "description": "Karaoke Mugen Karaoke Data File",
    "version": 4
  },
  "medias": [
    {
      "version": "Default",
      "filename": "ENG - Grease - MOVIE IN - You're the One That I Want.mp4",
      "audiogain": 6.65,
      "loudnorm": "-25.09,-9.83,3.70,-35.09,-0.78",
      "filesize": 109474287,
      "duration": 203,
      "default": true,
      "lyrics": [
        {
          "filename": "ENG - Grease - MOVIE IN - You're the One That I Want.ass",
          "default": true,
          "version": "Default"
        }
      ]
    }
  ],
  "data": {
    "created_at": "2022-08-09T11:56:46.074Z",
    "kid": "f3cffde2-0a25-4e5c-bba4-498740b4631a",
    "modified_at": "2022-08-09T11:56:46.074Z",
    "tags": {
      "authors": [
        "90414ca0-ab36-4879-8810-b032c6bfdab0",
        "df82c984-d5d6-40bb-b1d7-7dd2a08d4004"
      ],
      "creators": [
        "f8771e18-3a29-4d7b-ad18-39ff19fbc3f8"
      ],
      "families": [
        "5391f9fe-638c-415f-8dc9-958e3a2c5787"
      ],
      "groups": [
        "57e5e0c0-e02e-4871-a6cb-d48ea604ebab"
      ],
      "langs": [
        "de5eda1c-5fb3-46a6-9606-d4554fc5a1d6"
      ],
      "origins": [
        "c8ca9dea-d8b4-48fe-8427-d911653232e9"
      ],
      "series": [
        "7e5d9abf-9cb7-4d4e-9d84-ce4fdcd49871"
      ],
      "singers": [
        "ddb77adc-51c8-440f-bb69-dac19f1399e9",
        "4eb81f50-3047-4a96-b6cb-fb30da32f5ce"
      ],
      "songtypes": [
        "5e5250d9-351a-4a82-98eb-55db50ad8962"
      ],
      "songwriters": [
        "d60fffe3-c7b5-4d55-a808-613313cb0c1c"
      ],
      "collections": [
        "efe171c0-e8a1-4d03-98c0-60ecf741ad52"
      ]
    },
    "titles": {
      "eng": "You're the One That I Want"
    },
    "titles_default_language": "eng",
    "titles_aliases": [],
    "title": "You're the One That I Want",
    "year": "1978",
    "repository": "kara.moe"
  }
}