{
  "header": {
    "version": 4,
    "description": "Karaoke Mugen Karaoke Data File"
  },
  "medias": [
    {
      "version": "Default",
      "filename": "ENG - Persona 3 - PS2 GAME OP - Burn my dread.mp4",
      "audiogain": -5.37,
      "loudnorm": "-13.18,0.14,7.70,-23.52,-1.63",
      "filesize": 26967772,
      "duration": 95,
      "default": true,
      "lyrics": [
        {
          "filename": "ENG - Persona 3 - PS2 GAME OP - Burn my dread.ass",
          "default": true,
          "version": "Default",
          "subchecksum": "b89502f73ad9a380973e77e945e206d5"
        }
      ]
    }
  ],
  "data": {
    "created_at": "2017-10-11T17:03:16.000Z",
    "kid": "b1e271e8-34e8-4034-b4c7-023ffb326849",
    "modified_at": "2021-02-25T10:14:25.907Z",
    "repository": "kara.moe",
    "tags": {
      "authors": [
        "5bdaba57-27f8-4568-8806-76a807728766"
      ],
      "collections": [
        "c7db86a0-ff64-4044-9be4-66dd1ef1d1c1"
      ],
      "creators": [
        "e9bb3a58-48d2-478c-bfe7-95237ddfe0fd"
      ],
      "groups": [
        "3c14c864-533c-49e6-a3cc-6969f1233775"
      ],
      "langs": [
        "de5eda1c-5fb3-46a6-9606-d4554fc5a1d6"
      ],
      "misc": [
        "fe819ff1-9db8-4a0f-85dc-0e322c9126c4"
      ],
      "platforms": [
        "2173004e-21da-45c9-9dfb-26014423c566"
      ],
      "series": [
        "28be1a50-06a3-4bcf-ac4f-ca750af7ff17"
      ],
      "singers": [
        "c5ce42f3-d4e1-417d-aded-e2ad4b2eab5f"
      ],
      "songtypes": [
        "f02ad9b3-0bd9-4aad-85b3-9976739ba0e4"
      ],
      "songwriters": [
        "ec3a6acb-6751-49d9-84c7-b6b01ec163f4",
        "fa767fcb-2c77-4cfa-8cb2-62de628af625",
        "fe336c2c-58be-4751-acf4-842e8f6f3bb0"
      ],
      "franchises": [
        "d8030743-4563-41b9-a3e3-30a0b2fb2edb"
      ],
      "origins": [
        "dbedd6b3-d125-4cd8-aa32-c4175e4ca3a3"
      ]
    },
    "title": "Burn my dread",
    "titles": {
      "eng": "Burn my dread"
    },
    "year": 2006
  }
}