{
  "header": {
    "version": 4,
    "description": "Karaoke Mugen Karaoke Data File"
  },
  "medias": [
    {
      "version": "Default",
      "filename": "ENG - Touhou - MV - Draw the line.mp4",
      "audiogain": -8.94,
      "loudnorm": "-8.46,1.43,3.00,-18.69,-0.71",
      "filesize": 15711068,
      "duration": 113,
      "default": true,
      "lyrics": [
        {
          "filename": "ENG - Touhou - MV - Draw the line.ass",
          "default": true,
          "version": "Default"
        }
      ]
    }
  ],
  "data": {
    "created_at": "2022-10-01T22:09:46.853Z",
    "ignoreHooks": false,
    "kid": "c2fb887d-bed6-412d-898a-a09c99769e2e",
    "modified_at": "2022-10-01T23:21:29.003Z",
    "repository": "kara.moe",
    "tags": {
      "authors": [
        "1fbfef73-6731-40df-ba51-65a54b9d1605"
      ],
      "collections": [
        "c7db86a0-ff64-4044-9be4-66dd1ef1d1c1"
      ],
      "creators": [
        "ca654b25-30b5-4054-a2c0-35028fdcae22"
      ],
      "families": [
        "0377db02-3af6-43b8-9b08-c759df3d25c3"
      ],
      "groups": [
        "3c14c864-533c-49e6-a3cc-6969f1233775"
      ],
      "langs": [
        "de5eda1c-5fb3-46a6-9606-d4554fc5a1d6"
      ],
      "origins": [
        "ac5085db-52d8-44b4-8fbb-1697b24d2046"
      ],
      "series": [
        "1bdaa5a1-dfa6-4365-b746-7a0b194dafd6"
      ],
      "singers": [
        "7339f837-69b2-4b50-b2e6-a77c5061c563"
      ],
      "songtypes": [
        "7be1b15c-cff8-4b37-a649-5c90f3d569a9"
      ],
      "songwriters": [
        "26cb5252-8510-49e0-897c-a611a05fc056",
        "7339f837-69b2-4b50-b2e6-a77c5061c563"
      ],
      "franchises": [
        "1bdaa5a1-dfa6-4365-b746-7a0b194dafd6"
      ]
    },
    "titles": {
      "eng": "Draw the line"
    },
    "titles_default_language": "eng",
    "title": "Draw the line",
    "year": 2009
  }
}