{
  "header": {
    "version": 4,
    "description": "Karaoke Mugen Karaoke Data File"
  },
  "medias": [
    {
      "version": "Short.",
      "filename": "ENG - Initial D Second Stage - IN - Deja Vu ~ Short Vers.mp4",
      "audiogain": -8.23,
      "loudnorm": "-9.31,0.90,5.90,-19.41,-1.43",
      "filesize": 10115520,
      "duration": 109,
      "default": true,
      "lyrics": [
        {
          "filename": "ENG - Initial D Second Stage - IN - Deja Vu ~ Short Vers.ass",
          "default": true,
          "version": "Default",
          "subchecksum": "d1a9a4150adacc1f741a6689f28af3e4"
        }
      ]
    }
  ],
  "data": {
    "created_at": "2018-06-18T19:40:28.000Z",
    "kid": "2e3fe10e-b146-4306-9aa0-4ddfbeb49080",
    "modified_at": "2021-05-23T22:38:24.348Z",
    "repository": "kara.moe",
    "tags": {
      "authors": [
        "8c22c899-b3ed-42da-a548-ce00f950798b"
      ],
      "collections": [
        "c7db86a0-ff64-4044-9be4-66dd1ef1d1c1"
      ],
      "creators": [
        "046049ee-e6ae-4b86-b9d3-df5620db7586"
      ],
      "families": [
        "0377db02-3af6-43b8-9b08-c759df3d25c3"
      ],
      "groups": [
        "24db50aa-a126-4d34-a48a-e45db79c4245",
        "56f41a2e-80fb-4bbe-9df0-420ee4c8997a",
        "8c22c899-b3ed-42da-a548-ce00f950798b",
        "f5e7d2fc-0cbb-4fb9-a84a-b25dfb0e9e77"
      ],
      "langs": [
        "de5eda1c-5fb3-46a6-9606-d4554fc5a1d6"
      ],
      "origins": [
        "938de218-5343-4865-94d3-fb33f2eaa152"
      ],
      "series": [
        "456fc5e7-a22d-4b79-b02c-a8c611f46542"
      ],
      "singers": [
        "9c395902-ada3-4c58-be8b-1ada15d4ea68"
      ],
      "songtypes": [
        "5e5250d9-351a-4a82-98eb-55db50ad8962"
      ],
      "songwriters": [
        "24d03257-1b10-4ccf-b5ce-35f6caac5e36",
        "43e57458-ff14-48ec-9794-3fe59d0eee38",
        "6909ff7c-277d-4823-a218-8e934088b458"
      ],
      "versions": [
        "d125c80a-86c1-4321-88e9-07b7800679b6"
      ],
      "franchises": [
        "f433bddc-18e0-4497-b303-93108d9fe69b"
      ]
    },
    "title": "Deja Vu",
    "titles": {
      "eng": "Deja Vu"
    },
    "year": 1999
  }
}