{
  "header": {
    "version": 4,
    "description": "Karaoke Mugen Karaoke Data File"
  },
  "medias": [
    {
      "version": "Default",
      "filename": "ENG - Five Nights at Freddy's 2 - MV - It's Been So Long.mp4",
      "audiogain": -8.07,
      "loudnorm": "-9.40,0.38,7.10,-19.62,-0.96",
      "filesize": 73749819,
      "duration": 180,
      "default": true,
      "lyrics": [
        {
          "filename": "ENG - Five Nights at Freddy's 2 - MV - It's Been So Long.ass",
          "default": true,
          "version": "Default"
        }
      ]
    }
  ],
  "data": {
    "comment": "Addresses Suggestion: https://gitlab.com/karaokemugen/bases/karaokebase/-/issues/4489",
    "created_at": "2022-07-10T03:48:47.956Z",
    "ignoreHooks": false,
    "kid": "993382fd-7a38-42b7-b8bd-71fbef11ed60",
    "modified_at": "2022-07-10T18:59:11.559Z",
    "repository": "kara.moe",
    "tags": {
      "authors": [
        "444f6842-1a6b-4ade-b8fa-e48490ebc39d"
      ],
      "collections": [
        "c7db86a0-ff64-4044-9be4-66dd1ef1d1c1"
      ],
      "creators": [
        "e6d67247-b98c-4a1d-b622-110ed7f00150"
      ],
      "families": [
        "0377db02-3af6-43b8-9b08-c759df3d25c3"
      ],
      "groups": [
        "ae613721-1fbe-480d-ba6b-d6d0702b184d"
      ],
      "langs": [
        "de5eda1c-5fb3-46a6-9606-d4554fc5a1d6"
      ],
      "origins": [
        "ac5085db-52d8-44b4-8fbb-1697b24d2046"
      ],
      "series": [
        "1a693d87-800a-4ae7-85ab-7b6366049a6b"
      ],
      "singers": [
        "8c374e00-636d-4a0c-809e-4733febdba11"
      ],
      "songtypes": [
        "7be1b15c-cff8-4b37-a649-5c90f3d569a9"
      ],
      "songwriters": [
        "34d796b3-7dee-4f05-905a-e67ef73f67b3",
        "5185e2fa-c48c-42d2-87dc-368b362c36de",
        "8c374e00-636d-4a0c-809e-4733febdba11"
      ],
      "warnings": [
        "51288600-29e0-4e41-a42b-77f0498e5691"
      ]
    },
    "titles": {
      "eng": "It's Been So Long"
    },
    "titles_default_language": "eng",
    "title": "It's Been So Long",
    "year": 2014
  }
}