{
  "header": {
    "version": 4,
    "description": "Karaoke Mugen Karaoke Data File"
  },
  "medias": [
    {
      "version": "Default",
      "filename": "ENG - Adam Gontier, Apocalyptica - MV - I Don't Care.mp4",
      "audiogain": -9.97,
      "loudnorm": "-7.61,1.03,12.30,-18.19,-1.97",
      "filesize": 62249553,
      "duration": 219,
      "default": true,
      "lyrics": [
        {
          "filename": "ENG - Adam Gontier, Apocalyptica - MV - I Don't Care.ass",
          "default": true,
          "version": "Default"
        }
      ]
    }
  ],
  "data": {
    "created_at": "2022-04-17T16:23:13.847Z",
    "ignoreHooks": false,
    "kid": "c00e2bcc-4294-40ff-bca2-ebf1a81db50c",
    "modified_at": "2022-04-17T16:23:46.224Z",
    "repository": "kara.moe",
    "tags": {
      "authors": [
        "643ec800-2e2f-43b6-986a-b9b84b78c6b9"
      ],
      "collections": [
        "efe171c0-e8a1-4d03-98c0-60ecf741ad52"
      ],
      "creators": [
        "cca56dad-2503-4a51-bc90-3490b4e979f4"
      ],
      "families": [
        "5391f9fe-638c-415f-8dc9-958e3a2c5787"
      ],
      "groups": [
        "3c14c864-533c-49e6-a3cc-6969f1233775"
      ],
      "langs": [
        "de5eda1c-5fb3-46a6-9606-d4554fc5a1d6"
      ],
      "singers": [
        "3ae080ca-7a37-4a9d-8029-f7914d21d8a5",
        "44e291a6-8a89-4968-b32d-1ad16f93eaeb"
      ],
      "songtypes": [
        "7be1b15c-cff8-4b37-a649-5c90f3d569a9"
      ],
      "songwriters": [
        "34f37834-cec2-4d5c-9d72-d5ed8c1edc4d",
        "44e291a6-8a89-4968-b32d-1ad16f93eaeb",
        "f7c426d5-97fc-4322-bbcf-3942a992950b"
      ]
    },
    "titles": {
      "eng": "I Don't Care"
    },
    "titles_default_language": "eng",
    "title": "I Don't Care",
    "year": 2008
  }
}