{
  "header": {
    "description": "Karaoke Mugen Karaoke Data File",
    "version": 4
  },
  "medias": [
    {
      "version": "Default",
      "filename": "FRE - Les Dix Commandements - MV - L'Envie d'aimer.mp4",
      "audiogain": 4.25,
      "loudnorm": "-22.23,-8.87,11.00,-32.57,-2.19",
      "filesize": 78723898,
      "duration": 310,
      "default": true,
      "lyrics": [
        {
          "filename": "FRE - Les Dix Commandements - MV - L'Envie d'aimer.ass",
          "default": true,
          "version": "Default"
        }
      ]
    }
  ],
  "data": {
    "comment": "",
    "created_at": "2022-08-09T11:56:46.074Z",
    "kid": "99a5d885-9c09-4375-b414-163978fa9bc6",
    "modified_at": "2022-08-09T11:56:46.074Z",
    "tags": {
      "authors": [
        "6ba6f14d-99f6-4bfa-88dd-ccbac78f5efe",
        "90414ca0-ab36-4879-8810-b032c6bfdab0",
        "966e02e9-ed3c-403e-82ba-a9f40aa01b57"
      ],
      "creators": [
        "438a4f9a-8573-40ed-a436-364aa3505f36",
        "f963181a-1214-47f8-b6f9-1705cbc33779"
      ],
      "families": [
        "5391f9fe-638c-415f-8dc9-958e3a2c5787"
      ],
      "groups": [
        "3c14c864-533c-49e6-a3cc-6969f1233775"
      ],
      "langs": [
        "fd8072b7-4d9b-45d4-8f5b-a931a830edef"
      ],
      "series": [
        "fc10ef21-cdfb-4082-af7b-5f20ca3e76b9"
      ],
      "singers": [
        "fa4e9101-b9be-4343-978d-6294c754f6c1"
      ],
      "songtypes": [
        "7be1b15c-cff8-4b37-a649-5c90f3d569a9"
      ],
      "songwriters": [
        "52d48f4b-63eb-4ccc-94fa-29f0fa7e0352",
        "fb868c32-ecfd-4f05-a897-edbe41de82c8",
        "9cf9bfe9-9af8-4839-877e-2cb58176700e"
      ],
      "collections": [
        "efe171c0-e8a1-4d03-98c0-60ecf741ad52"
      ]
    },
    "titles": {
      "fre": "L'Envie d'aimer"
    },
    "titles_default_language": "fre",
    "titles_aliases": [],
    "title": "L'Envie d'aimer",
    "year": "2000",
    "repository": "kara.moe"
  }
}