{
  "header": {
    "version": 4,
    "description": "Karaoke Mugen Karaoke Data File"
  },
  "medias": [
    {
      "version": "Default",
      "filename": "FRE - 3-gatsu no Lion - IN - En fermant les yeux.mp4",
      "audiogain": -2.55,
      "loudnorm": "-16.54,-0.43,17.90,-27.97,-2.14",
      "filesize": 29071758,
      "duration": 97,
      "default": true,
      "lyrics": [
        {
          "filename": "FRE - 3-gatsu no Lion - IN - En fermant les yeux.ass",
          "default": true,
          "version": "Default",
          "subchecksum": "a2d1457fa20101c49f1676dcab0b9c1f"
        }
      ]
    }
  ],
  "data": {
    "created_at": "2021-02-28T22:49:44.015Z",
    "kid": "0b197eae-1255-4f9b-866f-32f84ee7e277",
    "modified_at": "2021-04-22T14:18:00.754Z",
    "repository": "kara.moe",
    "tags": {
      "authors": [
        "71fa8328-ef48-4a8c-a965-7db0f182d05d"
      ],
      "collections": [
        "c7db86a0-ff64-4044-9be4-66dd1ef1d1c1"
      ],
      "creators": [
        "c3bd80ef-d1fe-427f-913f-a2ba2fe66114"
      ],
      "families": [
        "0377db02-3af6-43b8-9b08-c759df3d25c3"
      ],
      "groups": [
        "8c22c899-b3ed-42da-a548-ce00f950798b",
        "ae613721-1fbe-480d-ba6b-d6d0702b184d"
      ],
      "langs": [
        "fd8072b7-4d9b-45d4-8f5b-a931a830edef"
      ],
      "origins": [
        "938de218-5343-4865-94d3-fb33f2eaa152"
      ],
      "series": [
        "bfd9a244-40d0-4ec8-81ba-041ae07a6797"
      ],
      "singers": [
        "91430c77-1820-4272-a4c7-276ba0c1036c"
      ],
      "songtypes": [
        "5e5250d9-351a-4a82-98eb-55db50ad8962"
      ],
      "songwriters": [
        "61cd5eca-5f2b-4ec0-8cfa-8783b09380c0",
        "7925caaa-cba8-44e7-b3d2-cf7d3422ad41"
      ],
      "franchises": [
        "bfd9a244-40d0-4ec8-81ba-041ae07a6797"
      ]
    },
    "title": "En fermant les yeux",
    "titles": {
      "eng": "En fermant les yeux"
    },
    "year": 2016
  }
}