{
  "header": {
    "version": 4,
    "description": "Karaoke Mugen Karaoke Data File"
  },
  "medias": [
    {
      "version": "Default",
      "filename": "FRE - The Little Mermaid - MOVIE IN - Partir la-bas.mp4",
      "audiogain": 4.96,
      "loudnorm": "-24.38,-7.54,13.80,-35.40,-1.73",
      "filesize": 133498848,
      "duration": 202,
      "default": true,
      "lyrics": [
        {
          "filename": "FRE - The Little Mermaid - MOVIE IN - Partir la-bas.ass",
          "default": true,
          "version": "Default"
        }
      ]
    }
  ],
  "data": {
    "created_at": "2019-04-16T21:21:26.000Z",
    "ignoreHooks": false,
    "kid": "12a3297e-7a4d-40cf-871a-093ca39166d6",
    "modified_at": "2022-03-24T14:37:36.137Z",
    "repository": "kara.moe",
    "tags": {
      "authors": [
        "fa399f2f-ea1d-4902-8796-ea6d8218aff0"
      ],
      "collections": [
        "c7db86a0-ff64-4044-9be4-66dd1ef1d1c1"
      ],
      "creators": [
        "53ac4d74-c9b8-4fed-bab1-cfa65b2f3142"
      ],
      "families": [
        "0377db02-3af6-43b8-9b08-c759df3d25c3"
      ],
      "groups": [
        "24db50aa-a126-4d34-a48a-e45db79c4245",
        "f5e7d2fc-0cbb-4fb9-a84a-b25dfb0e9e77"
      ],
      "langs": [
        "fd8072b7-4d9b-45d4-8f5b-a931a830edef"
      ],
      "origins": [
        "c8ca9dea-d8b4-48fe-8427-d911653232e9"
      ],
      "series": [
        "3b7ef1cb-0408-448c-9e77-d76a17f2a828"
      ],
      "singers": [
        "fc0cc212-8016-48ab-ac15-1207fb802fad"
      ],
      "songtypes": [
        "5e5250d9-351a-4a82-98eb-55db50ad8962"
      ],
      "songwriters": [
        "576c81c7-d0c0-4cf9-aeb0-6b40a14d2c7c",
        "95fcb428-a4b0-4564-9ef7-ab6474736236"
      ]
    },
    "titles": {
      "eng": "Part of Your World",
      "fre": "Partir là-bas"
    },
    "titles_default_language": "fre",
    "title": "Partir là-bas",
    "year": 1990
  }
}