{
  "header": {
    "version": 4,
    "description": "Karaoke Mugen Karaoke Data File"
  },
  "medias": [
    {
      "version": "Default",
      "filename": "FRE - Adventures of Sonic the Hedgehog - OP - Les aventures de Sonic.mp4",
      "audiogain": 2.07,
      "loudnorm": "-21.31,-7.72,7.50,-31.42,-1.55",
      "filesize": 12438127,
      "duration": 74,
      "default": true,
      "lyrics": [
        {
          "filename": "FRE - Adventures of Sonic the Hedgehog - OP - Les aventures de Sonic.ass",
          "default": true,
          "version": "Default",
          "subchecksum": "97c8f1271648f51a16a23fe05f81c660"
        }
      ]
    }
  ],
  "data": {
    "created_at": "2017-10-11T17:01:48.000Z",
    "kid": "2371501c-47a6-4997-b007-1814b3b424a5",
    "modified_at": "2021-02-25T10:20:53.542Z",
    "repository": "kara.moe",
    "tags": {
      "authors": [
        "0081300d-c0f9-4cff-a4f7-e726a293a76b"
      ],
      "collections": [
        "c7db86a0-ff64-4044-9be4-66dd1ef1d1c1"
      ],
      "creators": [
        "5fafca8e-03a2-4bd5-a57d-0739639f798b"
      ],
      "families": [
        "0377db02-3af6-43b8-9b08-c759df3d25c3"
      ],
      "groups": [
        "24db50aa-a126-4d34-a48a-e45db79c4245",
        "8c22c899-b3ed-42da-a548-ce00f950798b",
        "f5e7d2fc-0cbb-4fb9-a84a-b25dfb0e9e77"
      ],
      "langs": [
        "fd8072b7-4d9b-45d4-8f5b-a931a830edef"
      ],
      "origins": [
        "938de218-5343-4865-94d3-fb33f2eaa152"
      ],
      "series": [
        "218bac58-24cc-4ccc-b02b-a12d65b54fd7"
      ],
      "singers": [
        "212bba9f-44f0-41f8-9c9b-564a011e9757"
      ],
      "songtypes": [
        "f02ad9b3-0bd9-4aad-85b3-9976739ba0e4"
      ],
      "songwriters": [
        "7edc3ced-6b97-408f-8b06-861c40c6c3ee"
      ],
      "franchises": [
        "09c42215-106e-4379-b6cf-787fb812aaae"
      ]
    },
    "title": "Les aventures de Sonic",
    "titles": {
      "eng": "Les aventures de Sonic"
    },
    "year": 1995
  }
}