{
  "header": {
    "version": 4,
    "description": "Karaoke Mugen Karaoke Data File"
  },
  "medias": [
    {
      "version": "Default",
      "filename": "FRE - Dalida - MV - Mourir sur scene.mp4",
      "audiogain": -1.42,
      "loudnorm": "-16.60,-2.56,4.40,-26.60,-0.17",
      "filesize": 62064991,
      "duration": 202,
      "default": true,
      "lyrics": [
        {
          "filename": "FRE - Dalida - MV - Mourir sur scene.ass",
          "default": true,
          "version": "Default"
        }
      ]
    }
  ],
  "data": {
    "created_at": "2022-04-22T16:23:16.805Z",
    "ignoreHooks": false,
    "kid": "05cc9ed6-b494-4fcb-b5e3-9c84e408546c",
    "modified_at": "2022-04-22T16:30:19.231Z",
    "repository": "kara.moe",
    "tags": {
      "authors": [
        "90414ca0-ab36-4879-8810-b032c6bfdab0"
      ],
      "collections": [
        "efe171c0-e8a1-4d03-98c0-60ecf741ad52"
      ],
      "creators": [
        "6d9899c4-625f-4ee7-a36f-a9d3d20f7d67"
      ],
      "families": [
        "5391f9fe-638c-415f-8dc9-958e3a2c5787"
      ],
      "groups": [
        "7792cc27-9ff9-4d47-9287-2338b7db1575"
      ],
      "langs": [
        "fd8072b7-4d9b-45d4-8f5b-a931a830edef"
      ],
      "singers": [
        "2eafb5b6-d262-4039-b81a-fa0abbb85f29"
      ],
      "songtypes": [
        "7be1b15c-cff8-4b37-a649-5c90f3d569a9"
      ],
      "songwriters": [
        "4e18b0ee-0cd7-467e-bb75-47182849b1d5",
        "68e1a162-a0a3-4389-8fb3-528a735aa4ab"
      ]
    },
    "titles": {
      "fre": "Mourir sur scène"
    },
    "titles_default_language": "fre",
    "title": "Mourir sur scène",
    "year": 1983
  }
}