{
  "header": {
    "version": 4,
    "description": "Karaoke Mugen Karaoke Data File"
  },
  "medias": [
    {
      "version": "Japan Expo.",
      "filename": "FRE - X TV - LIVE - Le Pouvoir d'un Reve ~ Japan Expo Vers. ~ Alternative Full Vers.mp4",
      "audiogain": 0.8,
      "loudnorm": "-18.57,-2.90,5.30,-28.63,-0.59",
      "filesize": 45102655,
      "duration": 180,
      "default": true,
      "lyrics": [
        {
          "filename": "FRE - X TV - LIVE - Le Pouvoir d'un Reve ~ Japan Expo Vers. ~ Alternative Full Vers.ass",
          "default": true,
          "version": "Default"
        }
      ]
    }
  ],
  "data": {
    "created_at": "2017-10-11T17:01:16.000Z",
    "ignoreHooks": false,
    "kid": "11e0eb36-6751-4856-871f-9b0195360a8b",
    "modified_at": "2022-12-21T22:36:30.243Z",
    "repository": "kara.moe",
    "tags": {
      "authors": [
        "5fdaaa56-79aa-465c-91f9-afb1938c3eb6"
      ],
      "collections": [
        "c7db86a0-ff64-4044-9be4-66dd1ef1d1c1"
      ],
      "creators": [
        "9c5cf6ba-0bc8-4cfe-a63c-e9be3a14e9fd"
      ],
      "families": [
        "5391f9fe-638c-415f-8dc9-958e3a2c5787"
      ],
      "groups": [
        "3c14c864-533c-49e6-a3cc-6969f1233775",
        "8c22c899-b3ed-42da-a548-ce00f950798b"
      ],
      "langs": [
        "fd8072b7-4d9b-45d4-8f5b-a931a830edef"
      ],
      "series": [
        "3e765ff6-3096-49e0-b371-e0055d8b18ac"
      ],
      "singers": [
        "88ebd6ab-988b-4958-b8ec-c8bcbbdfe267"
      ],
      "songtypes": [
        "a0167949-580c-4de3-bf13-497e462e02f3"
      ],
      "versions": [
        "9f63c359-d1bf-425a-bcf5-b245c2c9211d",
        "c2143a7f-6970-450e-8a79-0302db9220a9"
      ],
      "franchises": [
        "3d8644b5-42b9-453a-a4d6-ec65c155eb1f"
      ]
    },
    "titles": {
      "eng": "Le Pouvoir d'un Rêve ~ Japan Expo Vers."
    },
    "titles_default_language": "eng",
    "year": 2001
  }
}