{
  "header": {
    "version": 4,
    "description": "Karaoke Mugen Karaoke Data File"
  },
  "medias": [
    {
      "version": "Default",
      "filename": "FRE - Kizumonogatari II Nekketsu-hen - MOVIE ED - etoile et toi edition le bleu.mp4",
      "audiogain": 5.97,
      "loudnorm": "-23.61,-7.99,7.30,-33.86,-0.76",
      "filesize": 166742845,
      "duration": 348,
      "default": true,
      "lyrics": [
        {
          "filename": "FRE - Kizumonogatari II Nekketsu-hen - MOVIE ED - etoile et toi edition le bleu.ass",
          "default": true,
          "version": "Default"
        }
      ]
    }
  ],
  "data": {
    "created_at": "2018-03-27T19:54:27.000Z",
    "ignoreHooks": false,
    "kid": "0912fce2-19e5-4254-824e-ed11cb14ece7",
    "modified_at": "2022-03-24T08:50:39.143Z",
    "repository": "kara.moe",
    "tags": {
      "authors": [
        "fa399f2f-ea1d-4902-8796-ea6d8218aff0"
      ],
      "collections": [
        "c7db86a0-ff64-4044-9be4-66dd1ef1d1c1"
      ],
      "creators": [
        "c3bd80ef-d1fe-427f-913f-a2ba2fe66114"
      ],
      "families": [
        "0377db02-3af6-43b8-9b08-c759df3d25c3"
      ],
      "groups": [
        "9c79e1bb-a5b9-4059-ad20-4687ec733371",
        "ae613721-1fbe-480d-ba6b-d6d0702b184d"
      ],
      "langs": [
        "fd8072b7-4d9b-45d4-8f5b-a931a830edef"
      ],
      "misc": [
        "86705d4b-24e4-4756-9687-2b9c98bcf366"
      ],
      "origins": [
        "c8ca9dea-d8b4-48fe-8427-d911653232e9"
      ],
      "series": [
        "18fef39e-5fe4-45c0-b009-af8a7b4ed2bc"
      ],
      "singers": [
        "f27eb141-683d-4056-a264-b83c3712d405"
      ],
      "songtypes": [
        "38c77c56-2b95-4040-b676-0994a8cb0597"
      ],
      "songwriters": [
        "2b5e095d-3e0c-4545-b9bb-f3f487acb16a",
        "4ea6907f-ff87-4a71-b989-b9c104e12091",
        "81d493c9-3353-40d4-b94d-7fa42d3b4229"
      ],
      "franchises": [
        "94c05ef3-bfff-4a4d-a1a4-b07c32389971"
      ]
    },
    "titles": {
      "fre": "étoile et toi [édition le bleu]"
    },
    "titles_default_language": "fre",
    "title": "étoile et toi [édition le bleu]",
    "year": 2016
  }
}