{
  "header": {
    "version": 4,
    "description": "Karaoke Mugen Karaoke Data File"
  },
  "medias": [
    {
      "version": "Default",
      "filename": "FRE - Touhou - REMIX MV - Histoire Millenaire.mp4",
      "audiogain": -5,
      "loudnorm": "-13.59,0.04,5.80,-23.77,-1.10",
      "filesize": 68080562,
      "duration": 278,
      "default": true,
      "lyrics": [
        {
          "filename": "FRE - Touhou - REMIX MV - Histoire Millenaire.ass",
          "default": true,
          "version": "Default",
          "subchecksum": "bd6ee20ff74dbb21da914f161954ae68"
        }
      ]
    }
  ],
  "data": {
    "created_at": "2017-10-11T17:02:06.000Z",
    "kid": "eabec4d1-cccf-4136-9809-815bca796b4c",
    "modified_at": "2021-02-25T10:30:46.046Z",
    "repository": "kara.moe",
    "tags": {
      "authors": [
        "5bdaba57-27f8-4568-8806-76a807728766"
      ],
      "collections": [
        "c7db86a0-ff64-4044-9be4-66dd1ef1d1c1"
      ],
      "creators": [
        "4d00756e-2e5d-4326-905b-9444994ad27c"
      ],
      "groups": [
        "ae613721-1fbe-480d-ba6b-d6d0702b184d"
      ],
      "langs": [
        "fd8072b7-4d9b-45d4-8f5b-a931a830edef"
      ],
      "misc": [
        "ec4360fa-3e3c-4f6f-b0e1-fb8b12b6dd18"
      ],
      "series": [
        "1bdaa5a1-dfa6-4365-b746-7a0b194dafd6"
      ],
      "singers": [
        "31a3036f-e2af-4cc9-a45e-bdf9d42ee041"
      ],
      "songtypes": [
        "7be1b15c-cff8-4b37-a649-5c90f3d569a9"
      ],
      "songwriters": [
        "31a3036f-e2af-4cc9-a45e-bdf9d42ee041",
        "4d00756e-2e5d-4326-905b-9444994ad27c"
      ],
      "franchises": [
        "1bdaa5a1-dfa6-4365-b746-7a0b194dafd6"
      ]
    },
    "title": "Histoire Millénaire",
    "titles": {
      "eng": "Histoire Millénaire"
    },
    "year": 2015
  }
}