{
  "header": {
    "version": 4,
    "description": "Karaoke Mugen Karaoke Data File"
  },
  "medias": [
    {
      "version": "Default",
      "filename": "FRE - Touhou Kinema Kan - REMIX MV - Reve eveille ~ Cover Vers.mp4",
      "audiogain": -0.63,
      "loudnorm": "-18.91,-3.22,12.30,-29.86,-1.93",
      "filesize": 32351097,
      "duration": 137,
      "default": true,
      "lyrics": [
        {
          "filename": "FRE - Touhou Kinema Kan - REMIX MV - Reve eveille ~ Cover Vers.ass",
          "default": true,
          "version": "Default"
        }
      ]
    }
  ],
  "data": {
    "created_at": "2018-12-20T12:43:51.000Z",
    "ignoreHooks": false,
    "kid": "655a4e9c-b81f-48f1-b0fd-085ad3cdc82d",
    "modified_at": "2022-10-06T18:15:27.803Z",
    "parents": [
      "7428f589-2d69-4678-855c-e3863e95f997"
    ],
    "repository": "kara.moe",
    "tags": {
      "authors": [
        "6b38e6cc-bc88-4cf5-9bfc-a46c03435bab"
      ],
      "collections": [
        "c7db86a0-ff64-4044-9be4-66dd1ef1d1c1"
      ],
      "creators": [
        "7ff61c06-e08a-4670-8cae-0193cec870c8"
      ],
      "families": [
        "0377db02-3af6-43b8-9b08-c759df3d25c3"
      ],
      "groups": [
        "ae613721-1fbe-480d-ba6b-d6d0702b184d"
      ],
      "langs": [
        "fd8072b7-4d9b-45d4-8f5b-a931a830edef"
      ],
      "misc": [
        "ec4360fa-3e3c-4f6f-b0e1-fb8b12b6dd18"
      ],
      "series": [
        "2238d8c1-ea51-4925-9336-33670fa68699"
      ],
      "singers": [
        "188c58bf-947c-4240-905d-acda1f07a817"
      ],
      "songtypes": [
        "7be1b15c-cff8-4b37-a649-5c90f3d569a9"
      ],
      "songwriters": [
        "188c58bf-947c-4240-905d-acda1f07a817",
        "26cb5252-8510-49e0-897c-a611a05fc056",
        "36ef5afc-edd0-424c-88fa-65e13575f3dd",
        "9bb6d2bd-30b1-446a-b0d4-29da1fd5f927"
      ],
      "versions": [
        "03e1e1d2-8641-47b7-bbcb-39a3df9ff21c"
      ],
      "franchises": [
        "1bdaa5a1-dfa6-4365-b746-7a0b194dafd6"
      ]
    },
    "titles": {
      "eng": "Rêve éveillé"
    },
    "titles_default_language": "eng",
    "titles_aliases": [
      "daydream",
      "day",
      "dream"
    ],
    "title": "Rêve éveillé",
    "year": 2011
  }
}