{
  "header": {
    "version": 4,
    "description": "Karaoke Mugen Karaoke Data File"
  },
  "medias": [
    {
      "version": "Default",
      "filename": "FRE - Pokemon Diamond & Pearl Arceus Choukoku no Jikuu e - MOVIE OP - Oui, fonce !.mp4",
      "audiogain": -9.68,
      "loudnorm": "-8.17,1.79,6.10,-18.32,-0.56",
      "filesize": 74240203,
      "duration": 171,
      "default": true,
      "lyrics": [
        {
          "filename": "FRE - Pokemon Diamond & Pearl Arceus Choukoku no Jikuu e - MOVIE OP - Oui, fonce !.ass",
          "default": true,
          "version": "Default",
          "subchecksum": "d14e3f631b7c319c00b9cee9afc8dd19"
        }
      ]
    }
  ],
  "data": {
    "created_at": "2017-10-11T17:02:23.000Z",
    "kid": "77e3106f-93ac-464a-a678-931e343ac9b9",
    "modified_at": "2021-02-25T10:28:29.229Z",
    "parents": [
      "654b1ac2-94ef-4f1e-949b-ea908a550662"
    ],
    "repository": "kara.moe",
    "tags": {
      "authors": [
        "c2205bc1-b31a-4bbd-8953-7070204b5cbf"
      ],
      "collections": [
        "c7db86a0-ff64-4044-9be4-66dd1ef1d1c1"
      ],
      "creators": [
        "03fe574b-c7f5-4520-96dc-47320c39e2cc"
      ],
      "families": [
        "0377db02-3af6-43b8-9b08-c759df3d25c3"
      ],
      "genres": [
        "a0aeef4a-6428-45ff-a6e1-468b595930c2"
      ],
      "groups": [
        "3c14c864-533c-49e6-a3cc-6969f1233775",
        "8c22c899-b3ed-42da-a548-ce00f950798b",
        "f5e7d2fc-0cbb-4fb9-a84a-b25dfb0e9e77"
      ],
      "langs": [
        "fd8072b7-4d9b-45d4-8f5b-a931a830edef"
      ],
      "origins": [
        "c8ca9dea-d8b4-48fe-8427-d911653232e9"
      ],
      "series": [
        "0d0ea2c6-6a9b-451a-8433-88893e7f126c"
      ],
      "singers": [
        "2c549f8e-adec-4b08-8318-794ffee8c184"
      ],
      "songtypes": [
        "f02ad9b3-0bd9-4aad-85b3-9976739ba0e4"
      ],
      "songwriters": [
        "40974bee-8892-4500-9bdc-aacfb827b5df",
        "8c03deb2-503d-4c95-b6ae-3199751dbb46",
        "cd3d1769-bd96-4143-9964-d48f2bb4bfe4"
      ],
      "franchises": [
        "c6923c03-f8c0-4258-a478-8dfa08f3ccd0"
      ]
    },
    "title": "Oui, fonce !",
    "titles": {
      "eng": "Oui, fonce !"
    },
    "year": 2009
  }
}