{
  "header": {
    "version": 4,
    "description": "Karaoke Mugen Karaoke Data File"
  },
  "medias": [
    {
      "version": "Default",
      "filename": "GER - Strike Witches - AMV - Erika.mp4",
      "audiogain": -11.36,
      "loudnorm": "-5.88,-0.10,4.30,-16.18,-0.72",
      "filesize": 13607520,
      "duration": 140,
      "default": true,
      "lyrics": [
        {
          "filename": "GER - Strike Witches - AMV - Erika.ass",
          "default": true,
          "version": "Default",
          "subchecksum": "ea8b392d2d9b4452e08113fdda77552d"
        }
      ]
    }
  ],
  "data": {
    "created_at": "2017-10-11T17:02:44.000Z",
    "kid": "d53222c2-a508-4bb9-b38b-af6b180b623e",
    "modified_at": "2021-02-25T10:32:15.665Z",
    "repository": "kara.moe",
    "tags": {
      "authors": [
        "5bdaba57-27f8-4568-8806-76a807728766"
      ],
      "collections": [
        "c7db86a0-ff64-4044-9be4-66dd1ef1d1c1"
      ],
      "creators": [
        "11b71b3f-c965-4e34-9419-59293a30daad"
      ],
      "families": [
        "0377db02-3af6-43b8-9b08-c759df3d25c3"
      ],
      "groups": [
        "ae613721-1fbe-480d-ba6b-d6d0702b184d"
      ],
      "langs": [
        "b39ffaee-d9cd-44b0-bf35-b019327c3336"
      ],
      "series": [
        "9e479903-aec7-4043-aaee-f89cb8b86e91"
      ],
      "singers": [
        "7188af9a-b2ce-41ff-ad07-8bf0784561ae"
      ],
      "songtypes": [
        "a6c79ce5-89ee-4d50-afe8-3abd7317f6c2"
      ],
      "songwriters": [
        "11b71b3f-c965-4e34-9419-59293a30daad"
      ],
      "franchises": [
        "9e479903-aec7-4043-aaee-f89cb8b86e91"
      ]
    },
    "title": "Erika",
    "titles": {
      "eng": "Erika"
    },
    "year": 2012
  }
}