{
  "header": {
    "version": 4,
    "description": "Karaoke Mugen Karaoke Data File"
  },
  "medias": [
    {
      "version": "Default",
      "filename": "ITA - Sonic X - OP - Sonic X.mp4",
      "audiogain": -9.14,
      "loudnorm": "-7.80,1.39,3.50,-17.91,-0.62",
      "filesize": 18274576,
      "duration": 59,
      "default": true,
      "lyrics": [
        {
          "filename": "ITA - Sonic X - OP - Sonic X.ass",
          "default": true,
          "version": "Default",
          "subchecksum": "a3537d973f6ee3cc964e8f6af5e367e7"
        }
      ]
    }
  ],
  "data": {
    "created_at": "2019-05-05T21:50:14.000Z",
    "kid": "6c453f14-ba75-449f-b633-2afb016bb301",
    "modified_at": "2021-02-25T10:33:29.355Z",
    "repository": "kara.moe",
    "tags": {
      "authors": [
        "6bebcb04-2694-453c-9e0c-eb1a2e2718d9"
      ],
      "collections": [
        "c7db86a0-ff64-4044-9be4-66dd1ef1d1c1"
      ],
      "creators": [
        "53e900ec-a1ff-4c95-8b2d-a63995c2936f"
      ],
      "families": [
        "0377db02-3af6-43b8-9b08-c759df3d25c3"
      ],
      "langs": [
        "783496f0-1a2f-44c3-a906-02e8244148ae"
      ],
      "origins": [
        "938de218-5343-4865-94d3-fb33f2eaa152"
      ],
      "series": [
        "060eb0b6-59bd-4d44-a8f1-15fd8131ce03"
      ],
      "singers": [
        "1ad115e8-bff8-4838-8d51-f2cffe2b9626"
      ],
      "songtypes": [
        "f02ad9b3-0bd9-4aad-85b3-9976739ba0e4"
      ],
      "songwriters": [
        "397ca0a6-2fa3-4aef-bec9-79918200c9c3",
        "7d165c01-335d-4956-84b5-43109d6a5158"
      ],
      "franchises": [
        "09c42215-106e-4379-b6cf-787fb812aaae"
      ]
    },
    "title": "Sonic X",
    "titles": {
      "eng": "Sonic X"
    },
    "year": 2005
  }
}