{
  "header": {
    "version": 4,
    "description": "Karaoke Mugen Karaoke Data File"
  },
  "medias": [
    {
      "version": "Default",
      "filename": "JPN - Touhou - REMIX AUDIO - Supernatural Border.mp3",
      "audiogain": -12.33,
      "loudnorm": "-4.80,0.84,3.80,-14.82,-0.77",
      "filesize": 12784847,
      "duration": 253,
      "default": true,
      "lyrics": [
        {
          "filename": "JPN - Touhou - REMIX AUDIO - Supernatural Border.ass",
          "default": true,
          "version": "Default"
        }
      ]
    }
  ],
  "data": {
    "created_at": "2021-11-09T23:40:03.795Z",
    "kid": "760a1010-748b-42eb-8fc6-5e48a87bf998",
    "modified_at": "2021-11-10T00:00:25.503Z",
    "repository": "kara.moe",
    "tags": {
      "authors": [
        "fb28c6d3-a81e-40c0-9a4c-e3268c60a64b"
      ],
      "collections": [
        "c7db86a0-ff64-4044-9be4-66dd1ef1d1c1"
      ],
      "creators": [
        "eb49131c-b890-422d-9947-0e82292801e1"
      ],
      "groups": [
        "ae613721-1fbe-480d-ba6b-d6d0702b184d"
      ],
      "langs": [
        "4dcf9614-7914-42aa-99f4-dbce2e059133"
      ],
      "misc": [
        "ec4360fa-3e3c-4f6f-b0e1-fb8b12b6dd18"
      ],
      "origins": [
        "ac5085db-52d8-44b4-8fbb-1697b24d2046"
      ],
      "series": [
        "1bdaa5a1-dfa6-4365-b746-7a0b194dafd6"
      ],
      "singers": [
        "a6e3509f-befc-4b8b-ac1c-3614e1c32447"
      ],
      "songtypes": [
        "42a262ae-acba-4ab5-a446-c5789c96c821"
      ],
      "songwriters": [
        "26cb5252-8510-49e0-897c-a611a05fc056",
        "3059eca0-7b9f-41e0-a5a6-2e7e3be5d025",
        "a6e3509f-befc-4b8b-ac1c-3614e1c32447"
      ],
      "franchises": [
        "1bdaa5a1-dfa6-4365-b746-7a0b194dafd6"
      ]
    },
    "titles": {
      "eng": "Supernatural Border"
    },
    "title": "Supernatural Border",
    "year": 2018,
    "titles_default_language": "eng"
  }
}