{
  "header": {
    "version": 4,
    "description": "Karaoke Mugen Karaoke Data File"
  },
  "medias": [
    {
      "version": "Default",
      "filename": "JPN - Ultraman Retsuden - OP5 - ULTRA FLY.mp4",
      "audiogain": 1.85,
      "loudnorm": "-19.14,-6.00,2.80,-29.14,-0.63",
      "filesize": 22815030,
      "duration": 80,
      "default": true,
      "lyrics": [
        {
          "filename": "JPN - Ultraman Retsuden - OP5 - ULTRA FLY.ass",
          "default": true,
          "version": "Default",
          "subchecksum": "4d3446c3d74a5ea9ce158ba0fe9d21b4"
        }
      ]
    }
  ],
  "data": {
    "created_at": "2019-03-26T20:20:38.000Z",
    "kid": "52789453-36c9-407f-95b5-7468b155afd9",
    "modified_at": "2021-02-25T13:31:54.682Z",
    "repository": "kara.moe",
    "songorder": 5,
    "tags": {
      "authors": [
        "ef611801-6a99-482e-9b99-13ad3d3a0648"
      ],
      "collections": [
        "c7db86a0-ff64-4044-9be4-66dd1ef1d1c1"
      ],
      "creators": [
        "308ee11d-80d2-4870-9ff4-e042b72070ee"
      ],
      "families": [
        "5391f9fe-638c-415f-8dc9-958e3a2c5787"
      ],
      "groups": [
        "ae613721-1fbe-480d-ba6b-d6d0702b184d"
      ],
      "langs": [
        "4dcf9614-7914-42aa-99f4-dbce2e059133"
      ],
      "origins": [
        "938de218-5343-4865-94d3-fb33f2eaa152"
      ],
      "series": [
        "63d6224a-bdcb-4e62-b569-7d5a4c2ba475"
      ],
      "singers": [
        "7ef605c3-a982-4b3e-ae9f-33d59bf35e85"
      ],
      "songtypes": [
        "f02ad9b3-0bd9-4aad-85b3-9976739ba0e4"
      ],
      "songwriters": [
        "b941b1c2-83d8-4023-9840-56f9cfbca991"
      ],
      "franchises": [
        "e0d0d8b0-bf67-40a0-b0c1-082cd4ccc58b"
      ],
      "genres": [
        "d3fac9ab-630d-402d-a392-3d2450c3e62e"
      ]
    },
    "title": "ULTRA FLY",
    "titles": {
      "eng": "ULTRA FLY"
    },
    "year": 2012,
    "titles_default_language": "eng"
  }
}