{
  "header": {
    "version": 4,
    "description": "Karaoke Mugen Karaoke Data File"
  },
  "medias": [
    {
      "version": "Default",
      "filename": "JPN - Tsukimonogatari - ED - border.mp4",
      "audiogain": 4.03,
      "loudnorm": "-22.28,-13.56,6.40,-32.32,-1.47",
      "filesize": 45424159,
      "duration": 91,
      "default": true,
      "lyrics": [
        {
          "filename": "JPN - Tsukimonogatari - ED - border.ass",
          "default": true,
          "version": "Default",
          "subchecksum": "20b00f4ffdf2cdb3267bf51d6f1cdc8d"
        }
      ]
    }
  ],
  "data": {
    "created_at": "2017-10-11T17:01:11.000Z",
    "kid": "bbfc7e1b-7397-425b-8617-3d4b88224a76",
    "modified_at": "2021-02-25T13:29:42.303Z",
    "repository": "kara.moe",
    "tags": {
      "authors": [
        "6bebcb04-2694-453c-9e0c-eb1a2e2718d9"
      ],
      "collections": [
        "c7db86a0-ff64-4044-9be4-66dd1ef1d1c1"
      ],
      "creators": [
        "c3bd80ef-d1fe-427f-913f-a2ba2fe66114"
      ],
      "families": [
        "0377db02-3af6-43b8-9b08-c759df3d25c3"
      ],
      "groups": [
        "ae613721-1fbe-480d-ba6b-d6d0702b184d"
      ],
      "langs": [
        "4dcf9614-7914-42aa-99f4-dbce2e059133"
      ],
      "origins": [
        "938de218-5343-4865-94d3-fb33f2eaa152"
      ],
      "series": [
        "bce014d5-0629-4a5c-a801-2a166a06fcd7"
      ],
      "singers": [
        "ff590105-5f65-4b1f-adf9-2cfb5b789428"
      ],
      "songtypes": [
        "38c77c56-2b95-4040-b676-0994a8cb0597"
      ],
      "songwriters": [
        "81d493c9-3353-40d4-b94d-7fa42d3b4229",
        "cd8a4990-bf8b-4771-9e46-e2680a368211"
      ],
      "franchises": [
        "94c05ef3-bfff-4a4d-a1a4-b07c32389971"
      ]
    },
    "title": "border",
    "titles": {
      "eng": "border"
    },
    "year": 2015,
    "titles_default_language": "eng"
  }
}