{
  "header": {
    "version": 4,
    "description": "Karaoke Mugen Karaoke Data File"
  },
  "medias": [
    {
      "version": "Default",
      "filename": "JPN - Mekakucity Actors - OP2 - Headphone Actor.mp4",
      "audiogain": -11.93,
      "loudnorm": "-6.32,1.10,9.40,-16.43,-1.47",
      "filesize": 38129852,
      "duration": 103,
      "default": true,
      "lyrics": [
        {
          "filename": "JPN - Mekakucity Actors - OP2 - Headphone Actor.ass",
          "default": true,
          "version": "Default"
        }
      ]
    }
  ],
  "data": {
    "created_at": "2017-10-11T17:03:16.000Z",
    "ignoreHooks": false,
    "kid": "061fb1d4-08be-401b-8476-76118cb65f97",
    "modified_at": "2023-03-13T00:16:15.105Z",
    "repository": "kara.moe",
    "songorder": 2,
    "tags": {
      "authors": [
        "5bdaba57-27f8-4568-8806-76a807728766"
      ],
      "collections": [
        "c7db86a0-ff64-4044-9be4-66dd1ef1d1c1"
      ],
      "creators": [
        "c3bd80ef-d1fe-427f-913f-a2ba2fe66114"
      ],
      "families": [
        "0377db02-3af6-43b8-9b08-c759df3d25c3"
      ],
      "groups": [
        "ae613721-1fbe-480d-ba6b-d6d0702b184d"
      ],
      "langs": [
        "4dcf9614-7914-42aa-99f4-dbce2e059133"
      ],
      "origins": [
        "938de218-5343-4865-94d3-fb33f2eaa152"
      ],
      "series": [
        "6d8b395b-a1c2-4eb0-bdd4-5a604be32ce2"
      ],
      "singers": [
        "41f045f2-1576-496d-91b1-c0f28bab57a4",
        "e47047f1-9428-41db-9eb2-a32ba03c5ac1"
      ],
      "songtypes": [
        "f02ad9b3-0bd9-4aad-85b3-9976739ba0e4"
      ],
      "songwriters": [
        "e47047f1-9428-41db-9eb2-a32ba03c5ac1"
      ],
      "franchises": [
        "ec030aa0-8814-4194-9be4-1409e62b4eb8"
      ]
    },
    "titles": {
      "eng": "Headphone Actor",
      "jpn": "ヘッドフォンアクター"
    },
    "titles_default_language": "eng",
    "year": 2014
  }
}