{
  "header": {
    "version": 4,
    "description": "Karaoke Mugen Karaoke Data File"
  },
  "medias": [
    {
      "version": "Default",
      "filename": "JPN - YOASOBI - MV - Yoru ni Kakeru ~ Off Vocal Vers.mp4",
      "audiogain": -2.89,
      "loudnorm": "-13.22,-0.25,4.90,-23.27,-0.83",
      "filesize": 50261023,
      "duration": 262,
      "default": true,
      "lyrics": [
        {
          "filename": "JPN - YOASOBI - MV - Yoru ni Kakeru ~ Off Vocal Vers.ass",
          "default": true,
          "version": "Default"
        }
      ]
    }
  ],
  "data": {
    "created_at": "2021-07-18T21:38:58.409Z",
    "ignoreHooks": false,
    "kid": "5b3c96c6-e4ce-433d-8a97-4703efffeb56",
    "modified_at": "2023-01-22T12:25:43.891Z",
    "parents": [
      "dba5c988-4f7c-47ed-bb7a-6d0919cfd056"
    ],
    "repository": "kara.moe",
    "tags": {
      "authors": [
        "54e1331b-ad2b-4d39-b203-de7bdd6e8f0d"
      ],
      "collections": [
        "c7db86a0-ff64-4044-9be4-66dd1ef1d1c1"
      ],
      "families": [
        "0377db02-3af6-43b8-9b08-c759df3d25c3"
      ],
      "groups": [
        "2b4e9972-5e17-481b-99f5-d0787c0ada56",
        "ae613721-1fbe-480d-ba6b-d6d0702b184d"
      ],
      "langs": [
        "4dcf9614-7914-42aa-99f4-dbce2e059133"
      ],
      "singergroups": [
        "e028a7e9-d3f2-4df7-a6ba-c7f78e98b549"
      ],
      "songtypes": [
        "7be1b15c-cff8-4b37-a649-5c90f3d569a9"
      ],
      "songwriters": [
        "ac03c264-7085-486b-a47f-3e7574e51a33"
      ],
      "versions": [
        "c0cc87b9-55b9-40f0-878a-fbb9e34c151e"
      ]
    },
    "titles": {
      "jpn": "夜に駆ける",
      "qro": "Yoru ni Kakeru"
    },
    "titles_default_language": "qro",
    "titles_aliases": [
      "Racing Into The Night"
    ],
    "year": 2019
  }
}