{
  "header": {
    "version": 4,
    "description": "Karaoke Mugen Karaoke Data File"
  },
  "medias": [
    {
      "version": "Default",
      "filename": "JPN - Love Live! School Idol Project - AUDIO - MOMENT RING ~ Off Vocal Vers.mp3",
      "audiogain": -9.22,
      "loudnorm": "-7.86,0.85,3.60,-17.93,-0.34",
      "filesize": 15426296,
      "duration": 372,
      "default": true,
      "lyrics": [
        {
          "filename": "JPN - Love Live! School Idol Project - AUDIO - MOMENT RING ~ Off Vocal Vers.ass",
          "default": true,
          "version": "Default"
        }
      ]
    }
  ],
  "data": {
    "created_at": "2021-01-21T15:14:10.124Z",
    "ignoreHooks": false,
    "kid": "70a20984-babc-4a98-9fce-5db84ebae8ed",
    "modified_at": "2022-11-07T21:28:06.307Z",
    "parents": [
      "5c7e743b-9030-4efa-b855-2cec157fe2e0"
    ],
    "repository": "kara.moe",
    "tags": {
      "authors": [
        "78d42fee-8d3e-4bd5-9c44-98ce55f7d21f",
        "90698f28-1d62-4673-82c4-33ae96b1ba97"
      ],
      "collections": [
        "c7db86a0-ff64-4044-9be4-66dd1ef1d1c1"
      ],
      "creators": [
        "b2805292-730e-473a-96f0-fd8e7ffd1fd7"
      ],
      "genres": [
        "caa86df2-0d59-474b-885c-f240a9e891b0"
      ],
      "groups": [
        "ae613721-1fbe-480d-ba6b-d6d0702b184d"
      ],
      "langs": [
        "4dcf9614-7914-42aa-99f4-dbce2e059133"
      ],
      "misc": [
        "86705d4b-24e4-4756-9687-2b9c98bcf366"
      ],
      "origins": [
        "938de218-5343-4865-94d3-fb33f2eaa152"
      ],
      "series": [
        "dd93f278-a55d-4040-aaab-d0c50b58b087"
      ],
      "singers": [
        "0218ed43-3fff-4261-9036-5a50a07406d9",
        "1d00d52c-e265-4be6-8902-55d7f425f86c",
        "1d78156e-3eb3-409b-b0e0-82e8ef7efe01",
        "4145e95c-bf18-4574-a027-80d61c2a2610",
        "4fc68333-b1f6-44ce-b2be-ac4866b78932",
        "5c779d94-5ed1-4326-9dee-41b3d9f7331c",
        "7779578c-3d4e-4aa5-8f54-77023879e8e6",
        "a1b1a298-ff71-4cda-a407-f1cbdb4f415d",
        "b051c80e-61d1-4d04-956b-c6e8f84cd828"
      ],
      "singergroups": [
        "fc107f1a-4759-4869-857f-fc1966f345f9"
      ],
      "songtypes": [
        "42a262ae-acba-4ab5-a446-c5789c96c821"
      ],
      "songwriters": [
        "95f2365a-8fbb-4fa9-a920-bba23c20f93b",
        "f41e7218-6c19-4e19-9b5f-4612dcd58243"
      ],
      "versions": [
        "c0cc87b9-55b9-40f0-878a-fbb9e34c151e"
      ],
      "franchises": [
        "fd5d066e-e85a-4eea-8688-2979a887450a"
      ]
    },
    "titles": {
      "eng": "MOMENT RING"
    },
    "titles_default_language": "eng",
    "year": 2016
  }
}