{
  "header": {
    "version": 4,
    "description": "Karaoke Mugen Karaoke Data File"
  },
  "medias": [
    {
      "version": "Default",
      "filename": "JPN - Love Live! Superstar!! - IN - Tiny Stars.mp4",
      "audiogain": -0.12,
      "loudnorm": "-17.05,-1.30,5.20,-27.30,-0.02",
      "filesize": 97560153,
      "duration": 149,
      "default": true,
      "lyrics": [
        {
          "filename": "JPN - Love Live! Superstar!! - IN - Tiny Stars.ass",
          "default": true,
          "version": "Default"
        }
      ]
    }
  ],
  "data": {
    "created_at": "2022-05-28T18:44:48.870Z",
    "ignoreHooks": false,
    "kid": "4f8abebc-21dc-4a07-a8e6-8f2a1d53249b",
    "modified_at": "2022-05-28T18:49:42.533Z",
    "repository": "kara.moe",
    "tags": {
      "authors": [
        "278c6742-0b75-43dd-b317-2ea112952b4a"
      ],
      "collections": [
        "c7db86a0-ff64-4044-9be4-66dd1ef1d1c1"
      ],
      "creators": [
        "ef8f80e1-d244-4aea-b7f0-984d6dd4b82b"
      ],
      "families": [
        "0377db02-3af6-43b8-9b08-c759df3d25c3"
      ],
      "genres": [
        "caa86df2-0d59-474b-885c-f240a9e891b0"
      ],
      "groups": [
        "8c22c899-b3ed-42da-a548-ce00f950798b",
        "8e209ae4-4381-438f-89dc-1b21752027d2"
      ],
      "langs": [
        "4dcf9614-7914-42aa-99f4-dbce2e059133"
      ],
      "origins": [
        "938de218-5343-4865-94d3-fb33f2eaa152"
      ],
      "series": [
        "ed46191b-997b-4c2d-8088-bb30a5e6d4ca"
      ],
      "singers": [
        "8a484e8b-1945-416f-b778-97a887ff24eb",
        "c1fd3a67-0c3b-4d95-9cd8-f6aa2c8cc5a8"
      ],
      "songtypes": [
        "5e5250d9-351a-4a82-98eb-55db50ad8962"
      ],
      "songwriters": [
        "727d218e-e828-444c-87b8-3bf4283115d6",
        "f77f4be8-1af3-4bab-9411-759dbd5bb583"
      ],
      "franchises": [
        "fd5d066e-e85a-4eea-8688-2979a887450a"
      ]
    },
    "titles": {
      "eng": "Tiny Stars"
    },
    "titles_default_language": "eng",
    "title": "Tiny Stars",
    "year": 2021
  }
}