{
  "header": {
    "version": 4,
    "description": "Karaoke Mugen Karaoke Data File"
  },
  "medias": [
    {
      "version": "Default",
      "filename": "JPN - BanG Dream! - GAME MV - Egao no Orchestra!.mp4",
      "audiogain": -11.04,
      "loudnorm": "-6.93,1.61,5.70,-17.16,-0.87",
      "filesize": 55953209,
      "duration": 104,
      "default": true,
      "lyrics": [
        {
          "filename": "JPN - BanG Dream! - GAME MV - Egao no Orchestra!.ass",
          "default": true,
          "version": "Default",
          "subchecksum": "2506176ae899b1d8d4b5145590440360"
        }
      ]
    }
  ],
  "data": {
    "created_at": "2018-05-02T15:43:25.000Z",
    "kid": "2058cf78-fd8d-4fdb-bb8c-c61390ed293e",
    "modified_at": "2021-02-25T10:50:35.483Z",
    "repository": "kara.moe",
    "tags": {
      "authors": [
        "79e0aa7d-da9a-4e9a-aa2b-64056a83b49b"
      ],
      "collections": [
        "c7db86a0-ff64-4044-9be4-66dd1ef1d1c1"
      ],
      "creators": [
        "bd4564a8-44e5-454a-9c57-bd2a3c8a537e"
      ],
      "groups": [
        "ae613721-1fbe-480d-ba6b-d6d0702b184d"
      ],
      "langs": [
        "4dcf9614-7914-42aa-99f4-dbce2e059133"
      ],
      "platforms": [
        "213a1a15-e73a-4a08-b3f6-b6e2745a82e5"
      ],
      "series": [
        "a65e956d-39ab-4995-9ede-889c30a5cbf0"
      ],
      "singers": [
        "43822411-dbd3-4e3f-b498-1d3a9ba8ea30",
        "6869c8ab-35dd-432b-b2c0-b948724fce38",
        "75185227-62d2-4e2c-9be9-b64ccee0fb25",
        "835b18dc-2e4e-4f70-ab94-8537d8378cb8",
        "bf3279f4-c3f8-442b-bd67-4f769ada9033",
        "e7a0faa9-bc12-4f87-a717-b3eae183ce73",
        "fbbfcd25-2f98-4f94-9b7b-cef201df2859"
      ],
      "songtypes": [
        "7be1b15c-cff8-4b37-a649-5c90f3d569a9"
      ],
      "songwriters": [
        "18a5b3b4-9796-4d50-869f-1a1ebb96b1c4",
        "60c782e0-d553-46c4-a470-bf13b3c88689"
      ],
      "franchises": [
        "a65e956d-39ab-4995-9ede-889c30a5cbf0"
      ],
      "origins": [
        "dbedd6b3-d125-4cd8-aa32-c4175e4ca3a3"
      ]
    },
    "title": "Egao no Orchestra!",
    "titles": {
      "qro": "Egao no Orchestra!",
      "jpn": "えがおのオーケストラっ!"
    },
    "year": 2017,
    "titles_default_language": "qro"
  }
}