{
  "header": {
    "version": 4,
    "description": "Karaoke Mugen Karaoke Data File"
  },
  "medias": [
    {
      "version": "Default",
      "filename": "JPN - Uma Musume Pretty Derby - Road to the Top - ONA OP - Glorious Moment!.mp4",
      "audiogain": -2.99,
      "loudnorm": "-14.21,-6.53,2.60,-24.30,-0.89",
      "filesize": 36742420,
      "duration": 90,
      "default": true,
      "lyrics": [
        {
          "filename": "JPN - Uma Musume Pretty Derby - Road to the Top - ONA OP - Glorious Moment!.ass",
          "default": true,
          "version": "Default"
        }
      ]
    }
  ],
  "data": {
    "created_at": "2023-04-21T23:34:02.823Z",
    "ignoreHooks": false,
    "kid": "d1f226f3-4f0f-4b94-aa8f-91afb865ca86",
    "modified_at": "2023-04-22T01:15:41.145Z",
    "repository": "kara.moe",
    "tags": {
      "authors": [
        "06852e02-b77e-4106-b6f7-2d03942ad0ea",
        "2941868f-535f-4ea6-99f9-a0192e0e4dc7"
      ],
      "collections": [
        "c7db86a0-ff64-4044-9be4-66dd1ef1d1c1"
      ],
      "creators": [
        "61e12252-9c98-4e41-83db-6031c354b920"
      ],
      "families": [
        "0377db02-3af6-43b8-9b08-c759df3d25c3"
      ],
      "groups": [
        "8e209ae4-4381-438f-89dc-1b21752027d2"
      ],
      "langs": [
        "4dcf9614-7914-42aa-99f4-dbce2e059133"
      ],
      "misc": [
        "fe819ff1-9db8-4a0f-85dc-0e322c9126c4"
      ],
      "origins": [
        "8db3e098-06ef-45e5-bba9-cb04a21c1e66"
      ],
      "series": [
        "6092bf1e-d345-4690-ad09-5c067e6ea1c5"
      ],
      "singers": [
        "6604ef30-8652-432e-9137-96db77477fd3",
        "a1b1a298-ff71-4cda-a407-f1cbdb4f415d",
        "db0d3611-5616-4fd1-9eea-7bdf12984a58"
      ],
      "songtypes": [
        "f02ad9b3-0bd9-4aad-85b3-9976739ba0e4"
      ],
      "songwriters": [
        "2171ee13-d4af-4a9c-8d59-dc098b4d3669",
        "cb942991-413e-4bfd-ac88-06c7fba3ec60"
      ],
      "franchises": [
        "79f8c677-ee95-452f-bd36-798402079d72"
      ]
    },
    "titles": {
      "eng": "Glorious Moment!"
    },
    "titles_default_language": "eng",
    "year": 2023
  }
}