{
  "header": {
    "version": 4,
    "description": "Karaoke Mugen Karaoke Data File"
  },
  "medias": [
    {
      "version": "Default",
      "filename": "JPN - Touhou - REMIX AMV - Tandem Tail.mp4",
      "audiogain": -10.05,
      "loudnorm": "-7.39,2.57,4.40,-17.68,-0.68",
      "filesize": 22120290,
      "duration": 250,
      "default": true,
      "lyrics": [
        {
          "filename": "JPN - Touhou - REMIX AMV - Tandem Tail.ass",
          "default": true,
          "version": "Default"
        }
      ]
    }
  ],
  "data": {
    "created_at": "2021-11-10T12:44:10.600Z",
    "kid": "aea014ac-ce73-4dff-9d38-07e306052db9",
    "modified_at": "2022-09-19T07:46:19.982Z",
    "repository": "kara.moe",
    "tags": {
      "series": [
        "1bdaa5a1-dfa6-4365-b746-7a0b194dafd6"
      ],
      "singers": [
        "4cb575ae-a999-4234-9417-31580bcfab94"
      ],
      "songtypes": [
        "a6c79ce5-89ee-4d50-afe8-3abd7317f6c2"
      ],
      "creators": [
        "dc775738-b422-46a1-baf3-76f11d2080f7"
      ],
      "langs": [
        "4dcf9614-7914-42aa-99f4-dbce2e059133"
      ],
      "authors": [
        "fb28c6d3-a81e-40c0-9a4c-e3268c60a64b"
      ],
      "misc": [
        "ec4360fa-3e3c-4f6f-b0e1-fb8b12b6dd18"
      ],
      "songwriters": [
        "26cb5252-8510-49e0-897c-a611a05fc056",
        "6a47ce13-3ffa-4c21-97d2-6863ce84483b",
        "4cb575ae-a999-4234-9417-31580bcfab94"
      ],
      "groups": [
        "ae613721-1fbe-480d-ba6b-d6d0702b184d"
      ],
      "families": [
        "0377db02-3af6-43b8-9b08-c759df3d25c3"
      ],
      "origins": [
        "ac5085db-52d8-44b4-8fbb-1697b24d2046"
      ],
      "collections": [
        "c7db86a0-ff64-4044-9be4-66dd1ef1d1c1"
      ],
      "franchises": [
        "1bdaa5a1-dfa6-4365-b746-7a0b194dafd6"
      ]
    },
    "titles": {
      "eng": "Tandem Tail",
      "jpn": "タンデムテイル"
    },
    "titles_default_language": "eng",
    "title": "Tandem Tail",
    "year": 2010
  }
}