{
  "header": {
    "version": 4,
    "description": "Karaoke Mugen Karaoke Data File"
  },
  "medias": [
    {
      "version": "Default",
      "filename": "JPN - Yumi Matsutouya - MV - Haru yo, Koi.mp4",
      "audiogain": -6.34,
      "loudnorm": "-12.34,0.89,8.60,-22.61,-1.50",
      "filesize": 20298930,
      "duration": 278,
      "default": true,
      "lyrics": [
        {
          "filename": "JPN - Yumi Matsutouya - MV - Haru yo, Koi.ass",
          "default": true,
          "version": "Default"
        }
      ]
    }
  ],
  "data": {
    "created_at": "2022-07-21T14:31:58.535Z",
    "ignoreHooks": false,
    "kid": "ef0de7fb-6439-4b47-a86f-550756ffd452",
    "modified_at": "2022-07-21T14:43:55.067Z",
    "repository": "kara.moe",
    "tags": {
      "authors": [
        "49ef8a8f-2169-416f-b45c-06a385aad707"
      ],
      "collections": [
        "dbcf2c22-524d-4708-99bb-601703633927"
      ],
      "creators": [
        "76505349-8ced-40ad-936d-c5bd3e92b1f7"
      ],
      "families": [
        "5391f9fe-638c-415f-8dc9-958e3a2c5787"
      ],
      "groups": [
        "24db50aa-a126-4d34-a48a-e45db79c4245",
        "df5f446f-d161-4760-8e0c-822e70ea03ae"
      ],
      "langs": [
        "4dcf9614-7914-42aa-99f4-dbce2e059133"
      ],
      "singers": [
        "09554d1d-2de2-443f-985d-2a6ae612bedb"
      ],
      "songtypes": [
        "7be1b15c-cff8-4b37-a649-5c90f3d569a9"
      ],
      "songwriters": [
        "09554d1d-2de2-443f-985d-2a6ae612bedb"
      ]
    },
    "titles": {
      "jpn": "春よ、来い",
      "qro": "Haru yo, Koi"
    },
    "titles_default_language": "qro",
    "title": "Haru yo, Koi",
    "year": 1994
  }
}