{
  "header": {
    "version": 4,
    "description": "Karaoke Mugen Karaoke Data File"
  },
  "medias": [
    {
      "version": "Default",
      "filename": "JPN - Gintama0 - OP4 - Beautiful Days.mp4",
      "audiogain": 2.24,
      "loudnorm": "-19.36,-4.71,3.20,-29.42,-0.54",
      "filesize": 46164658,
      "duration": 92,
      "default": true,
      "lyrics": [
        {
          "filename": "JPN - Gintama0 - OP4 - Beautiful Days.ass",
          "default": true,
          "version": "Default",
          "subchecksum": "45780a545f3685d9199d836da9421e15"
        }
      ]
    }
  ],
  "data": {
    "created_at": "2017-10-11T17:01:59.000Z",
    "kid": "2e9cb70f-b97a-4fb3-825f-28236006838a",
    "modified_at": "2021-02-25T11:29:17.202Z",
    "repository": "kara.moe",
    "songorder": 4,
    "tags": {
      "authors": [
        "5bdaba57-27f8-4568-8806-76a807728766"
      ],
      "collections": [
        "c7db86a0-ff64-4044-9be4-66dd1ef1d1c1"
      ],
      "creators": [
        "4d17b0cf-92fd-4ab3-8035-8a260a772e51"
      ],
      "families": [
        "0377db02-3af6-43b8-9b08-c759df3d25c3"
      ],
      "genres": [
        "a0aeef4a-6428-45ff-a6e1-468b595930c2"
      ],
      "groups": [
        "ae613721-1fbe-480d-ba6b-d6d0702b184d"
      ],
      "langs": [
        "4dcf9614-7914-42aa-99f4-dbce2e059133"
      ],
      "origins": [
        "938de218-5343-4865-94d3-fb33f2eaa152"
      ],
      "series": [
        "b8ed397b-b120-4cd1-9913-56f6c3255d88"
      ],
      "singers": [
        "6983e525-1141-41a4-8d0c-a9a2c142277e"
      ],
      "songtypes": [
        "f02ad9b3-0bd9-4aad-85b3-9976739ba0e4"
      ],
      "songwriters": [
        "92a350d9-f6cb-4d91-82f1-1728967f56e1"
      ],
      "franchises": [
        "0433ab0b-74bb-4837-8f1b-fd17a9e0c526"
      ]
    },
    "title": "Beautiful Days",
    "titles": {
      "eng": "Beautiful Days"
    },
    "year": 2015,
    "titles_default_language": "eng"
  }
}