{
  "header": {
    "version": 4,
    "description": "Karaoke Mugen Karaoke Data File"
  },
  "medias": [
    {
      "version": "Default",
      "filename": "JPN - Touhou - MV - Blazing Heart (Gin no Meguri).mp4",
      "audiogain": -9.4,
      "loudnorm": "-6.89,1.13,0.90,-17.00,-0.29",
      "filesize": 33985350,
      "duration": 199,
      "default": true,
      "lyrics": [
        {
          "filename": "JPN - Touhou - MV - Blazing Heart (Gin no Meguri).ass",
          "default": true,
          "version": "Default",
          "subchecksum": "aad2975ab863c7ce91fb9cd3d97bfe3e"
        }
      ]
    }
  ],
  "data": {
    "created_at": "2017-10-11T17:03:13.000Z",
    "kid": "d3a6f3d8-928f-49dc-9d49-cc5be5faef74",
    "modified_at": "2021-02-25T13:27:29.530Z",
    "repository": "kara.moe",
    "tags": {
      "authors": [
        "5bdaba57-27f8-4568-8806-76a807728766"
      ],
      "collections": [
        "c7db86a0-ff64-4044-9be4-66dd1ef1d1c1"
      ],
      "creators": [
        "dfdca219-b7f2-4e7b-a18a-0229108ff1cd"
      ],
      "families": [
        "0377db02-3af6-43b8-9b08-c759df3d25c3"
      ],
      "groups": [
        "3c14c864-533c-49e6-a3cc-6969f1233775"
      ],
      "langs": [
        "4dcf9614-7914-42aa-99f4-dbce2e059133"
      ],
      "origins": [
        "ac5085db-52d8-44b4-8fbb-1697b24d2046"
      ],
      "series": [
        "1bdaa5a1-dfa6-4365-b746-7a0b194dafd6"
      ],
      "singers": [
        "65860881-335a-4551-8df8-fa56ee102579"
      ],
      "songtypes": [
        "7be1b15c-cff8-4b37-a649-5c90f3d569a9"
      ],
      "songwriters": [
        "26ad2a9d-5ee1-4065-ac16-e6b13f99574b",
        "26cb5252-8510-49e0-897c-a611a05fc056",
        "27d6df47-73c9-4643-bbc9-74abf5e85f4c"
      ],
      "franchises": [
        "1bdaa5a1-dfa6-4365-b746-7a0b194dafd6"
      ]
    },
    "title": "Blazing Heart (Gin no Meguri)",
    "titles": {
      "qro": "Blazing Heart (Gin no Meguri)",
      "jpn": "Blazing Heart (銀のめぐり)"
    },
    "year": 2009,
    "titles_default_language": "qro"
  }
}