{
  "header": {
    "version": 4,
    "description": "Karaoke Mugen Karaoke Data File"
  },
  "medias": [
    {
      "version": "Default",
      "filename": "JPN - Chrono Circle - MV - PARANOIDAL.mp4",
      "audiogain": -8.73,
      "loudnorm": "-7.50,0.93,2.90,-17.51,-2.09",
      "filesize": 94505361,
      "duration": 136,
      "default": true,
      "lyrics": [
        {
          "filename": "JPN - Chrono Circle - MV - PARANOIDAL.ass",
          "default": true,
          "version": "Default"
        }
      ]
    }
  ],
  "data": {
    "created_at": "2022-09-02T22:15:12.890Z",
    "ignoreHooks": false,
    "kid": "3d50a4ef-de86-4002-865f-3bde2587c39a",
    "modified_at": "2022-09-02T22:18:58.847Z",
    "repository": "kara.moe",
    "tags": {
      "authors": [
        "fb28c6d3-a81e-40c0-9a4c-e3268c60a64b"
      ],
      "collections": [
        "c7db86a0-ff64-4044-9be4-66dd1ef1d1c1"
      ],
      "creators": [
        "eb49131c-b890-422d-9947-0e82292801e1"
      ],
      "families": [
        "0377db02-3af6-43b8-9b08-c759df3d25c3"
      ],
      "groups": [
        "8e209ae4-4381-438f-89dc-1b21752027d2"
      ],
      "langs": [
        "4dcf9614-7914-42aa-99f4-dbce2e059133"
      ],
      "series": [
        "77885a76-4566-46ee-b681-b9a2d857ff4c"
      ],
      "singers": [
        "a6e3509f-befc-4b8b-ac1c-3614e1c32447"
      ],
      "songtypes": [
        "7be1b15c-cff8-4b37-a649-5c90f3d569a9"
      ],
      "songwriters": [
        "3059eca0-7b9f-41e0-a5a6-2e7e3be5d025",
        "a6e3509f-befc-4b8b-ac1c-3614e1c32447"
      ]
    },
    "titles": {
      "eng": "PARANOIDAL"
    },
    "titles_default_language": "eng",
    "title": "PARANOIDAL",
    "year": 2022
  }
}