{
  "header": {
    "version": 4,
    "description": "Karaoke Mugen Karaoke Data File"
  },
  "medias": [
    {
      "version": "Default",
      "filename": "JPN - Hyakko - OP - Suppin Rock.mp4",
      "audiogain": -8.33,
      "loudnorm": "-10.65,-0.11,3.40,-20.75,-0.88",
      "filesize": 21392225,
      "duration": 90,
      "default": true,
      "lyrics": [
        {
          "filename": "JPN - Hyakko - OP - Suppin Rock.ass",
          "default": true,
          "version": "Default",
          "subchecksum": "630bd75e525626cfeca03e1c58066f3d"
        }
      ]
    }
  ],
  "data": {
    "created_at": "2018-08-27T19:26:05.000Z",
    "kid": "afa80f31-e823-4b83-bc14-2ddb52c1cbda",
    "modified_at": "2021-02-25T11:44:24.940Z",
    "repository": "kara.moe",
    "tags": {
      "authors": [
        "6bebcb04-2694-453c-9e0c-eb1a2e2718d9"
      ],
      "collections": [
        "c7db86a0-ff64-4044-9be4-66dd1ef1d1c1"
      ],
      "creators": [
        "5a4e74b0-c9ca-4f09-84fc-e2cb9854ebd6"
      ],
      "families": [
        "0377db02-3af6-43b8-9b08-c759df3d25c3"
      ],
      "groups": [
        "3c14c864-533c-49e6-a3cc-6969f1233775"
      ],
      "langs": [
        "4dcf9614-7914-42aa-99f4-dbce2e059133"
      ],
      "origins": [
        "938de218-5343-4865-94d3-fb33f2eaa152"
      ],
      "series": [
        "0a619337-d188-4480-8e92-bed77dd3cd66"
      ],
      "singers": [
        "d8ae7b0c-40dd-4805-a275-922cc13f1e9b"
      ],
      "songtypes": [
        "f02ad9b3-0bd9-4aad-85b3-9976739ba0e4"
      ],
      "songwriters": [
        "5938e181-5402-43ea-a5a0-a4ca2405705d"
      ]
    },
    "title": "Suppin Rock",
    "titles": {
      "eng": "Suppin Rock",
      "jpn": "スッピンロック"
    },
    "year": 2008,
    "titles_default_language": "eng"
  }
}