{
  "header": {
    "version": 4,
    "description": "Karaoke Mugen Karaoke Data File"
  },
  "medias": [
    {
      "version": "Default",
      "filename": "JPN - Hatsune Miku ~ Project DIVA Arcade Future Tone - GAME PS4 MV - Clover Club.mp4",
      "audiogain": 1.3,
      "loudnorm": "-19.26,-7.14,4.00,-29.38,-0.63",
      "filesize": 103373335,
      "duration": 182,
      "default": true,
      "lyrics": [
        {
          "filename": "JPN - Hatsune Miku ~ Project DIVA Arcade Future Tone - GAME PS4 MV - Clover Club.ass",
          "default": true,
          "version": "Default"
        }
      ]
    }
  ],
  "data": {
    "created_at": "2021-09-11T22:14:08.470Z",
    "ignoreHooks": false,
    "kid": "7be87877-e083-463f-867a-aea9f3d66b15",
    "modified_at": "2022-01-27T11:30:14.658Z",
    "repository": "kara.moe",
    "tags": {
      "authors": [
        "8605a8b9-3b45-44b9-9d98-1a25096bf702"
      ],
      "collections": [
        "c7db86a0-ff64-4044-9be4-66dd1ef1d1c1"
      ],
      "creators": [
        "b8a3778d-0864-4135-9053-1def02d3262e"
      ],
      "genres": [
        "45623cae-6d68-4304-a49b-896d1d6f4580"
      ],
      "groups": [
        "ae613721-1fbe-480d-ba6b-d6d0702b184d"
      ],
      "langs": [
        "4dcf9614-7914-42aa-99f4-dbce2e059133"
      ],
      "platforms": [
        "248d92ee-8c02-43bc-86e2-cc6029883564"
      ],
      "series": [
        "10b144ba-23b0-412a-9d78-253af4ee10ae"
      ],
      "singers": [
        "4407ba0e-5de7-4add-870f-7ac95a4804c9"
      ],
      "songtypes": [
        "7be1b15c-cff8-4b37-a649-5c90f3d569a9"
      ],
      "songwriters": [
        "d53852f2-9dd8-4858-be7c-644e67f39ef5"
      ],
      "franchises": [
        "d28af18d-d544-4d0f-b955-99e6914230f2"
      ],
      "origins": [
        "dbedd6b3-d125-4cd8-aa32-c4175e4ca3a3"
      ]
    },
    "titles": {
      "eng": "Clover♣Club",
      "jpn": "クローバー♣クラブ"
    },
    "titles_aliases": [
      "Clover Club"
    ],
    "title": "Clover♣Club",
    "year": 2013,
    "titles_default_language": "eng"
  }
}