{
  "header": {
    "version": 4,
    "description": "Karaoke Mugen Karaoke Data File"
  },
  "medias": [
    {
      "version": "Default",
      "filename": "JPN - Sakura Taisen 3 Paris wa Moeteiru ka - PS2 PC DC GAME ED - Mirai (Voyage).mp4",
      "audiogain": -7.29,
      "loudnorm": "-10.94,0.24,15.10,-21.67,-1.98",
      "filesize": 37830005,
      "duration": 487,
      "default": true,
      "lyrics": [
        {
          "filename": "JPN - Sakura Taisen 3 Paris wa Moeteiru ka - PS2 PC DC GAME ED - Mirai (Voyage).ass",
          "default": true,
          "version": "Default",
          "subchecksum": "3c956185abb5b21e67bf2fd411774648"
        }
      ]
    }
  ],
  "data": {
    "created_at": "2021-01-19T01:19:03.717Z",
    "kid": "912e9a01-c72f-4587-b446-9e4e982cd7db",
    "modified_at": "2021-03-24T18:25:01.183Z",
    "repository": "kara.moe",
    "tags": {
      "authors": [
        "1df04771-a378-4f14-a5e1-1455187d681a"
      ],
      "collections": [
        "c7db86a0-ff64-4044-9be4-66dd1ef1d1c1"
      ],
      "creators": [
        "500e2283-ec1c-46cf-a559-8e11e3e86d99",
        "b8a3778d-0864-4135-9053-1def02d3262e",
        "ea2c97ab-72a6-4867-a3a7-1e7f0dfbcfc6"
      ],
      "genres": [
        "f60ba57d-5ef4-49e0-b93b-d0dcbcff6592"
      ],
      "groups": [
        "3c14c864-533c-49e6-a3cc-6969f1233775"
      ],
      "langs": [
        "4dcf9614-7914-42aa-99f4-dbce2e059133"
      ],
      "misc": [
        "86705d4b-24e4-4756-9687-2b9c98bcf366"
      ],
      "origins": [
        "2f96e82c-c61b-4413-817e-e6b247509b95",
        "dbedd6b3-d125-4cd8-aa32-c4175e4ca3a3"
      ],
      "platforms": [
        "2173004e-21da-45c9-9dfb-26014423c566",
        "3c15f758-e1bc-4266-8bb9-3c14112f504a",
        "cf4a3dd9-affa-49b4-ad4c-67cbadf09c8d"
      ],
      "series": [
        "0f249c53-0ce0-4d64-8ed0-50586148b8f9"
      ],
      "singers": [
        "45d60c9a-d4a2-4fcc-b101-24005218f36e",
        "5fe433a6-1604-4892-b859-b71bc8212b78",
        "6fbd9a22-5015-4f6d-9d67-a81c2291ac55",
        "8f7f8994-bfef-4fc9-b2e7-a0eeffbca01e",
        "9eba9b17-ad7f-4b5b-876c-3e5c0254c9d4"
      ],
      "songtypes": [
        "38c77c56-2b95-4040-b676-0994a8cb0597"
      ],
      "songwriters": [
        "2461dcff-0d44-481a-9841-a8ae3e3d53db",
        "7cc5d197-4923-4d92-a0e8-deffcf49b1cf",
        "cca6b208-8bfa-406a-a3cd-0da1132df38b"
      ],
      "franchises": [
        "3843ae35-0d40-4fef-9bda-0c222c2e5682"
      ]
    },
    "title": "Mirai (Voyage)",
    "titles": {
      "qro": "Mirai (Voyage)",
      "jpn": "未来 (ボヤージュ)"
    },
    "year": 2001,
    "titles_default_language": "qro"
  }
}