{
  "header": {
    "version": 4,
    "description": "Karaoke Mugen Karaoke Data File"
  },
  "medias": [
    {
      "version": "Default",
      "filename": "JPN - Tejina senpai - OP - FANTASTIC ILLUSION.mp4",
      "audiogain": 1.57,
      "loudnorm": "-19.40,-9.46,4.00,-29.51,-0.41",
      "filesize": 28173565,
      "duration": 59,
      "default": true,
      "lyrics": [
        {
          "filename": "JPN - Tejina senpai - OP - FANTASTIC ILLUSION.ass",
          "default": true,
          "version": "Default"
        }
      ]
    }
  ],
  "data": {
    "created_at": "2019-08-03T00:52:24.000Z",
    "ignoreHooks": false,
    "kid": "897e0dee-7fa5-469b-8109-ecd8147e8e07",
    "modified_at": "2022-10-23T15:54:55.379Z",
    "repository": "kara.moe",
    "tags": {
      "authors": [
        "06852e02-b77e-4106-b6f7-2d03942ad0ea"
      ],
      "collections": [
        "c7db86a0-ff64-4044-9be4-66dd1ef1d1c1"
      ],
      "creators": [
        "58186e9d-9478-47dc-8c95-eeea5c0a3317"
      ],
      "families": [
        "0377db02-3af6-43b8-9b08-c759df3d25c3"
      ],
      "groups": [
        "ae613721-1fbe-480d-ba6b-d6d0702b184d"
      ],
      "langs": [
        "4dcf9614-7914-42aa-99f4-dbce2e059133"
      ],
      "origins": [
        "938de218-5343-4865-94d3-fb33f2eaa152"
      ],
      "series": [
        "de3dfba6-ad3f-4798-bc26-d52661c912b8"
      ],
      "singers": [
        "50ace48d-4f9f-47e6-894d-5d66c9fd2014",
        "5d3e8ad0-0315-423b-a6cf-4ebed7ad5093",
        "7e4bddde-27db-412b-b37d-678d367864af",
        "8f4dc795-4e05-4e8f-a5fc-61e45e229402",
        "92adbbb5-d77d-4ab5-9ea6-81cb0f04800a",
        "ccf6ab16-cd54-4031-a2c3-b67242b54518"
      ],
      "singergroups": [
        "d1824d3d-fe54-4fea-b529-355f7b6517f7"
      ],
      "songtypes": [
        "f02ad9b3-0bd9-4aad-85b3-9976739ba0e4"
      ],
      "songwriters": [
        "49f64535-e5e1-41c7-82f1-a70216bf02fd"
      ]
    },
    "titles": {
      "eng": "FANTASTIC ILLUSION"
    },
    "titles_default_language": "eng",
    "title": "FANTASTIC ILLUSION",
    "year": 2019
  }
}