{
  "header": {
    "version": 4,
    "description": "Karaoke Mugen Karaoke Data File"
  },
  "medias": [
    {
      "version": "Default",
      "filename": "JPN - Ijiranaide, Nagatoro-san 2nd Attack - OP - LOVE CRAZY.mp4",
      "audiogain": -0.84,
      "loudnorm": "-15.62,-6.09,3.00,-25.78,-0.49",
      "filesize": 83085890,
      "duration": 90,
      "default": true,
      "lyrics": [
        {
          "filename": "JPN - Ijiranaide, Nagatoro-san 2nd Attack - OP - LOVE CRAZY.ass",
          "default": true,
          "version": "Default"
        }
      ]
    }
  ],
  "data": {
    "created_at": "2023-03-28T20:59:59.865Z",
    "ignoreHooks": false,
    "kid": "e945420a-7088-4335-ad76-2f65215a4d0d",
    "modified_at": "2023-04-13T17:59:28.124Z",
    "repository": "kara.moe",
    "tags": {
      "authors": [
        "db16cbb8-82a6-4bed-893f-c915b6bc12b4"
      ],
      "collections": [
        "c7db86a0-ff64-4044-9be4-66dd1ef1d1c1"
      ],
      "creators": [
        "03fe574b-c7f5-4520-96dc-47320c39e2cc"
      ],
      "families": [
        "0377db02-3af6-43b8-9b08-c759df3d25c3"
      ],
      "groups": [
        "8e209ae4-4381-438f-89dc-1b21752027d2"
      ],
      "langs": [
        "4dcf9614-7914-42aa-99f4-dbce2e059133"
      ],
      "misc": [
        "fe819ff1-9db8-4a0f-85dc-0e322c9126c4"
      ],
      "origins": [
        "938de218-5343-4865-94d3-fb33f2eaa152"
      ],
      "series": [
        "33cd4996-f2bd-402f-9a9c-d07d1f048e7c"
      ],
      "singers": [
        "9332cf9e-20a6-4738-98a2-f6ef30529681"
      ],
      "songtypes": [
        "f02ad9b3-0bd9-4aad-85b3-9976739ba0e4"
      ],
      "songwriters": [
        "9198b777-ec49-421e-bea8-18f8455b050e",
        "eb9b25fa-13a5-47e5-b7bb-af996291b4f4"
      ],
      "franchises": [
        "a86c4b91-6f70-4c8c-9f74-9a9e27a30d24"
      ]
    },
    "titles": {
      "eng": "LOVE CRAZY"
    },
    "titles_default_language": "eng",
    "year": 2023
  }
}