{
  "header": {
    "version": 4,
    "description": "Karaoke Mugen Karaoke Data File"
  },
  "medias": [
    {
      "version": "Default",
      "filename": "JPN - Project SEKAI COLORFUL STAGE! - GAME MV - Lost One's Weeping ~ Cover Short Vers.mp4",
      "audiogain": -10.81,
      "loudnorm": "-6.90,1.35,3.80,-17.02,-0.19",
      "filesize": 71810603,
      "duration": 108,
      "default": true,
      "lyrics": [
        {
          "filename": "JPN - Project SEKAI COLORFUL STAGE! - GAME MV - Lost One's Weeping ~ Cover Short Vers.ass",
          "default": true,
          "version": "Default"
        }
      ]
    }
  ],
  "data": {
    "created_at": "2021-10-06T20:57:48.620Z",
    "ignoreHooks": false,
    "kid": "1b085277-43d9-4b81-a712-a26ef9bb373e",
    "modified_at": "2022-12-26T21:10:40.898Z",
    "repository": "kara.moe",
    "tags": {
      "authors": [
        "5a629611-96b4-422c-b309-ba7a58e263a2",
        "63d193aa-c3b3-4858-a7c9-d505d478dc3d"
      ],
      "collections": [
        "c7db86a0-ff64-4044-9be4-66dd1ef1d1c1"
      ],
      "creators": [
        "1e5648fb-22fc-474d-b865-254eb31fa000"
      ],
      "genres": [
        "45623cae-6d68-4304-a49b-896d1d6f4580"
      ],
      "groups": [
        "8e209ae4-4381-438f-89dc-1b21752027d2"
      ],
      "langs": [
        "4dcf9614-7914-42aa-99f4-dbce2e059133"
      ],
      "misc": [
        "1d6ceadf-a885-47e5-b23b-c07bf668a424",
        "ec4fee75-71fb-45b4-9772-2ca374b4b600"
      ],
      "platforms": [
        "213a1a15-e73a-4a08-b3f6-b6e2745a82e5"
      ],
      "series": [
        "192b33fb-638a-4680-bdb2-a5adb9889849"
      ],
      "singers": [
        "45350754-a9ee-4836-a3ab-a88a43e419e8",
        "c300a86a-ce96-4eeb-9852-9a02750a60cf",
        "dbb8d613-a120-46c7-bb42-bc6c1efb61f7"
      ],
      "singergroups": [
        "fbfee5ed-dbac-4e0a-861b-b4a40d32ef6e"
      ],
      "songtypes": [
        "7be1b15c-cff8-4b37-a649-5c90f3d569a9"
      ],
      "songwriters": [
        "668bfa85-e060-48c1-9fe2-5b844b84c218"
      ],
      "versions": [
        "03e1e1d2-8641-47b7-bbcb-39a3df9ff21c",
        "d125c80a-86c1-4321-88e9-07b7800679b6"
      ],
      "origins": [
        "dbedd6b3-d125-4cd8-aa32-c4175e4ca3a3"
      ]
    },
    "titles": {
      "eng": "Lost One's Weeping",
      "jpn": "ロストワンの号哭",
      "qro": "Lost One no Gôkoku"
    },
    "titles_default_language": "eng",
    "titles_aliases": [
      "Goukoku"
    ],
    "year": 2021
  }
}