{
  "header": {
    "version": 4,
    "description": "Karaoke Mugen Karaoke Data File"
  },
  "medias": [
    {
      "version": "Default",
      "filename": "JPN - GigaP, Reol (person) - MV - drop pop candy.mp4",
      "audiogain": -9.6,
      "loudnorm": "-6.24,4.08,3.20,-16.25,-0.44",
      "filesize": 16124520,
      "duration": 227,
      "default": true,
      "lyrics": [
        {
          "filename": "JPN - GigaP, Reol (person) - MV - drop pop candy.ass",
          "default": true,
          "version": "Default"
        }
      ]
    }
  ],
  "data": {
    "created_at": "2019-09-10T01:32:45.000Z",
    "ignoreHooks": false,
    "kid": "7fbeb5f7-7c8f-4857-9768-d6201ae80290",
    "modified_at": "2023-02-05T12:41:31.094Z",
    "repository": "kara.moe",
    "tags": {
      "authors": [
        "244ec47a-1d4d-472d-9588-67e859bf27df"
      ],
      "collections": [
        "c7db86a0-ff64-4044-9be4-66dd1ef1d1c1"
      ],
      "creators": [
        "9c140043-1d86-4656-9b99-7195261d78b1"
      ],
      "families": [
        "0377db02-3af6-43b8-9b08-c759df3d25c3"
      ],
      "genres": [
        "45623cae-6d68-4304-a49b-896d1d6f4580"
      ],
      "groups": [
        "8c22c899-b3ed-42da-a548-ce00f950798b",
        "ae613721-1fbe-480d-ba6b-d6d0702b184d"
      ],
      "langs": [
        "4dcf9614-7914-42aa-99f4-dbce2e059133"
      ],
      "misc": [
        "1d6ceadf-a885-47e5-b23b-c07bf668a424"
      ],
      "singers": [
        "2ba229cc-c4ce-4722-8ee0-6f18800e09b4",
        "ff1aec1d-751a-40ff-bbff-a3f0fd5e9749"
      ],
      "songtypes": [
        "7be1b15c-cff8-4b37-a649-5c90f3d569a9"
      ],
      "songwriters": [
        "2ba229cc-c4ce-4722-8ee0-6f18800e09b4",
        "466ad700-8ba6-4dea-80a7-c0b763548a72"
      ]
    },
    "titles": {
      "eng": "drop pop candy"
    },
    "titles_default_language": "eng",
    "year": 2014
  }
}