{
  "header": {
    "version": 4,
    "description": "Karaoke Mugen Karaoke Data File"
  },
  "medias": [
    {
      "version": "Default",
      "filename": "JPN - Mahou Shoujo Madoka Magica - ED3 - and I'm home.mp4",
      "audiogain": 0.87,
      "loudnorm": "-18.33,-8.60,6.30,-28.85,-1.11",
      "filesize": 20040187,
      "duration": 92,
      "default": true,
      "lyrics": [
        {
          "filename": "JPN - Mahou Shoujo Madoka Magica - ED3 - and I'm home.ass",
          "default": true,
          "version": "Default"
        }
      ]
    }
  ],
  "data": {
    "created_at": "2017-10-11T17:01:52.000Z",
    "ignoreHooks": false,
    "kid": "8179908b-8ae6-4c16-ab93-ae73074690d4",
    "modified_at": "2023-04-27T21:08:28.160Z",
    "repository": "kara.moe",
    "songorder": 3,
    "tags": {
      "authors": [
        "fa399f2f-ea1d-4902-8796-ea6d8218aff0"
      ],
      "collections": [
        "c7db86a0-ff64-4044-9be4-66dd1ef1d1c1"
      ],
      "creators": [
        "c3bd80ef-d1fe-427f-913f-a2ba2fe66114"
      ],
      "families": [
        "0377db02-3af6-43b8-9b08-c759df3d25c3"
      ],
      "genres": [
        "b84e28f9-db1e-447f-b339-7954c3592523"
      ],
      "groups": [
        "ae613721-1fbe-480d-ba6b-d6d0702b184d"
      ],
      "langs": [
        "4dcf9614-7914-42aa-99f4-dbce2e059133"
      ],
      "misc": [
        "fe819ff1-9db8-4a0f-85dc-0e322c9126c4"
      ],
      "origins": [
        "938de218-5343-4865-94d3-fb33f2eaa152"
      ],
      "series": [
        "c31a2b6a-96f5-4244-bce3-e04cd8b5c2ae"
      ],
      "singers": [
        "2b32d4b1-3b3a-4081-a3eb-a5ed652b9570",
        "9fcbf4f4-a7aa-49eb-b5ec-4bda64c16c93"
      ],
      "songtypes": [
        "38c77c56-2b95-4040-b676-0994a8cb0597"
      ],
      "songwriters": [
        "b08f2c69-8493-4187-a86d-495b91f1a6a5"
      ],
      "franchises": [
        "c31a2b6a-96f5-4244-bce3-e04cd8b5c2ae"
      ]
    },
    "titles": {
      "eng": "and I'm home"
    },
    "titles_default_language": "eng",
    "year": 2011
  }
}