{
  "header": {
    "version": 4,
    "description": "Karaoke Mugen Karaoke Data File"
  },
  "medias": [
    {
      "version": "Default",
      "filename": "JPN - YOASOBI - MV - RGB ~ Full Off Vocal Vers.mp4",
      "audiogain": -8.38,
      "loudnorm": "-7.89,1.36,3.90,-17.95,-0.18",
      "filesize": 77726655,
      "duration": 225,
      "default": true,
      "lyrics": [
        {
          "filename": "JPN - YOASOBI - MV - RGB ~ Full Off Vocal Vers.ass",
          "default": true,
          "version": "Default"
        }
      ]
    }
  ],
  "data": {
    "created_at": "2022-11-19T23:43:20.806Z",
    "ignoreHooks": false,
    "kid": "88b50e3b-1ecc-4185-9504-c66a5dff956c",
    "modified_at": "2022-11-19T23:43:39.765Z",
    "parents": [
      "afc621ac-aff7-44d5-8d48-b64aae05c1e5"
    ],
    "repository": "kara.moe",
    "tags": {
      "authors": [
        "e4cf4923-113a-4d74-a0b5-277b6090bd6f",
        "90698f28-1d62-4673-82c4-33ae96b1ba97"
      ],
      "collections": [
        "c7db86a0-ff64-4044-9be4-66dd1ef1d1c1"
      ],
      "creators": [
        "43cebb4a-845f-449b-bbd0-d97d96d97cb4"
      ],
      "families": [
        "0377db02-3af6-43b8-9b08-c759df3d25c3"
      ],
      "groups": [
        "8e209ae4-4381-438f-89dc-1b21752027d2"
      ],
      "langs": [
        "4dcf9614-7914-42aa-99f4-dbce2e059133"
      ],
      "singers": [
        "92d1e6ad-8f3c-4ace-a028-d78798510043"
      ],
      "singergroups": [
        "e028a7e9-d3f2-4df7-a6ba-c7f78e98b549"
      ],
      "songtypes": [
        "7be1b15c-cff8-4b37-a649-5c90f3d569a9"
      ],
      "songwriters": [
        "ac03c264-7085-486b-a47f-3e7574e51a33"
      ],
      "versions": [
        "c0cc87b9-55b9-40f0-878a-fbb9e34c151e",
        "c2143a7f-6970-450e-8a79-0302db9220a9"
      ]
    },
    "titles": {
      "eng": "RGB",
      "jpn": "三原色",
      "qro": "Sangenshoku"
    },
    "titles_default_language": "eng",
    "year": 2021
  }
}