{
  "header": {
    "version": 4,
    "description": "Karaoke Mugen Karaoke Data File"
  },
  "medias": [
    {
      "version": "Default",
      "filename": "JPN - Miku Hatsune - MV - Bug.mp4",
      "audiogain": -13.36,
      "loudnorm": "-4.10,3.29,3.60,-14.18,-0.51",
      "filesize": 35972155,
      "duration": 170,
      "default": true,
      "lyrics": [
        {
          "filename": "JPN - Miku Hatsune - MV - Bug.ass",
          "default": true,
          "version": "Default"
        }
      ]
    }
  ],
  "data": {
    "created_at": "2022-07-25T11:21:56.007Z",
    "ignoreHooks": false,
    "kid": "5f0197b9-760e-415f-a913-05f785fe9cf8",
    "modified_at": "2022-07-31T13:05:39.180Z",
    "parents": [
      "6c7a8944-dcaa-41df-804d-df89cf5cdded"
    ],
    "repository": "kara.moe",
    "tags": {
      "authors": [
        "10891649-d475-46eb-b515-8eb3c1e14622"
      ],
      "collections": [
        "c7db86a0-ff64-4044-9be4-66dd1ef1d1c1"
      ],
      "creators": [
        "021aab8c-5dd0-41a5-8214-cc628ac818f9"
      ],
      "families": [
        "0377db02-3af6-43b8-9b08-c759df3d25c3"
      ],
      "genres": [
        "45623cae-6d68-4304-a49b-896d1d6f4580"
      ],
      "groups": [
        "8e209ae4-4381-438f-89dc-1b21752027d2"
      ],
      "langs": [
        "4dcf9614-7914-42aa-99f4-dbce2e059133"
      ],
      "singers": [
        "4407ba0e-5de7-4add-870f-7ac95a4804c9"
      ],
      "songtypes": [
        "7be1b15c-cff8-4b37-a649-5c90f3d569a9"
      ],
      "songwriters": [
        "ce4a49a7-38bb-4620-bc81-5074a6a49747"
      ]
    },
    "titles": {
      "eng": "Bug",
      "jpn": "バグ"
    },
    "titles_default_language": "eng",
    "title": "Bug",
    "year": 2022
  }
}