{
  "header": {
    "version": 4,
    "description": "Karaoke Mugen Karaoke Data File"
  },
  "medias": [
    {
      "version": "Default",
      "filename": "JPN - IDOLiSH7 - GAME MV - Re-raise.mp4",
      "audiogain": -9.6,
      "loudnorm": "-8.14,1.37,13.60,-19.17,-0.78",
      "filesize": 67325661,
      "duration": 219,
      "default": true,
      "lyrics": [
        {
          "filename": "JPN - IDOLiSH7 - GAME MV - Re-raise.ass",
          "default": true,
          "version": "Default",
          "subchecksum": "5c96d9e5642d05a5d73b90c169064bc8"
        }
      ]
    }
  ],
  "data": {
    "created_at": "2020-02-01T22:48:40.000Z",
    "kid": "cab8da83-b518-44c0-b1ec-b2e63a1a67e3",
    "modified_at": "2021-02-25T11:46:10.936Z",
    "repository": "kara.moe",
    "tags": {
      "authors": [
        "2a9bbf75-0722-4b4a-9935-caa92f38fdd1"
      ],
      "collections": [
        "c7db86a0-ff64-4044-9be4-66dd1ef1d1c1"
      ],
      "creators": [
        "0f5ce160-2792-43ba-ac7d-1613b8c9ac61"
      ],
      "genres": [
        "caa86df2-0d59-474b-885c-f240a9e891b0"
      ],
      "groups": [
        "8e209ae4-4381-438f-89dc-1b21752027d2"
      ],
      "langs": [
        "4dcf9614-7914-42aa-99f4-dbce2e059133"
      ],
      "platforms": [
        "213a1a15-e73a-4a08-b3f6-b6e2745a82e5"
      ],
      "series": [
        "f10b60e8-7eb3-483e-be70-e31721a08c61"
      ],
      "singers": [
        "31bbd9f7-7d0d-4046-9e69-2d1988cd9fac",
        "6629ed88-fdf2-438f-a180-69c86b7e7b49",
        "cc02b0bf-6c89-485a-8a96-2468911d5502"
      ],
      "songtypes": [
        "7be1b15c-cff8-4b37-a649-5c90f3d569a9"
      ],
      "songwriters": [
        "22a5db16-6526-4796-89f5-77fdcf0d1aac",
        "96e2782b-f511-49f0-af9b-ccae0606df04",
        "dc4c9e3c-e1ff-4397-9312-6f04e79ef712"
      ],
      "origins": [
        "dbedd6b3-d125-4cd8-aa32-c4175e4ca3a3"
      ]
    },
    "title": "Re-raise",
    "titles": {
      "eng": "Re-raise"
    },
    "year": 2020,
    "titles_default_language": "eng"
  }
}