{
  "header": {
    "version": 4,
    "description": "Karaoke Mugen Karaoke Data File"
  },
  "medias": [
    {
      "version": "Default",
      "filename": "JPN - Love Live! Sunshine!! - IN - SELF CONTROL!!.mp4",
      "audiogain": -0.99,
      "loudnorm": "-16.33,-7.41,4.20,-26.50,-0.99",
      "filesize": 21726674,
      "duration": 87,
      "default": true,
      "lyrics": [
        {
          "filename": "JPN - Love Live! Sunshine!! - IN - SELF CONTROL!!.ass",
          "default": true,
          "version": "Default",
          "subchecksum": "d6591bbe659f4779d3d1f6f4b1393b06"
        }
      ]
    }
  ],
  "data": {
    "created_at": "2018-06-18T19:40:28.000Z",
    "kid": "e7538b09-761d-47b5-976a-18a1e650af19",
    "modified_at": "2021-02-25T12:13:42.690Z",
    "repository": "kara.moe",
    "tags": {
      "authors": [
        "b62bd925-89e4-4ee4-ba4c-80de93e831b8"
      ],
      "collections": [
        "c7db86a0-ff64-4044-9be4-66dd1ef1d1c1"
      ],
      "creators": [
        "ef8f80e1-d244-4aea-b7f0-984d6dd4b82b"
      ],
      "families": [
        "0377db02-3af6-43b8-9b08-c759df3d25c3"
      ],
      "genres": [
        "caa86df2-0d59-474b-885c-f240a9e891b0"
      ],
      "groups": [
        "8c22c899-b3ed-42da-a548-ce00f950798b",
        "ae613721-1fbe-480d-ba6b-d6d0702b184d"
      ],
      "langs": [
        "4dcf9614-7914-42aa-99f4-dbce2e059133"
      ],
      "origins": [
        "938de218-5343-4865-94d3-fb33f2eaa152"
      ],
      "series": [
        "63466536-1102-4f91-b167-4380d274e2a3"
      ],
      "singers": [
        "a1ab013b-21fc-4fe1-a061-897bd0b490fb"
      ],
      "songtypes": [
        "5e5250d9-351a-4a82-98eb-55db50ad8962"
      ],
      "songwriters": [
        "e9ecf976-90f3-4139-b85e-6d7d2451df6a",
        "f41e7218-6c19-4e19-9b5f-4612dcd58243"
      ],
      "franchises": [
        "fd5d066e-e85a-4eea-8688-2979a887450a"
      ]
    },
    "title": "SELF CONTROL!!",
    "titles": {
      "eng": "SELF CONTROL!!"
    },
    "year": 2016,
    "titles_default_language": "eng"
  }
}