{
  "header": {
    "version": 4,
    "description": "Karaoke Mugen Karaoke Data File"
  },
  "medias": [
    {
      "version": "Default",
      "filename": "JPN - Nande Koko ni Sensei ga! question_mark - OP - Bon Kyu Bon wa Kare no Mono.mp4",
      "audiogain": 2.48,
      "loudnorm": "-19.75,-7.90,8.00,-30.58,-0.47",
      "filesize": 28429041,
      "duration": 90,
      "default": true,
      "lyrics": [
        {
          "filename": "JPN - Nande Koko ni Sensei ga! question_mark - OP - Bon Kyu Bon wa Kare no Mono.ass",
          "default": true,
          "version": "Default",
          "subchecksum": "a02e0c69e8c3c6fb3801d5e2739b4158"
        }
      ]
    }
  ],
  "data": {
    "created_at": "2020-01-15T14:06:27.013Z",
    "kid": "d47d3cb4-058c-4e27-a1b8-ffff527fbaf1",
    "modified_at": "2021-02-25T12:32:56.762Z",
    "repository": "kara.moe",
    "tags": {
      "authors": [
        "244ec47a-1d4d-472d-9588-67e859bf27df"
      ],
      "collections": [
        "c7db86a0-ff64-4044-9be4-66dd1ef1d1c1"
      ],
      "creators": [
        "e8dc5dfd-b87f-4ee3-a35f-594133bf073b"
      ],
      "families": [
        "0377db02-3af6-43b8-9b08-c759df3d25c3"
      ],
      "groups": [
        "8c22c899-b3ed-42da-a548-ce00f950798b",
        "ae613721-1fbe-480d-ba6b-d6d0702b184d"
      ],
      "langs": [
        "4dcf9614-7914-42aa-99f4-dbce2e059133"
      ],
      "misc": [
        "fe819ff1-9db8-4a0f-85dc-0e322c9126c4"
      ],
      "origins": [
        "938de218-5343-4865-94d3-fb33f2eaa152"
      ],
      "series": [
        "e7b57729-f70c-411c-bacc-2d7404e51328"
      ],
      "singers": [
        "9332cf9e-20a6-4738-98a2-f6ef30529681"
      ],
      "songtypes": [
        "f02ad9b3-0bd9-4aad-85b3-9976739ba0e4"
      ],
      "songwriters": [
        "543c7417-367a-437b-9f5d-0274875e8132"
      ]
    },
    "title": "Bon♡Kyu♡Bon wa Kare no Mono♡",
    "titles": {
      "qro": "Bon♡Kyu♡Bon wa Kare no Mono♡",
      "jpn": "ボン♡キュッ♡ボンは彼のモノ♡"
    },
    "year": 2019,
    "titles_default_language": "qro"
  }
}