{
  "header": {
    "version": 4,
    "description": "Karaoke Mugen Karaoke Data File"
  },
  "medias": [
    {
      "version": "Default",
      "filename": "JPN - Major (2008) - ED1 - One Day.mp4",
      "audiogain": -5.92,
      "loudnorm": "-11.08,-1.26,5.10,-21.21,-0.39",
      "filesize": 21784810,
      "duration": 90,
      "default": true,
      "lyrics": [
        {
          "filename": "JPN - Major (2008) - ED1 - One Day.ass",
          "default": true,
          "version": "Default",
          "subchecksum": "9189a1f6cdba0d98566f2b280937b025"
        }
      ]
    }
  ],
  "data": {
    "created_at": "2019-07-28T17:16:55.000Z",
    "kid": "5f1cf2c1-9ee4-42d4-ab27-2a1ae1a4c468",
    "modified_at": "2021-02-25T12:20:36.299Z",
    "repository": "kara.moe",
    "songorder": 1,
    "tags": {
      "authors": [
        "42ff8105-afa5-49c2-93b6-7951877c956d"
      ],
      "collections": [
        "c7db86a0-ff64-4044-9be4-66dd1ef1d1c1"
      ],
      "creators": [
        "89712d07-0095-46b2-8399-dfcd8c837884"
      ],
      "families": [
        "0377db02-3af6-43b8-9b08-c759df3d25c3"
      ],
      "genres": [
        "a0aeef4a-6428-45ff-a6e1-468b595930c2"
      ],
      "groups": [
        "3c14c864-533c-49e6-a3cc-6969f1233775"
      ],
      "langs": [
        "4dcf9614-7914-42aa-99f4-dbce2e059133"
      ],
      "origins": [
        "938de218-5343-4865-94d3-fb33f2eaa152"
      ],
      "series": [
        "631ea8b5-6579-45c4-b1c2-b8840aaef108"
      ],
      "singers": [
        "a09a8c38-0905-4637-b53d-d2471209027a"
      ],
      "songtypes": [
        "38c77c56-2b95-4040-b676-0994a8cb0597"
      ],
      "songwriters": [
        "9800d7ea-e9f1-4822-8227-2b68ad0ac0dc"
      ],
      "franchises": [
        "eaaa382d-05c9-49b3-b971-0046ff846bbf"
      ]
    },
    "title": "One Day",
    "titles": {
      "eng": "ONE DAY"
    },
    "year": 2008,
    "titles_default_language": "eng"
  }
}