{
  "header": {
    "version": 4,
    "description": "Karaoke Mugen Karaoke Data File"
  },
  "medias": [
    {
      "version": "Default",
      "filename": "JPN - Onegai My Melody - OP - Oto Melody.mp4",
      "audiogain": 1.75,
      "loudnorm": "-19.50,-9.19,3.30,-29.56,-0.49",
      "filesize": 32855195,
      "duration": 91,
      "default": true,
      "lyrics": [
        {
          "filename": "JPN - Onegai My Melody - OP - Oto Melody.ass",
          "default": true,
          "version": "Default"
        }
      ]
    }
  ],
  "data": {
    "created_at": "2017-10-11T17:02:16.000Z",
    "kid": "a099db94-1b81-455a-b637-ff7e7986ef8c",
    "modified_at": "2021-11-05T16:23:06.915Z",
    "repository": "kara.moe",
    "tags": {
      "authors": [
        "8c22c899-b3ed-42da-a548-ce00f950798b"
      ],
      "collections": [
        "c7db86a0-ff64-4044-9be4-66dd1ef1d1c1"
      ],
      "creators": [
        "4779f8f6-191e-4045-8cce-7e8fc17e76a8"
      ],
      "families": [
        "0377db02-3af6-43b8-9b08-c759df3d25c3"
      ],
      "groups": [
        "3c14c864-533c-49e6-a3cc-6969f1233775",
        "8c22c899-b3ed-42da-a548-ce00f950798b"
      ],
      "langs": [
        "4dcf9614-7914-42aa-99f4-dbce2e059133"
      ],
      "misc": [
        "fe819ff1-9db8-4a0f-85dc-0e322c9126c4"
      ],
      "origins": [
        "938de218-5343-4865-94d3-fb33f2eaa152"
      ],
      "series": [
        "644c14bc-daa7-4754-9fa1-0279fe077ec5"
      ],
      "singers": [
        "65e3f38e-2748-4062-9b6c-07e3f5e6f740"
      ],
      "songtypes": [
        "f02ad9b3-0bd9-4aad-85b3-9976739ba0e4"
      ],
      "songwriters": [
        "42eb0891-6e00-49b0-b8af-33b42314ac86",
        "7145091d-e84a-43c2-a305-152647ac1fb0"
      ]
    },
    "titles": {
      "qro": "Oto Melody",
      "jpn": "オトメロディー"
    },
    "title": "Oto Melody",
    "year": 2005,
    "titles_default_language": "qro"
  }
}