{
  "header": {
    "version": 4,
    "description": "Karaoke Mugen Karaoke Data File"
  },
  "medias": [
    {
      "version": "Default",
      "filename": "JPN - Love Live! Superstar!! 2nd Season - AUDIO - Starry Prayer ~ Full Vers.mp3",
      "audiogain": -7.22,
      "loudnorm": "-10.04,0.57,5.60,-20.08,-0.92",
      "filesize": 10192865,
      "duration": 248,
      "default": true,
      "lyrics": [
        {
          "filename": "JPN - Love Live! Superstar!! 2nd Season - AUDIO - Starry Prayer ~ Full Vers.ass",
          "default": true,
          "version": "Default"
        }
      ]
    }
  ],
  "data": {
    "created_at": "2023-03-26T17:21:31.683Z",
    "ignoreHooks": false,
    "kid": "43bb66a0-c701-4783-a8e8-39f8c955c332",
    "modified_at": "2023-03-27T23:16:04.899Z",
    "repository": "kara.moe",
    "tags": {
      "authors": [
        "449844e4-3a1f-46e1-8a92-bf72e2d1b6f1"
      ],
      "collections": [
        "dbcf2c22-524d-4708-99bb-601703633927"
      ],
      "creators": [
        "b2805292-730e-473a-96f0-fd8e7ffd1fd7"
      ],
      "genres": [
        "caa86df2-0d59-474b-885c-f240a9e891b0"
      ],
      "groups": [
        "8e209ae4-4381-438f-89dc-1b21752027d2"
      ],
      "langs": [
        "4dcf9614-7914-42aa-99f4-dbce2e059133"
      ],
      "series": [
        "51ceccbb-3e30-4e99-b378-a0d09a5a5786"
      ],
      "singers": [
        "4e66c19f-a55a-4be7-a948-4eb45796b71f"
      ],
      "singergroups": [
        "f3e5b1d3-30b1-4548-95c8-6cf77216bdbd"
      ],
      "songtypes": [
        "42a262ae-acba-4ab5-a446-c5789c96c821"
      ],
      "songwriters": [
        "f77f4be8-1af3-4bab-9411-759dbd5bb583",
        "6e026099-f7e2-4231-bd59-6e6171640461",
        "f815085c-2d29-4e46-a7cd-d72860403d31"
      ],
      "versions": [
        "c2143a7f-6970-450e-8a79-0302db9220a9"
      ],
      "franchises": [
        "fd5d066e-e85a-4eea-8688-2979a887450a"
      ]
    },
    "titles": {
      "eng": "Starry Prayer"
    },
    "titles_default_language": "eng",
    "year": 2023
  }
}