{
  "header": {
    "version": 4,
    "description": "Karaoke Mugen Karaoke Data File"
  },
  "medias": [
    {
      "version": "Default",
      "filename": "JPN - Soukyuu no Fafner Dead Aggressor Exodus - ED3 - Horizon.mp4",
      "audiogain": -0.97,
      "loudnorm": "-16.07,-6.21,10.70,-26.64,-1.66",
      "filesize": 52473838,
      "duration": 90,
      "default": true,
      "lyrics": [
        {
          "filename": "JPN - Soukyuu no Fafner Dead Aggressor Exodus - ED3 - Horizon.ass",
          "default": true,
          "version": "Default",
          "subchecksum": "0088f234f710b93272f9336e756b2ca9"
        }
      ]
    }
  ],
  "data": {
    "created_at": "2021-05-21T14:49:47.744Z",
    "kid": "37c697e6-17db-47ba-ab73-7349d6a55a04",
    "modified_at": "2021-05-21T14:54:58.482Z",
    "repository": "kara.moe",
    "songorder": 3,
    "tags": {
      "authors": [
        "8605a8b9-3b45-44b9-9d98-1a25096bf702"
      ],
      "collections": [
        "c7db86a0-ff64-4044-9be4-66dd1ef1d1c1"
      ],
      "creators": [
        "0e26434a-c89a-4366-85b5-9e5c4b7d4195"
      ],
      "families": [
        "0377db02-3af6-43b8-9b08-c759df3d25c3"
      ],
      "genres": [
        "f60ba57d-5ef4-49e0-b93b-d0dcbcff6592"
      ],
      "groups": [
        "ae613721-1fbe-480d-ba6b-d6d0702b184d"
      ],
      "langs": [
        "4dcf9614-7914-42aa-99f4-dbce2e059133"
      ],
      "misc": [
        "fe819ff1-9db8-4a0f-85dc-0e322c9126c4"
      ],
      "origins": [
        "938de218-5343-4865-94d3-fb33f2eaa152"
      ],
      "series": [
        "133c97f2-4ba1-4df4-8aa6-7fc36f740212"
      ],
      "singers": [
        "78d91182-ac66-49fb-9561-1d330667d6c4"
      ],
      "songtypes": [
        "38c77c56-2b95-4040-b676-0994a8cb0597"
      ],
      "songwriters": [
        "0b54e69d-4691-4415-be0e-0dd6fd5d4e1a",
        "84a20b00-fd06-43fd-b78e-9c1a2b7b7795"
      ],
      "franchises": [
        "9f12b43c-04d5-4f45-a0b0-a35453f51b0c"
      ]
    },
    "title": "Horizon",
    "titles": {
      "eng": "Horizon",
      "jpn": "ホライズン"
    },
    "year": 2015,
    "titles_default_language": "eng"
  }
}