{
  "header": {
    "version": 4,
    "description": "Karaoke Mugen Karaoke Data File"
  },
  "medias": [
    {
      "version": "Default",
      "filename": "JPN - Majutsushi Orphen Revenge - ED2 - Amai Anata no Aji.mp4",
      "audiogain": 3.57,
      "loudnorm": "-22.10,-5.63,4.50,-32.20,-0.96",
      "filesize": 13746173,
      "duration": 97,
      "default": true,
      "lyrics": [
        {
          "filename": "JPN - Majutsushi Orphen Revenge - ED2 - Amai Anata no Aji.ass",
          "default": true,
          "version": "Default",
          "subchecksum": "d1976637b270c7919ea4bbad779398e0"
        }
      ]
    }
  ],
  "data": {
    "created_at": "2019-09-23T18:04:44.000Z",
    "kid": "a3c7b2ac-3d85-46d5-aede-c81fb03fc29f",
    "modified_at": "2021-02-25T12:20:52.331Z",
    "repository": "kara.moe",
    "songorder": 2,
    "tags": {
      "authors": [
        "2a9bbf75-0722-4b4a-9935-caa92f38fdd1"
      ],
      "collections": [
        "c7db86a0-ff64-4044-9be4-66dd1ef1d1c1"
      ],
      "creators": [
        "802a8ac8-b16f-40a4-944b-99956798c906"
      ],
      "families": [
        "0377db02-3af6-43b8-9b08-c759df3d25c3"
      ],
      "groups": [
        "24db50aa-a126-4d34-a48a-e45db79c4245"
      ],
      "langs": [
        "4dcf9614-7914-42aa-99f4-dbce2e059133"
      ],
      "origins": [
        "938de218-5343-4865-94d3-fb33f2eaa152"
      ],
      "series": [
        "dcf2a531-b2ee-4a87-a23f-4de64cedd4cb"
      ],
      "singers": [
        "c548c963-ba66-4c36-90bb-0df7c9e31d7f"
      ],
      "songtypes": [
        "38c77c56-2b95-4040-b676-0994a8cb0597"
      ],
      "songwriters": [
        "403f0dc5-e1b1-4b69-9763-3ae9595fb108",
        "5938e181-5402-43ea-a5a0-a4ca2405705d"
      ],
      "franchises": [
        "46e84f5c-c567-4086-923a-72d54309516f"
      ]
    },
    "title": "Amai Anata no Aji",
    "titles": {
      "qro": "Amai Anata no Aji",
      "jpn": "甘いあなたの味"
    },
    "year": 1999,
    "titles_default_language": "qro"
  }
}