{
  "header": {
    "version": 4,
    "description": "Karaoke Mugen Karaoke Data File"
  },
  "medias": [
    {
      "version": "Default",
      "filename": "JPN - Miku Hatsune - MV - Teo.mp4",
      "audiogain": -0.62,
      "loudnorm": "-15.76,-4.06,2.90,-25.83,-0.63",
      "filesize": 214298698,
      "duration": 205,
      "default": true,
      "lyrics": [
        {
          "filename": "JPN - Miku Hatsune - MV - Teo.ass",
          "default": true,
          "version": "Default"
        }
      ]
    }
  ],
  "data": {
    "created_at": "2021-11-10T14:12:14.638Z",
    "ignoreHooks": false,
    "kid": "e93c2b8a-8423-4db1-9643-4225a9f5482d",
    "modified_at": "2022-03-27T14:17:24.485Z",
    "repository": "kara.moe",
    "tags": {
      "authors": [
        "87096920-112f-485f-a310-04156cb4624d"
      ],
      "collections": [
        "c7db86a0-ff64-4044-9be4-66dd1ef1d1c1"
      ],
      "families": [
        "0377db02-3af6-43b8-9b08-c759df3d25c3"
      ],
      "genres": [
        "45623cae-6d68-4304-a49b-896d1d6f4580"
      ],
      "groups": [
        "60defa7b-774e-4680-8321-51b742c2e009",
        "ae613721-1fbe-480d-ba6b-d6d0702b184d"
      ],
      "langs": [
        "4dcf9614-7914-42aa-99f4-dbce2e059133"
      ],
      "singers": [
        "4407ba0e-5de7-4add-870f-7ac95a4804c9"
      ],
      "songtypes": [
        "7be1b15c-cff8-4b37-a649-5c90f3d569a9"
      ],
      "songwriters": [
        "35cdb341-81e0-47d2-802a-3b932cda5e60"
      ]
    },
    "titles": {
      "qro": "Teo",
      "jpn": "テオ"
    },
    "titles_default_language": "qro",
    "title": "Teo",
    "year": 2017
  }
}