{
  "header": {
    "version": 4,
    "description": "Karaoke Mugen Karaoke Data File"
  },
  "medias": [
    {
      "version": "Default",
      "filename": "JPN - kobasolo - MV - Bouningen ~ Alternative Cover Vers.mp4",
      "audiogain": -7.16,
      "loudnorm": "-9.48,2.23,6.60,-19.95,-0.22",
      "filesize": 57803921,
      "duration": 301,
      "default": true,
      "lyrics": [
        {
          "filename": "JPN - kobasolo - MV - Bouningen ~ Alternative Cover Vers.ass",
          "default": true,
          "version": "Default"
        }
      ]
    }
  ],
  "data": {
    "created_at": "2020-02-25T21:38:30.735Z",
    "kid": "f0bd836c-9bba-4409-981b-5f6730116531",
    "modified_at": "2022-06-04T00:16:08.790Z",
    "parents": [
      "1141e4ac-327a-4520-9585-7dbccd3697b3"
    ],
    "repository": "kara.moe",
    "songorder": null,
    "tags": {
      "authors": [
        "87096920-112f-485f-a310-04156cb4624d"
      ],
      "families": [
        "5391f9fe-638c-415f-8dc9-958e3a2c5787"
      ],
      "groups": [
        "60defa7b-774e-4680-8321-51b742c2e009",
        "ae613721-1fbe-480d-ba6b-d6d0702b184d"
      ],
      "langs": [
        "4dcf9614-7914-42aa-99f4-dbce2e059133"
      ],
      "misc": [
        "86705d4b-24e4-4756-9687-2b9c98bcf366"
      ],
      "singers": [
        "acba6f30-da59-4855-8edf-6078b692af1a"
      ],
      "songtypes": [
        "7be1b15c-cff8-4b37-a649-5c90f3d569a9"
      ],
      "songwriters": [
        "3c83fdee-20dc-4a11-ba73-90658ce6f406"
      ],
      "versions": [
        "03e1e1d2-8641-47b7-bbcb-39a3df9ff21c",
        "9f63c359-d1bf-425a-bcf5-b245c2c9211d"
      ],
      "collections": [
        "dbcf2c22-524d-4708-99bb-601703633927"
      ]
    },
    "titles": {
      "qro": "Bouningen",
      "jpn": "棒人間"
    },
    "titles_default_language": "qro",
    "title": "Bouningen",
    "year": 2017
  }
}