{
  "header": {
    "version": 4,
    "description": "Karaoke Mugen Karaoke Data File"
  },
  "medias": [
    {
      "version": "Default",
      "filename": "JPN - Ookami to Koushinryou II - ED - Perfect World.mp4",
      "audiogain": 2.49,
      "loudnorm": "-19.60,-8.81,3.00,-29.67,-0.63",
      "filesize": 29045221,
      "duration": 92,
      "default": true,
      "lyrics": [
        {
          "filename": "JPN - Ookami to Koushinryou II - ED - Perfect World.ass",
          "default": true,
          "version": "Default",
          "subchecksum": "1c063ae7ff7a2c74dcfc1fae152cc9b6"
        }
      ]
    }
  ],
  "data": {
    "created_at": "2017-10-11T17:03:04.000Z",
    "kid": "636e43ec-555b-4013-85ad-3d94b02aa350",
    "modified_at": "2021-02-25T12:42:02.545Z",
    "repository": "kara.moe",
    "tags": {
      "authors": [
        "5bdaba57-27f8-4568-8806-76a807728766"
      ],
      "collections": [
        "c7db86a0-ff64-4044-9be4-66dd1ef1d1c1"
      ],
      "creators": [
        "464500b8-5cee-4ac6-906b-6acfad8d8195",
        "a06f41a3-31b6-462a-a195-e48a11386da3"
      ],
      "families": [
        "0377db02-3af6-43b8-9b08-c759df3d25c3"
      ],
      "groups": [
        "3c14c864-533c-49e6-a3cc-6969f1233775"
      ],
      "langs": [
        "4dcf9614-7914-42aa-99f4-dbce2e059133"
      ],
      "origins": [
        "938de218-5343-4865-94d3-fb33f2eaa152"
      ],
      "series": [
        "d27daf4d-63bc-49c7-9622-566e13cd38cd"
      ],
      "singers": [
        "a22628a3-7cab-49d3-9182-aa9be1b58ed0"
      ],
      "songtypes": [
        "38c77c56-2b95-4040-b676-0994a8cb0597"
      ],
      "songwriters": [
        "8d0dcc70-9499-440b-877c-0a4967545372",
        "97fbc0b6-6408-4273-bdb4-0c900e0ac945",
        "f740ee67-a454-4578-8da4-c3431af2a4b5"
      ],
      "franchises": [
        "95925674-a1b6-44d2-8710-c64961f5d700"
      ]
    },
    "title": "Perfect World",
    "titles": {
      "eng": "Perfect World"
    },
    "year": 2009,
    "titles_default_language": "eng"
  }
}