{
  "header": {
    "version": 4,
    "description": "Karaoke Mugen Karaoke Data File"
  },
  "medias": [
    {
      "version": "Default",
      "filename": "JPN - Kanon (2002) - ED2 - Kaze no tadorikotsu basho.avi",
      "audiogain": -0.65,
      "loudnorm": "-18.14,-0.42,4.10,-28.56,0.19",
      "filesize": 11788046,
      "duration": 136,
      "default": true,
      "lyrics": [
        {
          "filename": "JPN - Kanon (2002) - ED2 - Kaze no tadorikotsu basho.ass",
          "default": true,
          "version": "Default"
        }
      ]
    }
  ],
  "data": {
    "created_at": "2017-10-11T17:01:49.000Z",
    "kid": "23dff1f3-1bd6-461e-8964-9e6a40969dba",
    "modified_at": "2022-07-20T11:38:42.931Z",
    "repository": "kara.moe",
    "songorder": 2,
    "tags": {
      "authors": [
        "5bdaba57-27f8-4568-8806-76a807728766"
      ],
      "creators": [
        "f694bf43-b427-4244-9744-9d3f84fd8a31"
      ],
      "families": [
        "0377db02-3af6-43b8-9b08-c759df3d25c3"
      ],
      "groups": [
        "3c14c864-533c-49e6-a3cc-6969f1233775"
      ],
      "langs": [
        "4dcf9614-7914-42aa-99f4-dbce2e059133"
      ],
      "origins": [
        "938de218-5343-4865-94d3-fb33f2eaa152"
      ],
      "series": [
        "12e5d57d-b477-4bff-8bcb-5b30eeed2c12"
      ],
      "singers": [
        "0fbb5e2f-8eae-4fce-beaf-115cfc16d4a4"
      ],
      "songtypes": [
        "38c77c56-2b95-4040-b676-0994a8cb0597"
      ],
      "songwriters": [
        "0259ea3f-ee5c-4906-991e-ca3c8dbb3221",
        "6f9382dc-3b8f-4948-899c-23477cd9e23b"
      ],
      "collections": [
        "c7db86a0-ff64-4044-9be4-66dd1ef1d1c1"
      ],
      "warnings": [
        "24371984-5e4c-4485-a937-fb0c480ca23b"
      ],
      "franchises": [
        "e9a43ad9-eb15-446f-89eb-9f4faf745c45"
      ]
    },
    "titles": {
      "qro": "Kaze no Tadoritsuku Basho",
      "jpn": "風の辿り着く場所"
    },
    "titles_default_language": "qro",
    "title": "Kaze no tadorikotsu basho",
    "year": 2002
  }
}