{
  "header": {
    "version": 4,
    "description": "Karaoke Mugen Karaoke Data File"
  },
  "medias": [
    {
      "version": "Default",
      "filename": "JPN - Project SEKAI COLORFUL STAGE! - GAME MV - Color of Drops ~ Short Vers.mp4",
      "audiogain": -9.46,
      "loudnorm": "-8.46,1.15,9.80,-18.70,-1.80",
      "filesize": 74137801,
      "duration": 115,
      "default": true,
      "lyrics": [
        {
          "filename": "JPN - Project SEKAI COLORFUL STAGE! - GAME MV - Color of Drops ~ Short Vers.ass",
          "default": true,
          "version": "Default"
        }
      ]
    }
  ],
  "data": {
    "comment": "request de niyaa",
    "created_at": "2022-10-16T13:54:52.626Z",
    "ignoreHooks": false,
    "kid": "00e8190e-4d2d-44da-af2d-b3679c91bdcc",
    "modified_at": "2022-12-26T20:01:35.209Z",
    "repository": "kara.moe",
    "tags": {
      "authors": [
        "a3a99b23-6c42-4d38-8863-491153187437"
      ],
      "collections": [
        "c7db86a0-ff64-4044-9be4-66dd1ef1d1c1"
      ],
      "creators": [
        "1e5648fb-22fc-474d-b865-254eb31fa000"
      ],
      "genres": [
        "45623cae-6d68-4304-a49b-896d1d6f4580",
        "caa86df2-0d59-474b-885c-f240a9e891b0"
      ],
      "groups": [
        "8e209ae4-4381-438f-89dc-1b21752027d2"
      ],
      "langs": [
        "4dcf9614-7914-42aa-99f4-dbce2e059133"
      ],
      "misc": [
        "1d6ceadf-a885-47e5-b23b-c07bf668a424"
      ],
      "platforms": [
        "213a1a15-e73a-4a08-b3f6-b6e2745a82e5"
      ],
      "series": [
        "192b33fb-638a-4680-bdb2-a5adb9889849"
      ],
      "singers": [
        "0fee5b4a-4ee0-477c-9cfe-c6f9c1d1777f",
        "5cfc37b4-4af6-455c-8319-69761dcc4d7b",
        "79f710d5-270e-4b17-957e-037ff0eae3fe",
        "b4084895-9bbd-426a-8384-feef794ca53c",
        "d7c26167-fe7e-4450-8191-65a53fc7db66"
      ],
      "singergroups": [
        "0a879283-62f0-4266-a835-73cbe7ef7c0b"
      ],
      "songtypes": [
        "7be1b15c-cff8-4b37-a649-5c90f3d569a9"
      ],
      "songwriters": [
        "ca0ed795-716a-4e9b-ae11-2f3f1c7f63a9"
      ],
      "versions": [
        "d125c80a-86c1-4321-88e9-07b7800679b6"
      ],
      "origins": [
        "dbedd6b3-d125-4cd8-aa32-c4175e4ca3a3"
      ]
    },
    "titles": {
      "eng": "Color of Drops"
    },
    "titles_default_language": "eng",
    "year": 2021
  }
}