{
  "header": {
    "version": 4,
    "description": "Karaoke Mugen Karaoke Data File"
  },
  "medias": [
    {
      "version": "Default",
      "filename": "JPN - Touhou - MV - Fukasokuteki Metropolis.mp4",
      "audiogain": 0.05,
      "loudnorm": "-17.04,-7.55,4.60,-27.22,-0.47",
      "filesize": 71733295,
      "duration": 273,
      "default": true,
      "lyrics": [
        {
          "filename": "JPN - Touhou - MV - Fukasokuteki Metropolis.ass",
          "default": true,
          "version": "Default"
        }
      ]
    }
  ],
  "data": {
    "created_at": "2022-12-18T17:59:23.162Z",
    "ignoreHooks": false,
    "kid": "2585a545-61d5-476d-bba9-b3b810890885",
    "modified_at": "2022-12-18T18:00:18.059Z",
    "repository": "kara.moe",
    "tags": {
      "authors": [
        "61865310-cb97-496c-a722-364b0a9ba90d"
      ],
      "collections": [
        "c7db86a0-ff64-4044-9be4-66dd1ef1d1c1"
      ],
      "creators": [
        "5c76fa71-070f-4c15-96d0-2ec9c6a4945d"
      ],
      "families": [
        "0377db02-3af6-43b8-9b08-c759df3d25c3"
      ],
      "groups": [
        "8c22c899-b3ed-42da-a548-ce00f950798b",
        "ae613721-1fbe-480d-ba6b-d6d0702b184d"
      ],
      "langs": [
        "4dcf9614-7914-42aa-99f4-dbce2e059133"
      ],
      "series": [
        "1bdaa5a1-dfa6-4365-b746-7a0b194dafd6"
      ],
      "singers": [
        "45358aff-4745-4d3c-81fc-91969589ea80",
        "6c7229e8-9f83-4dd9-838c-9e86c4cc8d28"
      ],
      "songtypes": [
        "7be1b15c-cff8-4b37-a649-5c90f3d569a9"
      ],
      "songwriters": [
        "26cb5252-8510-49e0-897c-a611a05fc056",
        "6c57bb27-313a-463c-8260-05a064851212",
        "6c7229e8-9f83-4dd9-838c-9e86c4cc8d28"
      ],
      "franchises": [
        "1bdaa5a1-dfa6-4365-b746-7a0b194dafd6"
      ]
    },
    "titles": {
      "jpn": "不可測的メトロポリス",
      "qro": "Fukasokuteki Metropolis"
    },
    "titles_default_language": "qro",
    "year": 2019
  }
}