{
  "header": {
    "version": 4,
    "description": "Karaoke Mugen Karaoke Data File"
  },
  "medias": [
    {
      "version": "Default",
      "filename": "JPN - Senki Zesshou Symphogear XV - MV - METANOIA ~ Full Vers.mp4",
      "audiogain": 0.48,
      "loudnorm": "-17.68,-7.70,6.40,-27.80,-1.16",
      "filesize": 94617142,
      "duration": 290,
      "default": true,
      "lyrics": [
        {
          "filename": "JPN - Senki Zesshou Symphogear XV - MV - METANOIA ~ Full Vers.ass",
          "default": true,
          "version": "Default"
        }
      ]
    }
  ],
  "data": {
    "created_at": "2021-02-20T23:26:51.940Z",
    "kid": "f2db6253-f50d-4196-992a-691b844199f1",
    "modified_at": "2022-06-04T00:14:38.992Z",
    "parents": [
      "4dd18576-eff4-4651-910f-02b08ca18f5c"
    ],
    "repository": "kara.moe",
    "songorder": null,
    "tags": {
      "authors": [
        "87096920-112f-485f-a310-04156cb4624d"
      ],
      "creators": [
        "d2a29c19-019f-4a3d-86ad-2dae9e41a4b1"
      ],
      "families": [
        "5391f9fe-638c-415f-8dc9-958e3a2c5787"
      ],
      "groups": [
        "60defa7b-774e-4680-8321-51b742c2e009",
        "ae613721-1fbe-480d-ba6b-d6d0702b184d"
      ],
      "langs": [
        "4dcf9614-7914-42aa-99f4-dbce2e059133"
      ],
      "series": [
        "5a0d57d7-a6e9-45bf-9960-334128e43e0a"
      ],
      "singers": [
        "6d2045b2-80ab-45ff-a131-c4df02ef52d1"
      ],
      "songtypes": [
        "7be1b15c-cff8-4b37-a649-5c90f3d569a9"
      ],
      "songwriters": [
        "6d2045b2-80ab-45ff-a131-c4df02ef52d1",
        "af3ffe51-8059-461c-bbb8-78ea388731f3"
      ],
      "versions": [
        "c2143a7f-6970-450e-8a79-0302db9220a9"
      ],
      "collections": [
        "dbcf2c22-524d-4708-99bb-601703633927"
      ],
      "franchises": [
        "61b24082-a6a9-482b-b126-0ad7be595791"
      ]
    },
    "titles": {
      "eng": "METANOIA"
    },
    "titles_default_language": "eng",
    "title": "METANOIA",
    "year": 2019
  }
}