{
  "header": {
    "version": 4,
    "description": "Karaoke Mugen Karaoke Data File"
  },
  "medias": [
    {
      "version": "Default",
      "filename": "JPN - Ou-sama Ranking - OP1 - BOY.mp4",
      "audiogain": 4.02,
      "loudnorm": "-21.09,-10.88,5.70,-31.23,-1.35",
      "filesize": 39589572,
      "duration": 89,
      "default": true,
      "lyrics": [
        {
          "filename": "JPN - Ou-sama Ranking - OP1 - BOY.ass",
          "default": true,
          "version": "Default"
        }
      ]
    }
  ],
  "data": {
    "created_at": "2021-10-14T22:16:56.206Z",
    "kid": "8b27560c-38fc-48c3-9818-eff0163fc0c6",
    "modified_at": "2022-01-06T21:48:31.266Z",
    "repository": "kara.moe",
    "songorder": 1,
    "tags": {
      "authors": [
        "06852e02-b77e-4106-b6f7-2d03942ad0ea"
      ],
      "collections": [
        "c7db86a0-ff64-4044-9be4-66dd1ef1d1c1"
      ],
      "creators": [
        "5e24aaad-83c9-4d8a-bbb9-37b766278ffe"
      ],
      "families": [
        "0377db02-3af6-43b8-9b08-c759df3d25c3"
      ],
      "groups": [
        "33881a14-788e-4e2a-a97d-1e5f51542a26",
        "8e209ae4-4381-438f-89dc-1b21752027d2",
        "9a8e0fbc-dcae-4989-be82-7cad3436f1f5"
      ],
      "langs": [
        "4dcf9614-7914-42aa-99f4-dbce2e059133"
      ],
      "misc": [
        "ec4fee75-71fb-45b4-9772-2ca374b4b600"
      ],
      "origins": [
        "938de218-5343-4865-94d3-fb33f2eaa152"
      ],
      "series": [
        "901f279d-6daf-4e1c-9692-fb30741f3439"
      ],
      "singers": [
        "0a7237a8-5da5-4b94-9c57-c79f73435105"
      ],
      "songtypes": [
        "f02ad9b3-0bd9-4aad-85b3-9976739ba0e4"
      ],
      "songwriters": [
        "13c1ef7a-0b82-4f0e-9ebb-0aef854fcc59"
      ]
    },
    "titles": {
      "eng": "BOY"
    },
    "title": "BOY",
    "year": 2021,
    "titles_default_language": "eng"
  }
}