{
  "header": {
    "version": 4,
    "description": "Karaoke Mugen Karaoke Data File"
  },
  "medias": [
    {
      "version": "Default",
      "filename": "JPN - SPYxFAMILY - OP2 - SOUVENIR.mp4",
      "audiogain": -7.69,
      "loudnorm": "-8.96,0.96,2.60,-19.02,-0.43",
      "filesize": 40970435,
      "duration": 90,
      "default": true,
      "lyrics": [
        {
          "filename": "JPN - SPYxFAMILY - OP2 - SOUVENIR.ass",
          "default": true,
          "version": "Default"
        }
      ]
    }
  ],
  "data": {
    "created_at": "2022-09-28T15:16:40.007Z",
    "ignoreHooks": false,
    "kid": "bb27b07a-1cbb-4a04-a052-93298e660de6",
    "modified_at": "2022-12-17T20:59:57.974Z",
    "repository": "kara.moe",
    "songorder": 2,
    "tags": {
      "authors": [
        "1df04771-a378-4f14-a5e1-1455187d681a"
      ],
      "collections": [
        "c7db86a0-ff64-4044-9be4-66dd1ef1d1c1"
      ],
      "creators": [
        "43cebb4a-845f-449b-bbd0-d97d96d97cb4",
        "5e24aaad-83c9-4d8a-bbb9-37b766278ffe"
      ],
      "families": [
        "0377db02-3af6-43b8-9b08-c759df3d25c3"
      ],
      "groups": [
        "8e209ae4-4381-438f-89dc-1b21752027d2"
      ],
      "langs": [
        "4dcf9614-7914-42aa-99f4-dbce2e059133"
      ],
      "misc": [
        "fe819ff1-9db8-4a0f-85dc-0e322c9126c4"
      ],
      "origins": [
        "938de218-5343-4865-94d3-fb33f2eaa152"
      ],
      "series": [
        "8218a8eb-cad8-473b-8ccb-64cacc2d833a"
      ],
      "singers": [
        "a027724c-6136-4dc1-b585-7ae8f780c8d2"
      ],
      "songtypes": [
        "f02ad9b3-0bd9-4aad-85b3-9976739ba0e4"
      ]
    },
    "titles": {
      "eng": "SOUVENIR"
    },
    "titles_default_language": "eng",
    "year": 2022
  }
}