{
  "header": {
    "version": 4,
    "description": "Karaoke Mugen Karaoke Data File"
  },
  "medias": [
    {
      "version": "Default",
      "filename": "JPN - Touhou - MV - Bad Apple & Good Orange.mp4",
      "audiogain": -9.89,
      "loudnorm": "-6.93,2.02,5.90,-16.97,-1.08",
      "filesize": 5023651,
      "duration": 112,
      "default": true,
      "lyrics": [
        {
          "filename": "JPN - Touhou - MV - Bad Apple & Good Orange.ass",
          "default": true,
          "version": "Default",
          "subchecksum": "37c6f64e5f6b1889620d5571fbaae68e"
        }
      ]
    }
  ],
  "data": {
    "created_at": "2017-10-11T17:01:55.000Z",
    "kid": "700a8de9-b328-41cb-b591-600fb062e490",
    "modified_at": "2021-02-25T13:27:23.056Z",
    "repository": "kara.moe",
    "tags": {
      "authors": [
        "5bdaba57-27f8-4568-8806-76a807728766"
      ],
      "collections": [
        "c7db86a0-ff64-4044-9be4-66dd1ef1d1c1"
      ],
      "creators": [
        "25fc251a-0514-4bf5-a818-dd0547723f4a",
        "a56ed9e7-a3dc-4203-b91c-4128bcf7bfa9"
      ],
      "families": [
        "0377db02-3af6-43b8-9b08-c759df3d25c3"
      ],
      "groups": [
        "ae613721-1fbe-480d-ba6b-d6d0702b184d"
      ],
      "langs": [
        "4dcf9614-7914-42aa-99f4-dbce2e059133"
      ],
      "series": [
        "1bdaa5a1-dfa6-4365-b746-7a0b194dafd6"
      ],
      "singers": [
        "b87c99b9-70ea-4e0b-9873-36651a384fe5"
      ],
      "songtypes": [
        "7be1b15c-cff8-4b37-a649-5c90f3d569a9"
      ],
      "songwriters": [
        "1dae52a9-d1e0-447b-8dd3-cfd10119a3a8",
        "26cb5252-8510-49e0-897c-a611a05fc056",
        "c0f15485-c07b-4613-aadc-92ebb077178d",
        "feceb592-efac-4eda-9b03-c27cf509004c"
      ],
      "franchises": [
        "1bdaa5a1-dfa6-4365-b746-7a0b194dafd6"
      ]
    },
    "title": "Bad Apple & Good Orange",
    "titles": {
      "eng": "Bad Apple & Good Orange"
    },
    "year": 2010,
    "titles_default_language": "eng"
  }
}