{
  "header": {
    "version": 4,
    "description": "Karaoke Mugen Karaoke Data File"
  },
  "medias": [
    {
      "version": "Default",
      "filename": "JPN - Yofukashi no Uta - MV - Daten ~ Full Vers.mp4",
      "audiogain": -8.96,
      "loudnorm": "-7.06,0.44,3.00,-17.16,-0.07",
      "filesize": 84721128,
      "duration": 169,
      "default": true,
      "lyrics": [
        {
          "filename": "JPN - Yofukashi no Uta - MV - Daten ~ Full Vers.ass",
          "default": true,
          "version": "Default"
        }
      ]
    }
  ],
  "data": {
    "created_at": "2022-10-07T03:54:17.032Z",
    "ignoreHooks": false,
    "kid": "2a3ef240-787e-49c2-9fb0-aadca283eb88",
    "modified_at": "2022-11-16T15:34:10.924Z",
    "parents": [
      "1363ec8f-bb11-4767-80fb-27fb7cbca5e9"
    ],
    "repository": "kara.moe",
    "tags": {
      "authors": [
        "1df04771-a378-4f14-a5e1-1455187d681a",
        "9cdf3b70-3550-457c-bdb9-038f3253c6ad"
      ],
      "collections": [
        "c7db86a0-ff64-4044-9be4-66dd1ef1d1c1",
        "dbcf2c22-524d-4708-99bb-601703633927"
      ],
      "creators": [
        "5b29bf8d-93e9-4601-9992-0b2b6d87e27d"
      ],
      "families": [
        "5391f9fe-638c-415f-8dc9-958e3a2c5787"
      ],
      "groups": [
        "8e209ae4-4381-438f-89dc-1b21752027d2"
      ],
      "langs": [
        "4dcf9614-7914-42aa-99f4-dbce2e059133"
      ],
      "origins": [
        "938de218-5343-4865-94d3-fb33f2eaa152"
      ],
      "series": [
        "0e044fb7-6c46-4dfe-9a8c-e9cfadbc354f"
      ],
      "singers": [
        "0fb20f65-a924-450b-93a9-0beabd19b354"
      ],
      "songtypes": [
        "7be1b15c-cff8-4b37-a649-5c90f3d569a9"
      ],
      "songwriters": [
        "1946f3be-f3da-44f9-9d2f-5925ed3ee3c1",
        "5139894b-25e2-4e22-8960-534a1524a277",
        "e1e1abbd-5c2e-406e-b0e9-530661f18bbe"
      ],
      "versions": [
        "c2143a7f-6970-450e-8a79-0302db9220a9"
      ]
    },
    "titles": {
      "jpn": "堕天",
      "qro": "Daten"
    },
    "titles_default_language": "qro",
    "year": 2022
  }
}