{
  "header": {
    "version": 4,
    "description": "Karaoke Mugen Karaoke Data File"
  },
  "medias": [
    {
      "version": "Default",
      "filename": "JPN - Saenai Heroine no Sodatekata Flat - ED1 - Sakura-iro Diary.mp4",
      "audiogain": -1.57,
      "loudnorm": "-16.02,-4.35,3.00,-26.11,-0.82",
      "filesize": 22050630,
      "duration": 92,
      "default": true,
      "lyrics": [
        {
          "filename": "JPN - Saenai Heroine no Sodatekata Flat - ED1 - Sakura-iro Diary.ass",
          "default": true,
          "version": "Default",
          "subchecksum": "a2002e80cebeda7aa66282d8cd36bfa6"
        }
      ]
    }
  ],
  "data": {
    "created_at": "2018-07-28T08:02:04.000Z",
    "kid": "45bddf5f-fd9b-46de-8514-9eee791d21cb",
    "modified_at": "2021-02-25T12:54:25.459Z",
    "repository": "kara.moe",
    "songorder": 1,
    "tags": {
      "authors": [
        "b5116310-e69b-4ed4-9e47-c5c53ee69023"
      ],
      "collections": [
        "c7db86a0-ff64-4044-9be4-66dd1ef1d1c1"
      ],
      "creators": [
        "b96e3686-bbe0-4b9e-815a-a278d5ff31be"
      ],
      "families": [
        "0377db02-3af6-43b8-9b08-c759df3d25c3"
      ],
      "groups": [
        "33881a14-788e-4e2a-a97d-1e5f51542a26",
        "ae613721-1fbe-480d-ba6b-d6d0702b184d"
      ],
      "langs": [
        "4dcf9614-7914-42aa-99f4-dbce2e059133"
      ],
      "origins": [
        "938de218-5343-4865-94d3-fb33f2eaa152"
      ],
      "series": [
        "8e88c08a-f7ef-4248-a55f-6c1ba8d6668c"
      ],
      "singers": [
        "2427ce8d-8f8e-4198-a77e-490c56d43e7d"
      ],
      "songtypes": [
        "38c77c56-2b95-4040-b676-0994a8cb0597"
      ],
      "songwriters": [
        "2427ce8d-8f8e-4198-a77e-490c56d43e7d",
        "e2525e27-f56a-4fd8-99ea-1d5c52adc175",
        "eebca906-1aea-4a1f-9096-1be32cc94b7c"
      ],
      "franchises": [
        "a653bc75-9d26-44bb-a7df-858b2442060d"
      ]
    },
    "title": "Sakura-iro Diary",
    "titles": {
      "qro": "Sakura-iro Diary",
      "jpn": "桜色ダイアリー"
    },
    "year": 2017,
    "titles_default_language": "qro"
  }
}