{
  "header": {
    "version": 4,
    "description": "Karaoke Mugen Karaoke Data File"
  },
  "medias": [
    {
      "version": "Default",
      "filename": "JPN - One Piece - OP1 - We Are!.mp4",
      "audiogain": -3.67,
      "loudnorm": "-14.97,-0.25,2.90,-24.98,-0.38",
      "filesize": 58559907,
      "duration": 110,
      "default": true,
      "lyrics": [
        {
          "filename": "JPN - One Piece - OP1 - We Are!.ass",
          "default": true,
          "version": "Default"
        }
      ]
    }
  ],
  "data": {
    "created_at": "2017-10-11T17:02:03.000Z",
    "kid": "3f8aa1df-19e4-4462-baff-675831a4cb2f",
    "modified_at": "2021-12-08T18:47:43.189Z",
    "repository": "kara.moe",
    "songorder": 1,
    "tags": {
      "authors": [
        "5e93f02a-bcd1-40a9-ba7a-91ada6683aea"
      ],
      "collections": [
        "c7db86a0-ff64-4044-9be4-66dd1ef1d1c1"
      ],
      "creators": [
        "f694bf43-b427-4244-9744-9d3f84fd8a31"
      ],
      "families": [
        "0377db02-3af6-43b8-9b08-c759df3d25c3"
      ],
      "genres": [
        "a0aeef4a-6428-45ff-a6e1-468b595930c2"
      ],
      "groups": [
        "24db50aa-a126-4d34-a48a-e45db79c4245",
        "f5e7d2fc-0cbb-4fb9-a84a-b25dfb0e9e77"
      ],
      "langs": [
        "4dcf9614-7914-42aa-99f4-dbce2e059133"
      ],
      "misc": [
        "fe819ff1-9db8-4a0f-85dc-0e322c9126c4"
      ],
      "origins": [
        "938de218-5343-4865-94d3-fb33f2eaa152"
      ],
      "series": [
        "955758fc-ef9b-441e-b9e3-33dd2caf2753"
      ],
      "singers": [
        "44be46e3-16bf-4de0-b43f-5518c24ec897"
      ],
      "songtypes": [
        "f02ad9b3-0bd9-4aad-85b3-9976739ba0e4"
      ],
      "songwriters": [
        "2461dcff-0d44-481a-9841-a8ae3e3d53db",
        "ad9de3e0-673e-459b-ac88-178ae5e04341"
      ],
      "franchises": [
        "955758fc-ef9b-441e-b9e3-33dd2caf2753"
      ]
    },
    "titles": {
      "eng": "We Are!",
      "jpn": "ウィーアー!"
    },
    "title": "We Are!",
    "year": 1999,
    "titles_default_language": "eng"
  }
}