{
  "header": {
    "version": 4,
    "description": "Karaoke Mugen Karaoke Data File"
  },
  "medias": [
    {
      "version": "Default",
      "filename": "JPN - Ryokuoushoku Shakai - MV - Mela!.mp4",
      "audiogain": -11.65,
      "loudnorm": "-5.28,0.64,3.20,-15.35,-0.36",
      "filesize": 134702128,
      "duration": 243,
      "default": true,
      "lyrics": [
        {
          "filename": "JPN - Ryokuoushoku Shakai - MV - Mela!.ass",
          "default": true,
          "version": "Default"
        }
      ]
    }
  ],
  "data": {
    "created_at": "2021-05-10T12:55:50.379Z",
    "ignoreHooks": false,
    "kid": "876a3dba-b10c-4f5f-86d8-c7047324c024",
    "modified_at": "2023-01-30T23:57:44.795Z",
    "repository": "kara.moe",
    "tags": {
      "authors": [
        "faa8becc-83b6-45d9-a3d0-a4c2c8b336c8"
      ],
      "collections": [
        "dbcf2c22-524d-4708-99bb-601703633927"
      ],
      "creators": [
        "0484c65c-b74a-4035-9ae0-39bd0b32a514"
      ],
      "families": [
        "0377db02-3af6-43b8-9b08-c759df3d25c3"
      ],
      "groups": [
        "8c22c899-b3ed-42da-a548-ce00f950798b",
        "8e209ae4-4381-438f-89dc-1b21752027d2"
      ],
      "langs": [
        "4dcf9614-7914-42aa-99f4-dbce2e059133"
      ],
      "singers": [
        "de886416-4876-48d8-95fe-a576738c1907"
      ],
      "songtypes": [
        "7be1b15c-cff8-4b37-a649-5c90f3d569a9"
      ],
      "songwriters": [
        "de886416-4876-48d8-95fe-a576738c1907"
      ]
    },
    "titles": {
      "qro": "Mela!"
    },
    "titles_default_language": "qro",
    "year": 2020
  }
}