{
  "header": {
    "version": 4,
    "description": "Karaoke Mugen Karaoke Data File"
  },
  "medias": [
    {
      "version": "Default",
      "filename": "JPN - Shinryaku! question_mark Ika Musume - OP - HIGH POWERED.mp4",
      "audiogain": 2.82,
      "loudnorm": "-19.29,-7.76,4.50,-29.41,-0.95",
      "filesize": 43312678,
      "duration": 91,
      "default": true,
      "lyrics": [
        {
          "filename": "JPN - Shinryaku! question_mark Ika Musume - OP - HIGH POWERED.ass",
          "default": true,
          "version": "Default",
          "subchecksum": "47a65addcf500de16d65d2cc1ee6b8d9"
        }
      ]
    }
  ],
  "data": {
    "created_at": "2017-10-11T17:02:15.000Z",
    "kid": "c7ca6a59-9a30-457c-8a0e-e2c3bd67a0a5",
    "modified_at": "2021-02-25T13:05:24.731Z",
    "repository": "kara.moe",
    "tags": {
      "authors": [
        "5bdaba57-27f8-4568-8806-76a807728766"
      ],
      "collections": [
        "c7db86a0-ff64-4044-9be4-66dd1ef1d1c1"
      ],
      "creators": [
        "e9bbc92f-b99d-45d4-869c-39b36d70382e"
      ],
      "families": [
        "0377db02-3af6-43b8-9b08-c759df3d25c3"
      ],
      "groups": [
        "ae613721-1fbe-480d-ba6b-d6d0702b184d"
      ],
      "langs": [
        "4dcf9614-7914-42aa-99f4-dbce2e059133"
      ],
      "origins": [
        "938de218-5343-4865-94d3-fb33f2eaa152"
      ],
      "series": [
        "31c37eae-f907-4221-af7b-1989453cf292"
      ],
      "singers": [
        "256792ea-599e-41d8-98cd-9023a4e6c422"
      ],
      "songtypes": [
        "f02ad9b3-0bd9-4aad-85b3-9976739ba0e4"
      ],
      "songwriters": [
        "59eebd18-ff00-4aac-9d37-78009dda88ec",
        "f41e7218-6c19-4e19-9b5f-4612dcd58243"
      ],
      "franchises": [
        "9c050f56-c66a-4da6-9ad9-daf942ab5934"
      ]
    },
    "title": "HIGH POWERED",
    "titles": {
      "eng": "HIGH POWERED"
    },
    "year": 2011,
    "titles_default_language": "eng"
  }
}