{
  "header": {
    "version": 4,
    "description": "Karaoke Mugen Karaoke Data File"
  },
  "medias": [
    {
      "version": "Default",
      "filename": "JPN - Heion Sedai no Idaten-tachi - MV - Seija no Koushin ~ Full Vers.mp4",
      "audiogain": -9.06,
      "loudnorm": "-8.25,1.73,7.90,-18.53,-1.27",
      "filesize": 82977075,
      "duration": 183,
      "default": true,
      "lyrics": [
        {
          "filename": "JPN - Heion Sedai no Idaten-tachi - MV - Seija no Koushin ~ Full Vers.ass",
          "default": true,
          "version": "Default"
        }
      ]
    }
  ],
  "data": {
    "created_at": "2022-09-19T17:08:23.960Z",
    "ignoreHooks": false,
    "kid": "f61be3b8-8642-42d3-966b-06e2ed523906",
    "modified_at": "2022-11-16T15:33:46.745Z",
    "parents": [
      "a6cc0cd4-da8c-4caa-bc52-035ba013048b"
    ],
    "repository": "kara.moe",
    "tags": {
      "authors": [
        "9cdf3b70-3550-457c-bdb9-038f3253c6ad"
      ],
      "collections": [
        "c7db86a0-ff64-4044-9be4-66dd1ef1d1c1",
        "dbcf2c22-524d-4708-99bb-601703633927"
      ],
      "creators": [
        "5b29bf8d-93e9-4601-9992-0b2b6d87e27d"
      ],
      "families": [
        "5391f9fe-638c-415f-8dc9-958e3a2c5787"
      ],
      "groups": [
        "8e209ae4-4381-438f-89dc-1b21752027d2"
      ],
      "langs": [
        "4dcf9614-7914-42aa-99f4-dbce2e059133"
      ],
      "misc": [
        "ec4fee75-71fb-45b4-9772-2ca374b4b600"
      ],
      "origins": [
        "938de218-5343-4865-94d3-fb33f2eaa152"
      ],
      "series": [
        "08c0af28-441d-49a8-9e21-e153e4878510"
      ],
      "singers": [
        "58198589-4c3c-4d4a-8b4b-d8dc1c2ff6a2"
      ],
      "songtypes": [
        "7be1b15c-cff8-4b37-a649-5c90f3d569a9"
      ],
      "songwriters": [
        "03034fb5-a547-41f7-8229-d7086426d379"
      ],
      "versions": [
        "c2143a7f-6970-450e-8a79-0302db9220a9"
      ]
    },
    "titles": {
      "jpn": "聖者の行進",
      "qro": "Seija no Koushin"
    },
    "titles_default_language": "qro",
    "year": 2021
  }
}