{
  "header": {
    "version": 4,
    "description": "Karaoke Mugen Karaoke Data File"
  },
  "medias": [
    {
      "version": "Default",
      "filename": "JPN - Mahou Shoujo Ikusei Keikaku in Dreamland - PV - GIRLS GAME ~ Off Vocal Vers.mp4",
      "audiogain": -7.31,
      "loudnorm": "-8.53,1.95,3.80,-18.71,-0.66",
      "filesize": 94019865,
      "duration": 268,
      "default": true,
      "lyrics": [
        {
          "filename": "JPN - Mahou Shoujo Ikusei Keikaku in Dreamland - PV - GIRLS GAME ~ Off Vocal Vers.ass",
          "default": true,
          "version": "Default"
        }
      ]
    }
  ],
  "data": {
    "created_at": "2022-11-26T17:13:05.059Z",
    "ignoreHooks": false,
    "kid": "b8f14ecf-3a78-43b0-a322-b1a412f4a21c",
    "modified_at": "2023-03-07T22:45:22.887Z",
    "parents": [
      "7d025d24-9219-4b7a-8e8e-fdf57cbef8b7"
    ],
    "repository": "kara.moe",
    "tags": {
      "authors": [
        "fb28c6d3-a81e-40c0-9a4c-e3268c60a64b"
      ],
      "collections": [
        "c7db86a0-ff64-4044-9be4-66dd1ef1d1c1"
      ],
      "creators": [
        "eb49131c-b890-422d-9947-0e82292801e1"
      ],
      "families": [
        "0377db02-3af6-43b8-9b08-c759df3d25c3"
      ],
      "genres": [
        "b84e28f9-db1e-447f-b339-7954c3592523"
      ],
      "groups": [
        "ae613721-1fbe-480d-ba6b-d6d0702b184d"
      ],
      "langs": [
        "4dcf9614-7914-42aa-99f4-dbce2e059133"
      ],
      "series": [
        "6243765d-84d0-45ec-8406-2abc55c39b05"
      ],
      "singers": [
        "a6e3509f-befc-4b8b-ac1c-3614e1c32447"
      ],
      "songtypes": [
        "66e195b9-64ea-432d-a917-2e2c88d26052"
      ],
      "songwriters": [
        "3c027018-54fc-4402-b3eb-46c34d07a56b"
      ],
      "versions": [
        "c0cc87b9-55b9-40f0-878a-fbb9e34c151e"
      ],
      "franchises": [
        "2d6a3008-4ed8-42fd-ad7c-9f2b88c309a1"
      ]
    },
    "titles": {
      "eng": "GIRLS GAME",
      "jpn": "ガールズゲーム"
    },
    "titles_default_language": "eng",
    "titles_aliases": [
      "girl's"
    ],
    "year": 2015
  }
}