{
  "header": {
    "version": 4,
    "description": "Karaoke Mugen Karaoke Data File"
  },
  "medias": [
    {
      "version": "Default",
      "filename": "JPN - Pretty Rhythm Rainbow Live - IN - gift ~ Full Vers.mp4",
      "audiogain": -8.45,
      "loudnorm": "-9.11,0.27,8.80,-19.32,-0.86",
      "filesize": 74587331,
      "duration": 284,
      "default": true,
      "lyrics": [
        {
          "filename": "JPN - Pretty Rhythm Rainbow Live - IN - gift ~ Full Vers.ass",
          "default": true,
          "version": "Default"
        }
      ]
    }
  ],
  "data": {
    "created_at": "2023-01-13T11:06:04.410Z",
    "ignoreHooks": false,
    "kid": "cee0e19b-beb4-48ff-8a94-3aae5487723e",
    "modified_at": "2023-01-13T13:34:20.736Z",
    "repository": "kara.moe",
    "tags": {
      "authors": [
        "79e0aa7d-da9a-4e9a-aa2b-64056a83b49b"
      ],
      "collections": [
        "c7db86a0-ff64-4044-9be4-66dd1ef1d1c1"
      ],
      "creators": [
        "cfdb2d1e-499d-47a1-b9f8-070153b5048e"
      ],
      "families": [
        "0377db02-3af6-43b8-9b08-c759df3d25c3"
      ],
      "genres": [
        "caa86df2-0d59-474b-885c-f240a9e891b0"
      ],
      "groups": [
        "ae613721-1fbe-480d-ba6b-d6d0702b184d"
      ],
      "langs": [
        "4dcf9614-7914-42aa-99f4-dbce2e059133"
      ],
      "origins": [
        "938de218-5343-4865-94d3-fb33f2eaa152"
      ],
      "series": [
        "f9fc2c4e-cc85-4ba0-b802-0d0944ae4803"
      ],
      "singers": [
        "16c170fe-1ada-4916-a0be-42b19eca6ae3"
      ],
      "songtypes": [
        "5e5250d9-351a-4a82-98eb-55db50ad8962"
      ],
      "songwriters": [
        "9f66a6f9-0f73-400e-8006-ac182f0c6d38"
      ],
      "versions": [
        "c2143a7f-6970-450e-8a79-0302db9220a9"
      ],
      "warnings": [
        "24371984-5e4c-4485-a937-fb0c480ca23b"
      ],
      "franchises": [
        "2a2f00e6-f77a-426b-8611-ecc4cfeecd14"
      ]
    },
    "titles": {
      "eng": "gift"
    },
    "titles_default_language": "eng",
    "year": 2014
  }
}