{
  "header": {
    "version": 4,
    "description": "Karaoke Mugen Karaoke Data File"
  },
  "medias": [
    {
      "version": "Default",
      "filename": "JPN - Maken-ki! Two - OP - Cherish.mp4",
      "audiogain": -1.64,
      "loudnorm": "-16.06,-7.71,7.20,-26.27,-1.48",
      "filesize": 55627074,
      "duration": 89,
      "default": true,
      "lyrics": [
        {
          "filename": "JPN - Maken-ki! Two - OP - Cherish.ass",
          "default": true,
          "version": "Default",
          "subchecksum": "f85f55f403a63de44bb5a0c586ff456a"
        }
      ]
    }
  ],
  "data": {
    "created_at": "2021-03-07T15:33:03.869Z",
    "kid": "7efd86bb-a86d-4da0-95f3-8d7b75138285",
    "modified_at": "2021-03-07T15:37:24.418Z",
    "repository": "kara.moe",
    "tags": {
      "authors": [
        "4d71ce82-eed1-4c44-ac85-5f7255f3dad3"
      ],
      "collections": [
        "c7db86a0-ff64-4044-9be4-66dd1ef1d1c1"
      ],
      "creators": [
        "0e26434a-c89a-4366-85b5-9e5c4b7d4195"
      ],
      "families": [
        "0377db02-3af6-43b8-9b08-c759df3d25c3"
      ],
      "groups": [
        "ae613721-1fbe-480d-ba6b-d6d0702b184d"
      ],
      "langs": [
        "4dcf9614-7914-42aa-99f4-dbce2e059133"
      ],
      "origins": [
        "938de218-5343-4865-94d3-fb33f2eaa152"
      ],
      "series": [
        "e73fc699-15a3-4196-9b6f-658989c4c0f0"
      ],
      "singers": [
        "6c0658fe-c849-4b32-a261-ddeb98e14109",
        "d1b95792-c817-41d6-b91f-9aa70736a2e5",
        "deb40ff7-71c6-453b-a1ac-3c092433bfef",
        "ea1c64a3-1c45-4bbc-ad23-fcdea1907ac2",
        "fea58c35-b79a-4ed6-b300-bfede576d60f"
      ],
      "songtypes": [
        "f02ad9b3-0bd9-4aad-85b3-9976739ba0e4"
      ],
      "songwriters": [
        "4998caf7-15dd-4f12-9024-4946b7a08d16",
        "895ceb3c-0bee-4f59-aa9f-28e0168453c0"
      ],
      "franchises": [
        "d9ec4320-1364-4e7c-90c7-4306a536788f"
      ]
    },
    "title": "Cherish",
    "titles": {
      "eng": "Cherish"
    },
    "year": 2014,
    "titles_default_language": "eng"
  }
}