{
  "header": {
    "version": 4,
    "description": "Karaoke Mugen Karaoke Data File"
  },
  "medias": [
    {
      "version": "Utaite Parody.",
      "filename": "JPN - Faneru, Gero - MV - magnet ~ Utaite Parody Vers. ~ Alternative Cover Vers.mp4",
      "audiogain": -9.55,
      "loudnorm": "-9.26,2.31,7.50,-19.60,-0.75",
      "filesize": 36247279,
      "duration": 461,
      "default": true,
      "lyrics": [
        {
          "filename": "JPN - Faneru, Gero - MV - magnet ~ Utaite Parody Vers. ~ Alternative Cover Vers.ass",
          "default": true,
          "version": "Default"
        }
      ]
    }
  ],
  "data": {
    "created_at": "2020-07-21T22:01:40.239Z",
    "ignoreHooks": false,
    "kid": "eb5b8bd6-1373-4066-b027-d7f350459b73",
    "modified_at": "2022-11-05T14:56:42.531Z",
    "parents": [
      "a4f13340-da2b-4612-82ae-6aefeadf6343"
    ],
    "repository": "kara.moe",
    "tags": {
      "authors": [
        "604b9132-005f-414a-82b8-e5858e586448"
      ],
      "collections": [
        "c7db86a0-ff64-4044-9be4-66dd1ef1d1c1"
      ],
      "families": [
        "0377db02-3af6-43b8-9b08-c759df3d25c3"
      ],
      "genres": [
        "45623cae-6d68-4304-a49b-896d1d6f4580"
      ],
      "groups": [
        "3c14c864-533c-49e6-a3cc-6969f1233775",
        "60defa7b-774e-4680-8321-51b742c2e009"
      ],
      "langs": [
        "4dcf9614-7914-42aa-99f4-dbce2e059133"
      ],
      "misc": [
        "07af42d1-824e-407e-bf37-7fb84905484b",
        "86705d4b-24e4-4756-9687-2b9c98bcf366"
      ],
      "singers": [
        "c1603b56-cb9f-4989-b9f2-cee37a54f8fd",
        "dfde2895-f443-48b3-b951-591257e173ac",
        "f19f637c-3a8f-4e07-b358-8caf785ccc9f"
      ],
      "songtypes": [
        "7be1b15c-cff8-4b37-a649-5c90f3d569a9"
      ],
      "songwriters": [
        "25ce51a9-c734-48f9-ab36-e60a2630b8b1"
      ],
      "versions": [
        "03e1e1d2-8641-47b7-bbcb-39a3df9ff21c",
        "9f63c359-d1bf-425a-bcf5-b245c2c9211d"
      ]
    },
    "titles": {
      "eng": "magnet ~ Utaite Parody Vers."
    },
    "titles_default_language": "eng",
    "title": "magnet ~ Utaite Parody Vers.",
    "year": 2009
  }
}