{
  "header": {
    "version": 4,
    "description": "Karaoke Mugen Karaoke Data File"
  },
  "medias": [
    {
      "version": "Default",
      "filename": "JPN - Ouran Koukou Host Club - OP - Sakura Kiss.mp4",
      "audiogain": 0.2,
      "loudnorm": "-18.14,-7.74,4.50,-28.22,-0.89",
      "filesize": 26137251,
      "duration": 79,
      "default": true,
      "lyrics": [
        {
          "filename": "JPN - Ouran Koukou Host Club - OP - Sakura Kiss.ass",
          "default": true,
          "version": "Default"
        }
      ]
    }
  ],
  "data": {
    "created_at": "2017-10-11T17:02:11.000Z",
    "ignoreHooks": false,
    "kid": "988f6b40-16ab-4d71-a74f-b377de7f91b7",
    "modified_at": "2022-11-23T19:24:30.215Z",
    "repository": "kara.moe",
    "tags": {
      "authors": [
        "5bdaba57-27f8-4568-8806-76a807728766"
      ],
      "collections": [
        "c7db86a0-ff64-4044-9be4-66dd1ef1d1c1"
      ],
      "creators": [
        "57ffcdd9-7e4f-4971-85ce-0fb3aa8151ac"
      ],
      "families": [
        "0377db02-3af6-43b8-9b08-c759df3d25c3"
      ],
      "genres": [
        "8b6ace6f-a59e-4740-b3ff-e1618720383c"
      ],
      "groups": [
        "3c14c864-533c-49e6-a3cc-6969f1233775"
      ],
      "langs": [
        "4dcf9614-7914-42aa-99f4-dbce2e059133"
      ],
      "origins": [
        "938de218-5343-4865-94d3-fb33f2eaa152"
      ],
      "series": [
        "f875f6ef-b42e-44e9-b40a-9f193aad347a"
      ],
      "singers": [
        "0d1af074-febe-4e56-a456-1f8fd8a9d719"
      ],
      "songtypes": [
        "f02ad9b3-0bd9-4aad-85b3-9976739ba0e4"
      ],
      "songwriters": [
        "6aec831a-c6d8-4c7b-b4ff-d8d412878d79",
        "8c67056d-d624-4a36-a2d6-1de8e015fdea"
      ]
    },
    "titles": {
      "qro": "Sakura Kiss"
    },
    "titles_default_language": "qro",
    "titles_aliases": [
      "fall in love"
    ],
    "year": 2006
  }
}