{
  "header": {
    "version": 4,
    "description": "Karaoke Mugen Karaoke Data File"
  },
  "medias": [
    {
      "version": "Default",
      "filename": "JPN - BUMP OF CHICKEN - MV - Hana no Na.mp4",
      "audiogain": -5.98,
      "loudnorm": "-11.79,0.57,7.80,-22.13,-1.64",
      "filesize": 27120485,
      "duration": 373,
      "default": true,
      "lyrics": [
        {
          "filename": "JPN - BUMP OF CHICKEN - MV - Hana no Na.ass",
          "default": true,
          "version": "Default"
        }
      ]
    }
  ],
  "data": {
    "created_at": "2021-05-21T22:30:10.988Z",
    "kid": "1339347a-c2d7-40a4-9b8f-605433a99cd1",
    "modified_at": "2022-06-04T00:19:45.455Z",
    "repository": "kara.moe",
    "songorder": null,
    "tags": {
      "authors": [
        "1db1738f-acdc-42fc-aec3-60f4bddf660d"
      ],
      "creators": [
        "6697d31b-7f60-4d11-b237-8eb72740fd8a"
      ],
      "families": [
        "5391f9fe-638c-415f-8dc9-958e3a2c5787"
      ],
      "groups": [
        "3c14c864-533c-49e6-a3cc-6969f1233775"
      ],
      "langs": [
        "4dcf9614-7914-42aa-99f4-dbce2e059133"
      ],
      "misc": [
        "86705d4b-24e4-4756-9687-2b9c98bcf366"
      ],
      "singers": [
        "a027724c-6136-4dc1-b585-7ae8f780c8d2"
      ],
      "songtypes": [
        "7be1b15c-cff8-4b37-a649-5c90f3d569a9"
      ],
      "songwriters": [
        "20a392bf-0517-4d22-a08c-46345d1077fe"
      ],
      "collections": [
        "dbcf2c22-524d-4708-99bb-601703633927"
      ]
    },
    "titles": {
      "qro": "Hana no Na",
      "jpn": "花の名"
    },
    "titles_default_language": "qro",
    "title": "Hana no Na",
    "year": 2007
  }
}