{
  "header": {
    "version": 4,
    "description": "Karaoke Mugen Karaoke Data File"
  },
  "medias": [
    {
      "version": "Default",
      "filename": "JPN - Captain Tsubasa Road to 2002 - OP1 - Dragon Screamer.mp4",
      "audiogain": -2.76,
      "loudnorm": "-15.40,-0.30,6.60,-25.52,0.19",
      "filesize": 24094561,
      "duration": 89,
      "default": true,
      "lyrics": [
        {
          "filename": "JPN - Captain Tsubasa Road to 2002 - OP1 - Dragon Screamer.ass",
          "default": true,
          "version": "Default",
          "subchecksum": "47477d97173979968a72afa8692a74b7"
        }
      ]
    }
  ],
  "data": {
    "created_at": "2017-10-11T17:02:08.000Z",
    "kid": "c54dde4f-0ddb-4340-9352-976b28f1b806",
    "modified_at": "2021-02-28T12:22:03.621Z",
    "repository": "kara.moe",
    "songorder": 1,
    "tags": {
      "authors": [
        "6bebcb04-2694-453c-9e0c-eb1a2e2718d9"
      ],
      "collections": [
        "c7db86a0-ff64-4044-9be4-66dd1ef1d1c1"
      ],
      "creators": [
        "06b98930-5c01-4bd6-9712-9d2cc1a57ea7",
        "9c5cf6ba-0bc8-4cfe-a63c-e9be3a14e9fd"
      ],
      "families": [
        "0377db02-3af6-43b8-9b08-c759df3d25c3"
      ],
      "genres": [
        "a0aeef4a-6428-45ff-a6e1-468b595930c2"
      ],
      "groups": [
        "3c14c864-533c-49e6-a3cc-6969f1233775"
      ],
      "langs": [
        "4dcf9614-7914-42aa-99f4-dbce2e059133"
      ],
      "origins": [
        "938de218-5343-4865-94d3-fb33f2eaa152"
      ],
      "series": [
        "8fef2cc0-f323-4515-82f5-a18ace889cb5"
      ],
      "singers": [
        "9446d0a6-681d-42d3-8e46-99f462495f3e"
      ],
      "songtypes": [
        "f02ad9b3-0bd9-4aad-85b3-9976739ba0e4"
      ],
      "songwriters": [
        "04aa7a6f-67ed-41c9-9870-e5007b87d587",
        "9eab9fdd-35e0-485b-91b6-970f8b4ee425"
      ],
      "franchises": [
        "967c4a26-7302-4894-a48b-60d12147d730"
      ]
    },
    "title": "Dragon Screamer",
    "titles": {
      "eng": "Dragon Screamer"
    },
    "year": 2001,
    "titles_default_language": "eng"
  }
}