{
  "header": {
    "version": 4,
    "description": "Karaoke Mugen Karaoke Data File"
  },
  "medias": [
    {
      "version": "Default",
      "filename": "JPN - Touhou - MV - Futari no Kesshou -INNOCENCE- ~ Off Vocal Vers.mp4",
      "audiogain": -5.53,
      "loudnorm": "-10.08,3.42,2.10,-20.14,-0.26",
      "filesize": 50351241,
      "duration": 319,
      "default": true,
      "lyrics": [
        {
          "filename": "JPN - Touhou - MV - Futari no Kesshou -INNOCENCE- ~ Off Vocal Vers.ass",
          "default": true,
          "version": "Default"
        }
      ]
    }
  ],
  "data": {
    "created_at": "2022-04-01T19:44:28.726Z",
    "ignoreHooks": false,
    "kid": "75c424a6-3f85-4668-a789-19a68daf745c",
    "modified_at": "2022-04-01T19:44:28.726Z",
    "parents": [
      "4b943fd0-b8b5-4ac4-8e27-bf9898be4b09"
    ],
    "repository": "kara.moe",
    "tags": {
      "authors": [
        "fb28c6d3-a81e-40c0-9a4c-e3268c60a64b"
      ],
      "collections": [
        "c7db86a0-ff64-4044-9be4-66dd1ef1d1c1"
      ],
      "creators": [
        "eb49131c-b890-422d-9947-0e82292801e1"
      ],
      "families": [
        "0377db02-3af6-43b8-9b08-c759df3d25c3"
      ],
      "groups": [
        "ae613721-1fbe-480d-ba6b-d6d0702b184d"
      ],
      "langs": [
        "4dcf9614-7914-42aa-99f4-dbce2e059133"
      ],
      "misc": [
        "1d6ceadf-a885-47e5-b23b-c07bf668a424",
        "86705d4b-24e4-4756-9687-2b9c98bcf366"
      ],
      "origins": [
        "ac5085db-52d8-44b4-8fbb-1697b24d2046"
      ],
      "series": [
        "1bdaa5a1-dfa6-4365-b746-7a0b194dafd6"
      ],
      "singers": [
        "a6e3509f-befc-4b8b-ac1c-3614e1c32447"
      ],
      "songtypes": [
        "7be1b15c-cff8-4b37-a649-5c90f3d569a9"
      ],
      "songwriters": [
        "26cb5252-8510-49e0-897c-a611a05fc056",
        "3c027018-54fc-4402-b3eb-46c34d07a56b"
      ],
      "versions": [
        "c0cc87b9-55b9-40f0-878a-fbb9e34c151e"
      ],
      "franchises": [
        "1bdaa5a1-dfa6-4365-b746-7a0b194dafd6"
      ]
    },
    "titles": {
      "qro": "Futari no Kesshô -INNOCENCE-",
      "jpn": "二人の結晶 -INNOCENCE-"
    },
    "titles_default_language": "qro",
    "titles_aliases": [
      "Our Crystal",
      "Kessyo",
      "Kesshou"
    ],
    "title": "Futari no Kesshô -INNOCENCE-",
    "year": 2015
  }
}