{
  "header": {
    "version": 4,
    "description": "Karaoke Mugen Karaoke Data File"
  },
  "medias": [
    {
      "version": "Default",
      "filename": "JPN - Shaman King (2021) - ED - #Boku no Yubisaki.mp4",
      "audiogain": 1.98,
      "loudnorm": "-19.71,-7.75,7.20,-29.92,-0.74",
      "filesize": 44523587,
      "duration": 87,
      "default": true,
      "lyrics": [
        {
          "filename": "JPN - Shaman King (2021) - ED - #Boku no Yubisaki.ass",
          "default": true,
          "version": "Default",
          "subchecksum": "30f87cc7736d992e234753297e063c87"
        }
      ]
    }
  ],
  "data": {
    "created_at": "2021-04-09T23:20:44.254Z",
    "kid": "b8ba4b47-276d-4de3-85cd-0d937b7e4529",
    "modified_at": "2021-04-09T23:23:19.429Z",
    "repository": "kara.moe",
    "tags": {
      "authors": [
        "06852e02-b77e-4106-b6f7-2d03942ad0ea"
      ],
      "collections": [
        "c7db86a0-ff64-4044-9be4-66dd1ef1d1c1"
      ],
      "creators": [
        "2b63c455-b186-46b8-8b60-f86c11144ac4"
      ],
      "families": [
        "0377db02-3af6-43b8-9b08-c759df3d25c3"
      ],
      "genres": [
        "a0aeef4a-6428-45ff-a6e1-468b595930c2"
      ],
      "groups": [
        "8e209ae4-4381-438f-89dc-1b21752027d2"
      ],
      "langs": [
        "4dcf9614-7914-42aa-99f4-dbce2e059133"
      ],
      "origins": [
        "938de218-5343-4865-94d3-fb33f2eaa152"
      ],
      "series": [
        "46a1358e-e3ae-4e11-ac9c-d31b5fdec2aa"
      ],
      "singers": [
        "326621ef-f074-4b13-9921-9728c65a6dff"
      ],
      "songtypes": [
        "38c77c56-2b95-4040-b676-0994a8cb0597"
      ],
      "songwriters": [
        "101355ce-da03-4611-bcd5-7fa8952f98e3",
        "326621ef-f074-4b13-9921-9728c65a6dff"
      ],
      "franchises": [
        "fb727959-06a4-45df-8dea-f2d8e9d260b0"
      ]
    },
    "title": "#Boku no Yubisaki",
    "titles": {
      "qro": "#Boku no Yubisaki",
      "jpn": "#ボクノユビサキ"
    },
    "year": 2021,
    "titles_default_language": "qro"
  }
}