{
  "header": {
    "version": 4,
    "description": "Karaoke Mugen Karaoke Data File"
  },
  "medias": [
    {
      "version": "Default",
      "filename": "JPN - Macross Frontier - REMIX AUDIO IN - Nyan Nyan Service Medley.mp3",
      "audiogain": -9.97,
      "loudnorm": "-7.71,0.76,6.40,-17.84,-0.37",
      "filesize": 31103385,
      "duration": 744,
      "default": true,
      "lyrics": [
        {
          "filename": "JPN - Macross Frontier - REMIX AUDIO IN - Nyan Nyan Service Medley.ass",
          "default": true,
          "version": "Default"
        }
      ]
    }
  ],
  "data": {
    "created_at": "2020-07-16T19:06:10.728Z",
    "ignoreHooks": false,
    "kid": "9c485fb7-a494-4be9-82c2-2deaad575cb2",
    "modified_at": "2023-05-07T20:21:00.479Z",
    "repository": "kara.moe",
    "tags": {
      "authors": [
        "60defa7b-774e-4680-8321-51b742c2e009"
      ],
      "collections": [
        "c7db86a0-ff64-4044-9be4-66dd1ef1d1c1"
      ],
      "genres": [
        "caa86df2-0d59-474b-885c-f240a9e891b0",
        "f60ba57d-5ef4-49e0-b93b-d0dcbcff6592"
      ],
      "groups": [
        "3c14c864-533c-49e6-a3cc-6969f1233775",
        "60defa7b-774e-4680-8321-51b742c2e009"
      ],
      "langs": [
        "4dcf9614-7914-42aa-99f4-dbce2e059133"
      ],
      "misc": [
        "86705d4b-24e4-4756-9687-2b9c98bcf366",
        "ec4360fa-3e3c-4f6f-b0e1-fb8b12b6dd18"
      ],
      "origins": [
        "938de218-5343-4865-94d3-fb33f2eaa152"
      ],
      "series": [
        "2d597a9c-87d8-4da3-a258-7c510480530a"
      ],
      "singers": [
        "1e93160f-11bb-4d02-b716-4660cb29206e",
        "73b841c7-d13c-44b4-9018-1727721742d1",
        "5d438e3b-b8e6-43c9-9fdf-2016a6bbc42f"
      ],
      "songtypes": [
        "42a262ae-acba-4ab5-a446-c5789c96c821",
        "5e5250d9-351a-4a82-98eb-55db50ad8962"
      ],
      "songwriters": [
        "178ea13c-9ff6-4385-8dd7-b62ebdeaa5fe",
        "3fac0f8e-dac8-47d6-999d-db3526b90aa9",
        "54000730-0779-445e-b865-bf6cf2175579",
        "63f55863-6de7-4259-9808-f372497703b5",
        "7326cc11-6eeb-467f-81a2-222acca35de0",
        "97fbc0b6-6408-4273-bdb4-0c900e0ac945",
        "acc74ee2-6c1c-4995-9b61-3f01fbc7e006",
        "af0be06d-ea2d-4f46-85d1-58cf9f42532a",
        "b6381db9-e99e-407e-a4c7-f54415ffef54"
      ],
      "franchises": [
        "01b9b958-2d2a-43d0-a5dd-efb5b14675ea"
      ]
    },
    "titles": {
      "jpn": "娘々サービスメドレー",
      "qro": "Nyan Nyan Service Medley"
    },
    "titles_default_language": "qro",
    "year": 2008
  }
}