{
  "header": {
    "version": 4,
    "description": "Karaoke Mugen Karaoke Data File"
  },
  "medias": [
    {
      "version": "Default",
      "filename": "JPN - Ao no Exorcist - ED1 - Take Off.mp4",
      "audiogain": -0.19,
      "loudnorm": "-16.32,-4.40,4.90,-26.41,-0.84",
      "filesize": 18522159,
      "duration": 86,
      "default": true,
      "lyrics": [
        {
          "filename": "JPN - Ao no Exorcist - ED1 - Take Off.ass",
          "default": true,
          "version": "Default"
        }
      ]
    }
  ],
  "data": {
    "created_at": "2019-05-05T12:37:50.000Z",
    "kid": "dfdcb155-da49-4a76-b522-3acdc2d7f677",
    "modified_at": "2021-07-22T19:00:12.644Z",
    "repository": "kara.moe",
    "songorder": 1,
    "tags": {
      "authors": [
        "6dff9198-29f1-470b-bac6-8a60032ca8b8"
      ],
      "collections": [
        "c7db86a0-ff64-4044-9be4-66dd1ef1d1c1"
      ],
      "creators": [
        "b96e3686-bbe0-4b9e-815a-a278d5ff31be"
      ],
      "families": [
        "0377db02-3af6-43b8-9b08-c759df3d25c3"
      ],
      "groups": [
        "2b4e9972-5e17-481b-99f5-d0787c0ada56",
        "ae613721-1fbe-480d-ba6b-d6d0702b184d"
      ],
      "langs": [
        "4dcf9614-7914-42aa-99f4-dbce2e059133"
      ],
      "origins": [
        "938de218-5343-4865-94d3-fb33f2eaa152"
      ],
      "series": [
        "999a8251-15ba-4a1a-b934-cc6f15a44919"
      ],
      "singers": [
        "44837964-5cfd-4aa1-b97c-d2a157d8b3b5"
      ],
      "songtypes": [
        "38c77c56-2b95-4040-b676-0994a8cb0597"
      ],
      "songwriters": [
        "040091a5-2f27-4313-9c33-7ae7ea54a3e1",
        "10098cc7-c80d-4656-bb68-c5de9ab7a0d7",
        "2dd37024-3f5a-42b9-b448-c64c5b888890",
        "2f3208df-db2b-49d2-a769-79913280e384",
        "8b0a2ae0-faea-458e-b3a1-2b793296ae05"
      ],
      "franchises": [
        "999a8251-15ba-4a1a-b934-cc6f15a44919"
      ]
    },
    "title": "Take Off",
    "titles": {
      "eng": "Take off"
    },
    "year": 2011,
    "titles_default_language": "eng"
  }
}