{
  "header": {
    "version": 4,
    "description": "Karaoke Mugen Karaoke Data File"
  },
  "medias": [
    {
      "version": "Default",
      "filename": "JPN - Ore Twintails ni Narimasu. - ED - Twintails Dreamer!.mp4",
      "audiogain": 1.73,
      "loudnorm": "-19.49,-9.28,3.00,-29.65,-0.11",
      "filesize": 45953889,
      "duration": 92,
      "default": true,
      "lyrics": [
        {
          "filename": "JPN - Ore Twintails ni Narimasu. - ED - Twintails Dreamer!.ass",
          "default": true,
          "version": "Default",
          "subchecksum": "06115d68cd2fc457f3b27ef91d2a9ce7"
        }
      ]
    }
  ],
  "data": {
    "created_at": "2017-10-11T17:02:27.000Z",
    "kid": "304a0f76-29e1-4e73-ad2e-1209b3222394",
    "modified_at": "2021-02-25T12:42:36.356Z",
    "repository": "kara.moe",
    "tags": {
      "authors": [
        "5bdaba57-27f8-4568-8806-76a807728766"
      ],
      "collections": [
        "c7db86a0-ff64-4044-9be4-66dd1ef1d1c1"
      ],
      "creators": [
        "fc687079-2e13-485f-a3ab-4474872175a8"
      ],
      "families": [
        "0377db02-3af6-43b8-9b08-c759df3d25c3"
      ],
      "groups": [
        "ae613721-1fbe-480d-ba6b-d6d0702b184d"
      ],
      "langs": [
        "4dcf9614-7914-42aa-99f4-dbce2e059133"
      ],
      "origins": [
        "938de218-5343-4865-94d3-fb33f2eaa152"
      ],
      "series": [
        "657360c9-5260-46a7-bdf1-e245725cd045"
      ],
      "singers": [
        "76e244bb-99b7-4741-84ba-65ecabb9982f",
        "78aaee78-414b-4ea8-b340-e3a79172f8e7",
        "9332cf9e-20a6-4738-98a2-f6ef30529681",
        "ed020f89-8212-452e-b7d5-c55bda61ceaa"
      ],
      "songtypes": [
        "38c77c56-2b95-4040-b676-0994a8cb0597"
      ],
      "songwriters": [
        "77892cf7-4396-41ad-ac17-5d5e8eab7aea"
      ]
    },
    "title": "Twintails Dreamer!",
    "titles": {
      "eng": "Twintails Dreamer!",
      "jpn": "ツインテール・ドリーマー!"
    },
    "year": 2014,
    "titles_default_language": "eng"
  }
}