{
  "header": {
    "version": 4,
    "description": "Karaoke Mugen Karaoke Data File"
  },
  "medias": [
    {
      "version": "Default",
      "filename": "JPN - Gintama - OP1 - Pray.mp4",
      "audiogain": 1.78,
      "loudnorm": "-20.11,-10.52,4.00,-30.21,0.33",
      "filesize": 25149892,
      "duration": 91,
      "default": true,
      "lyrics": [
        {
          "filename": "JPN - Gintama - OP1 - Pray.ass",
          "default": true,
          "version": "Default",
          "subchecksum": "497f0f046906827687a219ca6227c818"
        }
      ]
    }
  ],
  "data": {
    "created_at": "2017-10-11T17:03:08.000Z",
    "kid": "8c42eefa-50c2-44f1-a6cb-28aaf5d282f2",
    "modified_at": "2021-02-25T11:28:45.825Z",
    "repository": "kara.moe",
    "songorder": 1,
    "tags": {
      "authors": [
        "5bdaba57-27f8-4568-8806-76a807728766"
      ],
      "collections": [
        "c7db86a0-ff64-4044-9be4-66dd1ef1d1c1"
      ],
      "creators": [
        "ef8f80e1-d244-4aea-b7f0-984d6dd4b82b"
      ],
      "families": [
        "0377db02-3af6-43b8-9b08-c759df3d25c3"
      ],
      "genres": [
        "a0aeef4a-6428-45ff-a6e1-468b595930c2"
      ],
      "groups": [
        "3c14c864-533c-49e6-a3cc-6969f1233775"
      ],
      "langs": [
        "4dcf9614-7914-42aa-99f4-dbce2e059133"
      ],
      "origins": [
        "938de218-5343-4865-94d3-fb33f2eaa152"
      ],
      "series": [
        "0433ab0b-74bb-4837-8f1b-fd17a9e0c526"
      ],
      "singers": [
        "8b9bd47a-ae78-46ba-80f8-fe93afc07452"
      ],
      "songtypes": [
        "f02ad9b3-0bd9-4aad-85b3-9976739ba0e4"
      ],
      "songwriters": [
        "3f77a5d5-6725-472f-bbd9-427d877bc163",
        "8b9bd47a-ae78-46ba-80f8-fe93afc07452"
      ],
      "franchises": [
        "0433ab0b-74bb-4837-8f1b-fd17a9e0c526"
      ]
    },
    "title": "Pray",
    "titles": {
      "eng": "Pray"
    },
    "year": 2006,
    "titles_default_language": "eng"
  }
}