{
  "header": {
    "version": 4,
    "description": "Karaoke Mugen Karaoke Data File"
  },
  "medias": [
    {
      "version": "Default",
      "filename": "JPN - Touhou - MV - Kitto mou hatarakanai ~ Short Vers.mp4",
      "audiogain": -10.31,
      "loudnorm": "-5.90,1.94,1.60,-16.01,-0.06",
      "filesize": 8114807,
      "duration": 118,
      "default": true,
      "lyrics": [
        {
          "filename": "JPN - Touhou - MV - Kitto mou hatarakanai ~ Short Vers.ass",
          "default": true,
          "version": "Default"
        }
      ]
    }
  ],
  "data": {
    "created_at": "2022-07-04T20:22:58.134Z",
    "ignoreHooks": false,
    "kid": "042d8a82-51de-4111-99e2-88bcf037fcbb",
    "modified_at": "2022-10-03T19:04:51.297Z",
    "repository": "kara.moe",
    "tags": {
      "authors": [
        "56355915-6bc6-4282-acbb-dd1fdaf13d50"
      ],
      "collections": [
        "c7db86a0-ff64-4044-9be4-66dd1ef1d1c1"
      ],
      "creators": [
        "25fc251a-0514-4bf5-a818-dd0547723f4a",
        "3f35ab9c-d0b7-4593-9c2d-6650365c47d7"
      ],
      "families": [
        "0377db02-3af6-43b8-9b08-c759df3d25c3"
      ],
      "genres": [
        "45623cae-6d68-4304-a49b-896d1d6f4580"
      ],
      "groups": [
        "ae613721-1fbe-480d-ba6b-d6d0702b184d",
        "df5f446f-d161-4760-8e0c-822e70ea03ae"
      ],
      "langs": [
        "4dcf9614-7914-42aa-99f4-dbce2e059133"
      ],
      "series": [
        "1bdaa5a1-dfa6-4365-b746-7a0b194dafd6"
      ],
      "singers": [
        "e4242b93-140e-4591-991f-d9f55d378599"
      ],
      "songtypes": [
        "7be1b15c-cff8-4b37-a649-5c90f3d569a9"
      ],
      "songwriters": [
        "b722bb12-a0f3-4f13-984f-10630694b18b"
      ],
      "versions": [
        "d125c80a-86c1-4321-88e9-07b7800679b6"
      ],
      "franchises": [
        "1bdaa5a1-dfa6-4365-b746-7a0b194dafd6"
      ]
    },
    "titles": {
      "jpn": "きっともうはたらかない",
      "qro": "Kitto mô hatarakanai"
    },
    "titles_default_language": "qro",
    "titles_aliases": [
      "mou",
      "Probably I Will Never Work"
    ],
    "title": "Kitto mô hatarakanai",
    "year": 2010
  }
}