{
  "header": {
    "version": 4,
    "description": "Karaoke Mugen Karaoke Data File"
  },
  "medias": [
    {
      "version": "Default",
      "filename": "JPN - Fuufu Ijou, Koibito Miman. - MV - TRUE FOOL LOVE ~ Full Vers.mp4",
      "audiogain": -11.51,
      "loudnorm": "-5.73,2.44,2.20,-15.78,-0.13",
      "filesize": 95020799,
      "duration": 204,
      "default": true,
      "lyrics": [
        {
          "filename": "JPN - Fuufu Ijou, Koibito Miman. - MV - TRUE FOOL LOVE ~ Full Vers.ass",
          "default": true,
          "version": "Default"
        }
      ]
    }
  ],
  "data": {
    "created_at": "2022-12-11T22:03:27.365Z",
    "ignoreHooks": false,
    "kid": "611de319-363c-462d-9f43-cee3fd16dd1d",
    "modified_at": "2023-03-07T22:45:25.305Z",
    "parents": [
      "c1eca456-8b5d-45ac-b565-7a2e6504b478"
    ],
    "repository": "kara.moe",
    "tags": {
      "authors": [
        "4749577f-84d7-470b-bfa8-09c6f9a97c32"
      ],
      "collections": [
        "c7db86a0-ff64-4044-9be4-66dd1ef1d1c1",
        "dbcf2c22-524d-4708-99bb-601703633927"
      ],
      "creators": [
        "8d57adf8-54ac-408a-b104-b7e48029a3eb"
      ],
      "families": [
        "5391f9fe-638c-415f-8dc9-958e3a2c5787"
      ],
      "groups": [
        "8e209ae4-4381-438f-89dc-1b21752027d2"
      ],
      "langs": [
        "4dcf9614-7914-42aa-99f4-dbce2e059133"
      ],
      "origins": [
        "938de218-5343-4865-94d3-fb33f2eaa152"
      ],
      "series": [
        "86e29803-fef4-44ff-b4bd-d5d406e3a21d"
      ],
      "singers": [
        "8a484e8b-1945-416f-b778-97a887ff24eb"
      ],
      "songtypes": [
        "7be1b15c-cff8-4b37-a649-5c90f3d569a9"
      ],
      "songwriters": [
        "23f1e99f-3964-44cf-b36a-de1341b1f213",
        "9440a48e-d17c-45af-9340-f3f77042ea4e"
      ],
      "versions": [
        "c2143a7f-6970-450e-8a79-0302db9220a9"
      ]
    },
    "titles": {
      "eng": "TRUE FOOL LOVE"
    },
    "titles_default_language": "eng",
    "year": 2022
  }
}