{
  "header": {
    "version": 4,
    "description": "Karaoke Mugen Karaoke Data File"
  },
  "medias": [
    {
      "version": "Border of Death",
      "filename": "JPN - Touhou - MV - Madoite Kitare, Yuuda na Kamikakushi ~ Border of Death.mp4",
      "audiogain": -9.79,
      "loudnorm": "-7.89,1.99,10.20,-18.17,-2.08",
      "filesize": 29878936,
      "duration": 93,
      "default": true,
      "lyrics": [
        {
          "filename": "JPN - Touhou - MV - Madoite Kitare, Yuuda na Kamikakushi ~ Border of Death.ass",
          "default": true,
          "version": "Default"
        }
      ]
    }
  ],
  "data": {
    "created_at": "2022-02-17T07:18:42.377Z",
    "ignoreHooks": false,
    "kid": "97679506-5d5b-43ca-8b35-175e06cc096d",
    "modified_at": "2022-02-17T07:30:07.254Z",
    "repository": "kara.moe",
    "tags": {
      "authors": [
        "fb28c6d3-a81e-40c0-9a4c-e3268c60a64b"
      ],
      "collections": [
        "c7db86a0-ff64-4044-9be4-66dd1ef1d1c1"
      ],
      "creators": [
        "25fc251a-0514-4bf5-a818-dd0547723f4a",
        "dfdca219-b7f2-4e7b-a18a-0229108ff1cd"
      ],
      "families": [
        "0377db02-3af6-43b8-9b08-c759df3d25c3"
      ],
      "groups": [
        "3c14c864-533c-49e6-a3cc-6969f1233775"
      ],
      "langs": [
        "4dcf9614-7914-42aa-99f4-dbce2e059133"
      ],
      "origins": [
        "ac5085db-52d8-44b4-8fbb-1697b24d2046"
      ],
      "series": [
        "1bdaa5a1-dfa6-4365-b746-7a0b194dafd6"
      ],
      "singers": [
        "65860881-335a-4551-8df8-fa56ee102579",
        "feceb592-efac-4eda-9b03-c27cf509004c"
      ],
      "songtypes": [
        "7be1b15c-cff8-4b37-a649-5c90f3d569a9"
      ],
      "songwriters": [
        "1dae52a9-d1e0-447b-8dd3-cfd10119a3a8",
        "26cb5252-8510-49e0-897c-a611a05fc056",
        "feceb592-efac-4eda-9b03-c27cf509004c"
      ],
      "franchises": [
        "1bdaa5a1-dfa6-4365-b746-7a0b194dafd6"
      ]
    },
    "titles": {
      "qro": "Madoite Kitare, Yûda na Kamikakushi ~ Border of Death",
      "jpn": "惑いて来たれ、遊惰な神隠し ～ Border of Death"
    },
    "titles_aliases": [
      "Bewildering Impending Spiriting Away",
      "Yuuda"
    ],
    "title": "Madoite Kitare, Yûda na Kamikakushi ~ Border of Death",
    "year": 2006,
    "titles_default_language": "qro"
  }
}