{
  "header": {
    "version": 4,
    "description": "Karaoke Mugen Karaoke Data File"
  },
  "medias": [
    {
      "version": "Default",
      "filename": "JPN - Kidou Senshi Gundam 00 2nd Season - IN - Tomorrow.avi",
      "audiogain": 3.16,
      "loudnorm": "-21.93,-8.03,5.80,-32.00,0.17",
      "filesize": 23362910,
      "duration": 112,
      "default": true,
      "lyrics": [
        {
          "filename": "JPN - Kidou Senshi Gundam 00 2nd Season - IN - Tomorrow.ass",
          "default": true,
          "version": "Default",
          "subchecksum": "303fcafba4561b0834416319452cd2fd"
        }
      ]
    }
  ],
  "data": {
    "created_at": "2017-10-11T15:03:11.000Z",
    "kid": "ff71802d-82b9-4d8d-89c0-32b8e195ffba",
    "modified_at": "2021-02-25T11:59:15.381Z",
    "repository": "kara.moe",
    "tags": {
      "authors": [
        "5bdaba57-27f8-4568-8806-76a807728766"
      ],
      "collections": [
        "c7db86a0-ff64-4044-9be4-66dd1ef1d1c1"
      ],
      "creators": [
        "ef8f80e1-d244-4aea-b7f0-984d6dd4b82b"
      ],
      "families": [
        "0377db02-3af6-43b8-9b08-c759df3d25c3"
      ],
      "genres": [
        "f60ba57d-5ef4-49e0-b93b-d0dcbcff6592"
      ],
      "groups": [
        "3c14c864-533c-49e6-a3cc-6969f1233775"
      ],
      "langs": [
        "4dcf9614-7914-42aa-99f4-dbce2e059133"
      ],
      "origins": [
        "938de218-5343-4865-94d3-fb33f2eaa152"
      ],
      "series": [
        "ec6d3306-9270-4eb5-8128-19e729299317"
      ],
      "singers": [
        "816b7248-1e83-4555-b909-2b9ac948d19a"
      ],
      "songtypes": [
        "5e5250d9-351a-4a82-98eb-55db50ad8962"
      ],
      "songwriters": [
        "1ebabe5c-fd58-49da-97ce-098990147e7a",
        "f889d8cc-619a-4cd2-af1d-164914651ff9"
      ],
      "franchises": [
        "e6ade589-c2e4-49a1-acdb-ea9b03e57240"
      ]
    },
    "title": "Tomorrow",
    "titles": {
      "eng": "TOMORROW"
    },
    "year": 2009,
    "titles_default_language": "eng"
  }
}