{
  "header": {
    "version": 4,
    "description": "Karaoke Mugen Karaoke Data File"
  },
  "medias": [
    {
      "version": "Default",
      "filename": "JPN - Kami Nomi zo Shiru Sekai - IN - Love Call.mp4",
      "audiogain": 1.67,
      "loudnorm": "-18.76,-5.68,4.30,-28.86,-0.10",
      "filesize": 34958870,
      "duration": 146,
      "default": true,
      "lyrics": [
        {
          "filename": "JPN - Kami Nomi zo Shiru Sekai - IN - Love Call.ass",
          "default": true,
          "version": "Default",
          "subchecksum": "4a6392e299c64407a7f1eb91194f1dba"
        }
      ]
    }
  ],
  "data": {
    "created_at": "2017-10-11T17:01:18.000Z",
    "kid": "f59d837d-4c03-45e7-b32c-519067fe9f23",
    "modified_at": "2021-02-25T11:53:44.071Z",
    "repository": "kara.moe",
    "tags": {
      "authors": [
        "48041dfe-a5c4-49fa-8bdd-d17f9388f142"
      ],
      "collections": [
        "c7db86a0-ff64-4044-9be4-66dd1ef1d1c1"
      ],
      "creators": [
        "345edf8e-218e-47e7-ba1a-a15a623da4c5"
      ],
      "families": [
        "0377db02-3af6-43b8-9b08-c759df3d25c3"
      ],
      "groups": [
        "ae613721-1fbe-480d-ba6b-d6d0702b184d"
      ],
      "langs": [
        "4dcf9614-7914-42aa-99f4-dbce2e059133"
      ],
      "origins": [
        "938de218-5343-4865-94d3-fb33f2eaa152"
      ],
      "series": [
        "e0a8fbab-f779-4420-9a5c-a0c2cb946f4c"
      ],
      "singers": [
        "23cb924b-0012-448a-9557-5e3a7ff46c90"
      ],
      "songtypes": [
        "5e5250d9-351a-4a82-98eb-55db50ad8962"
      ],
      "songwriters": [
        "63c302a7-4fb0-47c6-9586-e849850f7c27",
        "b66af498-e868-40b0-984e-b6d8cfc5a91b"
      ],
      "franchises": [
        "e0a8fbab-f779-4420-9a5c-a0c2cb946f4c"
      ]
    },
    "title": "Love Call",
    "titles": {
      "eng": "Love Call",
      "jpn": "らぶこーる"
    },
    "year": 2010,
    "titles_default_language": "eng"
  }
}