{
  "header": {
    "version": 4,
    "description": "Karaoke Mugen Karaoke Data File"
  },
  "medias": [
    {
      "version": "Default",
      "filename": "JPN - Ashita no Joe 2 - ED2 - Hateshinaki yami no kanata ni.mp4",
      "audiogain": 5.95,
      "loudnorm": "-24.33,-9.60,8.10,-34.45,-1.64",
      "filesize": 17909374,
      "duration": 78,
      "default": true,
      "lyrics": [
        {
          "filename": "JPN - Ashita no Joe 2 - ED2 - Hateshinaki yami no kanata ni.ass",
          "default": true,
          "version": "Default",
          "subchecksum": "9fdd12f184177ec3392cd4a2ed0d9921"
        }
      ]
    }
  ],
  "data": {
    "created_at": "2018-11-13T18:33:21.000Z",
    "kid": "17dab011-5717-44a6-bba4-75d061eb69a0",
    "modified_at": "2021-02-25T10:46:27.500Z",
    "parents": [
      "0ea4dd55-8af4-49a1-b240-56bf06f40ebc"
    ],
    "repository": "kara.moe",
    "songorder": 2,
    "tags": {
      "authors": [
        "56ee67d5-8706-4b61-9f4c-9d99e9cf80e8"
      ],
      "collections": [
        "c7db86a0-ff64-4044-9be4-66dd1ef1d1c1"
      ],
      "creators": [
        "53e900ec-a1ff-4c95-8b2d-a63995c2936f"
      ],
      "families": [
        "0377db02-3af6-43b8-9b08-c759df3d25c3"
      ],
      "groups": [
        "7792cc27-9ff9-4d47-9287-2338b7db1575"
      ],
      "langs": [
        "4dcf9614-7914-42aa-99f4-dbce2e059133"
      ],
      "misc": [
        "fe819ff1-9db8-4a0f-85dc-0e322c9126c4"
      ],
      "origins": [
        "938de218-5343-4865-94d3-fb33f2eaa152"
      ],
      "series": [
        "99a7529d-bc9e-4ed3-af64-893b09234a83"
      ],
      "singers": [
        "3e29f389-b55c-4582-b9d8-f9135410fa83"
      ],
      "songtypes": [
        "38c77c56-2b95-4040-b676-0994a8cb0597"
      ],
      "songwriters": [
        "3e29f389-b55c-4582-b9d8-f9135410fa83"
      ],
      "franchises": [
        "3cd9fd14-5c0a-4ce9-87ee-82b969928305"
      ]
    },
    "title": "Hateshinaki yami no kanata ni",
    "titles": {
      "qro": "Hateshinaki Yami no Anata ni",
      "jpn": "果てしなき闇の彼方に"
    },
    "year": 1980,
    "titles_default_language": "qro"
  }
}