{
  "header": {
    "description": "Karaoke Mugen Karaoke Data File",
    "version": 4
  },
  "medias": [
    {
      "version": "Default",
      "filename": "JPN - Touhou - AUDIO - Holy My Reincarnation.mp3",
      "audiogain": -11.15,
      "loudnorm": "-6.16,1.76,1.80,-16.25,-0.19",
      "filesize": 10659750,
      "duration": 246,
      "default": true,
      "lyrics": [
        {
          "filename": "JPN - Touhou - AUDIO - Holy My Reincarnation.ass",
          "default": true,
          "version": "Default"
        }
      ]
    }
  ],
  "data": {
    "created_at": "2022-03-12T11:30:19.593Z",
    "kid": "eaba9115-0111-4841-b8d0-0d6abb5d557e",
    "modified_at": "2022-03-12T11:30:19.593Z",
    "tags": {
      "authors": [
        "db867b9b-f487-444d-9f24-142c4324a235"
      ],
      "collections": [
        "c7db86a0-ff64-4044-9be4-66dd1ef1d1c1"
      ],
      "creators": [
        "32b71a4d-af3b-4daf-86f4-85519eaea5c4"
      ],
      "langs": [
        "4dcf9614-7914-42aa-99f4-dbce2e059133"
      ],
      "misc": [
        "07af42d1-824e-407e-bf37-7fb84905484b"
      ],
      "series": [
        "1bdaa5a1-dfa6-4365-b746-7a0b194dafd6"
      ],
      "singers": [
        "8972458d-96ea-4d2d-b0b2-96466d9ac7f0"
      ],
      "songtypes": [
        "42a262ae-acba-4ab5-a446-c5789c96c821"
      ],
      "songwriters": [
        "7be9727f-c4db-4013-98cc-f0a9739e7867",
        "26cb5252-8510-49e0-897c-a611a05fc056"
      ],
      "franchises": [
        "1bdaa5a1-dfa6-4365-b746-7a0b194dafd6"
      ]
    },
    "titles": {
      "eng": "Holy My Reincarnation"
    },
    "titles_aliases": [],
    "title": "Holy My Reincarnation",
    "year": "2009",
    "repository": "kara.moe",
    "titles_default_language": "eng"
  }
}