{
  "header": {
    "description": "Karaoke Mugen Karaoke Data File",
    "version": 4
  },
  "medias": [
    {
      "version": "Default",
      "filename": "JPN - Date A Live IV - OP1 - OveR.mp4",
      "audiogain": 4.79,
      "loudnorm": "-21.85,-11.80,4.40,-31.87,-1.00",
      "filesize": 60345885,
      "duration": 87,
      "default": true,
      "lyrics": [
        {
          "filename": "JPN - Date A Live IV - OP1 - OveR.ass",
          "default": true,
          "version": "Default"
        }
      ]
    }
  ],
  "data": {
    "created_at": "2022-04-09T19:56:34.891Z",
    "kid": "95af6db8-18bb-458c-8204-08ab05d06911",
    "modified_at": "2022-04-09T19:56:34.891Z",
    "songorder": "1",
    "tags": {
      "authors": [
        "7bf2f621-bd86-4c66-a1ce-999cb4860e10"
      ],
      "creators": [
        "4b5f4920-5caa-4f54-b23e-1454210c6526"
      ],
      "families": [
        "0377db02-3af6-43b8-9b08-c759df3d25c3"
      ],
      "genres": [
        "a0aeef4a-6428-45ff-a6e1-468b595930c2"
      ],
      "groups": [
        "8e209ae4-4381-438f-89dc-1b21752027d2"
      ],
      "langs": [
        "4dcf9614-7914-42aa-99f4-dbce2e059133"
      ],
      "origins": [
        "938de218-5343-4865-94d3-fb33f2eaa152"
      ],
      "series": [
        "cf9aed12-4bc8-4f66-9437-595e0030aceb"
      ],
      "singers": [
        "24bfad52-ccfe-42b7-b3dd-c06e7660d1dc"
      ],
      "songtypes": [
        "f02ad9b3-0bd9-4aad-85b3-9976739ba0e4"
      ],
      "songwriters": [
        "731c9f26-b072-4f14-b3b8-ae8b04835f03"
      ],
      "collections": [
        "c7db86a0-ff64-4044-9be4-66dd1ef1d1c1"
      ],
      "franchises": [
        "3ca53c9d-07fe-433f-a2e9-af4b68fa14f9"
      ]
    },
    "titles": {
      "eng": "OveR"
    },
    "titles_default_language": "eng",
    "titles_aliases": [],
    "title": "OveR",
    "year": 2022,
    "repository": "kara.moe"
  }
}