{
  "header": {
    "version": 4,
    "description": "Karaoke Mugen Karaoke Data File"
  },
  "medias": [
    {
      "version": "Default",
      "filename": "JPN - Bleach - MV - CHU-BURA ~ Full Vers.mp4",
      "audiogain": -7.22,
      "loudnorm": "-9.59,0.85,3.30,-19.60,-0.43",
      "filesize": 14354011,
      "duration": 265,
      "default": true,
      "lyrics": [
        {
          "filename": "JPN - Bleach - MV - CHU-BURA ~ Full Vers.ass",
          "default": true,
          "version": "Default"
        }
      ]
    }
  ],
  "data": {
    "created_at": "2019-11-17T16:53:02.300Z",
    "kid": "94917bb9-655b-4334-9ca7-8c71f08a28f0",
    "modified_at": "2022-06-04T00:21:27.112Z",
    "parents": [
      "112d3be6-a2ba-434e-91ee-9986f86ef9f3"
    ],
    "repository": "kara.moe",
    "songorder": null,
    "tags": {
      "authors": [
        "1db1738f-acdc-42fc-aec3-60f4bddf660d"
      ],
      "creators": [
        "6fa9de67-21cf-420b-9ddb-57edb5abe523"
      ],
      "families": [
        "5391f9fe-638c-415f-8dc9-958e3a2c5787"
      ],
      "groups": [
        "3c14c864-533c-49e6-a3cc-6969f1233775"
      ],
      "langs": [
        "4dcf9614-7914-42aa-99f4-dbce2e059133"
      ],
      "series": [
        "d68e6557-fdc3-4c8b-805c-9778918abd03"
      ],
      "singers": [
        "de0eb2de-9bb1-45a3-8479-66df8a1a4fbc"
      ],
      "songtypes": [
        "7be1b15c-cff8-4b37-a649-5c90f3d569a9"
      ],
      "songwriters": [
        "de0eb2de-9bb1-45a3-8479-66df8a1a4fbc"
      ],
      "versions": [
        "c2143a7f-6970-450e-8a79-0302db9220a9"
      ],
      "collections": [
        "dbcf2c22-524d-4708-99bb-601703633927"
      ],
      "franchises": [
        "d68e6557-fdc3-4c8b-805c-9778918abd03"
      ]
    },
    "titles": {
      "qro": "CHU-BURA"
    },
    "titles_default_language": "qro",
    "title": "CHU-BURA",
    "year": 2008
  }
}