{
  "header": {
    "version": 4,
    "description": "Karaoke Mugen Karaoke Data File"
  },
  "medias": [
    {
      "version": "Default",
      "filename": "JPN - Touhou - MV - Uchouten Dreamers.mp4",
      "audiogain": -0.14,
      "loudnorm": "-17.07,-8.26,3.70,-27.11,-0.53",
      "filesize": 80491481,
      "duration": 254,
      "default": true,
      "lyrics": [
        {
          "filename": "JPN - Touhou - MV - Uchouten Dreamers.ass",
          "default": true,
          "version": "Default"
        }
      ]
    }
  ],
  "data": {
    "created_at": "2022-11-14T20:44:20.850Z",
    "ignoreHooks": false,
    "kid": "649f8982-1299-4afa-8146-5ac2240b341f",
    "modified_at": "2022-11-14T20:45:39.492Z",
    "repository": "kara.moe",
    "tags": {
      "authors": [
        "61865310-cb97-496c-a722-364b0a9ba90d"
      ],
      "collections": [
        "c7db86a0-ff64-4044-9be4-66dd1ef1d1c1"
      ],
      "creators": [
        "e079fece-a1e3-4d31-adcb-07a9adf01df6"
      ],
      "families": [
        "0377db02-3af6-43b8-9b08-c759df3d25c3"
      ],
      "groups": [
        "8c22c899-b3ed-42da-a548-ce00f950798b",
        "ae613721-1fbe-480d-ba6b-d6d0702b184d"
      ],
      "langs": [
        "4dcf9614-7914-42aa-99f4-dbce2e059133"
      ],
      "origins": [
        "ac5085db-52d8-44b4-8fbb-1697b24d2046"
      ],
      "series": [
        "1bdaa5a1-dfa6-4365-b746-7a0b194dafd6"
      ],
      "singers": [
        "df7eaeb6-af8a-4277-8527-ce1a41d4cd39"
      ],
      "songtypes": [
        "7be1b15c-cff8-4b37-a649-5c90f3d569a9"
      ],
      "songwriters": [
        "8326602c-48a0-41e8-b7ca-5a9cd9a27010",
        "9677e10e-aa5b-4d1d-9861-df3a624bb8d9"
      ],
      "franchises": [
        "1bdaa5a1-dfa6-4365-b746-7a0b194dafd6"
      ]
    },
    "titles": {
      "jpn": "有頂天ドリーマーズ",
      "qro": "Uchôten Dreamers"
    },
    "titles_default_language": "qro",
    "titles_aliases": [
      "Uchouten"
    ],
    "year": 2017
  }
}