{
  "header": {
    "version": 4,
    "description": "Karaoke Mugen Karaoke Data File"
  },
  "medias": [
    {
      "version": "Default",
      "filename": "JPN - Senryuu Shoujo - MV - Kotonoha no Omoi ~ Full Vers.mp4",
      "audiogain": -11.23,
      "loudnorm": "-5.41,2.18,5.30,-15.62,-0.66",
      "filesize": 59660599,
      "duration": 268,
      "default": true,
      "lyrics": [
        {
          "filename": "JPN - Senryuu Shoujo - MV - Kotonoha no Omoi ~ Full Vers.ass",
          "default": true,
          "version": "Default"
        }
      ]
    }
  ],
  "data": {
    "created_at": "2021-03-06T22:06:05.887Z",
    "kid": "36913d5c-2438-43ac-bee2-db3d7fae0084",
    "modified_at": "2022-06-04T00:15:37.041Z",
    "parents": [
      "256ec125-72e9-47a0-8c04-c20bb6722ab6"
    ],
    "repository": "kara.moe",
    "songorder": null,
    "tags": {
      "authors": [
        "ba4c7606-1e96-4c45-8e21-d5103477336b"
      ],
      "creators": [
        "f963181a-1214-47f8-b6f9-1705cbc33779"
      ],
      "families": [
        "5391f9fe-638c-415f-8dc9-958e3a2c5787"
      ],
      "groups": [
        "2b4e9972-5e17-481b-99f5-d0787c0ada56",
        "ae613721-1fbe-480d-ba6b-d6d0702b184d"
      ],
      "langs": [
        "4dcf9614-7914-42aa-99f4-dbce2e059133"
      ],
      "series": [
        "578ec035-3660-49c2-8d0b-9d39d9640a8b"
      ],
      "singers": [
        "d3a07663-6105-4e2b-8597-04241b063f65"
      ],
      "songtypes": [
        "7be1b15c-cff8-4b37-a649-5c90f3d569a9"
      ],
      "songwriters": [
        "c21fc908-5dc0-4e32-9613-fb46defedc1f",
        "d3a07663-6105-4e2b-8597-04241b063f65"
      ],
      "versions": [
        "c2143a7f-6970-450e-8a79-0302db9220a9"
      ],
      "collections": [
        "dbcf2c22-524d-4708-99bb-601703633927"
      ]
    },
    "titles": {
      "qro": "Kotonoha no Omoi",
      "jpn": "コトノハノオモイ"
    },
    "titles_default_language": "qro",
    "title": "Kotonoha no Omoi",
    "year": 2019
  }
}