{
  "header": {
    "version": 4,
    "description": "Karaoke Mugen Karaoke Data File"
  },
  "medias": [
    {
      "version": "Default",
      "filename": "JPN - Panyo Panyo Di Gi Charat - OP - Happy! Smile! Hello!.mp4",
      "audiogain": -2.29,
      "loudnorm": "-14.87,-5.27,2.00,-24.89,-1.18",
      "filesize": 13490933,
      "duration": 95,
      "default": true,
      "lyrics": [
        {
          "filename": "JPN - Panyo Panyo Di Gi Charat - OP - Happy! Smile! Hello!.ass",
          "default": true,
          "version": "Default",
          "subchecksum": "bf4edaef1e49ad8df6b9151629f0b96a"
        }
      ]
    }
  ],
  "data": {
    "created_at": "2017-10-11T17:01:07.000Z",
    "kid": "fbe9c8ab-bba2-4967-91b2-3020616f1f3e",
    "modified_at": "2021-02-25T12:44:06.668Z",
    "repository": "kara.moe",
    "tags": {
      "authors": [
        "6bebcb04-2694-453c-9e0c-eb1a2e2718d9"
      ],
      "collections": [
        "c7db86a0-ff64-4044-9be4-66dd1ef1d1c1"
      ],
      "creators": [
        "9c5cf6ba-0bc8-4cfe-a63c-e9be3a14e9fd"
      ],
      "families": [
        "0377db02-3af6-43b8-9b08-c759df3d25c3"
      ],
      "groups": [
        "3c14c864-533c-49e6-a3cc-6969f1233775"
      ],
      "langs": [
        "4dcf9614-7914-42aa-99f4-dbce2e059133"
      ],
      "origins": [
        "938de218-5343-4865-94d3-fb33f2eaa152"
      ],
      "series": [
        "95ea5fe8-de04-4699-9966-374e64c15804"
      ],
      "singers": [
        "a35cb983-4fe9-438c-8c45-abda3e6f7308"
      ],
      "songtypes": [
        "f02ad9b3-0bd9-4aad-85b3-9976739ba0e4"
      ],
      "songwriters": [
        "8fceb1e3-0dd9-4c89-a0a7-aa84463e7714",
        "d17c965e-7a58-4a6d-b4ae-d93e89fb7237"
      ],
      "franchises": [
        "ac462c07-1bf3-4d5a-a8ca-5c9a69ba4560"
      ]
    },
    "title": "Happy! Smile! Hello!",
    "titles": {
      "eng": "Happy! Smile! Hello!",
      "jpn": "HAPPY! SMILE! HELLO!"
    },
    "year": 2002,
    "titles_default_language": "eng"
  }
}