{
  "header": {
    "version": 4,
    "description": "Karaoke Mugen Karaoke Data File"
  },
  "medias": [
    {
      "version": "Default",
      "filename": "JPN - Luck & Logic - ED - Meiyaku no Kanata.mp4",
      "audiogain": 1.93,
      "loudnorm": "-19.50,-10.39,8.40,-29.68,-1.44",
      "filesize": 31165583,
      "duration": 92,
      "default": true,
      "lyrics": [
        {
          "filename": "JPN - Luck & Logic - ED - Meiyaku no Kanata.ass",
          "default": true,
          "version": "Default"
        }
      ]
    }
  ],
  "data": {
    "created_at": "2018-10-06T13:17:16.000Z",
    "ignoreHooks": false,
    "kid": "fb666178-212b-44e7-87c7-caaaa0add2ad",
    "modified_at": "2022-10-01T00:32:32.330Z",
    "repository": "kara.moe",
    "tags": {
      "authors": [
        "b5116310-e69b-4ed4-9e47-c5c53ee69023"
      ],
      "collections": [
        "c7db86a0-ff64-4044-9be4-66dd1ef1d1c1"
      ],
      "creators": [
        "5b10d972-08a8-419d-9663-46930cc2c347"
      ],
      "families": [
        "0377db02-3af6-43b8-9b08-c759df3d25c3"
      ],
      "groups": [
        "ae613721-1fbe-480d-ba6b-d6d0702b184d"
      ],
      "langs": [
        "4dcf9614-7914-42aa-99f4-dbce2e059133"
      ],
      "origins": [
        "938de218-5343-4865-94d3-fb33f2eaa152"
      ],
      "series": [
        "36543929-3d43-4990-bd0d-ce792bfdd5c1"
      ],
      "singers": [
        "4145e95c-bf18-4574-a027-80d61c2a2610"
      ],
      "songtypes": [
        "38c77c56-2b95-4040-b676-0994a8cb0597"
      ],
      "songwriters": [
        "178dcba7-6d20-40b9-baea-d7d3e38e2c25",
        "7e72484d-b638-4d9a-95f2-5947c59d721b"
      ],
      "franchises": [
        "36543929-3d43-4990-bd0d-ce792bfdd5c1"
      ]
    },
    "titles": {
      "qro": "Meiyaku no Kanata",
      "jpn": "盟約の彼方"
    },
    "titles_default_language": "qro",
    "title": "Meiyaku no Kanata",
    "year": 2016
  }
}