{
  "header": {
    "version": 4,
    "description": "Karaoke Mugen Karaoke Data File"
  },
  "medias": [
    {
      "version": "Default",
      "filename": "JPN - Project SEKAI COLORFUL STAGE! - GAME MV - Non-Breath Oblige ~ Cover Short Vers.mp4",
      "audiogain": -8.63,
      "loudnorm": "-9.24,1.33,10.50,-19.48,-2.05",
      "filesize": 63831967,
      "duration": 130,
      "default": true,
      "lyrics": [
        {
          "filename": "JPN - Project SEKAI COLORFUL STAGE! - GAME MV - Non-Breath Oblige ~ Cover Short Vers.ass",
          "default": true,
          "version": "Default"
        }
      ]
    }
  ],
  "data": {
    "comment": "un jour j'arriverai à chanter cette chanson aussi",
    "created_at": "2022-12-06T17:49:21.230Z",
    "ignoreHooks": false,
    "kid": "3ec3b9b4-bdc2-4327-aeaa-2b28468e1dfe",
    "modified_at": "2022-12-26T21:19:05.064Z",
    "repository": "kara.moe",
    "tags": {
      "authors": [
        "a3a99b23-6c42-4d38-8863-491153187437"
      ],
      "collections": [
        "c7db86a0-ff64-4044-9be4-66dd1ef1d1c1"
      ],
      "creators": [
        "1e5648fb-22fc-474d-b865-254eb31fa000"
      ],
      "genres": [
        "45623cae-6d68-4304-a49b-896d1d6f4580"
      ],
      "groups": [
        "8e209ae4-4381-438f-89dc-1b21752027d2"
      ],
      "langs": [
        "4dcf9614-7914-42aa-99f4-dbce2e059133"
      ],
      "misc": [
        "ec4fee75-71fb-45b4-9772-2ca374b4b600",
        "1d6ceadf-a885-47e5-b23b-c07bf668a424"
      ],
      "platforms": [
        "213a1a15-e73a-4a08-b3f6-b6e2745a82e5"
      ],
      "series": [
        "192b33fb-638a-4680-bdb2-a5adb9889849"
      ],
      "singers": [
        "1fd01df9-13c6-4442-a8c9-4d7922152b32",
        "4407ba0e-5de7-4add-870f-7ac95a4804c9",
        "b0672b63-1519-4a34-99f6-039fdade750e",
        "bbf38c20-4ff8-46ca-8e23-55a71286f0ef",
        "ee6eeedc-a11b-4bc1-951f-67b6ea7a696a"
      ],
      "singergroups": [
        "210b7f5a-db03-4cb6-ab5d-68052851cbb2"
      ],
      "songtypes": [
        "7be1b15c-cff8-4b37-a649-5c90f3d569a9"
      ],
      "songwriters": [
        "1fbbae0a-e960-4869-aae1-512a064e94ca"
      ],
      "versions": [
        "03e1e1d2-8641-47b7-bbcb-39a3df9ff21c",
        "d125c80a-86c1-4321-88e9-07b7800679b6"
      ],
      "origins": [
        "dbedd6b3-d125-4cd8-aa32-c4175e4ca3a3"
      ]
    },
    "titles": {
      "eng": "Non-Breath Oblige",
      "jpn": "ノンブレス・オブリージュ"
    },
    "titles_default_language": "eng",
    "year": 2022
  }
}