{
  "header": {
    "version": 4,
    "description": "Karaoke Mugen Karaoke Data File"
  },
  "medias": [
    {
      "version": "Default",
      "filename": "JPN - YOASOBI - MV - Umi no Manimani.mp4",
      "audiogain": -8.58,
      "loudnorm": "-9.00,2.83,7.50,-19.47,-1.15",
      "filesize": 126493666,
      "duration": 274,
      "default": true,
      "lyrics": [
        {
          "filename": "JPN - YOASOBI - MV - Umi no Manimani.ass",
          "default": true,
          "version": "Default"
        }
      ]
    }
  ],
  "data": {
    "created_at": "2023-04-23T13:32:53.191Z",
    "ignoreHooks": false,
    "kid": "9cc2519e-7cf8-4c72-a2b9-6e39d2f289eb",
    "modified_at": "2023-04-23T13:51:53.626Z",
    "repository": "kara.moe",
    "tags": {
      "authors": [
        "ba4c7606-1e96-4c45-8e21-d5103477336b"
      ],
      "collections": [
        "c7db86a0-ff64-4044-9be4-66dd1ef1d1c1",
        "dbcf2c22-524d-4708-99bb-601703633927"
      ],
      "creators": [
        "6fa9de67-21cf-420b-9ddb-57edb5abe523"
      ],
      "families": [
        "0377db02-3af6-43b8-9b08-c759df3d25c3"
      ],
      "groups": [
        "2b4e9972-5e17-481b-99f5-d0787c0ada56",
        "8e209ae4-4381-438f-89dc-1b21752027d2"
      ],
      "langs": [
        "4dcf9614-7914-42aa-99f4-dbce2e059133"
      ],
      "singers": [
        "92d1e6ad-8f3c-4ace-a028-d78798510043"
      ],
      "singergroups": [
        "e028a7e9-d3f2-4df7-a6ba-c7f78e98b549"
      ],
      "songtypes": [
        "7be1b15c-cff8-4b37-a649-5c90f3d569a9"
      ],
      "songwriters": [
        "ac03c264-7085-486b-a47f-3e7574e51a33"
      ]
    },
    "titles": {
      "jpn": "のまにまに",
      "qro": "Umi no Manimani"
    },
    "titles_default_language": "qro",
    "year": 2022
  }
}