{
  "header": {
    "version": 4,
    "description": "Karaoke Mugen Karaoke Data File"
  },
  "medias": [
    {
      "version": "Default",
      "filename": "JPN - Skip Beat! - MV - Namida ~ Full Vers.mp4",
      "audiogain": 3.46,
      "loudnorm": "-21.23,-6.40,5.00,-31.28,-0.22",
      "filesize": 35923474,
      "duration": 288,
      "default": true,
      "lyrics": [
        {
          "filename": "JPN - Skip Beat! - MV - Namida ~ Full Vers.ass",
          "default": true,
          "version": "Default"
        }
      ]
    }
  ],
  "data": {
    "created_at": "2020-05-10T17:57:35.825Z",
    "ignoreHooks": false,
    "kid": "abae4757-dd5e-4222-af26-5de61d869d6a",
    "modified_at": "2022-12-22T16:08:55.407Z",
    "parents": [
      "540ef952-8276-4f07-aafb-a31f83a28984"
    ],
    "repository": "kara.moe",
    "tags": {
      "authors": [
        "60defa7b-774e-4680-8321-51b742c2e009"
      ],
      "collections": [
        "dbcf2c22-524d-4708-99bb-601703633927"
      ],
      "creators": [
        "90caf15e-bc86-46e1-8793-9af7906c8310"
      ],
      "families": [
        "5391f9fe-638c-415f-8dc9-958e3a2c5787"
      ],
      "groups": [
        "3c14c864-533c-49e6-a3cc-6969f1233775",
        "60defa7b-774e-4680-8321-51b742c2e009"
      ],
      "langs": [
        "4dcf9614-7914-42aa-99f4-dbce2e059133"
      ],
      "series": [
        "0d8cefa6-aa50-40f4-9fa4-fd851acbd147"
      ],
      "singers": [
        "50c2b203-7495-4e76-a996-a46fc96c9eda"
      ],
      "songtypes": [
        "7be1b15c-cff8-4b37-a649-5c90f3d569a9"
      ],
      "songwriters": [
        "50c2b203-7495-4e76-a996-a46fc96c9eda"
      ],
      "versions": [
        "c2143a7f-6970-450e-8a79-0302db9220a9"
      ]
    },
    "titles": {
      "jpn": "ナミダ",
      "qro": "Namida"
    },
    "titles_default_language": "qro",
    "year": 2008
  }
}