{
  "header": {
    "version": 4,
    "description": "Karaoke Mugen Karaoke Data File"
  },
  "medias": [
    {
      "version": "Default",
      "filename": "JPN - MILGRAM - MV - Umbilical.mp4",
      "audiogain": -6.15,
      "loudnorm": "-10.99,-0.21,8.50,-21.32,-0.83",
      "filesize": 48790312,
      "duration": 208,
      "default": true,
      "lyrics": [
        {
          "filename": "JPN - MILGRAM - MV - Umbilical.ass",
          "default": true,
          "version": "Default"
        }
      ]
    }
  ],
  "data": {
    "created_at": "2021-12-04T22:14:28.632Z",
    "kid": "ddc17dc4-22cf-467f-b7f4-8db6bee789e0",
    "modified_at": "2021-12-04T22:16:02.369Z",
    "repository": "kara.moe",
    "tags": {
      "authors": [
        "fb28c6d3-a81e-40c0-9a4c-e3268c60a64b"
      ],
      "collections": [
        "c7db86a0-ff64-4044-9be4-66dd1ef1d1c1"
      ],
      "creators": [
        "f963181a-1214-47f8-b6f9-1705cbc33779"
      ],
      "families": [
        "0377db02-3af6-43b8-9b08-c759df3d25c3"
      ],
      "groups": [
        "8e209ae4-4381-438f-89dc-1b21752027d2"
      ],
      "langs": [
        "4dcf9614-7914-42aa-99f4-dbce2e059133"
      ],
      "series": [
        "c0e3120a-d593-4051-87dd-0bc28a803a5f"
      ],
      "singers": [
        "ed020f89-8212-452e-b7d5-c55bda61ceaa"
      ],
      "songtypes": [
        "7be1b15c-cff8-4b37-a649-5c90f3d569a9"
      ],
      "songwriters": [
        "48c8a778-756b-4ca8-80bc-397fb06ffc7d",
        "6d9eaa90-048f-41d5-a264-8d73df69cc22"
      ]
    },
    "titles": {
      "eng": "Umbilical",
      "jpn": "アンビリカル"
    },
    "title": "Umbilical",
    "year": 2020,
    "titles_default_language": "eng"
  }
}