{
  "header": {
    "version": 4,
    "description": "Karaoke Mugen Karaoke Data File"
  },
  "medias": [
    {
      "version": "Default",
      "filename": "JPN - Goose house - REMIX STREAM - Playback Part2 ~ Cover Vers.mp4",
      "audiogain": -6.94,
      "loudnorm": "-11.59,0.06,5.90,-21.97,-0.66",
      "filesize": 45778485,
      "duration": 254,
      "default": true,
      "lyrics": [
        {
          "filename": "JPN - Goose house - REMIX STREAM - Playback Part2 ~ Cover Vers.ass",
          "default": true,
          "version": "Default"
        }
      ]
    }
  ],
  "data": {
    "created_at": "2019-09-28T17:39:20.000Z",
    "kid": "2e41a965-2b1b-4977-b01b-1d6c0547ee58",
    "modified_at": "2021-12-24T15:01:57.735Z",
    "repository": "kara.moe",
    "tags": {
      "authors": [
        "57e2d8c3-b3f3-4b82-88a4-2491946b24d9"
      ],
      "collections": [
        "c7db86a0-ff64-4044-9be4-66dd1ef1d1c1"
      ],
      "families": [
        "5391f9fe-638c-415f-8dc9-958e3a2c5787"
      ],
      "groups": [
        "2b4e9972-5e17-481b-99f5-d0787c0ada56",
        "ae613721-1fbe-480d-ba6b-d6d0702b184d"
      ],
      "langs": [
        "4dcf9614-7914-42aa-99f4-dbce2e059133"
      ],
      "misc": [
        "ec4360fa-3e3c-4f6f-b0e1-fb8b12b6dd18"
      ],
      "singers": [
        "ee11c54e-60b4-49ba-9b26-7a054484b00a"
      ],
      "songtypes": [
        "55ce3d79-dcc2-453c-b00a-60ce0c1eba1c"
      ],
      "songwriters": [
        "51322337-e3c6-4df1-9975-ff6d227c04c3",
        "932de15c-25f7-4858-a66c-4341445f5536"
      ],
      "versions": [
        "03e1e1d2-8641-47b7-bbcb-39a3df9ff21c"
      ]
    },
    "titles": {
      "eng": "Playback Part2",
      "jpn": "プレイバックPart2"
    },
    "title": "Playback Part2",
    "year": 2014,
    "titles_default_language": "eng"
  }
}