{
  "header": {
    "version": 4,
    "description": "Karaoke Mugen Karaoke Data File"
  },
  "medias": [
    {
      "version": "Default",
      "filename": "JPN - Kingdom (2013) - ED2 - Exit.mp4",
      "audiogain": -2.37,
      "loudnorm": "-15.98,-5.23,11.50,-26.32,-1.04",
      "filesize": 34494908,
      "duration": 89,
      "default": true,
      "lyrics": [
        {
          "filename": "JPN - Kingdom (2013) - ED2 - Exit.ass",
          "default": true,
          "version": "Default",
          "subchecksum": "06d8e01b70573ad56d3f7bb436cb6e68"
        }
      ]
    }
  ],
  "data": {
    "created_at": "2021-03-07T15:59:07.134Z",
    "kid": "09cf244f-5ed4-4590-9b2a-a705da665d21",
    "modified_at": "2021-03-07T16:04:33.694Z",
    "repository": "kara.moe",
    "songorder": 2,
    "tags": {
      "authors": [
        "8605a8b9-3b45-44b9-9d98-1a25096bf702"
      ],
      "collections": [
        "c7db86a0-ff64-4044-9be4-66dd1ef1d1c1"
      ],
      "creators": [
        "aaff4ba6-9a12-4bac-9bd0-c0cb783e4177"
      ],
      "families": [
        "0377db02-3af6-43b8-9b08-c759df3d25c3"
      ],
      "groups": [
        "ae613721-1fbe-480d-ba6b-d6d0702b184d"
      ],
      "langs": [
        "4dcf9614-7914-42aa-99f4-dbce2e059133"
      ],
      "origins": [
        "938de218-5343-4865-94d3-fb33f2eaa152"
      ],
      "series": [
        "9e37598c-37f6-4991-b637-93bcf6427586"
      ],
      "singers": [
        "00db0116-ed02-4d3e-a42b-7b278acff1a5"
      ],
      "songtypes": [
        "38c77c56-2b95-4040-b676-0994a8cb0597"
      ],
      "songwriters": [
        "00db0116-ed02-4d3e-a42b-7b278acff1a5",
        "6f0b91f1-ea13-47d4-8e65-2a5c4af44f97"
      ],
      "franchises": [
        "e349057f-8f62-4e46-8de2-cc185808a37b"
      ]
    },
    "title": "Exit",
    "titles": {
      "eng": "Exit"
    },
    "year": 2013,
    "titles_default_language": "eng"
  }
}