{
  "header": {
    "description": "Karaoke Mugen Karaoke Data File",
    "version": 4
  },
  "medias": [
    {
      "version": "Default",
      "filename": "JPN - Touhou - REMIX MV - Gindan Marionette.mp4",
      "audiogain": -4.38,
      "loudnorm": "-12.65,-2.27,2.30,-22.70,-0.93",
      "filesize": 40175536,
      "duration": 186,
      "default": true,
      "lyrics": [
        {
          "filename": "JPN - Touhou - REMIX MV - Gindan Marionette.ass",
          "default": true,
          "version": "Default"
        }
      ]
    }
  ],
  "data": {
    "created_at": "2022-10-10T20:40:08.645Z",
    "kid": "2a1efced-6d93-4986-b16b-b6fff714a0d7",
    "modified_at": "2022-10-10T20:40:08.645Z",
    "tags": {
      "authors": [
        "1fbfef73-6731-40df-ba51-65a54b9d1605"
      ],
      "collections": [
        "c7db86a0-ff64-4044-9be4-66dd1ef1d1c1"
      ],
      "creators": [
        "ca654b25-30b5-4054-a2c0-35028fdcae22"
      ],
      "families": [
        "0377db02-3af6-43b8-9b08-c759df3d25c3"
      ],
      "groups": [
        "ae613721-1fbe-480d-ba6b-d6d0702b184d"
      ],
      "langs": [
        "4dcf9614-7914-42aa-99f4-dbce2e059133"
      ],
      "misc": [
        "ec4360fa-3e3c-4f6f-b0e1-fb8b12b6dd18"
      ],
      "origins": [
        "ac5085db-52d8-44b4-8fbb-1697b24d2046"
      ],
      "series": [
        "1bdaa5a1-dfa6-4365-b746-7a0b194dafd6"
      ],
      "singers": [
        "7339f837-69b2-4b50-b2e6-a77c5061c563"
      ],
      "songtypes": [
        "7be1b15c-cff8-4b37-a649-5c90f3d569a9"
      ],
      "songwriters": [
        "7339f837-69b2-4b50-b2e6-a77c5061c563",
        "23351848-e3cc-4420-b564-db2bfe2b7f3d",
        "26cb5252-8510-49e0-897c-a611a05fc056"
      ],
      "franchises": [
        "1bdaa5a1-dfa6-4365-b746-7a0b194dafd6"
      ]
    },
    "titles": {
      "jpn": "銀弾マリオネット",
      "qro": "Gindan Marionette",
      "eng": "Silver Bullet Marionette"
    },
    "titles_default_language": "qro",
    "titles_aliases": [],
    "title": "Gindan Marionette",
    "year": "2011",
    "repository": "kara.moe"
  }
}