{
  "header": {
    "version": 4,
    "description": "Karaoke Mugen Karaoke Data File"
  },
  "medias": [
    {
      "version": "Symphogear Live 2016.",
      "filename": "JPN - Senki Zesshou Symphogear GX - LIVE - Senkin Dur da Bla ~ Symphogear Live 2016 Vers. ~ Full Vers.mp4",
      "audiogain": -10.61,
      "loudnorm": "-8.44,2.22,4.10,-18.48,-0.13",
      "filesize": 127053098,
      "duration": 280,
      "default": true,
      "lyrics": [
        {
          "filename": "JPN - Senki Zesshou Symphogear GX - LIVE - Senkin Dur da Bla ~ Symphogear Live 2016 Vers. ~ Full Vers.ass",
          "default": true,
          "version": "Default"
        }
      ]
    }
  ],
  "data": {
    "created_at": "2018-06-18T19:40:28.000Z",
    "ignoreHooks": false,
    "kid": "5bf55344-677b-4631-ba6c-a2f5d3518a4b",
    "modified_at": "2022-12-27T21:50:40.861Z",
    "parents": [
      "bbcb9ddf-0133-4b02-9a2f-f9d116df7930"
    ],
    "repository": "kara.moe",
    "tags": {
      "authors": [
        "a5dbab74-510b-48c5-9cea-5a537a81c974"
      ],
      "collections": [
        "dbcf2c22-524d-4708-99bb-601703633927"
      ],
      "creators": [
        "d2a29c19-019f-4a3d-86ad-2dae9e41a4b1"
      ],
      "families": [
        "5391f9fe-638c-415f-8dc9-958e3a2c5787"
      ],
      "groups": [
        "8c22c899-b3ed-42da-a548-ce00f950798b",
        "ae613721-1fbe-480d-ba6b-d6d0702b184d"
      ],
      "langs": [
        "4dcf9614-7914-42aa-99f4-dbce2e059133"
      ],
      "series": [
        "86627e91-4551-4e88-899b-2cb017e853e0"
      ],
      "singers": [
        "7e153b87-dd5f-4ce1-b187-9941ca95ce3e"
      ],
      "songtypes": [
        "a0167949-580c-4de3-bf13-497e462e02f3"
      ],
      "songwriters": [
        "5d1704bf-c5e0-4295-b1a4-f74d6afe89e8",
        "af3ffe51-8059-461c-bbb8-78ea388731f3"
      ],
      "versions": [
        "c2143a7f-6970-450e-8a79-0302db9220a9"
      ],
      "franchises": [
        "61b24082-a6a9-482b-b126-0ad7be595791"
      ]
    },
    "titles": {
      "jpn": "殲琴・ダウルダブラ ~ Symphogear Live 2016 Vers.",
      "qro": "Senkin Dur da Blá ~ Symphogear Live 2016 Vers."
    },
    "titles_default_language": "qro",
    "year": 2016
  }
}