{
  "header": {
    "version": 4,
    "description": "Karaoke Mugen Karaoke Data File"
  },
  "medias": [
    {
      "version": "Default",
      "filename": "JPN - Touhou - MV - Lucid Dream.mp4",
      "audiogain": -5.61,
      "loudnorm": "-11.36,-0.55,3.50,-21.53,-1.26",
      "filesize": 30999484,
      "duration": 254,
      "default": true,
      "lyrics": [
        {
          "filename": "JPN - Touhou - MV - Lucid Dream.ass",
          "default": true,
          "version": "Default"
        }
      ]
    }
  ],
  "data": {
    "created_at": "2022-10-01T22:44:16.582Z",
    "ignoreHooks": false,
    "kid": "12a182ed-5cf0-43f4-b12c-0c067596c5c6",
    "modified_at": "2022-10-01T23:23:03.682Z",
    "repository": "kara.moe",
    "tags": {
      "authors": [
        "1fbfef73-6731-40df-ba51-65a54b9d1605"
      ],
      "collections": [
        "c7db86a0-ff64-4044-9be4-66dd1ef1d1c1"
      ],
      "creators": [
        "907cc77c-dc58-47d0-a06d-f865c2d3387b"
      ],
      "families": [
        "0377db02-3af6-43b8-9b08-c759df3d25c3"
      ],
      "groups": [
        "3c14c864-533c-49e6-a3cc-6969f1233775"
      ],
      "langs": [
        "4dcf9614-7914-42aa-99f4-dbce2e059133"
      ],
      "origins": [
        "ac5085db-52d8-44b4-8fbb-1697b24d2046"
      ],
      "series": [
        "1bdaa5a1-dfa6-4365-b746-7a0b194dafd6"
      ],
      "singers": [
        "f94a3ed1-87a9-4124-b9d3-c0d1d6ffacd9"
      ],
      "songtypes": [
        "7be1b15c-cff8-4b37-a649-5c90f3d569a9"
      ],
      "songwriters": [
        "26304cd0-7c4a-4148-9aff-8f25a9ceef4e",
        "26cb5252-8510-49e0-897c-a611a05fc056",
        "8963fdfb-365d-4293-9dbc-7f6884d532a0"
      ],
      "franchises": [
        "1bdaa5a1-dfa6-4365-b746-7a0b194dafd6"
      ]
    },
    "titles": {
      "eng": "Lucid Dream"
    },
    "titles_default_language": "eng",
    "title": "Lucid Dream",
    "year": 2009
  }
}