{
  "header": {
    "version": 4,
    "description": "Karaoke Mugen Karaoke Data File"
  },
  "medias": [
    {
      "version": "Default",
      "filename": "JPN - Ensemble Stars! - GAME MV - Stars' Ensemble!.mp4",
      "audiogain": -0.37,
      "loudnorm": "-17.08,-7.76,3.90,-27.25,-0.36",
      "filesize": 157918443,
      "duration": 151,
      "default": true,
      "lyrics": [
        {
          "filename": "JPN - Ensemble Stars! - GAME MV - Stars' Ensemble!.ass",
          "default": true,
          "version": "Default"
        }
      ]
    }
  ],
  "data": {
    "created_at": "2022-09-10T13:26:16.022Z",
    "ignoreHooks": false,
    "kid": "06407427-dcc6-4d89-9535-5a9a5511616a",
    "modified_at": "2022-09-10T13:41:32.395Z",
    "repository": "kara.moe",
    "tags": {
      "authors": [
        "dd4f1279-de1b-4d06-b80d-29c4878bfd8e"
      ],
      "collections": [
        "c7db86a0-ff64-4044-9be4-66dd1ef1d1c1"
      ],
      "creators": [
        "5b938ceb-1629-4653-bbd2-27af0dd5aebf"
      ],
      "genres": [
        "caa86df2-0d59-474b-885c-f240a9e891b0"
      ],
      "groups": [
        "8c22c899-b3ed-42da-a548-ce00f950798b",
        "8e209ae4-4381-438f-89dc-1b21752027d2"
      ],
      "langs": [
        "4dcf9614-7914-42aa-99f4-dbce2e059133"
      ],
      "platforms": [
        "213a1a15-e73a-4a08-b3f6-b6e2745a82e5"
      ],
      "series": [
        "d1184e31-716b-4ed1-8c81-9cd0d42afdc2"
      ],
      "singers": [
        "0eb56601-d89d-472e-9f93-69486c1552a7",
        "1b061bf9-73e5-4365-b3f3-c31872fd8dab",
        "232a19e5-4e37-49e2-ba33-0f3277df3b9b",
        "26d7abe2-1c37-44a3-94b0-c746391146f0",
        "2abd30e8-96fd-4cfd-a6cf-ed9ec8b92e8b",
        "30e8c7e4-813a-47f0-ab17-7e6704ee2ce5",
        "37553623-034c-4cfc-ae55-c936028f8e2d",
        "38a241ee-b6ae-4705-8434-386aaf3867d8",
        "3911cdd1-585c-41e1-bbc7-4990cd6bf60d",
        "4090b204-b9c9-4779-afbc-4745abf04aef",
        "45487374-6f70-47e7-81b0-ce3cc1d88f4e",
        "4b4122e3-bf19-4376-88fb-3b8cd31be1f0",
        "65441047-58cf-4275-9a2e-c1a67ebadd1f",
        "6eafaead-7482-4b91-b711-8c4c410e4dbc",
        "7b2309a3-647f-4e4e-9c18-354e4f479a54",
        "7dc3c9cd-cf42-4b32-8cb2-9bc868e97564",
        "884cda5e-05c2-462f-b480-9f7a15ed0daf",
        "8d9c5f8d-8ed2-4b1d-a105-539ed5190e57",
        "9bdf3363-b8b1-4ae3-82d9-41a7a1527eee",
        "9d15db2c-8624-4a96-9759-23d35086e193",
        "b8b889c2-248c-4a87-893f-e2605e536abc",
        "bacc79e6-1f5b-4aec-8bf0-d76a966240ba",
        "c45ef92a-dc8a-4cc6-bec9-e584c76df719",
        "d182360c-21ed-4887-a15f-8640f11a934a",
        "d2f62ef5-bf39-4c23-9c99-fe3d14f2bdd2",
        "d72701c8-4aa0-4619-a4ea-aea77d37422c",
        "d7f04196-aa2a-4478-aa3a-ea081d6793f0",
        "d953c6b0-680d-4e3b-9ab5-3cf0015de91b",
        "db1a0f4d-22c1-425b-9f0d-1b3713983547",
        "ddec1c8c-094d-491d-9362-18767e3fe59b",
        "e4c9e291-2a74-4f5c-96ea-5ac47b2eedfa",
        "e5a67f06-d08b-4f63-800b-31c7f90995be",
        "e88203e1-642b-4754-85b0-4ba62dc18563",
        "f0fff01b-828b-443a-b79c-4c62a4514a2e"
      ],
      "singergroups": [
        "d0dcf0b4-313a-4787-a873-da48244f3075"
      ],
      "songtypes": [
        "7be1b15c-cff8-4b37-a649-5c90f3d569a9"
      ],
      "songwriters": [
        "acf1000c-da9d-4fe4-9722-966cf2c7914e"
      ],
      "origins": [
        "dbedd6b3-d125-4cd8-aa32-c4175e4ca3a3"
      ]
    },
    "titles": {
      "eng": "Stars' Ensemble!"
    },
    "titles_default_language": "eng",
    "title": "Stars' Ensemble!",
    "year": 2020
  }
}