{
  "header": {
    "version": 4,
    "description": "Karaoke Mugen Karaoke Data File"
  },
  "medias": [
    {
      "version": "Patra.",
      "filename": "JPN - Dragon Ball Z - STREAM - CHA-LA HEAD-CHA-LA ~ Patra Vers. ~ Cover Vers.mp4",
      "audiogain": -3.03,
      "loudnorm": "-16.62,-3.13,19.80,-28.49,-0.18",
      "filesize": 52587852,
      "duration": 200,
      "default": true,
      "lyrics": [
        {
          "filename": "JPN - Dragon Ball Z - STREAM - CHA-LA HEAD-CHA-LA ~ Patra Vers. ~ Cover Vers.ass",
          "default": true,
          "version": "Default"
        }
      ]
    }
  ],
  "data": {
    "created_at": "2022-01-16T15:03:35.298Z",
    "ignoreHooks": false,
    "kid": "e6c03b0b-f13c-4b16-b709-9402a83168e2",
    "modified_at": "2022-01-16T17:49:28.485Z",
    "parents": [
      "f99df658-9c61-4ea2-a46c-624a1a4c4768"
    ],
    "repository": "kara.moe",
    "tags": {
      "authors": [
        "70e26885-c0b5-4a01-b95b-2f492b8a8f10"
      ],
      "collections": [
        "c7db86a0-ff64-4044-9be4-66dd1ef1d1c1"
      ],
      "creators": [
        "a5c8f498-afec-4a45-b839-0f382fa98d8b"
      ],
      "families": [
        "0377db02-3af6-43b8-9b08-c759df3d25c3"
      ],
      "groups": [
        "8e209ae4-4381-438f-89dc-1b21752027d2"
      ],
      "langs": [
        "4dcf9614-7914-42aa-99f4-dbce2e059133"
      ],
      "series": [
        "3cfa486b-0ab4-4969-85b7-113ae4450c42"
      ],
      "singers": [
        "efeb2ede-dbce-4893-9b4e-03c48c9df25c"
      ],
      "songtypes": [
        "55ce3d79-dcc2-453c-b00a-60ce0c1eba1c"
      ],
      "songwriters": [
        "5ef38e64-35cc-40fe-9469-4c8b8699d349",
        "f29da5f3-027d-4eea-9abc-f8b99e93fce6"
      ],
      "versions": [
        "03e1e1d2-8641-47b7-bbcb-39a3df9ff21c"
      ],
      "franchises": [
        "c46f5c45-e15a-41b3-a3e6-a1ac023116e1"
      ]
    },
    "titles": {
      "eng": "CHA-LA HEAD-CHA-LA ~ Patra Vers.",
      "jpn": "CHA-LA HEAD-CHA-LA ~ パトラ Vers."
    },
    "title": "CHA-LA HEAD-CHA-LA ~ Patra Vers.",
    "year": 2020,
    "titles_default_language": "eng"
  }
}