{
  "header": {
    "version": 4,
    "description": "Karaoke Mugen Karaoke Data File"
  },
  "medias": [
    {
      "version": "Default",
      "filename": "JPN - Senki Zesshou Symphogear G - AUDIO CS - Genchaku! Denkou Keiji Ban ~ Full Off Vocal Vers.mp3",
      "audiogain": -5.66,
      "loudnorm": "-11.41,0.06,6.20,-21.93,-0.54",
      "filesize": 3475833,
      "duration": 200,
      "default": true,
      "lyrics": [
        {
          "filename": "JPN - Senki Zesshou Symphogear G - AUDIO CS - Genchaku! Denkou Keiji Ban ~ Full Off Vocal Vers.ass",
          "default": true,
          "version": "Default"
        }
      ]
    }
  ],
  "data": {
    "created_at": "2022-11-07T04:50:54.327Z",
    "ignoreHooks": false,
    "kid": "40644480-7e03-48a8-89f4-657faaf28719",
    "modified_at": "2022-11-07T21:53:56.660Z",
    "parents": [
      "f2d7283f-a356-417d-93fb-842b4e2a7557"
    ],
    "repository": "kara.moe",
    "tags": {
      "authors": [
        "87096920-112f-485f-a310-04156cb4624d"
      ],
      "collections": [
        "c7db86a0-ff64-4044-9be4-66dd1ef1d1c1",
        "dbcf2c22-524d-4708-99bb-601703633927"
      ],
      "creators": [
        "de902543-7032-4edd-a407-6c9fade246cd"
      ],
      "genres": [
        "b84e28f9-db1e-447f-b339-7954c3592523",
        "caa86df2-0d59-474b-885c-f240a9e891b0"
      ],
      "groups": [
        "60defa7b-774e-4680-8321-51b742c2e009",
        "ae613721-1fbe-480d-ba6b-d6d0702b184d"
      ],
      "langs": [
        "4dcf9614-7914-42aa-99f4-dbce2e059133"
      ],
      "misc": [
        "cef35a27-3bf0-48c9-beb2-d245ba62ea6b"
      ],
      "series": [
        "f56a6158-95bb-4dc3-a8fc-2626a9a9b89e"
      ],
      "singers": [
        "96429185-f612-4d6f-8fc5-5284e46616c6"
      ],
      "songtypes": [
        "42a262ae-acba-4ab5-a446-c5789c96c821",
        "a8a2616c-b5a1-4df3-ad6f-89291bc67dee"
      ],
      "songwriters": [
        "af3ffe51-8059-461c-bbb8-78ea388731f3"
      ],
      "versions": [
        "c0cc87b9-55b9-40f0-878a-fbb9e34c151e",
        "c2143a7f-6970-450e-8a79-0302db9220a9"
      ],
      "franchises": [
        "61b24082-a6a9-482b-b126-0ad7be595791"
      ]
    },
    "titles": {
      "jpn": "現着ッ!電光刑事バン",
      "qro": "Genchaku! Denkô Keiji Ban"
    },
    "titles_default_language": "qro",
    "titles_aliases": [
      "Denkou"
    ],
    "year": 2013
  }
}