{
  "header": {
    "version": 4,
    "description": "Karaoke Mugen Karaoke Data File"
  },
  "medias": [
    {
      "version": "Default",
      "filename": "JPN - Eve - MV - Fight Song ~ Full Vers.mp4",
      "audiogain": -10.25,
      "loudnorm": "-6.55,1.88,3.60,-16.88,-0.66",
      "filesize": 87011942,
      "duration": 232,
      "default": true,
      "lyrics": [
        {
          "filename": "JPN - Eve - MV - Fight Song ~ Full Vers.ass",
          "default": true,
          "version": "Default"
        }
      ]
    }
  ],
  "data": {
    "created_at": "2022-12-28T15:48:17.338Z",
    "ignoreHooks": false,
    "kid": "e2a67c85-d00e-4401-b799-4979133dff4b",
    "modified_at": "2022-12-28T16:13:19.908Z",
    "parents": [
      "efd1c854-d33e-41ea-99a8-d036ffea0a1a"
    ],
    "repository": "kara.moe",
    "tags": {
      "authors": [
        "9cdf3b70-3550-457c-bdb9-038f3253c6ad"
      ],
      "collections": [
        "c7db86a0-ff64-4044-9be4-66dd1ef1d1c1",
        "dbcf2c22-524d-4708-99bb-601703633927"
      ],
      "creators": [
        "8079371f-75f9-42da-b54e-d3c3afd9963a"
      ],
      "families": [
        "0377db02-3af6-43b8-9b08-c759df3d25c3"
      ],
      "groups": [
        "8e209ae4-4381-438f-89dc-1b21752027d2"
      ],
      "langs": [
        "4dcf9614-7914-42aa-99f4-dbce2e059133"
      ],
      "singers": [
        "a84f6a9f-4785-48bb-9f07-fdede3de7cae"
      ],
      "songtypes": [
        "7be1b15c-cff8-4b37-a649-5c90f3d569a9"
      ],
      "songwriters": [
        "7d97bcee-9037-4264-8c64-95809c5d385f",
        "a84f6a9f-4785-48bb-9f07-fdede3de7cae"
      ],
      "versions": [
        "c2143a7f-6970-450e-8a79-0302db9220a9"
      ]
    },
    "titles": {
      "eng": "Fight Song",
      "jpn": "ファイトソング"
    },
    "titles_default_language": "eng",
    "year": 2022
  }
}