{
  "header": {
    "version": 4,
    "description": "Karaoke Mugen Karaoke Data File"
  },
  "medias": [
    {
      "version": "Default",
      "filename": "JPN - KAITO, Miku Hatsune - MV - Tondemo WONDERS.mp4",
      "audiogain": -4.56,
      "loudnorm": "-13.16,0.16,4.60,-23.29,-0.42",
      "filesize": 25180433,
      "duration": 196,
      "default": true,
      "lyrics": [
        {
          "filename": "JPN - KAITO, Miku Hatsune - MV - Tondemo WONDERS.ass",
          "default": true,
          "version": "Default"
        }
      ]
    }
  ],
  "data": {
    "created_at": "2022-07-02T15:21:15.424Z",
    "ignoreHooks": false,
    "kid": "227131d6-0298-4a2e-a86c-82121c39915a",
    "modified_at": "2022-07-02T15:22:43.480Z",
    "repository": "kara.moe",
    "tags": {
      "authors": [
        "611aa6ee-ebf8-4ef5-8eed-9f1eaec5117e"
      ],
      "collections": [
        "c7db86a0-ff64-4044-9be4-66dd1ef1d1c1"
      ],
      "creators": [
        "31b25172-3ae2-4c7c-83ab-16324d5d0db8"
      ],
      "families": [
        "0377db02-3af6-43b8-9b08-c759df3d25c3"
      ],
      "genres": [
        "45623cae-6d68-4304-a49b-896d1d6f4580"
      ],
      "groups": [
        "8e209ae4-4381-438f-89dc-1b21752027d2"
      ],
      "langs": [
        "4dcf9614-7914-42aa-99f4-dbce2e059133"
      ],
      "singers": [
        "088ee286-73a1-4919-8503-68dbc81df761",
        "4407ba0e-5de7-4add-870f-7ac95a4804c9"
      ],
      "songtypes": [
        "7be1b15c-cff8-4b37-a649-5c90f3d569a9"
      ],
      "songwriters": [
        "94fe32fb-525a-47a6-a97c-4cf3bb0f963c",
        "b6cd556d-b111-4866-84f6-14f6f8fe8bad"
      ]
    },
    "titles": {
      "jpn": "トンデモワンダーズ",
      "qro": "Tondemo WONDERS"
    },
    "titles_default_language": "qro",
    "title": "Tondemo WONDERS",
    "year": 2022
  }
}