{
  "header": {
    "version": 4,
    "description": "Karaoke Mugen Karaoke Data File"
  },
  "medias": [
    {
      "version": "Goose House.",
      "filename": "JPN - Lupin III Part II - REMIX STREAM - Lupin The Third no Theme ~ Goose House Vers. ~ Cover Vers.mp4",
      "audiogain": -7.09,
      "loudnorm": "-10.24,-0.40,2.80,-20.40,-0.73",
      "filesize": 24300967,
      "duration": 254,
      "default": true,
      "lyrics": [
        {
          "filename": "JPN - Lupin III Part II - REMIX STREAM - Lupin The Third no Theme ~ Goose House Vers. ~ Cover Vers.ass",
          "default": true,
          "version": "Default"
        }
      ]
    }
  ],
  "data": {
    "created_at": "2019-09-28T14:14:24.000Z",
    "ignoreHooks": false,
    "kid": "acda5a5e-847c-4bde-a4b6-dda915d3b0d7",
    "modified_at": "2022-01-21T18:03:07.604Z",
    "parents": [
      "bb9a19c2-a656-4ad9-aa11-93ffee46d35d"
    ],
    "repository": "kara.moe",
    "tags": {
      "authors": [
        "57e2d8c3-b3f3-4b82-88a4-2491946b24d9"
      ],
      "collections": [
        "c7db86a0-ff64-4044-9be4-66dd1ef1d1c1"
      ],
      "families": [
        "5391f9fe-638c-415f-8dc9-958e3a2c5787"
      ],
      "groups": [
        "2b4e9972-5e17-481b-99f5-d0787c0ada56",
        "ae613721-1fbe-480d-ba6b-d6d0702b184d"
      ],
      "langs": [
        "4dcf9614-7914-42aa-99f4-dbce2e059133"
      ],
      "misc": [
        "ec4360fa-3e3c-4f6f-b0e1-fb8b12b6dd18"
      ],
      "series": [
        "b3e6e867-0220-4b35-8d95-9f0b54302656"
      ],
      "singers": [
        "ee11c54e-60b4-49ba-9b26-7a054484b00a"
      ],
      "songtypes": [
        "55ce3d79-dcc2-453c-b00a-60ce0c1eba1c"
      ],
      "songwriters": [
        "630333c0-4168-4a69-9808-cbfa340fe0bc",
        "bd94fe6d-88db-4aa5-8234-2a56e517c7b6"
      ],
      "versions": [
        "03e1e1d2-8641-47b7-bbcb-39a3df9ff21c"
      ],
      "franchises": [
        "561e6fe6-d886-4eec-881d-fdc9d1504942"
      ]
    },
    "titles": {
      "qro": "Lupin Sansei no Theme ~ Goose House Vers.",
      "jpn": "ルパン三世のテーマ ~ Goose House Vers."
    },
    "title": "Lupin The Third no Theme ~ Goose House Vers.",
    "year": 2010,
    "titles_default_language": "qro"
  }
}