{
  "header": {
    "version": 4,
    "description": "Karaoke Mugen Karaoke Data File"
  },
  "medias": [
    {
      "version": "Default",
      "filename": "JPN - BanG Dream! 2nd Season - OP1 - Kizuna Music.mp4",
      "audiogain": 4.43,
      "loudnorm": "-21.87,-13.78,2.90,-31.92,-0.42",
      "filesize": 55252431,
      "duration": 89,
      "default": true,
      "lyrics": [
        {
          "filename": "JPN - BanG Dream! 2nd Season - OP1 - Kizuna Music.ass",
          "default": true,
          "version": "Default"
        }
      ]
    }
  ],
  "data": {
    "created_at": "2019-03-02T16:28:24.000Z",
    "kid": "1705e9ce-3d40-4979-9475-b297a6a68778",
    "modified_at": "2021-12-03T20:49:43.628Z",
    "repository": "kara.moe",
    "songorder": 1,
    "tags": {
      "authors": [
        "9097cd02-aa6c-4b63-8281-164e7540ecf2"
      ],
      "collections": [
        "c7db86a0-ff64-4044-9be4-66dd1ef1d1c1"
      ],
      "creators": [
        "4e1122b4-c09f-445f-bdfa-cbad9581f2dc",
        "bd4564a8-44e5-454a-9c57-bd2a3c8a537e"
      ],
      "families": [
        "0377db02-3af6-43b8-9b08-c759df3d25c3"
      ],
      "groups": [
        "ae613721-1fbe-480d-ba6b-d6d0702b184d"
      ],
      "langs": [
        "4dcf9614-7914-42aa-99f4-dbce2e059133"
      ],
      "origins": [
        "938de218-5343-4865-94d3-fb33f2eaa152"
      ],
      "series": [
        "4817b8e9-de06-4c38-be88-d4dca2ee7200"
      ],
      "singers": [
        "1477f7cf-7a03-4ecc-a3eb-81fe697202ed",
        "360a527f-69b3-47e2-b028-d2b176bfaaa2",
        "505910d1-e37a-4c15-8d91-3965a217ea6f",
        "721a998c-a803-416e-a40c-98294656ed8e",
        "8ab6e3f9-a691-4fd0-9c55-5426f2218c5d",
        "adb2af59-5df0-4e18-a0d1-b377416ef134"
      ],
      "songtypes": [
        "f02ad9b3-0bd9-4aad-85b3-9976739ba0e4"
      ],
      "songwriters": [
        "178dcba7-6d20-40b9-baea-d7d3e38e2c25",
        "74b347e5-fb3c-43c3-afe0-a2863f36d366"
      ],
      "franchises": [
        "a65e956d-39ab-4995-9ede-889c30a5cbf0"
      ]
    },
    "titles": {
      "qro": "Kizuna Music♪",
      "jpn": "キズナミュージック♪"
    },
    "title": "Kizuna Music♪",
    "year": 2019,
    "titles_default_language": "qro"
  }
}