{
  "header": {
    "version": 4,
    "description": "Karaoke Mugen Karaoke Data File"
  },
  "medias": [
    {
      "version": "Default",
      "filename": "JPN - Tsukipro The Animation - OP3 - Because you are.mp4",
      "audiogain": 2.27,
      "loudnorm": "-20.43,-9.55,14.40,-31.02,-2.50",
      "filesize": 51291202,
      "duration": 88,
      "default": true,
      "lyrics": [
        {
          "filename": "JPN - Tsukipro The Animation - OP3 - Because you are.ass",
          "default": true,
          "version": "Default"
        }
      ]
    }
  ],
  "data": {
    "created_at": "2022-05-21T19:54:04.489Z",
    "ignoreHooks": false,
    "kid": "11c5ba25-a658-4586-b874-238ec0a83676",
    "modified_at": "2022-11-03T12:57:39.706Z",
    "repository": "kara.moe",
    "songorder": 3,
    "tags": {
      "authors": [
        "ee8628c8-9b7f-415b-bc0d-9b712d5daf8c"
      ],
      "collections": [
        "c7db86a0-ff64-4044-9be4-66dd1ef1d1c1"
      ],
      "creators": [
        "422a4f90-c9f2-49c3-b1d1-ee7de65ba052"
      ],
      "families": [
        "0377db02-3af6-43b8-9b08-c759df3d25c3"
      ],
      "genres": [
        "caa86df2-0d59-474b-885c-f240a9e891b0"
      ],
      "groups": [
        "ae613721-1fbe-480d-ba6b-d6d0702b184d"
      ],
      "langs": [
        "4dcf9614-7914-42aa-99f4-dbce2e059133"
      ],
      "origins": [
        "938de218-5343-4865-94d3-fb33f2eaa152"
      ],
      "series": [
        "6dff7627-f2d1-44c9-8eae-9d243dab3237"
      ],
      "singers": [
        "4090b204-b9c9-4779-afbc-4745abf04aef",
        "a2927d91-114a-49a3-b849-8fae00c596b3",
        "ee6dbf3d-98f8-4be8-99b2-2e26dc03085f",
        "faccd344-8de0-46c3-b499-cce1c8456153"
      ],
      "singergroups": [
        "ff06f1db-9f2a-4088-91c3-c0680e6d008a"
      ],
      "songtypes": [
        "f02ad9b3-0bd9-4aad-85b3-9976739ba0e4"
      ],
      "songwriters": [
        "6fbbc58f-436e-4f51-832c-cfc66e202a79"
      ],
      "franchises": [
        "ac8c6bdb-a96f-4893-b434-78d9fbdf673e"
      ]
    },
    "titles": {
      "eng": "Because you are"
    },
    "titles_default_language": "eng",
    "title": "Because you are",
    "year": 2017
  }
}