{
  "header": {
    "version": 4,
    "description": "Karaoke Mugen Karaoke Data File"
  },
  "medias": [
    {
      "version": "Default",
      "filename": "JPN - Kidou Senshi Gundam 00 - MV - DAYBREAK'S BELL ~ Full Vers.mp4",
      "audiogain": -8.83,
      "loudnorm": "-7.31,3.09,1.90,-17.46,-1.22",
      "filesize": 36504444,
      "duration": 252,
      "default": true,
      "lyrics": [
        {
          "filename": "JPN - Kidou Senshi Gundam 00 - MV - DAYBREAK'S BELL ~ Full Vers.ass",
          "default": true,
          "version": "Default"
        }
      ]
    }
  ],
  "data": {
    "created_at": "2020-03-30T21:01:08.625Z",
    "kid": "7794b993-ec14-43c7-a087-a3ec0ab7b862",
    "modified_at": "2022-06-04T00:20:57.812Z",
    "parents": [
      "34c6fed0-f77a-4461-8523-3d9d09ea0424"
    ],
    "repository": "kara.moe",
    "songorder": null,
    "tags": {
      "authors": [
        "1db1738f-acdc-42fc-aec3-60f4bddf660d"
      ],
      "creators": [
        "6df34030-d5ec-4480-a1c2-20103a7c0b63"
      ],
      "families": [
        "5391f9fe-638c-415f-8dc9-958e3a2c5787"
      ],
      "groups": [
        "3c14c864-533c-49e6-a3cc-6969f1233775"
      ],
      "langs": [
        "4dcf9614-7914-42aa-99f4-dbce2e059133"
      ],
      "series": [
        "29e2e745-a0fb-4f1b-9aa0-f0293a765b59"
      ],
      "singers": [
        "4061a0fb-641d-4a33-9968-b26313bab59c"
      ],
      "songtypes": [
        "7be1b15c-cff8-4b37-a649-5c90f3d569a9"
      ],
      "songwriters": [
        "ecb111d5-9912-4cad-825b-523e104f6785"
      ],
      "versions": [
        "c2143a7f-6970-450e-8a79-0302db9220a9"
      ],
      "collections": [
        "dbcf2c22-524d-4708-99bb-601703633927"
      ],
      "franchises": [
        "e6ade589-c2e4-49a1-acdb-ea9b03e57240"
      ]
    },
    "titles": {
      "eng": "DAYBREAK'S BELL"
    },
    "titles_default_language": "eng",
    "title": "DAYBREAK'S BELL",
    "year": 2007
  }
}