{
  "header": {
    "version": 4,
    "description": "Karaoke Mugen Karaoke Data File"
  },
  "medias": [
    {
      "version": "Default",
      "filename": "JPN - hololive IDOL PROJECT - MV - Taisetsu Photograph.mp4",
      "audiogain": 3.95,
      "loudnorm": "-21.34,-12.61,6.30,-31.62,-0.60",
      "filesize": 146929767,
      "duration": 250,
      "default": true,
      "lyrics": [
        {
          "filename": "JPN - hololive IDOL PROJECT - MV - Taisetsu Photograph.ass",
          "default": true,
          "version": "Default"
        }
      ]
    }
  ],
  "data": {
    "created_at": "2023-01-13T23:14:38.421Z",
    "ignoreHooks": false,
    "kid": "d08d43b5-0f0b-411b-922b-89c8d59fa3e9",
    "modified_at": "2023-01-13T23:14:57.394Z",
    "repository": "kara.moe",
    "tags": {
      "authors": [
        "4b50fcec-273e-4cc5-83f2-b156c2300f7f"
      ],
      "collections": [
        "c7db86a0-ff64-4044-9be4-66dd1ef1d1c1"
      ],
      "creators": [
        "0263d413-17bb-4cee-a311-6dd896eda1c9"
      ],
      "families": [
        "0377db02-3af6-43b8-9b08-c759df3d25c3"
      ],
      "langs": [
        "4dcf9614-7914-42aa-99f4-dbce2e059133"
      ],
      "origins": [
        "5106d71b-a78e-4d19-a16d-f8fb6719538a"
      ],
      "singers": [
        "53b39b45-1ee9-4625-83d6-642c02ca8fba",
        "5ccf4c5b-2a3a-4ada-a24d-6bfa58728689",
        "77848990-54ab-4ef6-bba7-e1258fda78a5",
        "8e89d60a-e9da-4981-a21e-276471cdf960",
        "e6ac54d7-7e22-4a32-9bf7-84848921f029"
      ],
      "singergroups": [
        "7a7c1626-1495-4d5e-aaeb-fadb2e6a9111"
      ],
      "songtypes": [
        "7be1b15c-cff8-4b37-a649-5c90f3d569a9"
      ],
      "songwriters": [
        "cad149e8-4b88-488f-98ae-3fcf44ffc570",
        "16bcbe7c-2a64-4186-a2b9-09af85f12d3e"
      ],
      "groups": [
        "8e209ae4-4381-438f-89dc-1b21752027d2"
      ]
    },
    "titles": {
      "jpn": "大切フォトグラフ",
      "qro": "Taisetsu Photograph"
    },
    "titles_default_language": "qro",
    "year": 2021
  }
}