{
  "header": {
    "version": 4,
    "description": "Karaoke Mugen Karaoke Data File"
  },
  "medias": [
    {
      "version": "Default",
      "filename": "JPN - Majutsushi Orphen Revenge - OP1 - Sonde Motte Kiss.mp4",
      "audiogain": 3.57,
      "loudnorm": "-21.32,-6.04,3.50,-31.45,-0.63",
      "filesize": 26598723,
      "duration": 95,
      "default": true,
      "lyrics": [
        {
          "filename": "JPN - Majutsushi Orphen Revenge - OP1 - Sonde Motte Kiss.ass",
          "default": true,
          "version": "Default",
          "subchecksum": "8e072c4864eee27c5d8881da7822eeec"
        }
      ]
    }
  ],
  "data": {
    "created_at": "2017-10-11T17:01:26.000Z",
    "kid": "8fcf037a-b435-42bb-a6b2-2c4f94ee90a1",
    "modified_at": "2021-02-25T12:20:53.255Z",
    "repository": "kara.moe",
    "songorder": 1,
    "tags": {
      "authors": [
        "5bdaba57-27f8-4568-8806-76a807728766"
      ],
      "collections": [
        "c7db86a0-ff64-4044-9be4-66dd1ef1d1c1"
      ],
      "creators": [
        "802a8ac8-b16f-40a4-944b-99956798c906"
      ],
      "families": [
        "0377db02-3af6-43b8-9b08-c759df3d25c3"
      ],
      "groups": [
        "24db50aa-a126-4d34-a48a-e45db79c4245"
      ],
      "langs": [
        "4dcf9614-7914-42aa-99f4-dbce2e059133"
      ],
      "origins": [
        "938de218-5343-4865-94d3-fb33f2eaa152"
      ],
      "series": [
        "dcf2a531-b2ee-4a87-a23f-4de64cedd4cb"
      ],
      "singers": [
        "a2342c97-91ba-4466-b60b-bacbac1ca21c"
      ],
      "songtypes": [
        "f02ad9b3-0bd9-4aad-85b3-9976739ba0e4"
      ],
      "songwriters": [
        "5938e181-5402-43ea-a5a0-a4ca2405705d"
      ],
      "franchises": [
        "46e84f5c-c567-4086-923a-72d54309516f"
      ]
    },
    "title": "Sonde Motte Kiss",
    "titles": {
      "qro": "Sonde Motte Kiss",
      "jpn": "そんでもってKISS"
    },
    "year": 1999,
    "titles_default_language": "qro"
  }
}