{
  "header": {
    "version": 4,
    "description": "Karaoke Mugen Karaoke Data File"
  },
  "medias": [
    {
      "version": "Default",
      "filename": "JPN - Ensemble Stars! - GAME MV - THE GENESIS.mp4",
      "audiogain": 0.05,
      "loudnorm": "-17.06,-7.79,3.20,-27.23,-0.65",
      "filesize": 145641415,
      "duration": 145,
      "default": true,
      "lyrics": [
        {
          "filename": "JPN - Ensemble Stars! - GAME MV - THE GENESIS.ass",
          "default": true,
          "version": "Default"
        }
      ]
    }
  ],
  "data": {
    "created_at": "2022-09-10T13:41:08.864Z",
    "ignoreHooks": false,
    "kid": "6dee715f-8402-46d4-9aab-326acd10e5d9",
    "modified_at": "2022-09-10T13:51:24.575Z",
    "repository": "kara.moe",
    "tags": {
      "authors": [
        "dd4f1279-de1b-4d06-b80d-29c4878bfd8e"
      ],
      "collections": [
        "c7db86a0-ff64-4044-9be4-66dd1ef1d1c1"
      ],
      "creators": [
        "5b938ceb-1629-4653-bbd2-27af0dd5aebf"
      ],
      "genres": [
        "caa86df2-0d59-474b-885c-f240a9e891b0"
      ],
      "groups": [
        "8c22c899-b3ed-42da-a548-ce00f950798b",
        "8e209ae4-4381-438f-89dc-1b21752027d2"
      ],
      "langs": [
        "4dcf9614-7914-42aa-99f4-dbce2e059133"
      ],
      "platforms": [
        "213a1a15-e73a-4a08-b3f6-b6e2745a82e5"
      ],
      "series": [
        "d1184e31-716b-4ed1-8c81-9cd0d42afdc2"
      ],
      "singers": [
        "06e8a716-74ae-4ccc-843f-21a9a8927a36",
        "a11bdf24-a5c2-4747-b59b-0f196501a8db",
        "ecca47d9-4c65-48bb-bcbc-9876fe2ea450",
        "f2917fb2-23ae-4fbd-bedc-bc9b77f11603"
      ],
      "singergroups": [
        "090375e3-ad85-4e82-b729-2281fe8d3ff0"
      ],
      "songtypes": [
        "7be1b15c-cff8-4b37-a649-5c90f3d569a9"
      ],
      "songwriters": [
        "00cd2c1f-8012-4366-adcd-0340a340c29a"
      ],
      "origins": [
        "dbedd6b3-d125-4cd8-aa32-c4175e4ca3a3"
      ]
    },
    "titles": {
      "eng": "THE GENESIS"
    },
    "titles_default_language": "eng",
    "title": "THE GENESIS",
    "year": 2020
  }
}