{
  "header": {
    "version": 4,
    "description": "Karaoke Mugen Karaoke Data File"
  },
  "medias": [
    {
      "version": "Default",
      "filename": "JPN - LIQU@ - AUDIO - Farewell, my happy end.mp3",
      "audiogain": -5.4,
      "loudnorm": "-12.15,-4.35,3.20,-22.20,-0.65",
      "filesize": 5203036,
      "duration": 280,
      "default": true,
      "lyrics": [
        {
          "filename": "JPN - LIQU@ - AUDIO - Farewell, my happy end.ass",
          "default": true,
          "version": "Default",
          "subchecksum": "413df952edcc2f74bc29d4f626c00017"
        }
      ]
    }
  ],
  "data": {
    "created_at": "2020-08-08T14:36:59.511Z",
    "kid": "4b986a30-667d-4bcf-b071-85ea7de72527",
    "modified_at": "2021-02-25T12:10:27.760Z",
    "repository": "kara.moe",
    "tags": {
      "authors": [
        "1c9f3b53-973d-419e-9e29-9067c9896139"
      ],
      "collections": [
        "c7db86a0-ff64-4044-9be4-66dd1ef1d1c1"
      ],
      "creators": [
        "bb131f8b-511c-4e76-91d5-cd61f3316e37"
      ],
      "groups": [
        "60defa7b-774e-4680-8321-51b742c2e009",
        "ae613721-1fbe-480d-ba6b-d6d0702b184d"
      ],
      "langs": [
        "4dcf9614-7914-42aa-99f4-dbce2e059133"
      ],
      "singers": [
        "b661a93b-8c2e-432e-816b-2619dda0e881"
      ],
      "songtypes": [
        "42a262ae-acba-4ab5-a446-c5789c96c821"
      ],
      "songwriters": [
        "bb131f8b-511c-4e76-91d5-cd61f3316e37"
      ]
    },
    "title": "Farewell, my happy end",
    "titles": {
      "eng": "Fast End"
    },
    "year": 2013,
    "titles_default_language": "eng"
  }
}