{
  "header": {
    "version": 4,
    "description": "Karaoke Mugen Karaoke Data File"
  },
  "medias": [
    {
      "version": "Default",
      "filename": "JPN - Touhou - AUDIO - Dreamer.mp3",
      "audiogain": -9.41,
      "loudnorm": "-7.86,0.47,3.30,-17.92,-0.24",
      "filesize": 11910652,
      "duration": 252,
      "default": true,
      "lyrics": [
        {
          "filename": "JPN - Touhou - AUDIO - Dreamer.ass",
          "default": true,
          "version": "Default"
        }
      ]
    }
  ],
  "data": {
    "created_at": "2022-11-29T15:46:41.546Z",
    "ignoreHooks": false,
    "kid": "37625b2a-53ff-4dcf-bfd4-29a96f1844e8",
    "modified_at": "2022-11-29T15:52:46.966Z",
    "repository": "kara.moe",
    "tags": {
      "authors": [
        "db867b9b-f487-444d-9f24-142c4324a235"
      ],
      "collections": [
        "c7db86a0-ff64-4044-9be4-66dd1ef1d1c1"
      ],
      "creators": [
        "eb49131c-b890-422d-9947-0e82292801e1"
      ],
      "groups": [
        "ae613721-1fbe-480d-ba6b-d6d0702b184d"
      ],
      "langs": [
        "4dcf9614-7914-42aa-99f4-dbce2e059133"
      ],
      "series": [
        "1bdaa5a1-dfa6-4365-b746-7a0b194dafd6"
      ],
      "singers": [
        "a6e3509f-befc-4b8b-ac1c-3614e1c32447"
      ],
      "songtypes": [
        "42a262ae-acba-4ab5-a446-c5789c96c821"
      ],
      "songwriters": [
        "26cb5252-8510-49e0-897c-a611a05fc056",
        "3c027018-54fc-4402-b3eb-46c34d07a56b"
      ],
      "franchises": [
        "1bdaa5a1-dfa6-4365-b746-7a0b194dafd6"
      ]
    },
    "titles": {
      "eng": "Dreamer"
    },
    "titles_default_language": "eng",
    "year": 2014
  }
}