{
  "header": {
    "version": 4,
    "description": "Karaoke Mugen Karaoke Data File"
  },
  "medias": [
    {
      "version": "Default",
      "filename": "JPN - Kanon - GAME AMV - Believe.mp4",
      "audiogain": -10.19,
      "loudnorm": "-7.86,1.81,3.40,-18.06,-0.59",
      "filesize": 42734070,
      "duration": 169,
      "default": true,
      "lyrics": [
        {
          "filename": "JPN - Kanon - GAME AMV - Believe.ass",
          "default": true,
          "version": "Default"
        }
      ]
    }
  ],
  "data": {
    "created_at": "2017-10-11T15:01:28.000Z",
    "ignoreHooks": false,
    "kid": "a7ec84b5-cf36-4557-890e-854278dfa1e0",
    "modified_at": "2023-03-27T21:52:08.377Z",
    "repository": "kara.moe",
    "tags": {
      "authors": [
        "5bdaba57-27f8-4568-8806-76a807728766"
      ],
      "collections": [
        "c7db86a0-ff64-4044-9be4-66dd1ef1d1c1"
      ],
      "creators": [
        "c9720cec-80a0-4f29-a16f-cb8aa23740bb"
      ],
      "groups": [
        "3c14c864-533c-49e6-a3cc-6969f1233775"
      ],
      "langs": [
        "4dcf9614-7914-42aa-99f4-dbce2e059133"
      ],
      "origins": [
        "2f96e82c-c61b-4413-817e-e6b247509b95",
        "dbedd6b3-d125-4cd8-aa32-c4175e4ca3a3"
      ],
      "series": [
        "e9a43ad9-eb15-446f-89eb-9f4faf745c45"
      ],
      "singers": [
        "97bbc758-3cc4-4928-9f04-68ba786d9a89"
      ],
      "songtypes": [
        "a6c79ce5-89ee-4d50-afe8-3abd7317f6c2"
      ],
      "songwriters": [
        "26554c2a-7c17-402f-a6fc-d0e1c2e6d018",
        "a6e569a8-52a7-4951-94b9-a1bfa86a0b45"
      ],
      "warnings": [
        "24371984-5e4c-4485-a937-fb0c480ca23b",
        "51288600-29e0-4e41-a42b-77f0498e5691"
      ],
      "franchises": [
        "e9a43ad9-eb15-446f-89eb-9f4faf745c45"
      ]
    },
    "titles": {
      "eng": "Believe"
    },
    "titles_default_language": "eng",
    "year": 2004
  }
}