{
  "header": {
    "version": 4,
    "description": "Karaoke Mugen Karaoke Data File"
  },
  "medias": [
    {
      "version": "Default",
      "filename": "JPN - Sukima Switch - AUDIO - Seishun.mp3",
      "audiogain": -5.54,
      "loudnorm": "-11.27,-1.58,4.60,-21.38,-1.07",
      "filesize": 5319306,
      "duration": 324,
      "default": true,
      "lyrics": [
        {
          "filename": "JPN - Sukima Switch - AUDIO - Seishun.ass",
          "default": true,
          "version": "Default",
          "subchecksum": "8f68804f708b462343b8aa6b34a112f5"
        }
      ]
    }
  ],
  "data": {
    "created_at": "2020-07-22T18:16:48.098Z",
    "kid": "943ce01f-cb1e-4d49-a740-891a48ab552c",
    "modified_at": "2021-02-25T13:13:26.746Z",
    "repository": "kara.moe",
    "tags": {
      "authors": [
        "87096920-112f-485f-a310-04156cb4624d"
      ],
      "collections": [
        "c7db86a0-ff64-4044-9be4-66dd1ef1d1c1"
      ],
      "creators": [
        "f963181a-1214-47f8-b6f9-1705cbc33779"
      ],
      "groups": [
        "60defa7b-774e-4680-8321-51b742c2e009",
        "ae613721-1fbe-480d-ba6b-d6d0702b184d"
      ],
      "langs": [
        "4dcf9614-7914-42aa-99f4-dbce2e059133"
      ],
      "misc": [
        "86705d4b-24e4-4756-9687-2b9c98bcf366"
      ],
      "singers": [
        "e8e3edeb-437c-4234-bc24-aa40365875a6"
      ],
      "songtypes": [
        "42a262ae-acba-4ab5-a446-c5789c96c821"
      ],
      "songwriters": [
        "725dd2e4-13c1-463d-9eeb-6a7d91040824",
        "c47b085b-a7f2-4962-a2bc-af59d4e59ee7"
      ]
    },
    "title": "Seishun",
    "titles": {
      "qro": "Seishun",
      "jpn": "青春"
    },
    "year": 2019,
    "titles_default_language": "qro"
  }
}