{
  "header": {
    "version": 4,
    "description": "Karaoke Mugen Karaoke Data File"
  },
  "medias": [
    {
      "version": "Yamaguchi-ben.",
      "filename": "JPN - 1-SHINE - MV - Usseewa ~ Yamaguchi-ben Vers. ~ Alternative Cover Vers.mp4",
      "audiogain": 0.25,
      "loudnorm": "-17.06,-9.04,3.90,-27.22,-0.56",
      "filesize": 41961069,
      "duration": 76,
      "default": true,
      "lyrics": [
        {
          "filename": "JPN - 1-SHINE - MV - Usseewa ~ Yamaguchi-ben Vers. ~ Alternative Cover Vers.ass",
          "default": true,
          "version": "Default"
        }
      ]
    }
  ],
  "data": {
    "created_at": "2023-05-04T16:00:26.272Z",
    "ignoreHooks": false,
    "kid": "30c38c91-a58f-4a2f-95e2-7e1879238e9c",
    "modified_at": "2023-05-04T16:11:54.808Z",
    "parents": [
      "22caaf65-868b-427a-89fd-79fd6f9fc6b2"
    ],
    "repository": "kara.moe",
    "tags": {
      "authors": [
        "61865310-cb97-496c-a722-364b0a9ba90d"
      ],
      "collections": [
        "c7db86a0-ff64-4044-9be4-66dd1ef1d1c1",
        "dbcf2c22-524d-4708-99bb-601703633927"
      ],
      "families": [
        "5391f9fe-638c-415f-8dc9-958e3a2c5787"
      ],
      "groups": [
        "8c22c899-b3ed-42da-a548-ce00f950798b",
        "8e209ae4-4381-438f-89dc-1b21752027d2"
      ],
      "langs": [
        "4dcf9614-7914-42aa-99f4-dbce2e059133"
      ],
      "singergroups": [
        "5a1f27b8-70d1-4dfd-866a-125633bd084a"
      ],
      "songtypes": [
        "7be1b15c-cff8-4b37-a649-5c90f3d569a9"
      ],
      "songwriters": [
        "13c686dd-4df8-4056-a46a-39ba871cba8b"
      ],
      "versions": [
        "03e1e1d2-8641-47b7-bbcb-39a3df9ff21c",
        "9f63c359-d1bf-425a-bcf5-b245c2c9211d",
        "d125c80a-86c1-4321-88e9-07b7800679b6"
      ]
    },
    "titles": {
      "jpn": "うっせぇわ ~ 山口弁 Vers.",
      "qro": "Usseewa ~ Yamaguchi-ben Vers."
    },
    "titles_default_language": "qro",
    "year": 2021
  }
}