{
  "header": {
    "version": 4,
    "description": "Karaoke Mugen Karaoke Data File"
  },
  "medias": [
    {
      "version": "Default",
      "filename": "JPN - NANA - MV - Rose ~ Full Vers.mp4",
      "audiogain": -9.44,
      "loudnorm": "-7.91,1.30,5.10,-18.00,-1.02",
      "filesize": 30842395,
      "duration": 229,
      "default": true,
      "lyrics": [
        {
          "filename": "JPN - NANA - MV - Rose ~ Full Vers.ass",
          "default": true,
          "version": "Default"
        }
      ]
    }
  ],
  "data": {
    "created_at": "2021-06-06T19:56:50.051Z",
    "kid": "ecad456f-a4b1-49c4-a539-2e27ecd19a12",
    "modified_at": "2022-06-04T00:24:32.462Z",
    "parents": [
      "9efcba7b-3a91-47d4-aff9-68ba2c8a28a7"
    ],
    "repository": "kara.moe",
    "songorder": null,
    "tags": {
      "authors": [
        "1db1738f-acdc-42fc-aec3-60f4bddf660d"
      ],
      "creators": [
        "90caf15e-bc86-46e1-8793-9af7906c8310"
      ],
      "families": [
        "5391f9fe-638c-415f-8dc9-958e3a2c5787"
      ],
      "groups": [
        "3c14c864-533c-49e6-a3cc-6969f1233775"
      ],
      "langs": [
        "4dcf9614-7914-42aa-99f4-dbce2e059133"
      ],
      "series": [
        "6393edba-8ecb-44e6-8a1d-e80b6e007a12"
      ],
      "singers": [
        "79fe6a77-a6a7-4aba-aa82-600b1baed8e4"
      ],
      "songtypes": [
        "7be1b15c-cff8-4b37-a649-5c90f3d569a9"
      ],
      "songwriters": [
        "79fe6a77-a6a7-4aba-aa82-600b1baed8e4"
      ],
      "versions": [
        "c2143a7f-6970-450e-8a79-0302db9220a9"
      ],
      "collections": [
        "dbcf2c22-524d-4708-99bb-601703633927"
      ]
    },
    "titles": {
      "eng": "rose"
    },
    "titles_default_language": "eng",
    "title": "Rose",
    "year": 2006
  }
}