{
  "header": {
    "version": 4,
    "description": "Karaoke Mugen Karaoke Data File"
  },
  "medias": [
    {
      "version": "Default",
      "filename": "JPN - Otome Youkai Zakuro - OP - Moon Signal.mp4",
      "audiogain": -5.15,
      "loudnorm": "-11.84,0.02,3.70,-22.03,-0.72",
      "filesize": 35872557,
      "duration": 92,
      "default": true,
      "lyrics": [
        {
          "filename": "JPN - Otome Youkai Zakuro - OP - Moon Signal.ass",
          "default": true,
          "version": "Default",
          "subchecksum": "759f207ab9545073e52ea8495dcd397f"
        }
      ]
    }
  ],
  "data": {
    "created_at": "2017-10-11T17:02:09.000Z",
    "kid": "282f4567-0834-425f-9c6a-9c7bea4f92f3",
    "modified_at": "2021-02-25T12:43:01.663Z",
    "repository": "kara.moe",
    "tags": {
      "authors": [
        "5bdaba57-27f8-4568-8806-76a807728766"
      ],
      "collections": [
        "c7db86a0-ff64-4044-9be4-66dd1ef1d1c1"
      ],
      "creators": [
        "802a8ac8-b16f-40a4-944b-99956798c906"
      ],
      "families": [
        "0377db02-3af6-43b8-9b08-c759df3d25c3"
      ],
      "groups": [
        "ae613721-1fbe-480d-ba6b-d6d0702b184d"
      ],
      "langs": [
        "4dcf9614-7914-42aa-99f4-dbce2e059133"
      ],
      "origins": [
        "938de218-5343-4865-94d3-fb33f2eaa152"
      ],
      "series": [
        "25e7e8a3-dddb-414b-9015-223a4eb24452"
      ],
      "singers": [
        "256792ea-599e-41d8-98cd-9023a4e6c422"
      ],
      "songtypes": [
        "f02ad9b3-0bd9-4aad-85b3-9976739ba0e4"
      ],
      "songwriters": [
        "15fb7216-1c55-41eb-bdbc-df1f8df592a8",
        "f41e7218-6c19-4e19-9b5f-4612dcd58243"
      ]
    },
    "title": "Moon Signal",
    "titles": {
      "eng": "Moon Signal"
    },
    "year": 2010,
    "titles_default_language": "eng"
  }
}