{
  "header": {
    "version": 4,
    "description": "Karaoke Mugen Karaoke Data File"
  },
  "medias": [
    {
      "version": "Default",
      "filename": "JPN - Shoujo Kageki Revue Starlight - IN - The Star Knows.mp4",
      "audiogain": -10.02,
      "loudnorm": "-7.37,1.64,9.50,-17.67,-0.21",
      "filesize": 83218766,
      "duration": 288,
      "default": true,
      "lyrics": [
        {
          "filename": "JPN - Shoujo Kageki Revue Starlight - IN - The Star Knows.ass",
          "default": true,
          "version": "Default"
        }
      ]
    }
  ],
  "data": {
    "created_at": "2019-06-20T20:25:09.000Z",
    "kid": "ab070c60-52cd-4d55-a873-f6d3a2966022",
    "modified_at": "2021-07-22T19:14:53.779Z",
    "repository": "kara.moe",
    "tags": {
      "authors": [
        "f7ce702e-09aa-4b22-8742-0c99cd7a5409"
      ],
      "collections": [
        "c7db86a0-ff64-4044-9be4-66dd1ef1d1c1"
      ],
      "creators": [
        "08df259d-c4ec-458e-a066-af38a9f7ccc5"
      ],
      "families": [
        "0377db02-3af6-43b8-9b08-c759df3d25c3"
      ],
      "groups": [
        "2b4e9972-5e17-481b-99f5-d0787c0ada56",
        "ae613721-1fbe-480d-ba6b-d6d0702b184d"
      ],
      "langs": [
        "4dcf9614-7914-42aa-99f4-dbce2e059133"
      ],
      "origins": [
        "938de218-5343-4865-94d3-fb33f2eaa152"
      ],
      "series": [
        "197ecb28-b423-4c66-bbdb-49b89b5ed153"
      ],
      "singers": [
        "0691da5a-1612-40fe-91a3-898cce043c3e",
        "bbf38c20-4ff8-46ca-8e23-55a71286f0ef"
      ],
      "songtypes": [
        "5e5250d9-351a-4a82-98eb-55db50ad8962"
      ],
      "songwriters": [
        "0ef031f7-42f4-49fc-ba76-15f0cef7daf1",
        "ead196cc-e1e3-43a4-8804-dd4199e89c4e"
      ],
      "franchises": [
        "197ecb28-b423-4c66-bbdb-49b89b5ed153"
      ]
    },
    "title": "The Star Knows",
    "titles": {
      "eng": "The Star Knows"
    },
    "year": 2018,
    "titles_default_language": "eng"
  }
}