{
  "header": {
    "version": 4,
    "description": "Karaoke Mugen Karaoke Data File"
  },
  "medias": [
    {
      "version": "Default",
      "filename": "JPN - Tonikaku Kawaii - ED - Tsuki to Hoshizora.mp4",
      "audiogain": 4.35,
      "loudnorm": "-21.98,-10.88,3.80,-32.10,-1.09",
      "filesize": 18244589,
      "duration": 90,
      "default": true,
      "lyrics": [
        {
          "filename": "JPN - Tonikaku Kawaii - ED - Tsuki to Hoshizora.ass",
          "default": true,
          "version": "Default",
          "subchecksum": "e856943c676ad2b3068e588b8d628219"
        }
      ]
    }
  ],
  "data": {
    "created_at": "2021-05-21T13:22:56.402Z",
    "kid": "9dfdf994-2264-4760-ad18-3ce5581b8a92",
    "modified_at": "2021-06-08T18:22:30.426Z",
    "repository": "kara.moe",
    "tags": {
      "authors": [
        "8605a8b9-3b45-44b9-9d98-1a25096bf702"
      ],
      "collections": [
        "c7db86a0-ff64-4044-9be4-66dd1ef1d1c1"
      ],
      "creators": [
        "2c2ecf1e-16c1-4768-aedc-3d79f54321da"
      ],
      "families": [
        "0377db02-3af6-43b8-9b08-c759df3d25c3"
      ],
      "groups": [
        "8e209ae4-4381-438f-89dc-1b21752027d2"
      ],
      "langs": [
        "4dcf9614-7914-42aa-99f4-dbce2e059133"
      ],
      "misc": [
        "fe819ff1-9db8-4a0f-85dc-0e322c9126c4"
      ],
      "origins": [
        "938de218-5343-4865-94d3-fb33f2eaa152"
      ],
      "series": [
        "a008c81b-2dba-422b-a9fb-9ab0214f72f9"
      ],
      "singers": [
        "284b3b30-5040-40c7-87b7-8586a08c68e1"
      ],
      "songtypes": [
        "38c77c56-2b95-4040-b676-0994a8cb0597"
      ],
      "songwriters": [
        "717daa49-fc72-47a9-ab0b-f2430503b886"
      ]
    },
    "title": "Tsuki to Hoshizora",
    "titles": {
      "qro": "Tsuki to Hoshizora",
      "jpn": "月と星空"
    },
    "year": 2020,
    "titles_default_language": "qro"
  }
}