{
  "header": {
    "version": 4,
    "description": "Karaoke Mugen Karaoke Data File"
  },
  "medias": [
    {
      "version": "Default",
      "filename": "JPN - Hagane no Renkinjutsushi - MV - Melissa ~ Full Vers.mp4",
      "audiogain": -9.2,
      "loudnorm": "-7.96,0.90,4.20,-18.10,-0.65",
      "filesize": 14532865,
      "duration": 294,
      "default": true,
      "lyrics": [
        {
          "filename": "JPN - Hagane no Renkinjutsushi - MV - Melissa ~ Full Vers.ass",
          "default": true,
          "version": "Default"
        }
      ]
    }
  ],
  "data": {
    "created_at": "2020-03-26T21:53:01.256Z",
    "kid": "8761da02-ef00-4385-9ad1-eb20ca9f6aa0",
    "modified_at": "2022-06-04T00:23:46.339Z",
    "parents": [
      "03482c17-56a7-4cb7-82f2-a9b29c217bf0"
    ],
    "repository": "kara.moe",
    "songorder": null,
    "tags": {
      "authors": [
        "1db1738f-acdc-42fc-aec3-60f4bddf660d"
      ],
      "creators": [
        "6fa9de67-21cf-420b-9ddb-57edb5abe523"
      ],
      "families": [
        "5391f9fe-638c-415f-8dc9-958e3a2c5787"
      ],
      "groups": [
        "3c14c864-533c-49e6-a3cc-6969f1233775"
      ],
      "langs": [
        "4dcf9614-7914-42aa-99f4-dbce2e059133"
      ],
      "series": [
        "3df1aaa7-e69a-4a6f-86cb-75544f0dd48a"
      ],
      "singers": [
        "a51def19-a639-4b1e-aea5-b4beee52c8a1"
      ],
      "songtypes": [
        "7be1b15c-cff8-4b37-a649-5c90f3d569a9"
      ],
      "songwriters": [
        "1a13bd29-e614-4410-81ac-5261972d76f3",
        "6a1aa24c-9bc9-4449-9f18-c7ab5f1ed59e"
      ],
      "versions": [
        "c2143a7f-6970-450e-8a79-0302db9220a9"
      ],
      "collections": [
        "dbcf2c22-524d-4708-99bb-601703633927"
      ],
      "franchises": [
        "3df1aaa7-e69a-4a6f-86cb-75544f0dd48a"
      ]
    },
    "titles": {
      "eng": "Melissa",
      "jpn": "メリッサ"
    },
    "titles_default_language": "eng",
    "title": "Melissa",
    "year": 2003
  }
}