{
  "header": {
    "version": 4,
    "description": "Karaoke Mugen Karaoke Data File"
  },
  "medias": [
    {
      "version": "Default",
      "filename": "JPN - Love Live! Superstar!! 2nd Season - AUDIO - Midnight Rhapsody ~ Full Vers.mp3",
      "audiogain": -8.6,
      "loudnorm": "-8.48,0.82,2.00,-18.53,-0.24",
      "filesize": 9481289,
      "duration": 230,
      "default": true,
      "lyrics": [
        {
          "filename": "JPN - Love Live! Superstar!! 2nd Season - AUDIO - Midnight Rhapsody ~ Full Vers.ass",
          "default": true,
          "version": "Default"
        }
      ]
    }
  ],
  "data": {
    "created_at": "2023-03-24T17:50:09.113Z",
    "ignoreHooks": false,
    "kid": "a994605c-260e-441a-b92d-5630a92511e2",
    "modified_at": "2023-04-01T13:53:14.050Z",
    "repository": "kara.moe",
    "tags": {
      "authors": [
        "449844e4-3a1f-46e1-8a92-bf72e2d1b6f1"
      ],
      "collections": [
        "dbcf2c22-524d-4708-99bb-601703633927"
      ],
      "creators": [
        "b2805292-730e-473a-96f0-fd8e7ffd1fd7"
      ],
      "genres": [
        "caa86df2-0d59-474b-885c-f240a9e891b0"
      ],
      "groups": [
        "8e209ae4-4381-438f-89dc-1b21752027d2"
      ],
      "langs": [
        "4dcf9614-7914-42aa-99f4-dbce2e059133"
      ],
      "series": [
        "51ceccbb-3e30-4e99-b378-a0d09a5a5786"
      ],
      "singers": [
        "4a1c9511-daa2-4172-9367-5afb3312234e"
      ],
      "singergroups": [
        "f3e5b1d3-30b1-4548-95c8-6cf77216bdbd"
      ],
      "songtypes": [
        "42a262ae-acba-4ab5-a446-c5789c96c821"
      ],
      "songwriters": [
        "35f440c5-5b26-4ce0-b3d0-688ddb1a33b3",
        "c6f679b1-a1e8-4ab2-80fa-5edf792440ce",
        "d8d34d53-cf19-4867-8b9e-ecb99604fbcc",
        "f77f4be8-1af3-4bab-9411-759dbd5bb583"
      ],
      "versions": [
        "c2143a7f-6970-450e-8a79-0302db9220a9"
      ],
      "franchises": [
        "fd5d066e-e85a-4eea-8688-2979a887450a"
      ]
    },
    "titles": {
      "eng": "Midnight Rhapsody"
    },
    "titles_default_language": "eng",
    "year": 2023
  }
}