{
  "header": {
    "version": 4,
    "description": "Karaoke Mugen Karaoke Data File"
  },
  "medias": [
    {
      "version": "Default",
      "filename": "JPN - Taiyou no Kiba Dougram - IN - EXODUS.mp4",
      "audiogain": -3.53,
      "loudnorm": "-15.15,-0.78,4.20,-25.24,-0.69",
      "filesize": 30441918,
      "duration": 99,
      "default": true,
      "lyrics": [
        {
          "filename": "JPN - Taiyou no Kiba Dougram - IN - EXODUS.ass",
          "default": true,
          "version": "Default",
          "subchecksum": "c6e83b6ca7d76d5cf402de4c06a9f157"
        }
      ]
    }
  ],
  "data": {
    "created_at": "2017-10-11T17:02:43.000Z",
    "kid": "372e6997-e558-4318-8fe0-036dcd833f1f",
    "modified_at": "2021-02-25T13:15:59.810Z",
    "repository": "kara.moe",
    "tags": {
      "authors": [
        "5bdaba57-27f8-4568-8806-76a807728766"
      ],
      "collections": [
        "c7db86a0-ff64-4044-9be4-66dd1ef1d1c1"
      ],
      "creators": [
        "ef8f80e1-d244-4aea-b7f0-984d6dd4b82b"
      ],
      "families": [
        "0377db02-3af6-43b8-9b08-c759df3d25c3"
      ],
      "genres": [
        "f60ba57d-5ef4-49e0-b93b-d0dcbcff6592"
      ],
      "groups": [
        "7792cc27-9ff9-4d47-9287-2338b7db1575"
      ],
      "langs": [
        "4dcf9614-7914-42aa-99f4-dbce2e059133"
      ],
      "origins": [
        "938de218-5343-4865-94d3-fb33f2eaa152"
      ],
      "series": [
        "338b21cc-25b8-4568-96d1-c9df273edd75"
      ],
      "singers": [
        "ad8758e2-add0-416e-b57b-a3bdac61b1d3"
      ],
      "songtypes": [
        "5e5250d9-351a-4a82-98eb-55db50ad8962"
      ],
      "songwriters": [
        "65fce0bb-dd7e-4c7e-84bf-04256812f9dd",
        "b5a334cf-6f8d-499d-aaed-294d69f933bc"
      ]
    },
    "title": "EXODUS",
    "titles": {
      "eng": "EXODUS",
      "jpn": "EXODUS エキソダス"
    },
    "year": 1981,
    "titles_default_language": "eng"
  }
}