{
  "header": {
    "version": 4,
    "description": "Karaoke Mugen Karaoke Data File"
  },
  "medias": [
    {
      "version": "Default",
      "filename": "JPN - Kidou Senshi Gundam 00 - MV - Friends ~ Full Vers.mp4",
      "audiogain": -7.98,
      "loudnorm": "-10.71,-0.42,6.60,-21.05,-0.65",
      "filesize": 77957672,
      "duration": 268,
      "default": true,
      "lyrics": [
        {
          "filename": "JPN - Kidou Senshi Gundam 00 - MV - Friends ~ Full Vers.ass",
          "default": true,
          "version": "Default"
        }
      ]
    }
  ],
  "data": {
    "created_at": "2020-04-29T21:43:08.760Z",
    "kid": "0758cf69-56d7-48cb-a284-c3d491b2c0eb",
    "modified_at": "2022-06-04T00:14:21.844Z",
    "parents": [
      "49cd8267-3449-48a5-ae08-ef7c2990eacc"
    ],
    "repository": "kara.moe",
    "songorder": null,
    "tags": {
      "authors": [
        "1db1738f-acdc-42fc-aec3-60f4bddf660d"
      ],
      "creators": [
        "6fa9de67-21cf-420b-9ddb-57edb5abe523"
      ],
      "families": [
        "5391f9fe-638c-415f-8dc9-958e3a2c5787"
      ],
      "groups": [
        "3c14c864-533c-49e6-a3cc-6969f1233775"
      ],
      "langs": [
        "4dcf9614-7914-42aa-99f4-dbce2e059133"
      ],
      "series": [
        "29e2e745-a0fb-4f1b-9aa0-f0293a765b59"
      ],
      "singers": [
        "b6093800-9266-4241-a02e-b37a600cd1da"
      ],
      "songtypes": [
        "7be1b15c-cff8-4b37-a649-5c90f3d569a9"
      ],
      "songwriters": [
        "3d9e732d-de1d-49d9-94fa-3d94ea6a5ae7",
        "89a0c299-3f74-4f7f-bb14-f68bf63fe5cd",
        "b6093800-9266-4241-a02e-b37a600cd1da"
      ],
      "versions": [
        "c2143a7f-6970-450e-8a79-0302db9220a9"
      ],
      "collections": [
        "dbcf2c22-524d-4708-99bb-601703633927"
      ],
      "franchises": [
        "e6ade589-c2e4-49a1-acdb-ea9b03e57240"
      ]
    },
    "titles": {
      "eng": "Friends",
      "jpn": "フレンズ"
    },
    "titles_default_language": "eng",
    "title": "Friends",
    "year": 2008
  }
}