{
  "header": {
    "version": 4,
    "description": "Karaoke Mugen Karaoke Data File"
  },
  "medias": [
    {
      "version": "Default",
      "filename": "JPN - VS Knight Ramune & 40 Fire - OP - Miraikei Idol.avi",
      "audiogain": -4.29,
      "loudnorm": "-13.79,-3.78,2.80,-23.89,-0.23",
      "filesize": 11579494,
      "duration": 89,
      "default": true,
      "lyrics": [
        {
          "filename": "JPN - VS Knight Ramune & 40 Fire - OP - Miraikei Idol.ass",
          "default": true,
          "version": "Default",
          "subchecksum": "98ccd4fb3b421075a46b99bf5a5ec9d9"
        }
      ]
    }
  ],
  "data": {
    "created_at": "2017-10-11T17:01:55.000Z",
    "kid": "567c7176-dfb2-44a9-81c6-b1c1c5df93ea",
    "modified_at": "2021-02-28T12:22:22.542Z",
    "repository": "kara.moe",
    "tags": {
      "authors": [
        "5bdaba57-27f8-4568-8806-76a807728766"
      ],
      "collections": [
        "c7db86a0-ff64-4044-9be4-66dd1ef1d1c1"
      ],
      "creators": [
        "fa1cbae7-2b13-45ec-8233-15807fd5f1a3"
      ],
      "families": [
        "0377db02-3af6-43b8-9b08-c759df3d25c3"
      ],
      "groups": [
        "24db50aa-a126-4d34-a48a-e45db79c4245"
      ],
      "langs": [
        "4dcf9614-7914-42aa-99f4-dbce2e059133"
      ],
      "origins": [
        "938de218-5343-4865-94d3-fb33f2eaa152"
      ],
      "series": [
        "c1c71310-cc51-42f1-aaa7-572924773153"
      ],
      "singers": [
        "ac3f1e80-b3b5-4d62-8b6c-5f62b5896f27",
        "bdef7d19-b5c0-4bb8-a41d-de0c493fb1b1"
      ],
      "songtypes": [
        "f02ad9b3-0bd9-4aad-85b3-9976739ba0e4"
      ],
      "songwriters": [
        "6b6ef87e-6b8c-415b-9dd1-6112277c494b",
        "75681066-1fed-4577-9ac6-bf0256efe4de"
      ]
    },
    "title": "Miraikei Idol",
    "titles": {
      "qro": "Miraikei Idol",
      "jpn": " 未来形アイドル"
    },
    "year": 1996,
    "titles_default_language": "qro"
  }
}