{
  "header": {
    "version": 4,
    "description": "Karaoke Mugen Karaoke Data File"
  },
  "medias": [
    {
      "version": "Default",
      "filename": "JPN - GReeeeN - MV - AIUEOngaku.mp4",
      "audiogain": -10.12,
      "loudnorm": "-6.69,1.33,7.30,-17.06,-0.68",
      "filesize": 24871370,
      "duration": 113,
      "default": true,
      "lyrics": [
        {
          "filename": "JPN - GReeeeN - MV - AIUEOngaku.ass",
          "default": true,
          "version": "Default"
        }
      ]
    }
  ],
  "data": {
    "created_at": "2017-10-11T17:00:53.000Z",
    "kid": "45b06253-b4d1-473f-b78e-a8e1572bc1f9",
    "modified_at": "2022-06-04T00:22:40.216Z",
    "parents": [
      "0e4d3cf0-2f21-4c3a-8c83-e10bbfadbfee"
    ],
    "repository": "kara.moe",
    "songorder": null,
    "tags": {
      "authors": [
        "8c22c899-b3ed-42da-a548-ce00f950798b"
      ],
      "creators": [
        "5c8473f1-e183-4330-8358-00b4077a292b"
      ],
      "families": [
        "5391f9fe-638c-415f-8dc9-958e3a2c5787"
      ],
      "groups": [
        "8c22c899-b3ed-42da-a548-ce00f950798b",
        "ae613721-1fbe-480d-ba6b-d6d0702b184d"
      ],
      "langs": [
        "4dcf9614-7914-42aa-99f4-dbce2e059133"
      ],
      "singers": [
        "89f3dd42-3cd1-4b1a-b805-55b61558b473"
      ],
      "songtypes": [
        "7be1b15c-cff8-4b37-a649-5c90f3d569a9"
      ],
      "songwriters": [
        "89f3dd42-3cd1-4b1a-b805-55b61558b473"
      ],
      "collections": [
        "dbcf2c22-524d-4708-99bb-601703633927"
      ]
    },
    "titles": {
      "qro": "AIUEOngaku♬",
      "jpn": "あいうえおんがく♬"
    },
    "titles_default_language": "qro",
    "title": "AIUEOngaku♬",
    "year": 2013
  }
}