{
  "header": {
    "version": 4,
    "description": "Karaoke Mugen Karaoke Data File"
  },
  "medias": [
    {
      "version": "Default",
      "filename": "JPN - Touhou - MV - Itaden Yamete! Bokura no Scarlet Call.mp4",
      "audiogain": -1.12,
      "loudnorm": "-17.05,-2.26,3.70,-27.11,-0.67",
      "filesize": 17078412,
      "duration": 162,
      "default": true,
      "lyrics": [
        {
          "filename": "JPN - Touhou - MV - Itaden Yamete! Bokura no Scarlet Call.ass",
          "default": true,
          "version": "Default"
        }
      ]
    }
  ],
  "data": {
    "created_at": "2022-07-16T19:41:45.230Z",
    "kid": "0fe96c16-f85f-4608-88d9-d30716497816",
    "modified_at": "2022-09-30T20:15:30.904Z",
    "repository": "kara.moe",
    "tags": {
      "series": [
        "1bdaa5a1-dfa6-4365-b746-7a0b194dafd6"
      ],
      "singers": [
        "34b6678e-ba18-4b48-985e-586ab6836b27",
        "466686df-c207-4979-9126-93d949edbd82",
        "5d048562-347d-4258-b50a-a7b3b41e92cb",
        "87dbdf6d-c97e-45de-afd3-fe280a22fd4d"
      ],
      "songtypes": [
        "7be1b15c-cff8-4b37-a649-5c90f3d569a9"
      ],
      "creators": [
        "25fc251a-0514-4bf5-a818-dd0547723f4a"
      ],
      "langs": [
        "4dcf9614-7914-42aa-99f4-dbce2e059133"
      ],
      "authors": [
        "a5dbab74-510b-48c5-9cea-5a537a81c974"
      ],
      "songwriters": [
        "26cb5252-8510-49e0-897c-a611a05fc056",
        "826126a7-31a4-4dbe-a072-112b731dc065"
      ],
      "groups": [
        "8c22c899-b3ed-42da-a548-ce00f950798b",
        "ae613721-1fbe-480d-ba6b-d6d0702b184d"
      ],
      "families": [
        "0377db02-3af6-43b8-9b08-c759df3d25c3"
      ],
      "collections": [
        "c7db86a0-ff64-4044-9be4-66dd1ef1d1c1"
      ],
      "franchises": [
        "1bdaa5a1-dfa6-4365-b746-7a0b194dafd6"
      ]
    },
    "titles": {
      "jpn": "イタ電はやめて！ ぼくらのスカーレット・コール ",
      "qro": "Itaden Yamete! Bokura no Scarlet Call"
    },
    "titles_default_language": "qro",
    "title": "Itaden Yamete! Bokura no Scarlet Call",
    "year": 2016
  }
}