{
  "header": {
    "version": 4,
    "description": "Karaoke Mugen Karaoke Data File"
  },
  "medias": [
    {
      "version": "Default",
      "filename": "JPN - Kakumeiki Valvrave 2nd Season - OP - Kakumei Dualism.mp4",
      "audiogain": 2.19,
      "loudnorm": "-19.24,-8.51,6.00,-29.27,-1.09",
      "filesize": 33078407,
      "duration": 92,
      "default": true,
      "lyrics": [
        {
          "filename": "JPN - Kakumeiki Valvrave 2nd Season - OP - Kakumei Dualism.ass",
          "default": true,
          "version": "Default",
          "subchecksum": "c9d7fa2fdf32fa7631da1cc30009bb94"
        }
      ]
    }
  ],
  "data": {
    "created_at": "2017-10-11T17:03:15.000Z",
    "kid": "d2152010-8900-4eb2-b172-7b4211726695",
    "modified_at": "2021-02-25T11:52:17.361Z",
    "repository": "kara.moe",
    "tags": {
      "authors": [
        "5bdaba57-27f8-4568-8806-76a807728766"
      ],
      "collections": [
        "c7db86a0-ff64-4044-9be4-66dd1ef1d1c1"
      ],
      "creators": [
        "ef8f80e1-d244-4aea-b7f0-984d6dd4b82b"
      ],
      "families": [
        "0377db02-3af6-43b8-9b08-c759df3d25c3"
      ],
      "genres": [
        "f60ba57d-5ef4-49e0-b93b-d0dcbcff6592"
      ],
      "groups": [
        "ae613721-1fbe-480d-ba6b-d6d0702b184d"
      ],
      "langs": [
        "4dcf9614-7914-42aa-99f4-dbce2e059133"
      ],
      "misc": [
        "1d6ceadf-a885-47e5-b23b-c07bf668a424"
      ],
      "origins": [
        "938de218-5343-4865-94d3-fb33f2eaa152"
      ],
      "series": [
        "f09fedcc-9bfd-4dc8-be59-ed0168b2fe14"
      ],
      "singers": [
        "43ccb9e9-fd05-40a3-8538-73d1959aed9f",
        "6d2045b2-80ab-45ff-a131-c4df02ef52d1"
      ],
      "songtypes": [
        "f02ad9b3-0bd9-4aad-85b3-9976739ba0e4"
      ],
      "songwriters": [
        "af3ffe51-8059-461c-bbb8-78ea388731f3",
        "dcede3be-ce90-405b-bfef-2a50ae6378af"
      ],
      "franchises": [
        "69be2fa0-8adf-46b4-a538-87fc77800ddc"
      ]
    },
    "title": "Kakumei Dualism",
    "titles": {
      "qro": "Kakumei Dualism",
      "jpn": "革命デュアリズム"
    },
    "year": 2013,
    "titles_default_language": "qro"
  }
}