{
  "header": {
    "version": 4,
    "description": "Karaoke Mugen Karaoke Data File"
  },
  "medias": [
    {
      "version": "Default",
      "filename": "JPN - Project SEKAI COLORFUL STAGE! - GAME MV - Kashika ~ Short Vers.mp4",
      "audiogain": -8.16,
      "loudnorm": "-8.53,0.81,3.90,-18.56,-1.74",
      "filesize": 44849014,
      "duration": 132,
      "default": true,
      "lyrics": [
        {
          "filename": "JPN - Project SEKAI COLORFUL STAGE! - GAME MV - Kashika ~ Short Vers.ass",
          "default": true,
          "version": "Default"
        }
      ]
    }
  ],
  "data": {
    "comment": "un autre request de pandaflyh, je te déteste",
    "created_at": "2022-12-21T02:24:56.097Z",
    "ignoreHooks": false,
    "kid": "52c67395-852a-4295-873d-7ef321ce3d64",
    "modified_at": "2022-12-26T21:08:30.588Z",
    "repository": "kara.moe",
    "tags": {
      "authors": [
        "a3a99b23-6c42-4d38-8863-491153187437"
      ],
      "collections": [
        "c7db86a0-ff64-4044-9be4-66dd1ef1d1c1"
      ],
      "creators": [
        "1e5648fb-22fc-474d-b865-254eb31fa000"
      ],
      "genres": [
        "45623cae-6d68-4304-a49b-896d1d6f4580"
      ],
      "groups": [
        "8e209ae4-4381-438f-89dc-1b21752027d2"
      ],
      "langs": [
        "4dcf9614-7914-42aa-99f4-dbce2e059133"
      ],
      "misc": [
        "1d6ceadf-a885-47e5-b23b-c07bf668a424"
      ],
      "platforms": [
        "213a1a15-e73a-4a08-b3f6-b6e2745a82e5"
      ],
      "series": [
        "192b33fb-638a-4680-bdb2-a5adb9889849"
      ],
      "singers": [
        "42e22ca1-af49-4588-90e3-671ab88f2258",
        "9a9da3af-c891-42ae-bd3e-f0696a361c04",
        "b1933ef2-f157-4a9e-92a6-bf5cee65c299",
        "c06de857-8928-41e9-b5db-d5af620d0f89",
        "e53db9de-5632-41d6-8911-afb2f27545b0"
      ],
      "singergroups": [
        "e1de7634-8683-4738-9dfb-a66121ec36c5"
      ],
      "songtypes": [
        "7be1b15c-cff8-4b37-a649-5c90f3d569a9"
      ],
      "songwriters": [
        "44ac7e9d-4d60-4952-8252-67b8fd319f0f"
      ],
      "versions": [
        "d125c80a-86c1-4321-88e9-07b7800679b6"
      ],
      "origins": [
        "dbedd6b3-d125-4cd8-aa32-c4175e4ca3a3"
      ]
    },
    "titles": {
      "jpn": "仮死化",
      "qro": "Kashika"
    },
    "titles_default_language": "qro",
    "titles_aliases": [
      "Suspended Animation"
    ],
    "year": 2022
  }
}