{
  "header": {
    "version": 4,
    "description": "Karaoke Mugen Karaoke Data File"
  },
  "medias": [
    {
      "version": "Default",
      "filename": "JPN - Project SEKAI COLORFUL STAGE! - GAME MV - Shoujorei ~ Cover Full Vers.mp4",
      "audiogain": -9.94,
      "loudnorm": "-7.24,2.03,7.40,-17.83,-0.98",
      "filesize": 57190299,
      "duration": 290,
      "default": true,
      "lyrics": [
        {
          "filename": "JPN - Project SEKAI COLORFUL STAGE! - GAME MV - Shoujorei ~ Cover Full Vers.ass",
          "default": true,
          "version": "Default"
        }
      ]
    }
  ],
  "data": {
    "created_at": "2022-11-24T18:53:54.101Z",
    "ignoreHooks": false,
    "kid": "545d7740-f293-4447-936f-682dcfbca616",
    "modified_at": "2022-12-26T21:57:13.053Z",
    "parents": [
      "1fa35fe1-c916-46f7-978e-7c8090acf96e"
    ],
    "repository": "kara.moe",
    "tags": {
      "authors": [
        "84157b43-8a7a-482c-95d3-516757353835"
      ],
      "collections": [
        "c7db86a0-ff64-4044-9be4-66dd1ef1d1c1"
      ],
      "creators": [
        "1e5648fb-22fc-474d-b865-254eb31fa000",
        "b0bf3b0d-8a14-4ec5-81e5-dc00b5a819b3",
        "da54fb1e-3f3c-4ef2-afb9-a48e5d75e008"
      ],
      "families": [
        "0377db02-3af6-43b8-9b08-c759df3d25c3"
      ],
      "genres": [
        "45623cae-6d68-4304-a49b-896d1d6f4580",
        "caa86df2-0d59-474b-885c-f240a9e891b0"
      ],
      "groups": [
        "8e209ae4-4381-438f-89dc-1b21752027d2"
      ],
      "langs": [
        "4dcf9614-7914-42aa-99f4-dbce2e059133"
      ],
      "misc": [
        "1d6ceadf-a885-47e5-b23b-c07bf668a424"
      ],
      "platforms": [
        "213a1a15-e73a-4a08-b3f6-b6e2745a82e5"
      ],
      "series": [
        "192b33fb-638a-4680-bdb2-a5adb9889849"
      ],
      "singers": [
        "0fee5b4a-4ee0-477c-9cfe-c6f9c1d1777f",
        "4407ba0e-5de7-4add-870f-7ac95a4804c9",
        "5cfc37b4-4af6-455c-8319-69761dcc4d7b"
      ],
      "singergroups": [
        "0a879283-62f0-4266-a835-73cbe7ef7c0b"
      ],
      "songtypes": [
        "7be1b15c-cff8-4b37-a649-5c90f3d569a9"
      ],
      "songwriters": [
        "7b3b2c24-f297-4c2a-82a5-bc9c9102567c"
      ],
      "versions": [
        "03e1e1d2-8641-47b7-bbcb-39a3df9ff21c",
        "c2143a7f-6970-450e-8a79-0302db9220a9"
      ],
      "origins": [
        "dbedd6b3-d125-4cd8-aa32-c4175e4ca3a3"
      ]
    },
    "titles": {
      "jpn": "少女レイ",
      "qro": "Shoujorei"
    },
    "titles_default_language": "qro",
    "titles_aliases": [
      "Shoujo Rei",
      "Ghost Girl",
      "Shojo Rei",
      "Shojorei"
    ],
    "year": 2022
  }
}