{
  "header": {
    "version": 4,
    "description": "Karaoke Mugen Karaoke Data File"
  },
  "medias": [
    {
      "version": "Default",
      "filename": "JPN - Bishoujo Senshi Sailor Moon Crystal Season III - ED1 - eternal eternity.mp4",
      "audiogain": -1.54,
      "loudnorm": "-16.07,-6.41,4.80,-26.21,-0.87",
      "filesize": 20836217,
      "duration": 90,
      "default": true,
      "lyrics": [
        {
          "filename": "JPN - Bishoujo Senshi Sailor Moon Crystal Season III - ED1 - eternal eternity.ass",
          "default": true,
          "version": "Default",
          "subchecksum": "19e42b99e0a4c55bef0127c0435f1bb7"
        }
      ]
    }
  ],
  "data": {
    "created_at": "2018-10-13T18:01:21.000Z",
    "kid": "1ff218a8-4edc-4e0d-abaa-fe4d7d9e4a48",
    "modified_at": "2021-02-25T10:52:29.648Z",
    "repository": "kara.moe",
    "songorder": 1,
    "tags": {
      "authors": [
        "b5116310-e69b-4ed4-9e47-c5c53ee69023"
      ],
      "collections": [
        "c7db86a0-ff64-4044-9be4-66dd1ef1d1c1"
      ],
      "creators": [
        "f694bf43-b427-4244-9744-9d3f84fd8a31"
      ],
      "families": [
        "0377db02-3af6-43b8-9b08-c759df3d25c3"
      ],
      "genres": [
        "b84e28f9-db1e-447f-b339-7954c3592523"
      ],
      "groups": [
        "ae613721-1fbe-480d-ba6b-d6d0702b184d"
      ],
      "langs": [
        "4dcf9614-7914-42aa-99f4-dbce2e059133"
      ],
      "misc": [
        "1d6ceadf-a885-47e5-b23b-c07bf668a424"
      ],
      "origins": [
        "938de218-5343-4865-94d3-fb33f2eaa152"
      ],
      "series": [
        "e7d223df-6cdb-4cdd-8260-f4d0a8a53fde"
      ],
      "singers": [
        "080dd908-77c2-4f9e-b77c-1f79643bf255",
        "499ec532-c796-46bd-88c9-8655fff1a748"
      ],
      "songtypes": [
        "38c77c56-2b95-4040-b676-0994a8cb0597"
      ],
      "songwriters": [
        "2d5d6566-491e-46fb-b2ee-74a7308d21e9",
        "81d493c9-3353-40d4-b94d-7fa42d3b4229"
      ],
      "franchises": [
        "c854f2ad-cc94-45b5-b7ba-993eeb9b2d31"
      ]
    },
    "title": "eternal eternity",
    "titles": {
      "eng": "eternal eternity"
    },
    "year": 2016,
    "titles_default_language": "eng"
  }
}