{
  "header": {
    "version": 4,
    "description": "Karaoke Mugen Karaoke Data File"
  },
  "medias": [
    {
      "version": "Default",
      "filename": "JPN - Senki Zesshou Symphogear GX Senki Zesshou Shinai Symphogear - LIVE - Itsuka no Niji, Hana no Omoide ~ Full Vers.mp4",
      "audiogain": -3.74,
      "loudnorm": "-17.11,-3.66,6.40,-27.16,-0.57",
      "filesize": 61239570,
      "duration": 202,
      "default": true,
      "lyrics": [
        {
          "filename": "JPN - Senki Zesshou Symphogear GX Senki Zesshou Shinai Symphogear - LIVE - Itsuka no Niji, Hana no Omoide ~ Full Vers.ass",
          "default": true,
          "version": "Default"
        }
      ]
    }
  ],
  "data": {
    "created_at": "2022-06-08T21:36:45.803Z",
    "ignoreHooks": false,
    "kid": "06bea877-12c3-43dd-ac8d-eb67061f0512",
    "modified_at": "2022-12-28T00:36:49.610Z",
    "parents": [
      "b9c98741-f730-4cf3-86c0-ebb3d9003ddc"
    ],
    "repository": "kara.moe",
    "tags": {
      "authors": [
        "a5dbab74-510b-48c5-9cea-5a537a81c974"
      ],
      "collections": [
        "dbcf2c22-524d-4708-99bb-601703633927"
      ],
      "creators": [
        "d2a29c19-019f-4a3d-86ad-2dae9e41a4b1"
      ],
      "families": [
        "5391f9fe-638c-415f-8dc9-958e3a2c5787"
      ],
      "groups": [
        "8c22c899-b3ed-42da-a548-ce00f950798b",
        "ae613721-1fbe-480d-ba6b-d6d0702b184d"
      ],
      "langs": [
        "4dcf9614-7914-42aa-99f4-dbce2e059133"
      ],
      "series": [
        "67e8de8a-7463-4743-a8eb-6475906732e9"
      ],
      "singers": [
        "0abac712-6493-4c55-856b-e88f2687e34b",
        "d638c586-47e1-44e4-9976-ad1e47c75c5a"
      ],
      "songtypes": [
        "a0167949-580c-4de3-bf13-497e462e02f3"
      ],
      "songwriters": [
        "24926282-3ed9-47bd-867c-404398fbecf9",
        "af3ffe51-8059-461c-bbb8-78ea388731f3"
      ],
      "versions": [
        "c2143a7f-6970-450e-8a79-0302db9220a9"
      ],
      "franchises": [
        "61b24082-a6a9-482b-b126-0ad7be595791"
      ]
    },
    "titles": {
      "jpn": "いつかの虹、花の想い出",
      "qro": "Itsuka no Niji, Hana no Omoide"
    },
    "titles_default_language": "qro",
    "year": 2016
  }
}