{
  "header": {
    "version": 4,
    "description": "Karaoke Mugen Karaoke Data File"
  },
  "medias": [
    {
      "version": "Default",
      "filename": "JPN - IDOLiSH7 - GAME MV - MEMORiES MELODiES.mp4",
      "audiogain": -6.05,
      "loudnorm": "-10.92,-1.98,3.90,-20.98,-0.96",
      "filesize": 55941035,
      "duration": 306,
      "default": true,
      "lyrics": [
        {
          "filename": "JPN - IDOLiSH7 - GAME MV - MEMORiES MELODiES.ass",
          "default": true,
          "version": "Default",
          "subchecksum": "9e3c1dc904382a2b115a7a4be87de01c"
        }
      ]
    }
  ],
  "data": {
    "created_at": "2019-11-06T15:54:09.000Z",
    "kid": "dfd19587-60d4-45f3-805c-d526c8f95132",
    "modified_at": "2021-02-25T11:46:04.556Z",
    "repository": "kara.moe",
    "tags": {
      "authors": [
        "2a9bbf75-0722-4b4a-9935-caa92f38fdd1"
      ],
      "collections": [
        "c7db86a0-ff64-4044-9be4-66dd1ef1d1c1"
      ],
      "creators": [
        "57ffcdd9-7e4f-4971-85ce-0fb3aa8151ac",
        "c3e622d4-2686-4331-8691-d528c8647088"
      ],
      "genres": [
        "caa86df2-0d59-474b-885c-f240a9e891b0"
      ],
      "groups": [
        "ae613721-1fbe-480d-ba6b-d6d0702b184d"
      ],
      "langs": [
        "4dcf9614-7914-42aa-99f4-dbce2e059133"
      ],
      "misc": [
        "86705d4b-24e4-4756-9687-2b9c98bcf366"
      ],
      "platforms": [
        "213a1a15-e73a-4a08-b3f6-b6e2745a82e5"
      ],
      "series": [
        "f10b60e8-7eb3-483e-be70-e31721a08c61"
      ],
      "singers": [
        "01c71ea7-b3d5-4ab2-927e-9f56fb3327fd",
        "5ae9fd1c-1617-4eff-ae3e-62502d2a7b8d",
        "7b2309a3-647f-4e4e-9c18-354e4f479a54",
        "84ea5b30-9fa7-44da-8255-eceb84caa6de",
        "875ba926-cb94-4b7e-942a-051122feb923",
        "b43af946-5787-4527-9c8f-5a3a3e5137f1",
        "ddec1c8c-094d-491d-9362-18767e3fe59b",
        "de21a500-3812-45af-aec7-356a7d76d2c5"
      ],
      "songtypes": [
        "7be1b15c-cff8-4b37-a649-5c90f3d569a9"
      ],
      "songwriters": [
        "da3cae77-dbb4-48b8-83c3-77da763a9148",
        "ea1c607b-5c00-40a0-91c6-5b01b881b566"
      ],
      "origins": [
        "dbedd6b3-d125-4cd8-aa32-c4175e4ca3a3"
      ]
    },
    "title": "MEMORiES MELODiES",
    "titles": {
      "eng": "MEMORiES MELODiES"
    },
    "year": 2015,
    "titles_default_language": "eng"
  }
}