{
  "header": {
    "version": 4,
    "description": "Karaoke Mugen Karaoke Data File"
  },
  "medias": [
    {
      "version": "Default",
      "filename": "JPN - Touhou - AUDIO - Akashi no Portal.mp3",
      "audiogain": -11.61,
      "loudnorm": "-5.29,0.22,2.90,-15.33,-0.25",
      "filesize": 9018398,
      "duration": 202,
      "default": true,
      "lyrics": [
        {
          "filename": "JPN - Touhou - AUDIO - Akashi no Portal.ass",
          "default": true,
          "version": "Default"
        }
      ]
    }
  ],
  "data": {
    "comment": "Merci Atsuyas pour le romaji! PS: C'est chou avec l'image de fond on dirait que Okina lit les paroles.",
    "created_at": "2022-01-26T13:58:34.242Z",
    "kid": "6f7db5ef-0fa2-4a66-9d36-2ad5e36087eb",
    "modified_at": "2022-09-19T07:46:19.585Z",
    "repository": "kara.moe",
    "tags": {
      "series": [
        "1bdaa5a1-dfa6-4365-b746-7a0b194dafd6"
      ],
      "singers": [
        "4cb575ae-a999-4234-9417-31580bcfab94"
      ],
      "songtypes": [
        "42a262ae-acba-4ab5-a446-c5789c96c821"
      ],
      "creators": [
        "ad4c9a45-6385-48ff-9468-1a056c486239"
      ],
      "langs": [
        "4dcf9614-7914-42aa-99f4-dbce2e059133"
      ],
      "authors": [
        "fb28c6d3-a81e-40c0-9a4c-e3268c60a64b"
      ],
      "songwriters": [
        "26cb5252-8510-49e0-897c-a611a05fc056",
        "ad4c9a45-6385-48ff-9468-1a056c486239"
      ],
      "groups": [
        "ae613721-1fbe-480d-ba6b-d6d0702b184d"
      ],
      "origins": [
        "ac5085db-52d8-44b4-8fbb-1697b24d2046"
      ],
      "collections": [
        "c7db86a0-ff64-4044-9be4-66dd1ef1d1c1"
      ],
      "franchises": [
        "1bdaa5a1-dfa6-4365-b746-7a0b194dafd6"
      ]
    },
    "titles": {
      "qro": "Akashi no Portal",
      "jpn": "証のPortal"
    },
    "titles_default_language": "qro",
    "title": "Akashi no Portal",
    "year": 2018
  }
}