{
  "header": {
    "version": 4,
    "description": "Karaoke Mugen Karaoke Data File"
  },
  "medias": [
    {
      "version": "Kana.",
      "filename": "JPN - Ao no Kanata no Four Rhythm - GAME AUDIO ED - Sense of Life ~ Kana Vers. ~ Kana Off Vocal Vers.mp3",
      "audiogain": -3.66,
      "loudnorm": "-14.24,0.34,7.20,-24.32,-0.48",
      "filesize": 11398851,
      "duration": 277,
      "default": true,
      "lyrics": [
        {
          "filename": "JPN - Ao no Kanata no Four Rhythm - GAME AUDIO ED - Sense of Life ~ Kana Vers. ~ Kana Off Vocal Vers.ass",
          "default": true,
          "version": "Default"
        }
      ]
    }
  ],
  "data": {
    "created_at": "2023-04-15T22:37:46.984Z",
    "ignoreHooks": false,
    "kid": "f8ccc942-98c0-47fc-a6fa-551cf6fef402",
    "modified_at": "2023-04-16T01:31:12.783Z",
    "parents": [
      "c044d9b1-c8c8-4b11-82ec-c43ee6a503b6"
    ],
    "repository": "kara.moe",
    "tags": {
      "authors": [
        "7848b5dc-a5df-4577-b640-147be5288cec"
      ],
      "collections": [
        "f2462778-f986-4844-a4b8-e1d3ccdb861b"
      ],
      "creators": [
        "28961b66-ec49-4a5c-943a-92f73c00f15b"
      ],
      "groups": [
        "ae613721-1fbe-480d-ba6b-d6d0702b184d"
      ],
      "langs": [
        "4dcf9614-7914-42aa-99f4-dbce2e059133"
      ],
      "origins": [
        "2f96e82c-c61b-4413-817e-e6b247509b95",
        "dbedd6b3-d125-4cd8-aa32-c4175e4ca3a3"
      ],
      "series": [
        "056a9c8e-70b4-40d8-ae22-62676bdb9624"
      ],
      "singers": [
        "913913d1-aa6b-402a-b22a-1edf7cde136b"
      ],
      "songtypes": [
        "38c77c56-2b95-4040-b676-0994a8cb0597",
        "42a262ae-acba-4ab5-a446-c5789c96c821"
      ],
      "songwriters": [
        "30e4f047-50d7-4ed7-8ed3-57cef0f20489",
        "4cc2a8d4-2898-419a-8959-9b4fe89c89e0"
      ],
      "versions": [
        "12d21e9c-3427-4677-a5bd-1301a0f7358a",
        "c0cc87b9-55b9-40f0-878a-fbb9e34c151e",
        "c2143a7f-6970-450e-8a79-0302db9220a9"
      ]
    },
    "titles": {
      "eng": "Sense of Life ~ Kana Vers."
    },
    "titles_default_language": "eng",
    "year": 2014
  }
}