{
  "header": {
    "version": 4,
    "description": "Karaoke Mugen Karaoke Data File"
  },
  "medias": [
    {
      "version": "Default",
      "filename": "JPN - Chogakusei - MV - Mahou shoujo to chocolate ~ Cover Vers.mp4",
      "audiogain": -8.24,
      "loudnorm": "-8.56,2.32,3.00,-18.70,-0.54",
      "filesize": 76875209,
      "duration": 197,
      "default": true,
      "lyrics": [
        {
          "filename": "JPN - Chogakusei - MV - Mahou shoujo to chocolate ~ Cover Vers.ass",
          "default": true,
          "version": "Default"
        }
      ]
    }
  ],
  "data": {
    "created_at": "2022-12-27T21:31:40.495Z",
    "ignoreHooks": false,
    "kid": "6d227928-ea84-4b1a-935d-211d28c2e939",
    "modified_at": "2022-12-27T21:31:40.683Z",
    "parents": [
      "61b8d155-3514-48ee-a8c7-ea78541957e4"
    ],
    "repository": "kara.moe",
    "tags": {
      "authors": [
        "84157b43-8a7a-482c-95d3-516757353835"
      ],
      "collections": [
        "c7db86a0-ff64-4044-9be4-66dd1ef1d1c1"
      ],
      "families": [
        "0377db02-3af6-43b8-9b08-c759df3d25c3",
        "5391f9fe-638c-415f-8dc9-958e3a2c5787"
      ],
      "genres": [
        "45623cae-6d68-4304-a49b-896d1d6f4580"
      ],
      "groups": [
        "8e209ae4-4381-438f-89dc-1b21752027d2"
      ],
      "langs": [
        "4dcf9614-7914-42aa-99f4-dbce2e059133"
      ],
      "singers": [
        "0320ebd0-877c-4777-ac7e-8b6acfdb1f03"
      ],
      "songtypes": [
        "7be1b15c-cff8-4b37-a649-5c90f3d569a9"
      ],
      "songwriters": [
        "1fbbae0a-e960-4869-aae1-512a064e94ca"
      ],
      "versions": [
        "03e1e1d2-8641-47b7-bbcb-39a3df9ff21c"
      ]
    },
    "titles": {
      "eng": "Magical girl and chocolate",
      "jpn": "魔法少女とチョコレゐト",
      "qro": "Mahou shoujo to chocolate"
    },
    "titles_default_language": "qro",
    "year": 2022
  }
}