{
  "header": {
    "version": 4,
    "description": "Karaoke Mugen Karaoke Data File"
  },
  "medias": [
    {
      "version": "Default",
      "filename": "JPN - Bleach - LIVE - HARUKAZE ~ Full Vers.mp4",
      "audiogain": 0.04,
      "loudnorm": "-16.79,-5.48,2.20,-26.89,-0.14",
      "filesize": 93903699,
      "duration": 278,
      "default": true,
      "lyrics": [
        {
          "filename": "JPN - Bleach - LIVE - HARUKAZE ~ Full Vers.ass",
          "default": true,
          "version": "Default"
        }
      ]
    }
  ],
  "data": {
    "created_at": "2020-03-26T10:55:10.307Z",
    "ignoreHooks": false,
    "kid": "c24592cb-5b65-4201-9f57-b1e6cf53843d",
    "modified_at": "2022-12-22T16:08:56.325Z",
    "parents": [
      "00ba6470-d256-42cf-81d5-5b6971d4b044"
    ],
    "repository": "kara.moe",
    "tags": {
      "authors": [
        "05c1e4ad-32ba-490e-8f3c-5cd491c96d85"
      ],
      "collections": [
        "dbcf2c22-524d-4708-99bb-601703633927"
      ],
      "families": [
        "5391f9fe-638c-415f-8dc9-958e3a2c5787"
      ],
      "groups": [
        "ae613721-1fbe-480d-ba6b-d6d0702b184d"
      ],
      "langs": [
        "4dcf9614-7914-42aa-99f4-dbce2e059133"
      ],
      "series": [
        "d68e6557-fdc3-4c8b-805c-9778918abd03"
      ],
      "singers": [
        "581aad8c-8d51-44af-8b8c-4b1a507484eb"
      ],
      "songtypes": [
        "a0167949-580c-4de3-bf13-497e462e02f3"
      ],
      "songwriters": [
        "bdd97cd9-f190-4e4c-a0f1-91e16f119273"
      ],
      "versions": [
        "c2143a7f-6970-450e-8a79-0302db9220a9"
      ],
      "franchises": [
        "d68e6557-fdc3-4c8b-805c-9778918abd03"
      ]
    },
    "titles": {
      "qro": "HARUKAZE"
    },
    "titles_default_language": "qro",
    "year": 2013
  }
}