{
  "header": {
    "version": 4,
    "description": "Karaoke Mugen Karaoke Data File"
  },
  "medias": [
    {
      "version": "Default",
      "filename": "JPN - IU - MV - You & I.mp4",
      "audiogain": 3.92,
      "loudnorm": "-21.18,-2.67,14.00,-32.22,-0.96",
      "filesize": 64727763,
      "duration": 323,
      "default": true,
      "lyrics": [
        {
          "filename": "JPN - IU - MV - You & I.ass",
          "default": true,
          "version": "Default"
        }
      ]
    }
  ],
  "data": {
    "created_at": "2019-09-28T20:18:17.000Z",
    "kid": "b5428e47-9cb0-4bd5-ba5c-58561b6bf50d",
    "modified_at": "2022-06-04T00:15:26.485Z",
    "repository": "kara.moe",
    "songorder": null,
    "tags": {
      "authors": [
        "6dff9198-29f1-470b-bac6-8a60032ca8b8"
      ],
      "creators": [
        "76505349-8ced-40ad-936d-c5bd3e92b1f7"
      ],
      "families": [
        "5391f9fe-638c-415f-8dc9-958e3a2c5787"
      ],
      "groups": [
        "2b4e9972-5e17-481b-99f5-d0787c0ada56",
        "ae613721-1fbe-480d-ba6b-d6d0702b184d"
      ],
      "langs": [
        "4dcf9614-7914-42aa-99f4-dbce2e059133"
      ],
      "misc": [
        "86705d4b-24e4-4756-9687-2b9c98bcf366"
      ],
      "singers": [
        "c44addd8-d391-48b7-880a-ad53a4f043c9"
      ],
      "songtypes": [
        "7be1b15c-cff8-4b37-a649-5c90f3d569a9"
      ],
      "songwriters": [
        "8c4da7d4-d844-4138-a84c-6d3c31a19214",
        "9d7f1e85-9dfb-4431-a9b7-42eddf68d8e2"
      ],
      "collections": [
        "dbcf2c22-524d-4708-99bb-601703633927"
      ]
    },
    "titles": {
      "eng": "You & I"
    },
    "titles_default_language": "eng",
    "title": "You & I",
    "year": 2012
  }
}