{
  "header": {
    "version": 4,
    "description": "Karaoke Mugen Karaoke Data File"
  },
  "medias": [
    {
      "version": "Default",
      "filename": "JPN - Lupin III Part IV - ED - Chanto Iwanakya Aisanai.mp4",
      "audiogain": 5.25,
      "loudnorm": "-24.16,-10.57,7.00,-34.27,-1.46",
      "filesize": 26730812,
      "duration": 71,
      "default": true,
      "lyrics": [
        {
          "filename": "JPN - Lupin III Part IV - ED - Chanto Iwanakya Aisanai.ass",
          "default": true,
          "version": "Default",
          "subchecksum": "d6c9e1d2ddd118acc67143a1c9e77532"
        }
      ]
    }
  ],
  "data": {
    "created_at": "2018-04-17T10:18:15.000Z",
    "kid": "4cf95aa4-3553-4c41-b046-56de5828c579",
    "modified_at": "2021-02-25T12:15:31.666Z",
    "repository": "kara.moe",
    "tags": {
      "authors": [
        "79e0aa7d-da9a-4e9a-aa2b-64056a83b49b"
      ],
      "collections": [
        "c7db86a0-ff64-4044-9be4-66dd1ef1d1c1"
      ],
      "creators": [
        "e7fd2965-b154-4d71-9a4e-d6af1ec7243f"
      ],
      "families": [
        "0377db02-3af6-43b8-9b08-c759df3d25c3"
      ],
      "groups": [
        "ae613721-1fbe-480d-ba6b-d6d0702b184d",
        "f53332f8-daed-4ac5-97c9-64239b520db0"
      ],
      "langs": [
        "4dcf9614-7914-42aa-99f4-dbce2e059133"
      ],
      "origins": [
        "938de218-5343-4865-94d3-fb33f2eaa152"
      ],
      "series": [
        "423c1563-23be-4a6c-bd4a-13f088197b68"
      ],
      "singers": [
        "66dbeeb8-30f1-4d3d-8f6c-5c6d2783a416"
      ],
      "songtypes": [
        "38c77c56-2b95-4040-b676-0994a8cb0597"
      ],
      "songwriters": [
        "5938e181-5402-43ea-a5a0-a4ca2405705d",
        "bd94fe6d-88db-4aa5-8234-2a56e517c7b6"
      ],
      "franchises": [
        "561e6fe6-d886-4eec-881d-fdc9d1504942"
      ]
    },
    "title": "Chanto Iwanakya Aisanai",
    "titles": {
      "qro": "Chanto Iwanakya Aisanai",
      "jpn": "ちゃんと言わなきゃ愛さない"
    },
    "year": 2015,
    "titles_default_language": "qro"
  }
}