{
  "header": {
    "version": 4,
    "description": "Karaoke Mugen Karaoke Data File"
  },
  "medias": [
    {
      "version": "Default",
      "filename": "JPN - Ueki no Housoku - MV - Falco ~ Full Vers.mp4",
      "audiogain": -3.97,
      "loudnorm": "-13.16,-2.07,3.10,-23.26,-0.66",
      "filesize": 26142905,
      "duration": 218,
      "default": true,
      "lyrics": [
        {
          "filename": "JPN - Ueki no Housoku - MV - Falco ~ Full Vers.ass",
          "default": true,
          "version": "Default"
        }
      ]
    }
  ],
  "data": {
    "created_at": "2020-04-30T17:42:12.511Z",
    "kid": "2d7d2c90-8a38-455f-9bb4-882d026aa341",
    "modified_at": "2022-06-04T00:21:48.966Z",
    "parents": [
      "a89b324d-5fad-46a6-9517-2a22830c3ea2"
    ],
    "repository": "kara.moe",
    "songorder": null,
    "tags": {
      "authors": [
        "60defa7b-774e-4680-8321-51b742c2e009"
      ],
      "creators": [
        "90caf15e-bc86-46e1-8793-9af7906c8310"
      ],
      "families": [
        "5391f9fe-638c-415f-8dc9-958e3a2c5787"
      ],
      "groups": [
        "3c14c864-533c-49e6-a3cc-6969f1233775",
        "60defa7b-774e-4680-8321-51b742c2e009"
      ],
      "langs": [
        "4dcf9614-7914-42aa-99f4-dbce2e059133"
      ],
      "series": [
        "0a93c707-af8c-4d53-830e-dac40519cadc"
      ],
      "singers": [
        "fbeecba5-3f2b-4c14-b6d3-60d2add2c1d5"
      ],
      "songtypes": [
        "7be1b15c-cff8-4b37-a649-5c90f3d569a9"
      ],
      "songwriters": [
        "35cfbd28-2928-4003-8e29-7d50dfc2d9cc",
        "dc26c201-943f-46f0-8195-19d80b3761dc"
      ],
      "versions": [
        "c2143a7f-6970-450e-8a79-0302db9220a9"
      ],
      "collections": [
        "dbcf2c22-524d-4708-99bb-601703633927"
      ]
    },
    "titles": {
      "eng": "Falco",
      "jpn": "Falco-ファルコ-"
    },
    "titles_default_language": "eng",
    "title": "Falco",
    "year": 2005
  }
}