{
  "header": {
    "version": 4,
    "description": "Karaoke Mugen Karaoke Data File"
  },
  "medias": [
    {
      "version": "Default",
      "filename": "JPN - Towa Tokoyami - MV - Hyakkisai ~ Cover Vers.mp4",
      "audiogain": -6.77,
      "loudnorm": "-10.41,1.17,4.00,-20.59,-0.14",
      "filesize": 71231321,
      "duration": 193,
      "default": true,
      "lyrics": [
        {
          "filename": "JPN - Towa Tokoyami - MV - Hyakkisai ~ Cover Vers.ass",
          "default": true,
          "version": "Default"
        }
      ]
    }
  ],
  "data": {
    "created_at": "2021-06-04T18:36:15.802Z",
    "ignoreHooks": false,
    "kid": "72570d38-3534-4807-8c92-afad6e4e923f",
    "modified_at": "2022-11-17T09:48:24.817Z",
    "repository": "kara.moe",
    "tags": {
      "authors": [
        "84157b43-8a7a-482c-95d3-516757353835"
      ],
      "collections": [
        "c7db86a0-ff64-4044-9be4-66dd1ef1d1c1"
      ],
      "creators": [
        "0263d413-17bb-4cee-a311-6dd896eda1c9"
      ],
      "families": [
        "0377db02-3af6-43b8-9b08-c759df3d25c3"
      ],
      "groups": [
        "8e209ae4-4381-438f-89dc-1b21752027d2"
      ],
      "langs": [
        "4dcf9614-7914-42aa-99f4-dbce2e059133"
      ],
      "origins": [
        "5106d71b-a78e-4d19-a16d-f8fb6719538a"
      ],
      "singers": [
        "aadbb281-47ef-4be9-bd1d-52af89e6ae00"
      ],
      "songtypes": [
        "7be1b15c-cff8-4b37-a649-5c90f3d569a9"
      ],
      "songwriters": [
        "13b026cd-6c17-4bd1-93ab-f49335c91799"
      ],
      "versions": [
        "03e1e1d2-8641-47b7-bbcb-39a3df9ff21c"
      ]
    },
    "titles": {
      "jpn": "百鬼祭",
      "qro": "Hyakkisai"
    },
    "titles_default_language": "qro",
    "year": 2020
  }
}