{
  "header": {
    "version": 4,
    "description": "Karaoke Mugen Karaoke Data File"
  },
  "medias": [
    {
      "version": "Default",
      "filename": "JPN - Meitantei Conan - OP1 - Mune ga Dokidoki.mp4",
      "audiogain": -0.03,
      "loudnorm": "-18.43,-5.80,2.30,-28.54,-0.40",
      "filesize": 59014369,
      "duration": 105,
      "default": true,
      "lyrics": [
        {
          "filename": "JPN - Meitantei Conan - OP1 - Mune ga Dokidoki.ass",
          "default": true,
          "version": "Default"
        }
      ]
    }
  ],
  "data": {
    "created_at": "2017-10-11T17:01:26.000Z",
    "ignoreHooks": false,
    "kid": "1029b2b0-83c6-4573-a336-9d0f985e37a3",
    "modified_at": "2023-02-13T18:32:03.673Z",
    "repository": "kara.moe",
    "songorder": 1,
    "tags": {
      "authors": [
        "1df04771-a378-4f14-a5e1-1455187d681a"
      ],
      "collections": [
        "c7db86a0-ff64-4044-9be4-66dd1ef1d1c1"
      ],
      "creators": [
        "53e900ec-a1ff-4c95-8b2d-a63995c2936f"
      ],
      "families": [
        "0377db02-3af6-43b8-9b08-c759df3d25c3"
      ],
      "genres": [
        "a0aeef4a-6428-45ff-a6e1-468b595930c2"
      ],
      "groups": [
        "24db50aa-a126-4d34-a48a-e45db79c4245"
      ],
      "langs": [
        "4dcf9614-7914-42aa-99f4-dbce2e059133"
      ],
      "origins": [
        "938de218-5343-4865-94d3-fb33f2eaa152"
      ],
      "series": [
        "cfea16f2-e07f-4a2c-93e2-5de6cf659d69"
      ],
      "singers": [
        "3ff573d0-b1b6-4d38-a569-f89c82e44e87"
      ],
      "songtypes": [
        "f02ad9b3-0bd9-4aad-85b3-9976739ba0e4"
      ],
      "songwriters": [
        "219fdd2a-0e88-4fa9-b838-3ee60a3cdc53",
        "3ff573d0-b1b6-4d38-a569-f89c82e44e87",
        "fb3dcfa1-7812-4bfa-893c-4903d6e91894"
      ],
      "franchises": [
        "cfea16f2-e07f-4a2c-93e2-5de6cf659d69"
      ]
    },
    "titles": {
      "jpn": "胸がドキドキ",
      "qro": "Mune ga Dokidoki"
    },
    "titles_default_language": "qro",
    "year": 1996
  }
}