{
  "header": {
    "version": 4,
    "description": "Karaoke Mugen Karaoke Data File"
  },
  "medias": [
    {
      "version": "Default",
      "filename": "JPN - ASIAN KUNG-FU GENERATION - MV - Mirai no Kakera.mp4",
      "audiogain": -8.89,
      "loudnorm": "-8.33,-0.82,2.10,-18.34,-0.07",
      "filesize": 69731756,
      "duration": 285,
      "default": true,
      "lyrics": [
        {
          "filename": "JPN - ASIAN KUNG-FU GENERATION - MV - Mirai no Kakera.ass",
          "default": true,
          "version": "Default"
        }
      ]
    }
  ],
  "data": {
    "created_at": "2020-05-10T22:30:51.686Z",
    "kid": "92bea886-6223-4b02-ab9a-f418e060d584",
    "modified_at": "2022-06-04T00:18:20.267Z",
    "repository": "kara.moe",
    "songorder": null,
    "tags": {
      "authors": [
        "1c9f3b53-973d-419e-9e29-9067c9896139"
      ],
      "creators": [
        "6df34030-d5ec-4480-a1c2-20103a7c0b63"
      ],
      "families": [
        "5391f9fe-638c-415f-8dc9-958e3a2c5787"
      ],
      "groups": [
        "3c14c864-533c-49e6-a3cc-6969f1233775",
        "60defa7b-774e-4680-8321-51b742c2e009"
      ],
      "langs": [
        "4dcf9614-7914-42aa-99f4-dbce2e059133"
      ],
      "singers": [
        "6d7243f4-797e-40a2-980d-1fc467d456d8"
      ],
      "songtypes": [
        "7be1b15c-cff8-4b37-a649-5c90f3d569a9"
      ],
      "songwriters": [
        "8bede077-b96f-415c-8057-552e236fe01a"
      ],
      "collections": [
        "dbcf2c22-524d-4708-99bb-601703633927"
      ]
    },
    "titles": {
      "qro": "Mirai no Kakera",
      "jpn": "未来の破片"
    },
    "titles_default_language": "qro",
    "title": "Mirai no Kakera",
    "year": 2003
  }
}