{
  "header": {
    "description": "Karaoke Mugen Karaoke Data File",
    "version": 4
  },
  "medias": [
    {
      "version": "Default",
      "filename": "JPN - Touhou - REMIX MV - Ooeyama Giant Swing.mp4",
      "audiogain": 1.12,
      "loudnorm": "-18.69,-8.99,2.30,-28.80,-0.18",
      "filesize": 49932517,
      "duration": 112,
      "default": true,
      "lyrics": [
        {
          "filename": "JPN - Touhou - REMIX MV - Ooeyama Giant Swing.ass",
          "default": true,
          "version": "Default"
        }
      ]
    }
  ],
  "data": {
    "created_at": "2022-10-15T13:13:27.857Z",
    "kid": "3fbe84a1-d3a9-4677-945d-07c67bd6f95c",
    "modified_at": "2022-10-15T13:13:27.857Z",
    "tags": {
      "authors": [
        "1fbfef73-6731-40df-ba51-65a54b9d1605"
      ],
      "collections": [
        "c7db86a0-ff64-4044-9be4-66dd1ef1d1c1"
      ],
      "creators": [
        "25fc251a-0514-4bf5-a818-dd0547723f4a"
      ],
      "families": [
        "0377db02-3af6-43b8-9b08-c759df3d25c3"
      ],
      "groups": [
        "3c14c864-533c-49e6-a3cc-6969f1233775"
      ],
      "langs": [
        "4dcf9614-7914-42aa-99f4-dbce2e059133"
      ],
      "misc": [
        "1d6ceadf-a885-47e5-b23b-c07bf668a424",
        "ec4360fa-3e3c-4f6f-b0e1-fb8b12b6dd18"
      ],
      "origins": [
        "ac5085db-52d8-44b4-8fbb-1697b24d2046"
      ],
      "series": [
        "1bdaa5a1-dfa6-4365-b746-7a0b194dafd6"
      ],
      "singers": [
        "98cd2e0e-44fb-4feb-aada-1b418e94af37",
        "5e9a5d91-ea80-4515-acdf-43f023a54467"
      ],
      "songtypes": [
        "7be1b15c-cff8-4b37-a649-5c90f3d569a9"
      ],
      "songwriters": [
        "feceb592-efac-4eda-9b03-c27cf509004c",
        "826126a7-31a4-4dbe-a072-112b731dc065",
        "26cb5252-8510-49e0-897c-a611a05fc056"
      ],
      "franchises": [
        "1bdaa5a1-dfa6-4365-b746-7a0b194dafd6"
      ]
    },
    "titles": {
      "jpn": "大江山ジャイアントスイング",
      "qro": "Ooeyama Giant Swing"
    },
    "titles_default_language": "qro",
    "titles_aliases": [],
    "title": "Ooeyama Giant Swing",
    "year": "2009",
    "repository": "kara.moe"
  }
}