{
  "header": {
    "version": 4,
    "description": "Karaoke Mugen Karaoke Data File"
  },
  "medias": [
    {
      "version": "Default",
      "filename": "JPN - BUMP OF CHICKEN, Miku Hatsune - MV - ray.mp4",
      "audiogain": -6.62,
      "loudnorm": "-10.66,-0.16,7.70,-20.91,-0.73",
      "filesize": 28395127,
      "duration": 317,
      "default": true,
      "lyrics": [
        {
          "filename": "JPN - BUMP OF CHICKEN, Miku Hatsune - MV - ray.ass",
          "default": true,
          "version": "Default"
        }
      ]
    }
  ],
  "data": {
    "created_at": "2021-05-21T22:18:57.294Z",
    "ignoreHooks": false,
    "kid": "7c21e218-5eb9-4308-a27a-7bc557d11315",
    "modified_at": "2022-09-09T22:06:23.099Z",
    "repository": "kara.moe",
    "tags": {
      "authors": [
        "4d71ce82-eed1-4c44-ac85-5f7255f3dad3"
      ],
      "collections": [
        "c7db86a0-ff64-4044-9be4-66dd1ef1d1c1"
      ],
      "creators": [
        "6697d31b-7f60-4d11-b237-8eb72740fd8a"
      ],
      "families": [
        "5391f9fe-638c-415f-8dc9-958e3a2c5787"
      ],
      "genres": [
        "45623cae-6d68-4304-a49b-896d1d6f4580"
      ],
      "groups": [
        "ae613721-1fbe-480d-ba6b-d6d0702b184d"
      ],
      "langs": [
        "4dcf9614-7914-42aa-99f4-dbce2e059133"
      ],
      "misc": [
        "86705d4b-24e4-4756-9687-2b9c98bcf366"
      ],
      "singers": [
        "4407ba0e-5de7-4add-870f-7ac95a4804c9",
        "a027724c-6136-4dc1-b585-7ae8f780c8d2"
      ],
      "songtypes": [
        "7be1b15c-cff8-4b37-a649-5c90f3d569a9"
      ],
      "songwriters": [
        "20a392bf-0517-4d22-a08c-46345d1077fe"
      ]
    },
    "titles": {
      "eng": "「ray」"
    },
    "titles_default_language": "eng",
    "title": "ray",
    "year": 2014
  }
}