{
  "header": {
    "version": 4,
    "description": "Karaoke Mugen Karaoke Data File"
  },
  "medias": [
    {
      "version": "Default",
      "filename": "JPN - Koukyoushihen Eureka Seven - MV - Shounen Heart ~ Full Vers.mp4",
      "audiogain": -0.14,
      "loudnorm": "-17.13,-0.84,6.80,-27.30,-0.58",
      "filesize": 41398005,
      "duration": 237,
      "default": true,
      "lyrics": [
        {
          "filename": "JPN - Koukyoushihen Eureka Seven - MV - Shounen Heart ~ Full Vers.ass",
          "default": true,
          "version": "Default"
        }
      ]
    }
  ],
  "data": {
    "created_at": "2022-03-24T11:22:49.099Z",
    "ignoreHooks": false,
    "kid": "4ec85d24-94c2-48b5-89c5-2932414f0555",
    "modified_at": "2022-10-01T09:24:11.794Z",
    "parents": [
      "15c79e5a-62fb-4f27-a933-8817ddb94b0b"
    ],
    "repository": "kara.moe",
    "tags": {
      "authors": [
        "06852e02-b77e-4106-b6f7-2d03942ad0ea"
      ],
      "collections": [
        "dbcf2c22-524d-4708-99bb-601703633927"
      ],
      "creators": [
        "57ffcdd9-7e4f-4971-85ce-0fb3aa8151ac"
      ],
      "families": [
        "5391f9fe-638c-415f-8dc9-958e3a2c5787"
      ],
      "groups": [
        "3c14c864-533c-49e6-a3cc-6969f1233775",
        "56f41a2e-80fb-4bbe-9df0-420ee4c8997a"
      ],
      "langs": [
        "4dcf9614-7914-42aa-99f4-dbce2e059133"
      ],
      "misc": [
        "ec4fee75-71fb-45b4-9772-2ca374b4b600"
      ],
      "series": [
        "31008550-33c4-45b1-a3f4-990d388cceb0"
      ],
      "singers": [
        "3dd93fd3-6e03-40ff-9349-122d5080fcf7"
      ],
      "songtypes": [
        "7be1b15c-cff8-4b37-a649-5c90f3d569a9"
      ],
      "songwriters": [
        "365e6fe4-2de7-4312-a616-a6337e0c587b",
        "8ffba14b-3e74-404a-bb00-29bef9e286ee",
        "9ced2e93-76b0-44cb-b9cb-590f720fef00",
        "ebc76501-5a91-4fb5-9822-30a17a576af7"
      ],
      "versions": [
        "c2143a7f-6970-450e-8a79-0302db9220a9"
      ],
      "franchises": [
        "ff285d6c-0ae5-4cc6-8226-fbf5effb2277"
      ]
    },
    "titles": {
      "jpn": "少年ハート",
      "qro": "Shônen Heart"
    },
    "titles_default_language": "qro",
    "title": "Shônen Heart",
    "year": 2005,
    "titles_aliases": [
      "Shounen"
    ]
  }
}