{
  "header": {
    "version": 4,
    "description": "Karaoke Mugen Karaoke Data File"
  },
  "medias": [
    {
      "version": "Default",
      "filename": "JPN - Slayers Revolution - OP - Plenty of grit.mp4",
      "audiogain": 4.62,
      "loudnorm": "-22.28,-12.81,3.70,-32.61,-0.44",
      "filesize": 19709570,
      "duration": 90,
      "default": true,
      "lyrics": [
        {
          "filename": "JPN - Slayers Revolution - OP - Plenty of grit.ass",
          "default": true,
          "version": "Default",
          "subchecksum": "7fc990217021679f6ca618a62e54ef4b"
        }
      ]
    }
  ],
  "data": {
    "created_at": "2017-10-11T17:02:48.000Z",
    "kid": "3f63f1d5-599d-403f-94bd-f21cbdfc6f4e",
    "modified_at": "2021-02-25T13:08:43.835Z",
    "repository": "kara.moe",
    "tags": {
      "authors": [
        "5bdaba57-27f8-4568-8806-76a807728766"
      ],
      "collections": [
        "c7db86a0-ff64-4044-9be4-66dd1ef1d1c1"
      ],
      "creators": [
        "802a8ac8-b16f-40a4-944b-99956798c906"
      ],
      "families": [
        "0377db02-3af6-43b8-9b08-c759df3d25c3"
      ],
      "groups": [
        "3c14c864-533c-49e6-a3cc-6969f1233775"
      ],
      "langs": [
        "4dcf9614-7914-42aa-99f4-dbce2e059133"
      ],
      "origins": [
        "938de218-5343-4865-94d3-fb33f2eaa152"
      ],
      "series": [
        "b500eed2-84e4-4116-af28-98cc63f54c66"
      ],
      "singers": [
        "326621ef-f074-4b13-9921-9728c65a6dff"
      ],
      "songtypes": [
        "f02ad9b3-0bd9-4aad-85b3-9976739ba0e4"
      ],
      "songwriters": [
        "326621ef-f074-4b13-9921-9728c65a6dff",
        "b424ad69-c619-4537-bf0b-326737dda311"
      ],
      "franchises": [
        "6adad8cc-6f70-4fc9-bc1b-92d805bb3103"
      ]
    },
    "title": "Plenty of grit",
    "titles": {
      "eng": "Plenty of grit"
    },
    "year": 2008,
    "titles_default_language": "eng"
  }
}