{
  "header": {
    "version": 4,
    "description": "Karaoke Mugen Karaoke Data File"
  },
  "medias": [
    {
      "version": "Default",
      "filename": "JPN - Lucky Star - REMIX AMV - Kumikyoku Lucky Star Douga.mp4",
      "audiogain": 0.34,
      "loudnorm": "-17.14,-6.89,2.60,-27.17,-0.44",
      "filesize": 62580609,
      "duration": 928,
      "default": true,
      "lyrics": [
        {
          "filename": "JPN - Lucky Star - REMIX AMV - Kumikyoku Lucky Star Douga.ass",
          "default": true,
          "version": "Default",
          "subchecksum": "b58547d8efac1909deff8a160f8777ad"
        }
      ]
    }
  ],
  "data": {
    "created_at": "2021-04-11T23:57:16.397Z",
    "kid": "b3e2acd3-eef6-451a-be3b-7b8880e43ba4",
    "modified_at": "2021-06-09T21:12:05.686Z",
    "parents": [
      "83aead3a-bca8-4771-9dd1-b5b857d33ff9"
    ],
    "repository": "kara.moe",
    "tags": {
      "authors": [
        "f1710fab-7461-468f-a8dd-11eebe4e1fc0"
      ],
      "collections": [
        "c7db86a0-ff64-4044-9be4-66dd1ef1d1c1"
      ],
      "creators": [
        "b2805292-730e-473a-96f0-fd8e7ffd1fd7",
        "d2a29c19-019f-4a3d-86ad-2dae9e41a4b1",
        "d93786af-5098-49b2-9928-37edfb3d0322"
      ],
      "families": [
        "0377db02-3af6-43b8-9b08-c759df3d25c3"
      ],
      "groups": [
        "3c14c864-533c-49e6-a3cc-6969f1233775",
        "8c22c899-b3ed-42da-a548-ce00f950798b"
      ],
      "langs": [
        "4dcf9614-7914-42aa-99f4-dbce2e059133"
      ],
      "misc": [
        "86705d4b-24e4-4756-9687-2b9c98bcf366",
        "ec4360fa-3e3c-4f6f-b0e1-fb8b12b6dd18"
      ],
      "series": [
        "010a52bf-ce74-42be-b259-d167d72d2ea8"
      ],
      "singers": [
        "337f8e25-fafb-4c75-9fa6-26334d5e163c",
        "488aea99-01a0-4c2c-b475-b61d99efe994",
        "5eface70-55ca-496f-8735-5988371205d0",
        "6e138f2f-56f6-47a3-931f-07b9c4aee613",
        "6ffce358-4197-45ea-93b8-349afafad226",
        "8c3ef7dd-5265-4527-ac49-c604ab822add",
        "95c10948-48c5-4469-9ce8-f98aacdbb16c",
        "97f84f38-619d-4a50-9de3-dcee49de9ae2",
        "996464bf-00f2-4afe-aac0-ea989d222ecd",
        "d0e2ff59-1d9e-4419-8a64-4c67a8ec4457",
        "e0cff347-f5d1-4b0b-835f-f238bed63716",
        "ea6a1ae2-3f0b-4180-8f67-1c61de8a72a3"
      ],
      "songtypes": [
        "a6c79ce5-89ee-4d50-afe8-3abd7317f6c2"
      ],
      "songwriters": [
        "12a7230b-c061-4db8-a625-a5ad2ecce8b9",
        "4f8ba040-1f56-4340-807d-eefa481ae17f",
        "59379760-9e6a-4c29-a9a6-4292eb87a66d",
        "9df2a794-177a-4bc0-b862-af29057d9f85",
        "ced9dff5-beb0-46ce-8bdd-650f4cc07443",
        "d7658a75-7945-4f08-8233-02f38dc385ba",
        "e0cff347-f5d1-4b0b-835f-f238bed63716",
        "f2cadf55-15ce-47f1-be10-ed75ec34d17e"
      ],
      "franchises": [
        "010a52bf-ce74-42be-b259-d167d72d2ea8"
      ]
    },
    "title": "Kumikyoku Lucky☆Star Dôga",
    "titles": {
      "qro": "Kumikyoku Lucky☆Star Dôga",
      "jpn": "組曲「らき☆すた動画」"
    },
    "year": 2008,
    "titles_default_language": "qro"
  }
}