{
  "header": {
    "version": 4,
    "description": "Karaoke Mugen Karaoke Data File"
  },
  "medias": [
    {
      "version": "Default",
      "filename": "JPN - Onipan! - ED1 - ONIPAPAPAN! PAN! ~ Short Vers.mp4",
      "audiogain": 7.28,
      "loudnorm": "-25.26,-14.37,2.60,-35.53,-0.50",
      "filesize": 15360947,
      "duration": 28,
      "default": true,
      "lyrics": [
        {
          "filename": "JPN - Onipan! - ED1 - ONIPAPAPAN! PAN! ~ Short Vers.ass",
          "default": true,
          "version": "Default"
        }
      ]
    }
  ],
  "data": {
    "created_at": "2022-04-14T17:52:28.736Z",
    "ignoreHooks": false,
    "kid": "7e162f4d-c7bd-4fae-92c3-e3523f7aa40d",
    "modified_at": "2022-06-26T20:56:35.481Z",
    "parents": [
      "d555f660-9b04-473c-96df-33f7651ad5e4"
    ],
    "repository": "kara.moe",
    "songorder": 1,
    "tags": {
      "authors": [
        "da677ad5-b5dd-4ab9-a1fe-5461e36338a2"
      ],
      "collections": [
        "c7db86a0-ff64-4044-9be4-66dd1ef1d1c1"
      ],
      "creators": [
        "5e24aaad-83c9-4d8a-bbb9-37b766278ffe"
      ],
      "families": [
        "0377db02-3af6-43b8-9b08-c759df3d25c3"
      ],
      "groups": [
        "8e209ae4-4381-438f-89dc-1b21752027d2"
      ],
      "langs": [
        "4dcf9614-7914-42aa-99f4-dbce2e059133"
      ],
      "origins": [
        "938de218-5343-4865-94d3-fb33f2eaa152"
      ],
      "series": [
        "f1e8163d-b24d-4cac-a27e-760cc18100da"
      ],
      "singers": [
        "017df2fa-7dc0-4dd8-8be4-6fe394271122",
        "4e39a0e7-c012-4be9-a2c9-f09cf8d3a31b",
        "af0f7155-0e24-4d7e-a10f-bda756bbde12",
        "bfee70c5-9dc8-4cda-b9af-b504b2dbe0c7"
      ],
      "songtypes": [
        "38c77c56-2b95-4040-b676-0994a8cb0597"
      ],
      "songwriters": [
        "0641a745-f1d3-4003-9f76-4ccc472fddad",
        "330d205b-72a7-4b06-947c-2e16a0868553"
      ],
      "versions": [
        "d125c80a-86c1-4321-88e9-07b7800679b6"
      ]
    },
    "titles": {
      "qro": "ONIPAPAPAN! PAN!",
      "jpn": "おにパパパン！パン!"
    },
    "titles_default_language": "qro",
    "title": "ONIPAPAPAN! PAN!",
    "year": 2022
  }
}