{
  "header": {
    "version": 4,
    "description": "Karaoke Mugen Karaoke Data File"
  },
  "medias": [
    {
      "version": "Default",
      "filename": "JPN - BUMP OF CHICKEN - MV - GO ~ Full Vers.mp4",
      "audiogain": -7.32,
      "loudnorm": "-10.17,0.71,7.50,-20.36,-1.78",
      "filesize": 242345643,
      "duration": 365,
      "default": true,
      "lyrics": [
        {
          "filename": "JPN - BUMP OF CHICKEN - MV - GO ~ Full Vers.ass",
          "default": true,
          "version": "Default"
        }
      ]
    }
  ],
  "data": {
    "created_at": "2022-03-24T01:42:46.656Z",
    "kid": "4ff4ec09-bfb4-4e3e-9721-0da07da2b3e4",
    "modified_at": "2022-06-04T00:13:31.038Z",
    "parents": [
      "0ad27b74-2f9d-4953-82d9-68add42f2130"
    ],
    "repository": "kara.moe",
    "songorder": null,
    "tags": {
      "authors": [
        "06852e02-b77e-4106-b6f7-2d03942ad0ea"
      ],
      "creators": [
        "65eb05b7-17f6-4eec-96f6-34cf9cc48138",
        "6697d31b-7f60-4d11-b237-8eb72740fd8a"
      ],
      "families": [
        "5391f9fe-638c-415f-8dc9-958e3a2c5787"
      ],
      "groups": [
        "ae613721-1fbe-480d-ba6b-d6d0702b184d"
      ],
      "langs": [
        "4dcf9614-7914-42aa-99f4-dbce2e059133"
      ],
      "misc": [
        "86705d4b-24e4-4756-9687-2b9c98bcf366"
      ],
      "singers": [
        "a027724c-6136-4dc1-b585-7ae8f780c8d2"
      ],
      "songtypes": [
        "7be1b15c-cff8-4b37-a649-5c90f3d569a9"
      ],
      "songwriters": [
        "20a392bf-0517-4d22-a08c-46345d1077fe"
      ],
      "versions": [
        "c2143a7f-6970-450e-8a79-0302db9220a9"
      ],
      "collections": [
        "dbcf2c22-524d-4708-99bb-601703633927"
      ]
    },
    "titles": {
      "eng": "GO"
    },
    "titles_default_language": "eng",
    "title": "GO",
    "year": 2017
  }
}