{
  "header": {
    "version": 4,
    "description": "Karaoke Mugen Karaoke Data File"
  },
  "medias": [
    {
      "version": "Default",
      "filename": "JPN - Tenpou Ibun Ayakashi Ayashi - OP1 - Ryuusei Miracle.mp4",
      "audiogain": -0.15,
      "loudnorm": "-17.95,-8.40,3.70,-28.00,-0.29",
      "filesize": 39014900,
      "duration": 92,
      "default": true,
      "lyrics": [
        {
          "filename": "JPN - Tenpou Ibun Ayakashi Ayashi - OP1 - Ryuusei Miracle.ass",
          "default": true,
          "version": "Default"
        }
      ]
    }
  ],
  "data": {
    "created_at": "2017-10-11T17:03:13.000Z",
    "ignoreHooks": false,
    "kid": "0d42f3e8-0d8d-476e-bfff-1cd309b5779b",
    "modified_at": "2022-10-04T15:13:46.712Z",
    "repository": "kara.moe",
    "songorder": 1,
    "tags": {
      "authors": [
        "5bdaba57-27f8-4568-8806-76a807728766"
      ],
      "collections": [
        "c7db86a0-ff64-4044-9be4-66dd1ef1d1c1"
      ],
      "creators": [
        "57ffcdd9-7e4f-4971-85ce-0fb3aa8151ac"
      ],
      "families": [
        "0377db02-3af6-43b8-9b08-c759df3d25c3"
      ],
      "groups": [
        "3c14c864-533c-49e6-a3cc-6969f1233775"
      ],
      "langs": [
        "4dcf9614-7914-42aa-99f4-dbce2e059133"
      ],
      "origins": [
        "938de218-5343-4865-94d3-fb33f2eaa152"
      ],
      "series": [
        "d4ff61df-84e8-4df9-8c84-cd6e5c5f493c"
      ],
      "singers": [
        "898d5ea4-56eb-47dc-a2ce-1549a3237709"
      ],
      "songtypes": [
        "f02ad9b3-0bd9-4aad-85b3-9976739ba0e4"
      ],
      "songwriters": [
        "52944693-acb2-44bf-86bb-5057d837def8"
      ]
    },
    "titles": {
      "jpn": "流星ミラクル",
      "qro": "Ryûsei Miracle"
    },
    "titles_default_language": "qro",
    "titles_aliases": [
      "Ryuusei"
    ],
    "title": "Ryûsei Miracle",
    "year": 2006
  }
}