{
  "header": {
    "version": 4,
    "description": "Karaoke Mugen Karaoke Data File"
  },
  "medias": [
    {
      "version": "Default",
      "filename": "JPN - Future Card Buddyfight - ED1 - Buddy Buddy Fight!!.mp4",
      "audiogain": 5.8,
      "loudnorm": "-23.30,-12.72,4.00,-33.40,-0.20",
      "filesize": 19918053,
      "duration": 89,
      "default": true,
      "lyrics": [
        {
          "filename": "JPN - Future Card Buddyfight - ED1 - Buddy Buddy Fight!!.ass",
          "default": true,
          "version": "Default",
          "subchecksum": "ef554b37065e155ef9b371a9e5eeb1b0"
        }
      ]
    }
  ],
  "data": {
    "created_at": "2017-10-11T17:02:38.000Z",
    "kid": "ed00cd52-85e7-43a6-a73c-2fbe6d3ac6c1",
    "modified_at": "2021-02-25T11:22:40.351Z",
    "repository": "kara.moe",
    "songorder": 1,
    "tags": {
      "authors": [
        "05c1e4ad-32ba-490e-8f3c-5cd491c96d85"
      ],
      "collections": [
        "c7db86a0-ff64-4044-9be4-66dd1ef1d1c1"
      ],
      "creators": [
        "03fe574b-c7f5-4520-96dc-47320c39e2cc",
        "0e26434a-c89a-4366-85b5-9e5c4b7d4195"
      ],
      "families": [
        "0377db02-3af6-43b8-9b08-c759df3d25c3"
      ],
      "groups": [
        "ae613721-1fbe-480d-ba6b-d6d0702b184d"
      ],
      "langs": [
        "4dcf9614-7914-42aa-99f4-dbce2e059133"
      ],
      "origins": [
        "938de218-5343-4865-94d3-fb33f2eaa152"
      ],
      "series": [
        "851959eb-5aa8-4346-8c08-aeb03b1390b8"
      ],
      "singers": [
        "a1b1a298-ff71-4cda-a407-f1cbdb4f415d"
      ],
      "songtypes": [
        "38c77c56-2b95-4040-b676-0994a8cb0597"
      ],
      "songwriters": [
        "9ef3d8bd-5338-4086-9ebe-ca7aa87eac04",
        "f41e7218-6c19-4e19-9b5f-4612dcd58243"
      ],
      "franchises": [
        "851959eb-5aa8-4346-8c08-aeb03b1390b8"
      ]
    },
    "title": "Buddy Buddy Fight!!",
    "titles": {
      "eng": "Buddy Buddy Fight!!"
    },
    "year": 2014,
    "titles_default_language": "eng"
  }
}