{
  "header": {
    "version": 4,
    "description": "Karaoke Mugen Karaoke Data File"
  },
  "medias": [
    {
      "version": "Default",
      "filename": "JPN - Tokyo Ghoul Root A - MV - Kisetsu wa Tsugitsugi Shindeyuku ~ Full Vers.mp4",
      "audiogain": -8.61,
      "loudnorm": "-8.30,3.22,4.20,-18.35,-0.92",
      "filesize": 52000899,
      "duration": 355,
      "default": true,
      "lyrics": [
        {
          "filename": "JPN - Tokyo Ghoul Root A - MV - Kisetsu wa Tsugitsugi Shindeyuku ~ Full Vers.ass",
          "default": true,
          "version": "Default"
        }
      ]
    }
  ],
  "data": {
    "created_at": "2020-02-25T19:36:00.069Z",
    "kid": "f6d65a5d-1b58-4b60-91d2-9fc47da23cef",
    "modified_at": "2022-06-04T00:22:31.374Z",
    "parents": [
      "14e4e018-ca11-4f71-a5e8-3610be58b9e1"
    ],
    "repository": "kara.moe",
    "songorder": null,
    "tags": {
      "authors": [
        "60defa7b-774e-4680-8321-51b742c2e009"
      ],
      "families": [
        "5391f9fe-638c-415f-8dc9-958e3a2c5787"
      ],
      "groups": [
        "60defa7b-774e-4680-8321-51b742c2e009",
        "ae613721-1fbe-480d-ba6b-d6d0702b184d"
      ],
      "langs": [
        "4dcf9614-7914-42aa-99f4-dbce2e059133"
      ],
      "misc": [
        "86705d4b-24e4-4756-9687-2b9c98bcf366"
      ],
      "origins": [
        "938de218-5343-4865-94d3-fb33f2eaa152"
      ],
      "series": [
        "37840aa4-3dc1-4376-9e7a-5f9723463c32"
      ],
      "singers": [
        "1e10b608-d701-4b51-9725-ccf808c44ce0"
      ],
      "songtypes": [
        "7be1b15c-cff8-4b37-a649-5c90f3d569a9"
      ],
      "songwriters": [
        "caff84bc-059e-4a6e-b273-c857050e75f7"
      ],
      "versions": [
        "c2143a7f-6970-450e-8a79-0302db9220a9"
      ],
      "collections": [
        "dbcf2c22-524d-4708-99bb-601703633927"
      ],
      "franchises": [
        "45bed48a-1387-4bca-85cf-de5e0b150fd5"
      ]
    },
    "titles": {
      "eng": "Seasons Die One After Another",
      "qro": "Kisetsu wa Tsugitsugi Shindeiku",
      "jpn": "季節は次々死んでいく"
    },
    "titles_default_language": "eng",
    "title": "Kisetsu wa Tsugitsugi Shindeyuku",
    "year": 2015
  }
}