{
  "header": {
    "version": 4,
    "description": "Karaoke Mugen Karaoke Data File"
  },
  "medias": [
    {
      "version": "Default",
      "filename": "JPN - Aikatsu Friends! - IN - Okemaru.mp4",
      "audiogain": 2.19,
      "loudnorm": "-20.93,-6.10,5.00,-30.98,-0.86",
      "filesize": 65782592,
      "duration": 121,
      "default": true,
      "lyrics": [
        {
          "filename": "JPN - Aikatsu Friends! - IN - Okemaru.ass",
          "default": true,
          "version": "Default",
          "subchecksum": "cc217b700571c19a72097088f4041db9"
        }
      ]
    }
  ],
  "data": {
    "created_at": "2019-09-08T16:00:48.000Z",
    "kid": "e97f1bb7-5bd6-46f5-827a-96512501e021",
    "modified_at": "2021-02-25T10:37:10.788Z",
    "repository": "kara.moe",
    "tags": {
      "authors": [
        "79e0aa7d-da9a-4e9a-aa2b-64056a83b49b"
      ],
      "collections": [
        "c7db86a0-ff64-4044-9be4-66dd1ef1d1c1"
      ],
      "creators": [
        "4d17b0cf-92fd-4ab3-8035-8a260a772e51"
      ],
      "families": [
        "0377db02-3af6-43b8-9b08-c759df3d25c3"
      ],
      "genres": [
        "caa86df2-0d59-474b-885c-f240a9e891b0"
      ],
      "groups": [
        "ae613721-1fbe-480d-ba6b-d6d0702b184d"
      ],
      "langs": [
        "4dcf9614-7914-42aa-99f4-dbce2e059133"
      ],
      "origins": [
        "938de218-5343-4865-94d3-fb33f2eaa152"
      ],
      "series": [
        "37b57196-39e4-489b-b77e-69ba896f2c23"
      ],
      "singers": [
        "dfce274a-9977-4cd8-b3d4-70f2cd30ede1"
      ],
      "songtypes": [
        "5e5250d9-351a-4a82-98eb-55db50ad8962"
      ],
      "songwriters": [
        "8e748132-b21b-4f97-b0a2-857da7859a5c",
        "e9be2db6-089a-4748-bb7c-e5054c58af19"
      ],
      "franchises": [
        "2ed8f878-186e-4108-a152-c607efbcfcb2"
      ]
    },
    "title": "Okemaru",
    "titles": {
      "qro": "Okemaru",
      "jpn": "おけまる"
    },
    "year": 2018,
    "titles_default_language": "qro"
  }
}