{
  "header": {
    "version": 4,
    "description": "Karaoke Mugen Karaoke Data File"
  },
  "medias": [
    {
      "version": "Default",
      "filename": "JPN - Koi wa Tsuzuku yo Doko made mo - MV - I LOVE.mp4",
      "audiogain": -7.44,
      "loudnorm": "-8.49,2.11,4.50,-18.69,-0.37",
      "filesize": 97126468,
      "duration": 278,
      "default": true,
      "lyrics": [
        {
          "filename": "JPN - Koi wa Tsuzuku yo Doko made mo - MV - I LOVE.ass",
          "default": true,
          "version": "Default"
        }
      ]
    }
  ],
  "data": {
    "created_at": "2020-04-11T16:07:08.774Z",
    "kid": "21ebf2e7-3d45-4aae-8dde-9576e6bb7168",
    "modified_at": "2022-06-04T00:14:06.068Z",
    "repository": "kara.moe",
    "songorder": null,
    "tags": {
      "authors": [
        "269d1464-84f9-44da-9064-1d074bafb602"
      ],
      "creators": [
        "97e62433-0f2f-4e1b-ba1e-109eec95dc11"
      ],
      "families": [
        "5391f9fe-638c-415f-8dc9-958e3a2c5787"
      ],
      "groups": [
        "2b4e9972-5e17-481b-99f5-d0787c0ada56",
        "8e209ae4-4381-438f-89dc-1b21752027d2"
      ],
      "langs": [
        "4dcf9614-7914-42aa-99f4-dbce2e059133"
      ],
      "series": [
        "e1bdf7e2-8cfb-47bf-a76d-068ea04be150"
      ],
      "singers": [
        "a6faab1b-859e-4068-971a-c6ff47788c8a"
      ],
      "songtypes": [
        "7be1b15c-cff8-4b37-a649-5c90f3d569a9"
      ],
      "songwriters": [
        "5f660b23-ff0e-47e5-8962-b84457b105da"
      ],
      "collections": [
        "dbcf2c22-524d-4708-99bb-601703633927"
      ]
    },
    "titles": {
      "eng": "I LOVE"
    },
    "titles_default_language": "eng",
    "title": "I LOVE",
    "year": 2020
  }
}