{
  "header": {
    "version": 4,
    "description": "Karaoke Mugen Karaoke Data File"
  },
  "medias": [
    {
      "version": "Default",
      "filename": "JPN - Dorohedoro - ED3 - D.D.D.D.mp4",
      "audiogain": 3.85,
      "loudnorm": "-20.33,-7.32,4.00,-30.37,0.26",
      "filesize": 26919895,
      "duration": 90,
      "default": true,
      "lyrics": [
        {
          "filename": "JPN - Dorohedoro - ED3 - D.D.D.D.ass",
          "default": true,
          "version": "Default"
        }
      ]
    }
  ],
  "data": {
    "created_at": "2020-02-17T19:52:31.930Z",
    "ignoreHooks": false,
    "kid": "855b869b-2ea8-4e13-840d-1cc4ec0710c6",
    "modified_at": "2022-10-15T19:35:31.582Z",
    "repository": "kara.moe",
    "songorder": 3,
    "tags": {
      "authors": [
        "06852e02-b77e-4106-b6f7-2d03942ad0ea"
      ],
      "collections": [
        "c7db86a0-ff64-4044-9be4-66dd1ef1d1c1"
      ],
      "creators": [
        "0a86e9ea-5e17-4371-8f2a-60c818324d58"
      ],
      "families": [
        "0377db02-3af6-43b8-9b08-c759df3d25c3"
      ],
      "groups": [
        "8e209ae4-4381-438f-89dc-1b21752027d2"
      ],
      "langs": [
        "4dcf9614-7914-42aa-99f4-dbce2e059133"
      ],
      "misc": [
        "fe819ff1-9db8-4a0f-85dc-0e322c9126c4"
      ],
      "series": [
        "8c46d4fc-027f-404d-89f0-6d90365e1b45"
      ],
      "singers": [
        "02268bf0-9541-48a7-9fa2-66edf5a96091"
      ],
      "songtypes": [
        "38c77c56-2b95-4040-b676-0994a8cb0597"
      ],
      "songwriters": [
        "1900b35d-bd27-4a89-9b27-6e3e2af731fc",
        "8e441486-caa4-4627-9232-ddc4ee01d518"
      ]
    },
    "titles": {
      "eng": "D.D.D.D"
    },
    "titles_default_language": "eng",
    "titles_aliases": [
      "DDDD"
    ],
    "title": "D.D.D.D",
    "year": 2020
  }
}