{
  "header": {
    "version": 4,
    "description": "Karaoke Mugen Karaoke Data File"
  },
  "medias": [
    {
      "version": "Default",
      "filename": "JPN - IA - MV - Rokuchounen to Ichiya Monogatari.mp4",
      "audiogain": -8.39,
      "loudnorm": "-7.78,2.67,3.80,-18.04,-0.67",
      "filesize": 20579686,
      "duration": 220,
      "default": true,
      "lyrics": [
        {
          "filename": "JPN - IA - MV - Rokuchounen to Ichiya Monogatari.ass",
          "default": true,
          "version": "Default",
          "subchecksum": "fd1afe6a68da21154dda50f70db5a10a"
        }
      ]
    }
  ],
  "data": {
    "created_at": "2020-02-26T20:44:58.996Z",
    "kid": "59e4179a-5d7e-438b-9ae5-588776cf1c94",
    "modified_at": "2021-02-25T11:45:27.186Z",
    "repository": "kara.moe",
    "tags": {
      "authors": [
        "1c9f3b53-973d-419e-9e29-9067c9896139"
      ],
      "collections": [
        "c7db86a0-ff64-4044-9be4-66dd1ef1d1c1"
      ],
      "families": [
        "0377db02-3af6-43b8-9b08-c759df3d25c3"
      ],
      "genres": [
        "45623cae-6d68-4304-a49b-896d1d6f4580"
      ],
      "groups": [
        "60defa7b-774e-4680-8321-51b742c2e009",
        "ae613721-1fbe-480d-ba6b-d6d0702b184d"
      ],
      "langs": [
        "4dcf9614-7914-42aa-99f4-dbce2e059133"
      ],
      "misc": [
        "ec4fee75-71fb-45b4-9772-2ca374b4b600"
      ],
      "singers": [
        "65ec4b1d-fe71-43f7-959b-65586cf634a9"
      ],
      "songtypes": [
        "7be1b15c-cff8-4b37-a649-5c90f3d569a9"
      ],
      "songwriters": [
        "3c1b2603-282d-423b-b828-9a7cf4fb09b6"
      ]
    },
    "title": "Rokuchounen to Ichiya Monogatari",
    "titles": {
      "eng": "Six Trillion Years and Overnight Story",
      "qro": "Roku-chô Nen to Ichiya Monogatari",
      "jpn": "六兆年と一夜物語"
    },
    "year": 2013,
    "titles_aliases": [
      "A Tale of Six Trillion Years and a Night"
    ],
    "titles_default_language": "eng"
  }
}