{
  "header": {
    "version": 4,
    "description": "Karaoke Mugen Karaoke Data File"
  },
  "medias": [
    {
      "version": "Default",
      "filename": "JPN - Boku no Hero Academia S5 - MV - Merry-Go-Round ~ Full Vers.mp4",
      "audiogain": -9.49,
      "loudnorm": "-7.69,1.05,5.80,-17.83,-0.96",
      "filesize": 55626526,
      "duration": 245,
      "default": true,
      "lyrics": [
        {
          "filename": "JPN - Boku no Hero Academia S5 - MV - Merry-Go-Round ~ Full Vers.ass",
          "default": true,
          "version": "Default"
        }
      ]
    }
  ],
  "data": {
    "created_at": "2021-09-11T14:15:02.455Z",
    "ignoreHooks": false,
    "kid": "e446aa1b-b742-416a-b416-f902415d4458",
    "modified_at": "2022-12-22T16:08:57.792Z",
    "parents": [
      "cf464d75-f118-4e63-88bf-c62247b0ff22"
    ],
    "repository": "kara.moe",
    "tags": {
      "authors": [
        "05c1e4ad-32ba-490e-8f3c-5cd491c96d85"
      ],
      "collections": [
        "c7db86a0-ff64-4044-9be4-66dd1ef1d1c1"
      ],
      "creators": [
        "6fa9de67-21cf-420b-9ddb-57edb5abe523"
      ],
      "families": [
        "0377db02-3af6-43b8-9b08-c759df3d25c3"
      ],
      "groups": [
        "8e209ae4-4381-438f-89dc-1b21752027d2"
      ],
      "langs": [
        "4dcf9614-7914-42aa-99f4-dbce2e059133"
      ],
      "origins": [
        "938de218-5343-4865-94d3-fb33f2eaa152"
      ],
      "series": [
        "b20de420-423f-4a84-91c5-123e99f3b1b5"
      ],
      "singers": [
        "814943f5-30aa-4229-b2ed-120f25825b27"
      ],
      "songtypes": [
        "7be1b15c-cff8-4b37-a649-5c90f3d569a9"
      ],
      "songwriters": [
        "3dde98ed-a3a6-473d-8fd2-3dd81eb92b26",
        "6cb0e364-b9d2-4fa9-8dfb-98b095c7ac47"
      ],
      "versions": [
        "c2143a7f-6970-450e-8a79-0302db9220a9"
      ],
      "franchises": [
        "8c9bbcc8-9928-46d1-aecd-7a31a8c9bba3"
      ]
    },
    "titles": {
      "eng": "Merry-Go-Round"
    },
    "titles_default_language": "eng",
    "year": 2021
  }
}