{
  "header": {
    "version": 4,
    "description": "Karaoke Mugen Karaoke Data File"
  },
  "medias": [
    {
      "version": "Default",
      "filename": "JPN - Machikado Mazoku - OP - Machikado Tangent.mp4",
      "audiogain": -0.71,
      "loudnorm": "-16.15,-6.15,3.60,-26.42,-0.35",
      "filesize": 36214210,
      "duration": 90,
      "default": true,
      "lyrics": [
        {
          "filename": "JPN - Machikado Mazoku - OP - Machikado Tangent.ass",
          "default": true,
          "version": "Default"
        }
      ]
    }
  ],
  "data": {
    "created_at": "2019-09-25T19:32:28.000Z",
    "ignoreHooks": false,
    "kid": "fcd455f9-839d-403f-a971-88b8481ae8b0",
    "modified_at": "2022-11-08T20:40:10.128Z",
    "repository": "kara.moe",
    "tags": {
      "authors": [
        "4eaf6aba-0451-4119-947c-8ba404679b19"
      ],
      "collections": [
        "c7db86a0-ff64-4044-9be4-66dd1ef1d1c1"
      ],
      "creators": [
        "802a8ac8-b16f-40a4-944b-99956798c906"
      ],
      "families": [
        "0377db02-3af6-43b8-9b08-c759df3d25c3"
      ],
      "groups": [
        "ae613721-1fbe-480d-ba6b-d6d0702b184d"
      ],
      "langs": [
        "4dcf9614-7914-42aa-99f4-dbce2e059133"
      ],
      "misc": [
        "fe819ff1-9db8-4a0f-85dc-0e322c9126c4"
      ],
      "origins": [
        "938de218-5343-4865-94d3-fb33f2eaa152"
      ],
      "series": [
        "03af8968-ed66-4903-a6ee-2c0e64623e0f"
      ],
      "singers": [
        "0df41f72-5e97-4788-99b7-93fe4b628367",
        "1ab36560-839c-4592-a10f-031039c39161",
        "f7607f83-89e8-44a2-9d9a-ed27e34506c3"
      ],
      "songtypes": [
        "f02ad9b3-0bd9-4aad-85b3-9976739ba0e4"
      ],
      "songwriters": [
        "921a2ca7-bf36-4562-b9bc-a1511fb5dbd2"
      ],
      "franchises": [
        "03af8968-ed66-4903-a6ee-2c0e64623e0f"
      ]
    },
    "titles": {
      "jpn": "町かどタンジェント",
      "qro": "Machikado Tangent"
    },
    "titles_default_language": "qro",
    "year": 2019
  }
}