{
  "header": {
    "version": 4,
    "description": "Karaoke Mugen Karaoke Data File"
  },
  "medias": [
    {
      "version": "Default",
      "filename": "JPN - Azumanga Daiou The Animation (2002) - AUDIO CS - Sarabai! Happy Hen.mp3",
      "audiogain": -9.39,
      "loudnorm": "-9.51,1.03,4.40,-19.62,-1.09",
      "filesize": 9477487,
      "duration": 215,
      "default": true,
      "lyrics": [
        {
          "filename": "JPN - Azumanga Daiou The Animation (2002) - AUDIO CS - Sarabai! Happy Hen.ass",
          "default": true,
          "version": "Default",
          "subchecksum": "4cf0b2888b274df7e68f2b992196323a"
        }
      ]
    }
  ],
  "data": {
    "created_at": "2019-11-11T03:43:15.563Z",
    "kid": "4fcb3a1d-d499-4e9e-83ec-01578d59c29a",
    "modified_at": "2021-02-25T10:48:08.092Z",
    "repository": "kara.moe",
    "tags": {
      "authors": [
        "1db1738f-acdc-42fc-aec3-60f4bddf660d"
      ],
      "collections": [
        "c7db86a0-ff64-4044-9be4-66dd1ef1d1c1"
      ],
      "creators": [
        "b2805292-730e-473a-96f0-fd8e7ffd1fd7"
      ],
      "groups": [
        "3c14c864-533c-49e6-a3cc-6969f1233775"
      ],
      "langs": [
        "4dcf9614-7914-42aa-99f4-dbce2e059133"
      ],
      "origins": [
        "938de218-5343-4865-94d3-fb33f2eaa152"
      ],
      "series": [
        "646540b7-0a90-4524-a99d-3e933d95fd0a"
      ],
      "singers": [
        "cca35b89-f5d3-4931-9ff6-7ab1329bd2a7"
      ],
      "songtypes": [
        "42a262ae-acba-4ab5-a446-c5789c96c821",
        "a8a2616c-b5a1-4df3-ad6f-89291bc67dee"
      ],
      "songwriters": [
        "08d9ba18-c51b-4f9b-884e-b1be8e48801a",
        "11607b9a-15ff-48d2-ad0c-fecea7987880"
      ]
    },
    "title": "Sarabai! Happy Hen",
    "titles": {
      "qro": "Sarabai! Happy Hen",
      "jpn": "サラバイ!~ハッピー編"
    },
    "year": 2002,
    "titles_default_language": "qro"
  }
}