{
  "header": {
    "version": 4,
    "description": "Karaoke Mugen Karaoke Data File"
  },
  "medias": [
    {
      "version": "Default",
      "filename": "JPN - Wonder Egg Priority - OP - Sudachi no Uta.mp4",
      "audiogain": 0.33,
      "loudnorm": "-18.50,-2.89,18.60,-29.81,-2.26",
      "filesize": 30169301,
      "duration": 89,
      "default": true,
      "lyrics": [
        {
          "filename": "JPN - Wonder Egg Priority - OP - Sudachi no Uta.ass",
          "default": true,
          "version": "Default",
          "subchecksum": "fd4915767398641737f4bc4222f09b09"
        }
      ]
    }
  ],
  "data": {
    "created_at": "2021-03-11T20:40:37.041Z",
    "kid": "9a6674e0-efcf-4f7a-a79c-1b0aca8f720d",
    "modified_at": "2021-03-11T20:45:11.356Z",
    "repository": "kara.moe",
    "tags": {
      "authors": [
        "1df04771-a378-4f14-a5e1-1455187d681a"
      ],
      "collections": [
        "c7db86a0-ff64-4044-9be4-66dd1ef1d1c1"
      ],
      "creators": [
        "43cebb4a-845f-449b-bbd0-d97d96d97cb4"
      ],
      "families": [
        "0377db02-3af6-43b8-9b08-c759df3d25c3"
      ],
      "groups": [
        "8e209ae4-4381-438f-89dc-1b21752027d2"
      ],
      "langs": [
        "4dcf9614-7914-42aa-99f4-dbce2e059133"
      ],
      "origins": [
        "938de218-5343-4865-94d3-fb33f2eaa152"
      ],
      "series": [
        "82223725-e35e-4b2d-b4d4-98ddb14ac798"
      ],
      "singers": [
        "033cb53f-a1b6-49bf-9d72-084679542d51",
        "18b9be9d-c627-47d1-ab88-56201f59a609",
        "1fd01df9-13c6-4442-a8c9-4d7922152b32",
        "54282c23-8d46-44ba-a071-3d617a878bb5",
        "92057a46-68c7-4c10-bcf9-a81ca7bfe9c6"
      ],
      "songtypes": [
        "f02ad9b3-0bd9-4aad-85b3-9976739ba0e4"
      ],
      "songwriters": [
        "b69f39f3-fa85-4cba-950b-f16a99ddfbcf",
        "b8a5be31-b496-4a43-8a6d-790abd0d5e72",
        "e1436b2a-1054-42ed-bfd5-77d50e790eb2"
      ]
    },
    "title": "Sudachi no Uta",
    "titles": {
      "qro": "Sudachi no Uta",
      "jpn": "巣立ちの歌"
    },
    "year": 2021,
    "titles_default_language": "qro"
  }
}