{
  "header": {
    "version": 4,
    "description": "Karaoke Mugen Karaoke Data File"
  },
  "medias": [
    {
      "version": "Default",
      "filename": "JPN - Hatsune Miku ~ Project DIVA Arcade Future Tone - GAME MV - Migikata no Chou -39's Giving Day Edition- ~ Alternative Vers.mp4",
      "audiogain": -3.14,
      "loudnorm": "-14.05,-1.92,5.50,-24.17,-0.81",
      "filesize": 344095017,
      "duration": 186,
      "default": true,
      "lyrics": [
        {
          "filename": "JPN - Hatsune Miku ~ Project DIVA Arcade Future Tone - GAME MV - Migikata no Chou -39's Giving Day Edition- ~ Alternative Vers.ass",
          "default": true,
          "version": "Default"
        }
      ]
    }
  ],
  "data": {
    "created_at": "2023-03-24T16:19:30.167Z",
    "ignoreHooks": false,
    "kid": "b4c88c4a-25c4-4ff0-bab7-47765b24293c",
    "modified_at": "2023-03-30T21:16:29.814Z",
    "parents": [
      "2b81cdda-891b-47af-b50e-0062a37f0311"
    ],
    "repository": "kara.moe",
    "tags": {
      "authors": [
        "a3a99b23-6c42-4d38-8863-491153187437"
      ],
      "collections": [
        "c7db86a0-ff64-4044-9be4-66dd1ef1d1c1"
      ],
      "creators": [
        "b8a3778d-0864-4135-9053-1def02d3262e"
      ],
      "families": [
        "0377db02-3af6-43b8-9b08-c759df3d25c3"
      ],
      "genres": [
        "45623cae-6d68-4304-a49b-896d1d6f4580"
      ],
      "groups": [
        "ae613721-1fbe-480d-ba6b-d6d0702b184d"
      ],
      "langs": [
        "4dcf9614-7914-42aa-99f4-dbce2e059133"
      ],
      "misc": [
        "1d6ceadf-a885-47e5-b23b-c07bf668a424"
      ],
      "origins": [
        "dbedd6b3-d125-4cd8-aa32-c4175e4ca3a3"
      ],
      "series": [
        "10b144ba-23b0-412a-9d78-253af4ee10ae"
      ],
      "singers": [
        "7ce72adb-b4f2-42d9-b628-360b759a03df",
        "dbb8d613-a120-46c7-bb42-bc6c1efb61f7"
      ],
      "songtypes": [
        "7be1b15c-cff8-4b37-a649-5c90f3d569a9"
      ],
      "songwriters": [
        "07d192ba-bd58-4f44-8014-0cd5fb3fbffa",
        "b57bca46-3fed-4181-8291-e1fe3a286045"
      ],
      "versions": [
        "9f63c359-d1bf-425a-bcf5-b245c2c9211d"
      ],
      "franchises": [
        "c52a4935-9040-4bce-8d4b-9f23ebaa602c",
        "d28af18d-d544-4d0f-b955-99e6914230f2"
      ]
    },
    "titles": {
      "eng": "Butterfly on your Right Shoulder -39's Giving Day Edition-",
      "jpn": "右肩の蝶 -39's Giving Day Edition-",
      "qro": "Migikata no Chou -39's Giving Day Edition-"
    },
    "titles_default_language": "qro",
    "titles_aliases": [
      "Butterfly of the Right Shoulder"
    ],
    "year": 2013
  }
}