{
  "header": {
    "version": 4,
    "description": "Karaoke Mugen Karaoke Data File"
  },
  "medias": [
    {
      "version": "Default",
      "filename": "JPN - Gyakuten Saiban Sono Shinjitsu Igi Ari! S2 - MV - Reason ~ Full Vers.mp4",
      "audiogain": -10.13,
      "loudnorm": "-7.41,2.36,8.90,-17.76,-0.77",
      "filesize": 54908188,
      "duration": 241,
      "default": true,
      "lyrics": [
        {
          "filename": "JPN - Gyakuten Saiban Sono Shinjitsu Igi Ari! S2 - MV - Reason ~ Full Vers.ass",
          "default": true,
          "version": "Default"
        }
      ]
    }
  ],
  "data": {
    "created_at": "2020-05-12T17:43:16.430Z",
    "kid": "c16ab14e-6396-4887-89b9-1c5b6c7a6aac",
    "modified_at": "2022-06-04T00:24:00.817Z",
    "parents": [
      "937dbb07-cce8-4c51-b354-f928442d3e57"
    ],
    "repository": "kara.moe",
    "songorder": null,
    "tags": {
      "authors": [
        "8605a8b9-3b45-44b9-9d98-1a25096bf702"
      ],
      "creators": [
        "6fa9de67-21cf-420b-9ddb-57edb5abe523"
      ],
      "families": [
        "5391f9fe-638c-415f-8dc9-958e3a2c5787"
      ],
      "groups": [
        "ae613721-1fbe-480d-ba6b-d6d0702b184d"
      ],
      "langs": [
        "4dcf9614-7914-42aa-99f4-dbce2e059133"
      ],
      "series": [
        "b3ecd0cc-5296-418c-8b29-5fced9b8af09"
      ],
      "singers": [
        "2c42a555-7a37-41bc-99a6-df456e7d9391"
      ],
      "songtypes": [
        "7be1b15c-cff8-4b37-a649-5c90f3d569a9"
      ],
      "songwriters": [
        "2c42a555-7a37-41bc-99a6-df456e7d9391"
      ],
      "versions": [
        "c2143a7f-6970-450e-8a79-0302db9220a9"
      ],
      "collections": [
        "dbcf2c22-524d-4708-99bb-601703633927"
      ],
      "franchises": [
        "276aa63d-ebe7-44d3-817f-957edb4966b2"
      ]
    },
    "titles": {
      "eng": "Reason"
    },
    "titles_default_language": "eng",
    "title": "Reason",
    "year": 2019
  }
}