{
  "header": {
    "version": 4,
    "description": "Karaoke Mugen Karaoke Data File"
  },
  "medias": [
    {
      "version": "Default",
      "filename": "JPN - Kiara Takanashi, Kobo Kanaeru - MV - Pittari Shitai X'mas! ~ Cover Vers.mp4",
      "audiogain": -8.55,
      "loudnorm": "-9.41,0.59,3.70,-19.58,-0.00",
      "filesize": 115228401,
      "duration": 210,
      "default": true,
      "lyrics": [
        {
          "filename": "JPN - Kiara Takanashi, Kobo Kanaeru - MV - Pittari Shitai X'mas! ~ Cover Vers.ass",
          "default": true,
          "version": "Default"
        }
      ]
    }
  ],
  "data": {
    "created_at": "2022-12-31T11:46:18.092Z",
    "ignoreHooks": false,
    "kid": "ad14c414-234c-4c2e-9843-724a8b97ab0c",
    "modified_at": "2022-12-31T12:03:11.879Z",
    "parents": [
      "bf4bdc04-ce99-486b-95de-afbfa19e968e"
    ],
    "repository": "kara.moe",
    "tags": {
      "authors": [
        "4b50fcec-273e-4cc5-83f2-b156c2300f7f"
      ],
      "collections": [
        "c7db86a0-ff64-4044-9be4-66dd1ef1d1c1"
      ],
      "creators": [
        "0263d413-17bb-4cee-a311-6dd896eda1c9"
      ],
      "families": [
        "0377db02-3af6-43b8-9b08-c759df3d25c3"
      ],
      "groups": [
        "8e209ae4-4381-438f-89dc-1b21752027d2"
      ],
      "langs": [
        "4dcf9614-7914-42aa-99f4-dbce2e059133"
      ],
      "origins": [
        "5106d71b-a78e-4d19-a16d-f8fb6719538a"
      ],
      "singers": [
        "5cc06a77-fa60-4a10-9430-b24735b2a7ae",
        "6e7be716-e468-4993-ace1-141cf3f8ca60",
        "b68441b5-bc17-4975-a825-d5c35b50bcf8"
      ],
      "songtypes": [
        "7be1b15c-cff8-4b37-a649-5c90f3d569a9"
      ],
      "songwriters": [
        "0f9ff3a8-53e0-41d5-9c55-9b95d9cff61b",
        "5938e181-5402-43ea-a5a0-a4ca2405705d"
      ],
      "versions": [
        "03e1e1d2-8641-47b7-bbcb-39a3df9ff21c"
      ]
    },
    "titles": {
      "jpn": "ぴったりしたいX'mas!",
      "qro": "Pittari Shitai X'mas!"
    },
    "titles_default_language": "qro",
    "year": 2022
  }
}