{
  "header": {
    "version": 4,
    "description": "Karaoke Mugen Karaoke Data File"
  },
  "medias": [
    {
      "version": "Default",
      "filename": "JPN - Mushoku Tensei Isekai Ittara Honki Dasu - ED1 - Only.mp4",
      "audiogain": 0.19,
      "loudnorm": "-17.14,-4.26,3.50,-27.27,-1.14",
      "filesize": 56539397,
      "duration": 90,
      "default": true,
      "lyrics": [
        {
          "filename": "JPN - Mushoku Tensei Isekai Ittara Honki Dasu - ED1 - Only.ass",
          "default": true,
          "version": "Default"
        }
      ]
    }
  ],
  "data": {
    "created_at": "2021-02-07T20:36:29.537Z",
    "ignoreHooks": false,
    "kid": "2b1be590-f1d3-4d24-8eec-6bb97db584e5",
    "modified_at": "2022-02-17T21:42:40.433Z",
    "repository": "kara.moe",
    "songorder": 1,
    "tags": {
      "authors": [
        "56b54c89-86ae-4635-992f-ddc1234b8015"
      ],
      "collections": [
        "c7db86a0-ff64-4044-9be4-66dd1ef1d1c1"
      ],
      "creators": [
        "85a2cf91-86c2-4045-9d95-9e6152306c98"
      ],
      "families": [
        "0377db02-3af6-43b8-9b08-c759df3d25c3"
      ],
      "genres": [
        "4b80eca6-f44f-4262-a8d0-b6879d6b70cb"
      ],
      "groups": [
        "8c22c899-b3ed-42da-a548-ce00f950798b",
        "8e209ae4-4381-438f-89dc-1b21752027d2"
      ],
      "langs": [
        "4dcf9614-7914-42aa-99f4-dbce2e059133"
      ],
      "origins": [
        "938de218-5343-4865-94d3-fb33f2eaa152"
      ],
      "series": [
        "4005ebb8-68ea-4891-9f24-98effbb70e08"
      ],
      "singers": [
        "03f0a7d4-9570-4be0-910a-e0f03faa32c0"
      ],
      "songtypes": [
        "38c77c56-2b95-4040-b676-0994a8cb0597"
      ],
      "songwriters": [
        "03f0a7d4-9570-4be0-910a-e0f03faa32c0"
      ]
    },
    "titles": {
      "eng": "Only",
      "jpn": "オンリー"
    },
    "title": "Only",
    "year": 2021,
    "titles_default_language": "eng"
  }
}