{
  "header": {
    "version": 4,
    "description": "Karaoke Mugen Karaoke Data File"
  },
  "medias": [
    {
      "version": "Default",
      "filename": "JPN - Inazuma Eleven Go Galaxy - OP3 - Supernova!.mp4",
      "audiogain": -0.82,
      "loudnorm": "-15.08,-2.33,1.00,-25.13,-0.24",
      "filesize": 33909870,
      "duration": 85,
      "default": true,
      "lyrics": [
        {
          "filename": "JPN - Inazuma Eleven Go Galaxy - OP3 - Supernova!.ass",
          "default": true,
          "version": "Default",
          "subchecksum": "375f31c91419519ebe4d03169bee6c4b"
        }
      ]
    }
  ],
  "data": {
    "created_at": "2019-07-26T19:52:47.000Z",
    "kid": "4e7e7e01-f073-4fb1-9733-33035b9a3de7",
    "modified_at": "2021-02-25T11:47:00.438Z",
    "repository": "kara.moe",
    "songorder": 3,
    "tags": {
      "authors": [
        "42ff8105-afa5-49c2-93b6-7951877c956d"
      ],
      "collections": [
        "c7db86a0-ff64-4044-9be4-66dd1ef1d1c1"
      ],
      "creators": [
        "03fe574b-c7f5-4520-96dc-47320c39e2cc"
      ],
      "families": [
        "0377db02-3af6-43b8-9b08-c759df3d25c3"
      ],
      "genres": [
        "a0aeef4a-6428-45ff-a6e1-468b595930c2"
      ],
      "groups": [
        "ae613721-1fbe-480d-ba6b-d6d0702b184d"
      ],
      "langs": [
        "4dcf9614-7914-42aa-99f4-dbce2e059133"
      ],
      "origins": [
        "938de218-5343-4865-94d3-fb33f2eaa152"
      ],
      "series": [
        "80a36279-ee4b-4a6e-aa61-4531ccd544d0"
      ],
      "singers": [
        "649d36f3-728d-4230-9655-acd474036312",
        "a3e69301-4f5a-43fd-96d4-0a51b23f34ac"
      ],
      "songtypes": [
        "f02ad9b3-0bd9-4aad-85b3-9976739ba0e4"
      ],
      "songwriters": [
        "1a26f5ce-9f55-463a-8aac-e4c4bb82cd28"
      ],
      "franchises": [
        "8736c98c-8f96-4e0e-96a9-1d6eb10be540"
      ]
    },
    "title": "Supernova!",
    "titles": {
      "eng": "Supernova!",
      "jpn": "スパノバ!"
    },
    "year": 2013,
    "titles_default_language": "eng"
  }
}