{
  "header": {
    "version": 4,
    "description": "Karaoke Mugen Karaoke Data File"
  },
  "medias": [
    {
      "version": "Default",
      "filename": "JPN - ZUTOMAYO - LIVE - Zanki.mp4",
      "audiogain": 4.89,
      "loudnorm": "-22.00,-12.19,4.80,-32.11,-1.28",
      "filesize": 147266860,
      "duration": 239,
      "default": true,
      "lyrics": [
        {
          "filename": "JPN - ZUTOMAYO - LIVE - Zanki.ass",
          "default": true,
          "version": "Default"
        }
      ]
    }
  ],
  "data": {
    "created_at": "2023-03-12T01:47:03.063Z",
    "ignoreHooks": false,
    "kid": "1b66f23c-68db-490d-9923-88322d63619f",
    "modified_at": "2023-03-12T16:58:36.771Z",
    "parents": [
      "74ca8487-bfe8-4888-8185-a9ce4a85631a"
    ],
    "repository": "kara.moe",
    "tags": {
      "authors": [
        "5e93f02a-bcd1-40a9-ba7a-91ada6683aea"
      ],
      "collections": [
        "dbcf2c22-524d-4708-99bb-601703633927"
      ],
      "families": [
        "5391f9fe-638c-415f-8dc9-958e3a2c5787"
      ],
      "groups": [
        "8e209ae4-4381-438f-89dc-1b21752027d2",
        "f5e7d2fc-0cbb-4fb9-a84a-b25dfb0e9e77"
      ],
      "langs": [
        "4dcf9614-7914-42aa-99f4-dbce2e059133"
      ],
      "singers": [
        "d3f693d0-7d45-465e-82ed-a6723c600008"
      ],
      "singergroups": [
        "c7d361f6-c1cf-44b2-b40a-a18aa90f2d8f"
      ],
      "songtypes": [
        "a0167949-580c-4de3-bf13-497e462e02f3"
      ],
      "songwriters": [
        "c7d361f6-c1cf-44b2-b40a-a18aa90f2d8f",
        "c83db176-81d3-42fe-bd43-daaa2790da33"
      ]
    },
    "titles": {
      "eng": "Time Left",
      "jpn": "残機",
      "qro": "Zanki"
    },
    "titles_default_language": "qro",
    "year": 2022
  }
}