{
  "header": {
    "version": 4,
    "description": "Karaoke Mugen Karaoke Data File"
  },
  "medias": [
    {
      "version": "Default",
      "filename": "JPN - Vividred Operation - OP - ENERGY.mp4",
      "audiogain": -0.08,
      "loudnorm": "-17.21,-4.78,5.70,-27.28,-1.25",
      "filesize": 52609330,
      "duration": 92,
      "default": true,
      "lyrics": [
        {
          "filename": "JPN - Vividred Operation - OP - ENERGY.ass",
          "default": true,
          "version": "Default"
        }
      ]
    }
  ],
  "data": {
    "created_at": "2017-10-11T17:02:05.000Z",
    "kid": "7593e421-bdf2-4720-b581-682ccca7f34f",
    "modified_at": "2021-10-28T15:53:11.732Z",
    "repository": "kara.moe",
    "tags": {
      "authors": [
        "fa399f2f-ea1d-4902-8796-ea6d8218aff0"
      ],
      "collections": [
        "c7db86a0-ff64-4044-9be4-66dd1ef1d1c1"
      ],
      "creators": [
        "b96e3686-bbe0-4b9e-815a-a278d5ff31be"
      ],
      "families": [
        "0377db02-3af6-43b8-9b08-c759df3d25c3"
      ],
      "groups": [
        "ae613721-1fbe-480d-ba6b-d6d0702b184d"
      ],
      "langs": [
        "4dcf9614-7914-42aa-99f4-dbce2e059133"
      ],
      "misc": [
        "fe819ff1-9db8-4a0f-85dc-0e322c9126c4"
      ],
      "origins": [
        "938de218-5343-4865-94d3-fb33f2eaa152"
      ],
      "series": [
        "5d5a2d5b-66ea-4d58-8364-5e046b159093"
      ],
      "singers": [
        "188b2cdb-6748-41da-8c87-121f3e447cb4"
      ],
      "songtypes": [
        "f02ad9b3-0bd9-4aad-85b3-9976739ba0e4"
      ],
      "songwriters": [
        "2d5d6566-491e-46fb-b2ee-74a7308d21e9",
        "eb05d553-46d2-46dd-9d77-f74681796e13"
      ]
    },
    "titles": {
      "eng": "ENERGY"
    },
    "title": "ENERGY",
    "year": 2013,
    "titles_default_language": "eng"
  }
}