{
  "header": {
    "version": 4,
    "description": "Karaoke Mugen Karaoke Data File"
  },
  "medias": [
    {
      "version": "Default",
      "filename": "JPN - GUMI, KAITO - MV - Nemesis no Juukou.mp4",
      "audiogain": -10.29,
      "loudnorm": "-7.28,1.21,8.40,-17.66,-0.67",
      "filesize": 35120577,
      "duration": 303,
      "default": true,
      "lyrics": [
        {
          "filename": "JPN - GUMI, KAITO - MV - Nemesis no Juukou.ass",
          "default": true,
          "version": "Default"
        }
      ]
    }
  ],
  "data": {
    "created_at": "2023-01-02T22:12:29.724Z",
    "ignoreHooks": false,
    "kid": "fee0f439-afa5-418a-a9c4-b6e9e3b88616",
    "modified_at": "2023-01-02T22:56:28.823Z",
    "repository": "kara.moe",
    "tags": {
      "authors": [
        "2c1f4c76-4de9-4548-9aa5-bc64ab296076"
      ],
      "collections": [
        "c7db86a0-ff64-4044-9be4-66dd1ef1d1c1"
      ],
      "creators": [
        "9fae8414-d235-4dd1-8e57-146a0942f7a7",
        "cffef61f-6d8a-46c9-98ef-98a60a76a2d5"
      ],
      "families": [
        "0377db02-3af6-43b8-9b08-c759df3d25c3"
      ],
      "genres": [
        "45623cae-6d68-4304-a49b-896d1d6f4580"
      ],
      "groups": [
        "ae613721-1fbe-480d-ba6b-d6d0702b184d"
      ],
      "langs": [
        "4dcf9614-7914-42aa-99f4-dbce2e059133"
      ],
      "misc": [
        "86705d4b-24e4-4756-9687-2b9c98bcf366",
        "1d6ceadf-a885-47e5-b23b-c07bf668a424"
      ],
      "singers": [
        "088ee286-73a1-4919-8503-68dbc81df761",
        "dafdeefa-0a96-44df-9653-aeb88c400e33"
      ],
      "songtypes": [
        "7be1b15c-cff8-4b37-a649-5c90f3d569a9"
      ],
      "songwriters": [
        "37c8a285-0ba5-4b66-8e07-fd17e0b0f235"
      ],
      "warnings": [
        "e82ce681-6d7b-4fb6-abe4-daa8aaa9bbf9"
      ],
      "franchises": [
        "e2348e5c-0175-4c47-8c8c-12d34028664b"
      ]
    },
    "titles": {
      "eng": "The Muzzle of Nemesis",
      "jpn": "ネメシスの銃口",
      "qro": "Nemesis no Juukou"
    },
    "titles_default_language": "qro",
    "titles_aliases": [
      "Satan's Revenge"
    ],
    "year": 2014
  }
}