{
  "header": {
    "version": 4,
    "description": "Karaoke Mugen Karaoke Data File"
  },
  "medias": [
    {
      "version": "Default",
      "filename": "JPN - Shiina Natsukawa - MV - Hokori Takaki Idol.mp4",
      "audiogain": -12.32,
      "loudnorm": "-6.02,1.52,6.10,-16.21,-0.72",
      "filesize": 120009602,
      "duration": 254,
      "default": true,
      "lyrics": [
        {
          "filename": "JPN - Shiina Natsukawa - MV - Hokori Takaki Idol.ass",
          "default": true,
          "version": "Default"
        }
      ]
    }
  ],
  "data": {
    "created_at": "2022-08-10T16:45:53.965Z",
    "ignoreHooks": false,
    "kid": "02298f49-19d4-43a2-bc31-bfce1a847252",
    "modified_at": "2022-09-02T20:47:21.921Z",
    "parents": [
      "9ef2e9e0-43ab-43ff-9aa6-e658c33324f4"
    ],
    "repository": "kara.moe",
    "tags": {
      "authors": [
        "278c6742-0b75-43dd-b317-2ea112952b4a"
      ],
      "collections": [
        "c7db86a0-ff64-4044-9be4-66dd1ef1d1c1"
      ],
      "creators": [
        "bdc4c8e4-da84-4b7d-b812-aed85fc0285a"
      ],
      "families": [
        "0377db02-3af6-43b8-9b08-c759df3d25c3"
      ],
      "genres": [
        "caa86df2-0d59-474b-885c-f240a9e891b0"
      ],
      "groups": [
        "8c22c899-b3ed-42da-a548-ce00f950798b",
        "8e209ae4-4381-438f-89dc-1b21752027d2"
      ],
      "langs": [
        "4dcf9614-7914-42aa-99f4-dbce2e059133"
      ],
      "singers": [
        "cdf462a4-d0ff-4a2c-8c79-a9028cc6395a"
      ],
      "songtypes": [
        "7be1b15c-cff8-4b37-a649-5c90f3d569a9"
      ],
      "songwriters": [
        "40efd6dd-c527-468a-88d1-024884f98d3d",
        "830a59c3-38ab-404b-9d85-4a5d352368fd",
        "af0dc126-897e-4390-a7a1-cbfed65c2925"
      ]
    },
    "titles": {
      "qro": "Hokori Takaki Idol"
    },
    "titles_default_language": "qro",
    "title": "Hokori Takaki Idol",
    "year": 2021
  }
}