{
  "header": {
    "version": 4,
    "description": "Karaoke Mugen Karaoke Data File"
  },
  "medias": [
    {
      "version": "Default",
      "filename": "JPN - Bleach - AMV - Alones ~ Full Vers.mp4",
      "audiogain": -8.59,
      "loudnorm": "-9.09,1.11,7.20,-19.26,-1.06",
      "filesize": 68830790,
      "duration": 258,
      "default": true,
      "lyrics": [
        {
          "filename": "JPN - Bleach - AMV - Alones ~ Full Vers.ass",
          "default": true,
          "version": "Default",
          "subchecksum": "85595f34d7aeac5dbe6e50a0cf1705a8"
        }
      ]
    }
  ],
  "data": {
    "created_at": "2021-06-06T19:21:38.392Z",
    "kid": "a912ad73-80e9-4b75-a0a9-42423ffe1c90",
    "modified_at": "2021-06-06T19:25:57.008Z",
    "parents": [
      "06d69342-f9dc-4b31-8c12-a7e1a29dfac9"
    ],
    "repository": "kara.moe",
    "tags": {
      "authors": [
        "1db1738f-acdc-42fc-aec3-60f4bddf660d"
      ],
      "collections": [
        "c7db86a0-ff64-4044-9be4-66dd1ef1d1c1"
      ],
      "creators": [
        "6fa9de67-21cf-420b-9ddb-57edb5abe523"
      ],
      "families": [
        "0377db02-3af6-43b8-9b08-c759df3d25c3"
      ],
      "genres": [
        "a0aeef4a-6428-45ff-a6e1-468b595930c2"
      ],
      "groups": [
        "3c14c864-533c-49e6-a3cc-6969f1233775"
      ],
      "langs": [
        "4dcf9614-7914-42aa-99f4-dbce2e059133"
      ],
      "origins": [
        "938de218-5343-4865-94d3-fb33f2eaa152"
      ],
      "series": [
        "d68e6557-fdc3-4c8b-805c-9778918abd03"
      ],
      "singers": [
        "8586ede8-2799-42e4-a7e7-dd26c4709aed"
      ],
      "songtypes": [
        "a6c79ce5-89ee-4d50-afe8-3abd7317f6c2"
      ],
      "songwriters": [
        "a4e16e48-831f-4cfe-a0f2-7d41e71ecfa8"
      ],
      "versions": [
        "c2143a7f-6970-450e-8a79-0302db9220a9"
      ],
      "franchises": [
        "d68e6557-fdc3-4c8b-805c-9778918abd03"
      ]
    },
    "title": "Alones",
    "titles": {
      "eng": "Alones"
    },
    "year": 2007,
    "titles_default_language": "eng"
  }
}