{
  "header": {
    "version": 4,
    "description": "Karaoke Mugen Karaoke Data File"
  },
  "medias": [
    {
      "version": "Default",
      "filename": "JPN - Toradora! - ED3 - Holy Night.mp4",
      "audiogain": -2.57,
      "loudnorm": "-16.14,-1.17,4.50,-26.37,-0.53",
      "filesize": 22157092,
      "duration": 112,
      "default": true,
      "lyrics": [
        {
          "filename": "JPN - Toradora! - ED3 - Holy Night.ass",
          "default": true,
          "version": "Default"
        }
      ]
    }
  ],
  "data": {
    "created_at": "2017-10-11T17:01:12.000Z",
    "ignoreHooks": false,
    "kid": "5d5f96d8-2c53-456b-a28f-433f3197c994",
    "modified_at": "2022-03-24T14:49:31.865Z",
    "parents": [
      "031f84e7-1489-40e3-b322-4942d79b0389"
    ],
    "repository": "kara.moe",
    "songorder": 3,
    "tags": {
      "authors": [
        "6bebcb04-2694-453c-9e0c-eb1a2e2718d9",
        "fa399f2f-ea1d-4902-8796-ea6d8218aff0"
      ],
      "collections": [
        "c7db86a0-ff64-4044-9be4-66dd1ef1d1c1"
      ],
      "creators": [
        "802a8ac8-b16f-40a4-944b-99956798c906"
      ],
      "families": [
        "0377db02-3af6-43b8-9b08-c759df3d25c3"
      ],
      "groups": [
        "3c14c864-533c-49e6-a3cc-6969f1233775"
      ],
      "langs": [
        "4dcf9614-7914-42aa-99f4-dbce2e059133"
      ],
      "misc": [
        "fe819ff1-9db8-4a0f-85dc-0e322c9126c4"
      ],
      "origins": [
        "938de218-5343-4865-94d3-fb33f2eaa152"
      ],
      "series": [
        "b0179770-b4ea-468c-82b5-09e4bfb57f08"
      ],
      "singers": [
        "4d3d3977-6aa4-47ee-b216-a2955a5f60b9",
        "9fcbf4f4-a7aa-49eb-b5ec-4bda64c16c93"
      ],
      "songtypes": [
        "38c77c56-2b95-4040-b676-0994a8cb0597"
      ],
      "songwriters": [
        "61cd5eca-5f2b-4ec0-8cfa-8783b09380c0",
        "98372909-b51a-4e23-a619-f992454518f6"
      ]
    },
    "titles": {
      "eng": "Holy Night",
      "jpn": "ホーリーナイト"
    },
    "titles_default_language": "eng",
    "title": "Holy Night",
    "year": 2008
  }
}