{
  "header": {
    "version": 4,
    "description": "Karaoke Mugen Karaoke Data File"
  },
  "medias": [
    {
      "version": "Default",
      "filename": "JPN - InuYasha - ED5 - Shinjitsu no Uta.mp4",
      "audiogain": 0.75,
      "loudnorm": "-19.74,-7.06,8.70,-29.93,-0.96",
      "filesize": 34273018,
      "duration": 96,
      "default": true,
      "lyrics": [
        {
          "filename": "JPN - InuYasha - ED5 - Shinjitsu no Uta.ass",
          "default": true,
          "version": "Default"
        }
      ]
    }
  ],
  "data": {
    "comment": "Current subs are mistimed. Retimed from scratch and added more progressive fill for hold notes",
    "created_at": "2017-10-11T17:01:58.000Z",
    "ignoreHooks": false,
    "kid": "2853fd9f-726e-4fef-8bfd-3308b7699e3c",
    "modified_at": "2023-01-10T02:00:19.350Z",
    "repository": "kara.moe",
    "songorder": 5,
    "tags": {
      "authors": [
        "5bdaba57-27f8-4568-8806-76a807728766"
      ],
      "collections": [
        "c7db86a0-ff64-4044-9be4-66dd1ef1d1c1"
      ],
      "creators": [
        "ef8f80e1-d244-4aea-b7f0-984d6dd4b82b"
      ],
      "families": [
        "0377db02-3af6-43b8-9b08-c759df3d25c3"
      ],
      "genres": [
        "4b80eca6-f44f-4262-a8d0-b6879d6b70cb",
        "a0aeef4a-6428-45ff-a6e1-468b595930c2"
      ],
      "groups": [
        "3c14c864-533c-49e6-a3cc-6969f1233775"
      ],
      "langs": [
        "4dcf9614-7914-42aa-99f4-dbce2e059133"
      ],
      "origins": [
        "938de218-5343-4865-94d3-fb33f2eaa152"
      ],
      "series": [
        "6dee9f39-547e-4426-8484-3d375fd586da"
      ],
      "singers": [
        "6f1aaccd-0f96-4fa9-ae5f-4e9d47f103a6"
      ],
      "songtypes": [
        "38c77c56-2b95-4040-b676-0994a8cb0597"
      ],
      "songwriters": [
        "6f1aaccd-0f96-4fa9-ae5f-4e9d47f103a6"
      ],
      "franchises": [
        "6dee9f39-547e-4426-8484-3d375fd586da"
      ]
    },
    "titles": {
      "jpn": "真実の詩",
      "qro": "Shinjitsu no Uta"
    },
    "titles_default_language": "qro",
    "year": 2002
  }
}