{
  "header": {
    "version": 4,
    "description": "Karaoke Mugen Karaoke Data File"
  },
  "medias": [
    {
      "version": "Default",
      "filename": "JPN - Project SEKAI COLORFUL STAGE! - GAME MV - Showtime Ruler ~ Short Vers.mp4",
      "audiogain": -8.67,
      "loudnorm": "-9.84,0.95,5.90,-19.92,-1.01",
      "filesize": 40169524,
      "duration": 109,
      "default": true,
      "lyrics": [
        {
          "filename": "JPN - Project SEKAI COLORFUL STAGE! - GAME MV - Showtime Ruler ~ Short Vers.ass",
          "default": true,
          "version": "Default"
        }
      ]
    }
  ],
  "data": {
    "created_at": "2022-04-25T23:22:29.935Z",
    "ignoreHooks": false,
    "kid": "80f39673-93b0-49c6-80ed-acbf1d160b00",
    "modified_at": "2022-12-26T21:58:04.760Z",
    "repository": "kara.moe",
    "tags": {
      "authors": [
        "5a629611-96b4-422c-b309-ba7a58e263a2"
      ],
      "collections": [
        "c7db86a0-ff64-4044-9be4-66dd1ef1d1c1"
      ],
      "creators": [
        "1e5648fb-22fc-474d-b865-254eb31fa000"
      ],
      "genres": [
        "45623cae-6d68-4304-a49b-896d1d6f4580"
      ],
      "groups": [
        "8e209ae4-4381-438f-89dc-1b21752027d2"
      ],
      "langs": [
        "4dcf9614-7914-42aa-99f4-dbce2e059133"
      ],
      "misc": [
        "1d6ceadf-a885-47e5-b23b-c07bf668a424"
      ],
      "platforms": [
        "213a1a15-e73a-4a08-b3f6-b6e2745a82e5"
      ],
      "series": [
        "192b33fb-638a-4680-bdb2-a5adb9889849"
      ],
      "singers": [
        "1a2a3b83-6635-4b06-8574-4154df44feac",
        "48dc9597-7cd1-482f-8dc0-3e7c72f4b7c3",
        "c889c0b5-a571-408f-8b6a-b3c1d4c6296f",
        "dbb8d613-a120-46c7-bb42-bc6c1efb61f7",
        "fae72c0f-4ef4-4268-9bff-465a0dec95e4"
      ],
      "singergroups": [
        "3978f3e3-2631-47a9-bfc8-9d2804c1074d"
      ],
      "songtypes": [
        "7be1b15c-cff8-4b37-a649-5c90f3d569a9"
      ],
      "songwriters": [
        "07e0e052-5127-4973-8baa-5d5e4365fec0"
      ],
      "versions": [
        "d125c80a-86c1-4321-88e9-07b7800679b6"
      ],
      "origins": [
        "dbedd6b3-d125-4cd8-aa32-c4175e4ca3a3"
      ]
    },
    "titles": {
      "eng": "Showtime Ruler",
      "jpn": "ショウタイム・ルーラー"
    },
    "titles_default_language": "eng",
    "year": 2021
  }
}