{
  "header": {
    "version": 4,
    "description": "Karaoke Mugen Karaoke Data File"
  },
  "medias": [
    {
      "version": "Default",
      "filename": "JPN - Touhou - AUDIO - Help me, ERINNNNNN!! - ASAP ~ Cover Vers.mp3",
      "audiogain": -9.39,
      "loudnorm": "-7.68,0.55,2.80,-17.73,-0.67",
      "filesize": 4537419,
      "duration": 208,
      "default": true,
      "lyrics": [
        {
          "filename": "JPN - Touhou - AUDIO - Help me, ERINNNNNN!! - ASAP ~ Cover Vers.ass",
          "default": true,
          "version": "Default"
        }
      ]
    }
  ],
  "data": {
    "comment": "Quelle galère pour avoir les paroles originales de cette version. Merci Atsuyas et Gonpa pour l'aide.",
    "created_at": "2023-01-07T13:56:25.778Z",
    "ignoreHooks": false,
    "kid": "9197a9f8-d5b0-4762-9ac7-626ab0381651",
    "modified_at": "2023-01-07T15:09:00.099Z",
    "parents": [
      "810aa8c5-0d62-4928-9198-1947e24ce165"
    ],
    "repository": "kara.moe",
    "tags": {
      "authors": [
        "fb28c6d3-a81e-40c0-9a4c-e3268c60a64b"
      ],
      "collections": [
        "c7db86a0-ff64-4044-9be4-66dd1ef1d1c1"
      ],
      "creators": [
        "eb49131c-b890-422d-9947-0e82292801e1"
      ],
      "groups": [
        "ae613721-1fbe-480d-ba6b-d6d0702b184d"
      ],
      "langs": [
        "4dcf9614-7914-42aa-99f4-dbce2e059133"
      ],
      "series": [
        "1bdaa5a1-dfa6-4365-b746-7a0b194dafd6"
      ],
      "singers": [
        "a6e3509f-befc-4b8b-ac1c-3614e1c32447"
      ],
      "songtypes": [
        "42a262ae-acba-4ab5-a446-c5789c96c821"
      ],
      "songwriters": [
        "26cb5252-8510-49e0-897c-a611a05fc056",
        "3059eca0-7b9f-41e0-a5a6-2e7e3be5d025",
        "5e9a5d91-ea80-4515-acdf-43f023a54467",
        "a6e3509f-befc-4b8b-ac1c-3614e1c32447"
      ],
      "versions": [
        "03e1e1d2-8641-47b7-bbcb-39a3df9ff21c"
      ],
      "franchises": [
        "1bdaa5a1-dfa6-4365-b746-7a0b194dafd6"
      ]
    },
    "titles": {
      "eng": "Help me, ERINNNNNN!! - ASAP"
    },
    "titles_default_language": "eng",
    "titles_aliases": [
      "Eirin"
    ],
    "year": 2018
  }
}