{
  "header": {
    "version": 4,
    "description": "Karaoke Mugen Karaoke Data File"
  },
  "medias": [
    {
      "version": "Full.",
      "filename": "JPN - 3-gatsu no Lion - MV - Fighter ~ Full Vers.mp4",
      "audiogain": -8.56,
      "loudnorm": "-8.02,0.81,10.10,-18.37,-2.27",
      "filesize": 97183023,
      "duration": 357,
      "default": true,
      "lyrics": [
        {
          "filename": "JPN - 3-gatsu no Lion - MV - Fighter ~ Full Vers.ass",
          "default": true,
          "version": "Default",
          "subchecksum": "7d64ae7fbd5a495ce1f4f0ac340c682a"
        }
      ]
    }
  ],
  "data": {
    "created_at": "2018-09-28T18:19:01.000Z",
    "kid": "853df7f7-0c6a-448d-a278-d1e285d9a71d",
    "modified_at": "2021-05-23T22:38:24.553Z",
    "parents": [
      "8578639f-7c4b-4246-97d2-15b0ba3908b0"
    ],
    "repository": "kara.moe",
    "tags": {
      "authors": [
        "6bebcb04-2694-453c-9e0c-eb1a2e2718d9"
      ],
      "collections": [
        "c7db86a0-ff64-4044-9be4-66dd1ef1d1c1"
      ],
      "creators": [
        "1c8b6467-5ce2-4990-9155-9d82e4bb0de4",
        "6697d31b-7f60-4d11-b237-8eb72740fd8a"
      ],
      "families": [
        "0377db02-3af6-43b8-9b08-c759df3d25c3"
      ],
      "groups": [
        "ae613721-1fbe-480d-ba6b-d6d0702b184d"
      ],
      "langs": [
        "4dcf9614-7914-42aa-99f4-dbce2e059133"
      ],
      "misc": [
        "86705d4b-24e4-4756-9687-2b9c98bcf366"
      ],
      "series": [
        "bfd9a244-40d0-4ec8-81ba-041ae07a6797"
      ],
      "singers": [
        "a027724c-6136-4dc1-b585-7ae8f780c8d2"
      ],
      "songtypes": [
        "7be1b15c-cff8-4b37-a649-5c90f3d569a9"
      ],
      "songwriters": [
        "20a392bf-0517-4d22-a08c-46345d1077fe"
      ],
      "versions": [
        "c2143a7f-6970-450e-8a79-0302db9220a9"
      ],
      "franchises": [
        "bfd9a244-40d0-4ec8-81ba-041ae07a6797"
      ]
    },
    "title": "Fighter",
    "titles": {
      "eng": "Fighter",
      "jpn": "ファイター"
    },
    "year": 2014,
    "titles_default_language": "eng"
  }
}