{
  "header": {
    "version": 4,
    "description": "Karaoke Mugen Karaoke Data File"
  },
  "medias": [
    {
      "version": "Default",
      "filename": "JPN - Hagane no Renkinjutsushi Fullmetal Alchemist - AUDIO ED4 - Shunkan Sentimental ~ Full Off Vocal Vers.mp3",
      "audiogain": -8.82,
      "loudnorm": "-8.43,2.02,4.40,-18.55,-0.13",
      "filesize": 9111562,
      "duration": 226,
      "default": true,
      "lyrics": [
        {
          "filename": "JPN - Hagane no Renkinjutsushi Fullmetal Alchemist - AUDIO ED4 - Shunkan Sentimental ~ Full Off Vocal Vers.ass",
          "default": true,
          "version": "Default",
          "subchecksum": "95f4853f6ea5ea7536288d353753fa1c"
        }
      ]
    }
  ],
  "data": {
    "created_at": "2021-02-22T18:48:38.800Z",
    "kid": "41a158ab-8d07-4fd7-b370-d97f59108c12",
    "modified_at": "2021-02-25T11:35:03.485Z",
    "parents": [
      "0094db71-7be3-43a6-b21d-ea7bd2e507b4"
    ],
    "repository": "kara.moe",
    "songorder": 4,
    "tags": {
      "authors": [
        "0081300d-c0f9-4cff-a4f7-e726a293a76b",
        "1db1738f-acdc-42fc-aec3-60f4bddf660d",
        "90698f28-1d62-4673-82c4-33ae96b1ba97"
      ],
      "collections": [
        "c7db86a0-ff64-4044-9be4-66dd1ef1d1c1"
      ],
      "creators": [
        "221d01d3-cf22-45d6-b187-5e7806dd6d1e"
      ],
      "groups": [
        "ae613721-1fbe-480d-ba6b-d6d0702b184d"
      ],
      "langs": [
        "4dcf9614-7914-42aa-99f4-dbce2e059133"
      ],
      "origins": [
        "938de218-5343-4865-94d3-fb33f2eaa152"
      ],
      "series": [
        "9efa9cb0-6474-4f49-9757-08aed6e3274d"
      ],
      "singers": [
        "581aad8c-8d51-44af-8b8c-4b1a507484eb"
      ],
      "songtypes": [
        "38c77c56-2b95-4040-b676-0994a8cb0597",
        "42a262ae-acba-4ab5-a446-c5789c96c821"
      ],
      "songwriters": [
        "9d7f1e85-9dfb-4431-a9b7-42eddf68d8e2",
        "aae8c3f0-8299-49b9-8b60-83c73c65a760"
      ],
      "versions": [
        "c0cc87b9-55b9-40f0-878a-fbb9e34c151e",
        "c2143a7f-6970-450e-8a79-0302db9220a9"
      ],
      "franchises": [
        "3df1aaa7-e69a-4a6f-86cb-75544f0dd48a"
      ]
    },
    "title": "Shunkan Sentimental",
    "titles": {
      "qro": "Shunkan Sentimental",
      "jpn": "瞬間センチメンタル"
    },
    "year": 2010,
    "titles_default_language": "qro"
  }
}