{
  "header": {
    "version": 4,
    "description": "Karaoke Mugen Karaoke Data File"
  },
  "medias": [
    {
      "version": "Default",
      "filename": "JPN - Meitantei Poirot to Marple - ED - Wasurenaide.mp4",
      "audiogain": -5.91,
      "loudnorm": "-11.93,-0.13,3.90,-22.22,-0.43",
      "filesize": 14646418,
      "duration": 91,
      "default": true,
      "lyrics": [
        {
          "filename": "JPN - Meitantei Poirot to Marple - ED - Wasurenaide.ass",
          "default": true,
          "version": "Default"
        }
      ]
    }
  ],
  "data": {
    "created_at": "2017-10-11T17:03:11.000Z",
    "ignoreHooks": false,
    "kid": "cfd6af28-2b43-47e9-8df1-01ba410984cc",
    "modified_at": "2022-10-15T18:58:52.330Z",
    "repository": "kara.moe",
    "tags": {
      "authors": [
        "5bdaba57-27f8-4568-8806-76a807728766"
      ],
      "collections": [
        "c7db86a0-ff64-4044-9be4-66dd1ef1d1c1"
      ],
      "creators": [
        "03fe574b-c7f5-4520-96dc-47320c39e2cc"
      ],
      "families": [
        "0377db02-3af6-43b8-9b08-c759df3d25c3"
      ],
      "groups": [
        "3c14c864-533c-49e6-a3cc-6969f1233775"
      ],
      "langs": [
        "4dcf9614-7914-42aa-99f4-dbce2e059133"
      ],
      "origins": [
        "938de218-5343-4865-94d3-fb33f2eaa152"
      ],
      "series": [
        "1d0d06ff-096a-4ff6-b9aa-7c17380f3062"
      ],
      "singers": [
        "0e220378-a030-4fdd-83e7-ee81747ba4d7"
      ],
      "songtypes": [
        "38c77c56-2b95-4040-b676-0994a8cb0597"
      ],
      "songwriters": [
        "0e220378-a030-4fdd-83e7-ee81747ba4d7",
        "fcfd94c5-10a5-427d-ab61-ef27b79742f3"
      ]
    },
    "titles": {
      "jpn": "忘れないで",
      "qro": "Wasurenaide"
    },
    "titles_default_language": "qro",
    "title": "Wasurenaide",
    "year": 2004
  }
}