{
  "header": {
    "version": 4,
    "description": "Karaoke Mugen Karaoke Data File"
  },
  "medias": [
    {
      "version": "Default",
      "filename": "JPN - Basquash! - OP1 - nO limiT.mp4",
      "audiogain": 0.95,
      "loudnorm": "-18.47,-6.55,4.00,-28.58,-0.80",
      "filesize": 58049810,
      "duration": 92,
      "default": true,
      "lyrics": [
        {
          "filename": "JPN - Basquash! - OP1 - nO limiT.ass",
          "default": true,
          "version": "Default",
          "subchecksum": "eb02cee2633b5319fca80db9dcaa2091"
        }
      ]
    }
  ],
  "data": {
    "created_at": "2017-10-11T17:03:10.000Z",
    "kid": "b98b3468-91c0-4ba5-a334-807cd186d1d6",
    "modified_at": "2021-02-25T10:51:06.192Z",
    "repository": "kara.moe",
    "songorder": 1,
    "tags": {
      "authors": [
        "5bdaba57-27f8-4568-8806-76a807728766"
      ],
      "collections": [
        "c7db86a0-ff64-4044-9be4-66dd1ef1d1c1"
      ],
      "creators": [
        "0041fabf-4b82-4ecd-961b-e4c49b8c88be"
      ],
      "families": [
        "0377db02-3af6-43b8-9b08-c759df3d25c3"
      ],
      "groups": [
        "3c14c864-533c-49e6-a3cc-6969f1233775"
      ],
      "langs": [
        "4dcf9614-7914-42aa-99f4-dbce2e059133"
      ],
      "origins": [
        "938de218-5343-4865-94d3-fb33f2eaa152"
      ],
      "series": [
        "57b3c4f5-7fa3-45fd-967a-d550b097a891"
      ],
      "singers": [
        "001a6966-3d4d-4897-975d-4e9e2e052732",
        "1e2a522f-776f-491a-882a-6892d061b4a2",
        "73b841c7-d13c-44b4-9018-1727721742d1",
        "e34ce993-749d-4987-b870-91ec452e0678"
      ],
      "songtypes": [
        "f02ad9b3-0bd9-4aad-85b3-9976739ba0e4"
      ],
      "songwriters": [
        "2d5fa3d5-b93c-426d-8b41-eb3310380872",
        "e9be2db6-089a-4748-bb7c-e5054c58af19"
      ]
    },
    "title": "nO limiT",
    "titles": {
      "eng": "nO limiT"
    },
    "year": 2009,
    "titles_default_language": "eng"
  }
}