{
  "header": {
    "version": 4,
    "description": "Karaoke Mugen Karaoke Data File"
  },
  "medias": [
    {
      "version": "Default",
      "filename": "JPN - Teen Titans - IN - ~Kimi ni GO!~.mp4",
      "audiogain": -6.92,
      "loudnorm": "-10.60,0.25,3.20,-21.06,-0.33",
      "filesize": 41983071,
      "duration": 277,
      "default": true,
      "lyrics": [
        {
          "filename": "JPN - Teen Titans - IN - ~Kimi ni GO!~.ass",
          "default": true,
          "version": "Default"
        }
      ]
    }
  ],
  "data": {
    "created_at": "2017-10-11T17:01:44.000Z",
    "ignoreHooks": false,
    "kid": "d26fc8a0-a99f-43e0-a0d3-e20f58362108",
    "modified_at": "2023-02-04T15:46:19.486Z",
    "repository": "kara.moe",
    "tags": {
      "authors": [
        "89d64542-3f1d-4abe-b837-58bfb56bae06"
      ],
      "collections": [
        "c7db86a0-ff64-4044-9be4-66dd1ef1d1c1"
      ],
      "creators": [
        "936e8da0-8134-467c-914b-22a1f4474b37"
      ],
      "families": [
        "0377db02-3af6-43b8-9b08-c759df3d25c3"
      ],
      "groups": [
        "3c14c864-533c-49e6-a3cc-6969f1233775",
        "8c22c899-b3ed-42da-a548-ce00f950798b"
      ],
      "langs": [
        "4dcf9614-7914-42aa-99f4-dbce2e059133"
      ],
      "origins": [
        "938de218-5343-4865-94d3-fb33f2eaa152"
      ],
      "series": [
        "d14008f2-a968-43cf-8002-86a06c43c902"
      ],
      "singers": [
        "5718ef83-1094-440f-9f24-b4dd99e70ffb"
      ],
      "songtypes": [
        "5e5250d9-351a-4a82-98eb-55db50ad8962"
      ],
      "songwriters": [
        "27a2de38-3ace-4695-8dce-8d47fb6f628f",
        "5718ef83-1094-440f-9f24-b4dd99e70ffb"
      ],
      "franchises": [
        "b33f37bb-6c8f-4466-8f2d-7a9fd4071452"
      ]
    },
    "titles": {
      "jpn": "〜キミにGO!〜",
      "qro": "~Kimi ni GO!~"
    },
    "titles_default_language": "qro",
    "titles_aliases": [
      "K2G"
    ],
    "year": 2003
  }
}