{
  "header": {
    "version": 4,
    "description": "Karaoke Mugen Karaoke Data File"
  },
  "medias": [
    {
      "version": "Default",
      "filename": "JPN - No.6 - IN - Buna no Mori de.avi",
      "audiogain": -4.19,
      "loudnorm": "-13.85,-0.03,3.60,-23.87,-0.77",
      "filesize": 3566158,
      "duration": 94,
      "default": true,
      "lyrics": [
        {
          "filename": "JPN - No.6 - IN - Buna no Mori de.ass",
          "default": true,
          "version": "Default",
          "subchecksum": "0bc3024539ba49905373231fc0d08d75"
        }
      ]
    }
  ],
  "data": {
    "created_at": "2017-10-11T17:01:25.000Z",
    "kid": "b3e266c7-7b03-4d12-847d-c309daf532fc",
    "modified_at": "2021-02-25T12:38:32.058Z",
    "repository": "kara.moe",
    "tags": {
      "authors": [
        "5bdaba57-27f8-4568-8806-76a807728766"
      ],
      "collections": [
        "c7db86a0-ff64-4044-9be4-66dd1ef1d1c1"
      ],
      "creators": [
        "57ffcdd9-7e4f-4971-85ce-0fb3aa8151ac"
      ],
      "families": [
        "0377db02-3af6-43b8-9b08-c759df3d25c3"
      ],
      "groups": [
        "ae613721-1fbe-480d-ba6b-d6d0702b184d"
      ],
      "langs": [
        "4dcf9614-7914-42aa-99f4-dbce2e059133"
      ],
      "origins": [
        "938de218-5343-4865-94d3-fb33f2eaa152"
      ],
      "series": [
        "fa736255-b0f7-409c-b51b-0112c966f7b9"
      ],
      "singers": [
        "7783788a-92d3-4e2a-b06b-e39e760cc6c7"
      ],
      "songtypes": [
        "5e5250d9-351a-4a82-98eb-55db50ad8962"
      ],
      "songwriters": [
        "24d7a9b2-cf40-40d3-8b20-55f7eb738dc8",
        "64224492-7ea9-41c3-a241-d36acb7256df"
      ]
    },
    "title": "Buna no Mori de",
    "titles": {
      "qro": "Buna no Mori de",
      "jpn": "ブナの森で"
    },
    "year": 2011,
    "titles_default_language": "qro"
  }
}