{
  "header": {
    "version": 4,
    "description": "Karaoke Mugen Karaoke Data File"
  },
  "medias": [
    {
      "version": "Goose House.",
      "filename": "JPN - Bishoujo Senshi Sailor Moon - REMIX STREAM - Moonlight Densetsu ~ Goose House Vers. ~ Cover Vers.mp4",
      "audiogain": -6.36,
      "loudnorm": "-12.62,0.83,4.10,-22.87,-0.88",
      "filesize": 68470270,
      "duration": 197,
      "default": true,
      "lyrics": [
        {
          "filename": "JPN - Bishoujo Senshi Sailor Moon - REMIX STREAM - Moonlight Densetsu ~ Goose House Vers. ~ Cover Vers.ass",
          "default": true,
          "version": "Default"
        }
      ]
    }
  ],
  "data": {
    "created_at": "2019-09-28T15:00:36.000Z",
    "kid": "5df92576-9056-405c-87f9-3e7ae693f71d",
    "modified_at": "2021-12-24T15:05:39.253Z",
    "parents": [
      "d630822b-31f9-4326-9e59-6c4e21862efa"
    ],
    "repository": "kara.moe",
    "tags": {
      "authors": [
        "57e2d8c3-b3f3-4b82-88a4-2491946b24d9"
      ],
      "collections": [
        "c7db86a0-ff64-4044-9be4-66dd1ef1d1c1"
      ],
      "families": [
        "5391f9fe-638c-415f-8dc9-958e3a2c5787"
      ],
      "groups": [
        "2b4e9972-5e17-481b-99f5-d0787c0ada56",
        "ae613721-1fbe-480d-ba6b-d6d0702b184d"
      ],
      "langs": [
        "4dcf9614-7914-42aa-99f4-dbce2e059133"
      ],
      "misc": [
        "ec4360fa-3e3c-4f6f-b0e1-fb8b12b6dd18"
      ],
      "series": [
        "c854f2ad-cc94-45b5-b7ba-993eeb9b2d31"
      ],
      "singers": [
        "ee11c54e-60b4-49ba-9b26-7a054484b00a"
      ],
      "songtypes": [
        "55ce3d79-dcc2-453c-b00a-60ce0c1eba1c"
      ],
      "songwriters": [
        "4afe8e80-16c6-4b14-b09b-733fedd6c193",
        "6bad2316-df4c-48f0-a6af-c313adad248e"
      ],
      "versions": [
        "03e1e1d2-8641-47b7-bbcb-39a3df9ff21c"
      ],
      "franchises": [
        "c854f2ad-cc94-45b5-b7ba-993eeb9b2d31"
      ]
    },
    "titles": {
      "qro": "Moonlight Densetsu ~ Goose House Vers.",
      "jpn": "ムーンライト伝説 ~ Goose House Vers."
    },
    "title": "Moonlight Densetsu ~ Goose House Vers.",
    "year": 2013,
    "titles_default_language": "qro"
  }
}