{
  "header": {
    "version": 4,
    "description": "Karaoke Mugen Karaoke Data File"
  },
  "medias": [
    {
      "version": "Default",
      "filename": "JPN - REOL, kradness - MV - Okochama Sensou.mp4",
      "audiogain": -10.62,
      "loudnorm": "-5.19,3.49,3.00,-15.30,-0.67",
      "filesize": 22642491,
      "duration": 213,
      "default": true,
      "lyrics": [
        {
          "filename": "JPN - REOL, kradness - MV - Okochama Sensou.ass",
          "default": true,
          "version": "Default"
        }
      ]
    }
  ],
  "data": {
    "created_at": "2022-01-21T07:32:37.238Z",
    "ignoreHooks": false,
    "kid": "ba8faecc-d6e7-47fa-a608-1268ce7d43da",
    "modified_at": "2023-02-05T12:41:47.849Z",
    "repository": "kara.moe",
    "tags": {
      "authors": [
        "4b50fcec-273e-4cc5-83f2-b156c2300f7f"
      ],
      "collections": [
        "c7db86a0-ff64-4044-9be4-66dd1ef1d1c1"
      ],
      "families": [
        "0377db02-3af6-43b8-9b08-c759df3d25c3"
      ],
      "groups": [
        "ae613721-1fbe-480d-ba6b-d6d0702b184d"
      ],
      "langs": [
        "4dcf9614-7914-42aa-99f4-dbce2e059133"
      ],
      "misc": [
        "1d6ceadf-a885-47e5-b23b-c07bf668a424"
      ],
      "singers": [
        "466ad700-8ba6-4dea-80a7-c0b763548a72",
        "8d5bcbe4-f9e1-41b0-9fdf-75c6b8c2ebed"
      ],
      "songtypes": [
        "7be1b15c-cff8-4b37-a649-5c90f3d569a9"
      ],
      "songwriters": [
        "466ad700-8ba6-4dea-80a7-c0b763548a72",
        "ff1aec1d-751a-40ff-bbff-a3f0fd5e9749"
      ]
    },
    "titles": {
      "eng": "Kiddie War",
      "jpn": "おこちゃま戦争",
      "qro": "Okochama Sensô"
    },
    "titles_default_language": "qro",
    "titles_aliases": [
      "Childish War",
      "Sensou"
    ],
    "year": 2013
  }
}