{
  "header": {
    "version": 4,
    "description": "Karaoke Mugen Karaoke Data File"
  },
  "medias": [
    {
      "version": "Map.",
      "filename": "JPN - Hataraku Maou-sama! - OP - Zero!! ~ Map Vers.mp4",
      "audiogain": -0.05,
      "loudnorm": "-17.67,-6.08,3.20,-27.83,-0.81",
      "filesize": 39987836,
      "duration": 90,
      "default": true,
      "lyrics": [
        {
          "filename": "JPN - Hataraku Maou-sama! - OP - Zero!! ~ Map Vers.ass",
          "default": true,
          "version": "Default",
          "subchecksum": "2a093a274085356f3130a2ff09c10402"
        }
      ]
    }
  ],
  "data": {
    "created_at": "2017-10-11T17:03:15.000Z",
    "kid": "4d9c3fc4-e153-4648-9cc8-3dd5c70c6692",
    "modified_at": "2021-02-25T11:37:44.709Z",
    "repository": "kara.moe",
    "tags": {
      "authors": [
        "5bdaba57-27f8-4568-8806-76a807728766"
      ],
      "collections": [
        "c7db86a0-ff64-4044-9be4-66dd1ef1d1c1"
      ],
      "creators": [
        "01b5630b-d291-4ad5-a781-2cb717804d18"
      ],
      "families": [
        "0377db02-3af6-43b8-9b08-c759df3d25c3"
      ],
      "genres": [
        "4b80eca6-f44f-4262-a8d0-b6879d6b70cb"
      ],
      "groups": [
        "ae613721-1fbe-480d-ba6b-d6d0702b184d"
      ],
      "langs": [
        "4dcf9614-7914-42aa-99f4-dbce2e059133"
      ],
      "origins": [
        "938de218-5343-4865-94d3-fb33f2eaa152"
      ],
      "series": [
        "4d2c32fc-93bf-43bd-82fa-2e9547f2d825"
      ],
      "singers": [
        "da2034ae-6d61-4f43-9700-4030f097ef13"
      ],
      "songtypes": [
        "f02ad9b3-0bd9-4aad-85b3-9976739ba0e4"
      ],
      "songwriters": [
        "acf1000c-da9d-4fe4-9722-966cf2c7914e"
      ],
      "versions": [
        "9f63c359-d1bf-425a-bcf5-b245c2c9211d"
      ]
    },
    "title": "Zero!! ~ Map Vers.",
    "titles": {
      "eng": "Zero!! ~ Map Vers.",
      "qro": "Zero!! ~ Map Vers."
    },
    "year": 2013,
    "titles_default_language": "eng"
  }
}