{
  "header": {
    "version": 4,
    "description": "Karaoke Mugen Karaoke Data File"
  },
  "medias": [
    {
      "version": "Default",
      "filename": "JPN - Love Live! Sunshine!! - LIVE - Guilty Night, Guilty Kiss! ~ Full Vers.mp4",
      "audiogain": -8.77,
      "loudnorm": "-8.09,1.43,2.60,-18.20,-0.38",
      "filesize": 245838417,
      "duration": 268,
      "default": true,
      "lyrics": [
        {
          "filename": "JPN - Love Live! Sunshine!! - LIVE - Guilty Night, Guilty Kiss! ~ Full Vers.ass",
          "default": true,
          "version": "Default"
        }
      ]
    }
  ],
  "data": {
    "created_at": "2018-11-07T10:24:26.000Z",
    "ignoreHooks": false,
    "kid": "b13de6c2-80e8-42fd-9db7-a1890575728a",
    "modified_at": "2022-12-22T16:08:55.587Z",
    "repository": "kara.moe",
    "tags": {
      "authors": [
        "b62bd925-89e4-4ee4-ba4c-80de93e831b8"
      ],
      "collections": [
        "dbcf2c22-524d-4708-99bb-601703633927"
      ],
      "creators": [
        "b2805292-730e-473a-96f0-fd8e7ffd1fd7"
      ],
      "families": [
        "5391f9fe-638c-415f-8dc9-958e3a2c5787"
      ],
      "genres": [
        "caa86df2-0d59-474b-885c-f240a9e891b0"
      ],
      "groups": [
        "8c22c899-b3ed-42da-a548-ce00f950798b",
        "ae613721-1fbe-480d-ba6b-d6d0702b184d"
      ],
      "langs": [
        "4dcf9614-7914-42aa-99f4-dbce2e059133"
      ],
      "series": [
        "63466536-1102-4f91-b167-4380d274e2a3"
      ],
      "singers": [
        "81f96b53-701d-4886-80ba-71f256e051a2",
        "8f1cdf03-baf0-4294-bfdf-fdeedcdbeac5",
        "e3ef4054-6292-4b5f-ad14-1008bae5e375"
      ],
      "singergroups": [
        "8a711d9c-42de-40fd-a050-fe72b5460a26"
      ],
      "songtypes": [
        "a0167949-580c-4de3-bf13-497e462e02f3"
      ],
      "songwriters": [
        "c5a951cb-53d8-4472-ac1d-9f31a38fdb2f",
        "f41e7218-6c19-4e19-9b5f-4612dcd58243"
      ],
      "versions": [
        "c2143a7f-6970-450e-8a79-0302db9220a9"
      ],
      "franchises": [
        "fd5d066e-e85a-4eea-8688-2979a887450a"
      ]
    },
    "titles": {
      "eng": "Guilty Night, Guilty Kiss!"
    },
    "titles_default_language": "eng",
    "year": 2017
  }
}