{
  "header": {
    "version": 4,
    "description": "Karaoke Mugen Karaoke Data File"
  },
  "medias": [
    {
      "version": "Default",
      "filename": "JPN - World Destruction Sekai Bokumetsu no Rokunin - OP1 - Zero.avi",
      "audiogain": -7.5,
      "loudnorm": "-10.31,-0.71,4.10,-20.31,-1.42",
      "filesize": 21095612,
      "duration": 89,
      "default": true,
      "lyrics": [
        {
          "filename": "JPN - World Destruction Sekai Bokumetsu no Rokunin - OP1 - Zero.ass",
          "default": true,
          "version": "Default",
          "subchecksum": "22deca48d8618e96e4f07495bee9fa8d"
        }
      ]
    }
  ],
  "data": {
    "created_at": "2017-10-11T17:02:10.000Z",
    "kid": "b3dbfe22-3ab1-4958-a333-2bcc2805bb34",
    "modified_at": "2021-02-25T13:37:26.895Z",
    "repository": "kara.moe",
    "songorder": 1,
    "tags": {
      "authors": [
        "5bdaba57-27f8-4568-8806-76a807728766"
      ],
      "collections": [
        "c7db86a0-ff64-4044-9be4-66dd1ef1d1c1"
      ],
      "creators": [
        "20d023d6-5195-4e4f-bae3-8b28ad6334e2"
      ],
      "families": [
        "0377db02-3af6-43b8-9b08-c759df3d25c3"
      ],
      "groups": [
        "3c14c864-533c-49e6-a3cc-6969f1233775"
      ],
      "langs": [
        "4dcf9614-7914-42aa-99f4-dbce2e059133"
      ],
      "origins": [
        "938de218-5343-4865-94d3-fb33f2eaa152"
      ],
      "series": [
        "e468c308-095a-4ca0-add6-73ce17ea1a35"
      ],
      "singers": [
        "5646881b-891d-424b-82db-fc2bde31d498"
      ],
      "songtypes": [
        "f02ad9b3-0bd9-4aad-85b3-9976739ba0e4"
      ],
      "songwriters": [
        "32a0b643-d4c9-43bb-a948-e61d044594fe",
        "7a226f8d-65e2-4a0e-bb80-64d5f5ff062c",
        "8a9c6942-05fc-48dd-b84e-9d7d30d9337c"
      ]
    },
    "title": "Zero",
    "titles": {
      "eng": "Zero",
      "qro": "Zero"
    },
    "year": 2008,
    "titles_default_language": "eng"
  }
}