{
  "header": {
    "version": 4,
    "description": "Karaoke Mugen Karaoke Data File"
  },
  "medias": [
    {
      "version": "Default",
      "filename": "JPN - savage genius - AUDIO - Still I love you.mp3",
      "audiogain": -4.57,
      "loudnorm": "-12.38,-2.30,3.50,-22.59,-0.47",
      "filesize": 6153869,
      "duration": 252,
      "default": true,
      "lyrics": [
        {
          "filename": "JPN - savage genius - AUDIO - Still I love you.ass",
          "default": true,
          "version": "Default",
          "subchecksum": "2be4c79a68d072a2f684ef51cd40a20b"
        }
      ]
    }
  ],
  "data": {
    "created_at": "2020-07-17T14:48:36.381Z",
    "kid": "df25dedd-6e94-4e46-9669-00f6c5fcbc77",
    "modified_at": "2021-02-25T12:57:42.124Z",
    "repository": "kara.moe",
    "tags": {
      "authors": [
        "1c9f3b53-973d-419e-9e29-9067c9896139"
      ],
      "collections": [
        "c7db86a0-ff64-4044-9be4-66dd1ef1d1c1"
      ],
      "creators": [
        "e8da43a3-7058-4162-9d31-2f331dee993e"
      ],
      "groups": [
        "3c14c864-533c-49e6-a3cc-6969f1233775",
        "60defa7b-774e-4680-8321-51b742c2e009"
      ],
      "langs": [
        "4dcf9614-7914-42aa-99f4-dbce2e059133"
      ],
      "singers": [
        "17e88527-90f3-452d-b45e-9caadf9a364e"
      ],
      "songtypes": [
        "42a262ae-acba-4ab5-a446-c5789c96c821"
      ],
      "songwriters": [
        "6b8a4c58-1f4b-43b8-be24-f9b6bbb31fe7",
        "7b8e4720-a1b3-40fa-a64d-38cf4e18f02f"
      ]
    },
    "title": "Still I love you.",
    "titles": {
      "eng": "Still I love you."
    },
    "year": 2006,
    "titles_default_language": "eng"
  }
}