{
  "header": {
    "version": 4,
    "description": "Karaoke Mugen Karaoke Data File"
  },
  "medias": [
    {
      "version": "Default",
      "filename": "JPN - Steins Gate Senkei Kousoku no Phenogram - PS3 PSV XBOX360 GAME OP - Phenogram.mp4",
      "audiogain": -6.43,
      "loudnorm": "-10.66,0.87,4.70,-20.94,-1.30",
      "filesize": 27996459,
      "duration": 122,
      "default": true,
      "lyrics": [
        {
          "filename": "JPN - Steins Gate Senkei Kousoku no Phenogram - PS3 PSV XBOX360 GAME OP - Phenogram.ass",
          "default": true,
          "version": "Default",
          "subchecksum": "7c68a98d1c7aec961dd8f12bef1bbacb"
        }
      ]
    }
  ],
  "data": {
    "created_at": "2017-10-11T17:01:29.000Z",
    "kid": "235079c0-620c-4f53-b60c-85f371fc6dae",
    "modified_at": "2021-02-25T13:12:22.522Z",
    "repository": "kara.moe",
    "tags": {
      "authors": [
        "4ac9beaf-6d3c-4c22-b202-03b4d88198aa"
      ],
      "collections": [
        "c7db86a0-ff64-4044-9be4-66dd1ef1d1c1"
      ],
      "creators": [
        "7a8ad2ad-018d-4341-9be4-77bfc39a6edd"
      ],
      "groups": [
        "8c22c899-b3ed-42da-a548-ce00f950798b",
        "ae613721-1fbe-480d-ba6b-d6d0702b184d"
      ],
      "langs": [
        "4dcf9614-7914-42aa-99f4-dbce2e059133"
      ],
      "origins": [
        "2f96e82c-c61b-4413-817e-e6b247509b95",
        "dbedd6b3-d125-4cd8-aa32-c4175e4ca3a3"
      ],
      "platforms": [
        "7f63ff91-7961-4488-888d-4bf46eea3a2a",
        "d56f8d9d-9ccd-4ac8-a164-da0e62d1c060",
        "e791f168-068f-4c05-aa36-e8d63726aa06"
      ],
      "series": [
        "1513d47f-b1e0-465b-8679-4cfeb92893fa"
      ],
      "singers": [
        "527d3a38-559d-4e99-9ed6-2a2fd772f45f"
      ],
      "songtypes": [
        "f02ad9b3-0bd9-4aad-85b3-9976739ba0e4"
      ],
      "songwriters": [
        "66339ced-7df9-40c8-aefd-59b2990df294"
      ],
      "franchises": [
        "afc0f5fc-26e3-4292-b818-1e96c196988a"
      ]
    },
    "title": "Phenogram",
    "titles": {
      "eng": "Phenogram",
      "jpn": "フェノグラム"
    },
    "year": 2013,
    "titles_default_language": "eng"
  }
}