{
  "header": {
    "version": 4,
    "description": "Karaoke Mugen Karaoke Data File"
  },
  "medias": [
    {
      "version": "Default",
      "filename": "JPN - Magia Record Mahou Shoujo Madoka Magica Gaiden - ED1 - Alicia.mp4",
      "audiogain": 1.32,
      "loudnorm": "-19.75,-11.25,5.60,-29.93,-1.29",
      "filesize": 92674806,
      "duration": 90,
      "default": true,
      "lyrics": [
        {
          "filename": "JPN - Magia Record Mahou Shoujo Madoka Magica Gaiden - ED1 - Alicia.ass",
          "default": true,
          "version": "Default"
        }
      ]
    }
  ],
  "data": {
    "created_at": "2020-02-03T21:51:28.389Z",
    "kid": "b2af62af-60c9-493f-b73a-628658750d93",
    "modified_at": "2021-07-22T19:08:54.262Z",
    "repository": "kara.moe",
    "songorder": 1,
    "tags": {
      "authors": [
        "523ead5e-981e-4993-af29-12524f7edcf1"
      ],
      "collections": [
        "c7db86a0-ff64-4044-9be4-66dd1ef1d1c1"
      ],
      "creators": [
        "c3bd80ef-d1fe-427f-913f-a2ba2fe66114"
      ],
      "families": [
        "0377db02-3af6-43b8-9b08-c759df3d25c3"
      ],
      "genres": [
        "b84e28f9-db1e-447f-b339-7954c3592523"
      ],
      "groups": [
        "2b4e9972-5e17-481b-99f5-d0787c0ada56",
        "8e209ae4-4381-438f-89dc-1b21752027d2"
      ],
      "langs": [
        "4dcf9614-7914-42aa-99f4-dbce2e059133"
      ],
      "misc": [
        "fe819ff1-9db8-4a0f-85dc-0e322c9126c4"
      ],
      "origins": [
        "938de218-5343-4865-94d3-fb33f2eaa152"
      ],
      "series": [
        "bb08329a-f9ca-4e28-8b58-199bdc4cea06"
      ],
      "singers": [
        "ff590105-5f65-4b1f-adf9-2cfb5b789428"
      ],
      "songtypes": [
        "38c77c56-2b95-4040-b676-0994a8cb0597"
      ],
      "songwriters": [
        "23529873-be25-4282-84fd-080a6477c428",
        "ced18c1f-7cc7-4c94-8eab-2af2c0f2a078"
      ],
      "franchises": [
        "c31a2b6a-96f5-4244-bce3-e04cd8b5c2ae"
      ]
    },
    "title": "Alicia",
    "titles": {
      "eng": "Alicia"
    },
    "year": 2020,
    "titles_default_language": "eng"
  }
}