{
  "header": {
    "version": 4,
    "description": "Karaoke Mugen Karaoke Data File"
  },
  "medias": [
    {
      "version": "Default",
      "filename": "JPN - Araki - MV - Teo ~ Cover Vers.mp4",
      "audiogain": -12.29,
      "loudnorm": "-4.23,2.81,3.00,-14.31,-0.93",
      "filesize": 8529647,
      "duration": 210,
      "default": true,
      "lyrics": [
        {
          "filename": "JPN - Araki - MV - Teo ~ Cover Vers.ass",
          "default": true,
          "version": "Default"
        }
      ]
    }
  ],
  "data": {
    "created_at": "2019-04-11T21:59:41.000Z",
    "kid": "43ee6bc3-6912-4f1b-9310-b03b33bd028a",
    "modified_at": "2021-11-10T14:14:40.748Z",
    "parents": [
      "e93c2b8a-8423-4db1-9643-4225a9f5482d"
    ],
    "repository": "kara.moe",
    "tags": {
      "authors": [
        "87096920-112f-485f-a310-04156cb4624d"
      ],
      "collections": [
        "c7db86a0-ff64-4044-9be4-66dd1ef1d1c1"
      ],
      "families": [
        "0377db02-3af6-43b8-9b08-c759df3d25c3"
      ],
      "genres": [
        "45623cae-6d68-4304-a49b-896d1d6f4580"
      ],
      "groups": [
        "60defa7b-774e-4680-8321-51b742c2e009",
        "ae613721-1fbe-480d-ba6b-d6d0702b184d"
      ],
      "langs": [
        "4dcf9614-7914-42aa-99f4-dbce2e059133"
      ],
      "singers": [
        "1926b85b-ec5a-4b57-ac70-c64f75652e0d"
      ],
      "songtypes": [
        "7be1b15c-cff8-4b37-a649-5c90f3d569a9"
      ],
      "songwriters": [
        "35cdb341-81e0-47d2-802a-3b932cda5e60"
      ],
      "versions": [
        "03e1e1d2-8641-47b7-bbcb-39a3df9ff21c"
      ]
    },
    "titles": {
      "qro": "Teo",
      "jpn": "テオ"
    },
    "title": "Teo",
    "year": 2018,
    "titles_default_language": "qro"
  }
}