{
  "header": {
    "version": 4,
    "description": "Karaoke Mugen Karaoke Data File"
  },
  "medias": [
    {
      "version": "Default",
      "filename": "JPN - Shoujo Kakumei Utena - IN - When Where Who Which.mp4",
      "audiogain": -4.42,
      "loudnorm": "-13.24,-1.21,3.90,-23.27,-0.87",
      "filesize": 19608013,
      "duration": 95,
      "default": true,
      "lyrics": [
        {
          "filename": "JPN - Shoujo Kakumei Utena - IN - When Where Who Which.ass",
          "default": true,
          "version": "Default",
          "subchecksum": "d253e7ffd0125b3608985e4a3503c1da"
        }
      ]
    }
  ],
  "data": {
    "created_at": "2021-05-23T18:10:51.195Z",
    "kid": "a56dea30-6792-438c-81bd-b45a21eb9ee6",
    "modified_at": "2021-05-23T18:46:01.744Z",
    "repository": "kara.moe",
    "tags": {
      "authors": [
        "fb28c6d3-a81e-40c0-9a4c-e3268c60a64b"
      ],
      "collections": [
        "c7db86a0-ff64-4044-9be4-66dd1ef1d1c1"
      ],
      "creators": [
        "802a8ac8-b16f-40a4-944b-99956798c906"
      ],
      "families": [
        "0377db02-3af6-43b8-9b08-c759df3d25c3"
      ],
      "groups": [
        "24db50aa-a126-4d34-a48a-e45db79c4245"
      ],
      "langs": [
        "4dcf9614-7914-42aa-99f4-dbce2e059133"
      ],
      "origins": [
        "938de218-5343-4865-94d3-fb33f2eaa152"
      ],
      "series": [
        "84016ca8-d780-4c2e-84b2-c5acab967d6d"
      ],
      "singers": [
        "0656d947-2a7e-4793-95ef-1ab271bb0fe6",
        "57634792-4e4f-4e96-943f-2039618b73a2",
        "a6053c8f-e34f-4e63-a315-8c397c31e1fc",
        "ec6f013b-a129-4f6d-9c05-ab0413350818"
      ],
      "songtypes": [
        "5e5250d9-351a-4a82-98eb-55db50ad8962"
      ],
      "songwriters": [
        "0656d947-2a7e-4793-95ef-1ab271bb0fe6",
        "775fbb22-042e-4ce8-bde4-a10cc7fc7d82"
      ],
      "franchises": [
        "84016ca8-d780-4c2e-84b2-c5acab967d6d"
      ]
    },
    "title": "When Where Who Which",
    "titles": {
      "eng": "When Where Who Which"
    },
    "year": 1997,
    "titles_default_language": "eng"
  }
}