{
  "header": {
    "version": 4,
    "description": "Karaoke Mugen Karaoke Data File"
  },
  "medias": [
    {
      "version": "Default",
      "filename": "JPN - Touhou - MV - Hakurei Jinja Chounaikai Ondo.mp4",
      "audiogain": -5.36,
      "loudnorm": "-12.55,-0.46,4.20,-22.67,-1.01",
      "filesize": 65010777,
      "duration": 114,
      "default": true,
      "lyrics": [
        {
          "filename": "JPN - Touhou - MV - Hakurei Jinja Chounaikai Ondo.ass",
          "default": true,
          "version": "Default"
        }
      ]
    }
  ],
  "data": {
    "created_at": "2019-09-07T17:50:28.000Z",
    "ignoreHooks": false,
    "kid": "1443d7a4-3b57-4b6d-b718-6a796d709e86",
    "modified_at": "2022-10-08T16:38:43.085Z",
    "repository": "kara.moe",
    "tags": {
      "authors": [
        "2b4e9972-5e17-481b-99f5-d0787c0ada56"
      ],
      "collections": [
        "c7db86a0-ff64-4044-9be4-66dd1ef1d1c1"
      ],
      "creators": [
        "25fc251a-0514-4bf5-a818-dd0547723f4a",
        "dfdca219-b7f2-4e7b-a18a-0229108ff1cd"
      ],
      "families": [
        "0377db02-3af6-43b8-9b08-c759df3d25c3"
      ],
      "groups": [
        "2b4e9972-5e17-481b-99f5-d0787c0ada56",
        "3c14c864-533c-49e6-a3cc-6969f1233775"
      ],
      "langs": [
        "4dcf9614-7914-42aa-99f4-dbce2e059133"
      ],
      "origins": [
        "ac5085db-52d8-44b4-8fbb-1697b24d2046"
      ],
      "series": [
        "1bdaa5a1-dfa6-4365-b746-7a0b194dafd6"
      ],
      "singers": [
        "98cd2e0e-44fb-4feb-aada-1b418e94af37"
      ],
      "songtypes": [
        "7be1b15c-cff8-4b37-a649-5c90f3d569a9"
      ],
      "songwriters": [
        "2c9f6188-5b0d-4aa3-91ff-4d669bdc3105",
        "af3c7f21-61be-4d1e-af2a-d5ed4020e771",
        "feceb592-efac-4eda-9b03-c27cf509004c"
      ],
      "franchises": [
        "1bdaa5a1-dfa6-4365-b746-7a0b194dafd6"
      ]
    },
    "titles": {
      "jpn": "博麗神社町内会音頭",
      "qro": "Hakurei Jinja Chônaikai Ondo"
    },
    "titles_default_language": "qro",
    "titles_aliases": [
      "Chounaikai"
    ],
    "title": "Hakurei Jinja Chônaikai Ondo",
    "year": 2008
  }
}