{
  "header": {
    "version": 4,
    "description": "Karaoke Mugen Karaoke Data File"
  },
  "medias": [
    {
      "version": "Default",
      "filename": "JPN - Senki Zesshou Symphogear - LIVE - Synchrogazer ~ Full Vers.mp4",
      "audiogain": -9.3,
      "loudnorm": "-7.48,1.14,1.80,-17.48,-0.01",
      "filesize": 226943664,
      "duration": 262,
      "default": true,
      "lyrics": [
        {
          "filename": "JPN - Senki Zesshou Symphogear - LIVE - Synchrogazer ~ Full Vers.ass",
          "default": true,
          "version": "Default"
        }
      ]
    }
  ],
  "data": {
    "created_at": "2019-12-30T13:21:03.095Z",
    "ignoreHooks": false,
    "kid": "33b1cc49-a9a4-4619-9417-bf05971e9338",
    "modified_at": "2022-12-21T22:36:31.200Z",
    "parents": [
      "18ff0a73-a827-4fed-bd83-14de20167216"
    ],
    "repository": "kara.moe",
    "tags": {
      "authors": [
        "523ead5e-981e-4993-af29-12524f7edcf1"
      ],
      "collections": [
        "dbcf2c22-524d-4708-99bb-601703633927"
      ],
      "creators": [
        "d2a29c19-019f-4a3d-86ad-2dae9e41a4b1"
      ],
      "families": [
        "5391f9fe-638c-415f-8dc9-958e3a2c5787"
      ],
      "groups": [
        "2b4e9972-5e17-481b-99f5-d0787c0ada56",
        "ae613721-1fbe-480d-ba6b-d6d0702b184d"
      ],
      "langs": [
        "4dcf9614-7914-42aa-99f4-dbce2e059133"
      ],
      "series": [
        "61b24082-a6a9-482b-b126-0ad7be595791"
      ],
      "singers": [
        "6d2045b2-80ab-45ff-a131-c4df02ef52d1"
      ],
      "songtypes": [
        "a0167949-580c-4de3-bf13-497e462e02f3"
      ],
      "songwriters": [
        "6d2045b2-80ab-45ff-a131-c4df02ef52d1",
        "af3ffe51-8059-461c-bbb8-78ea388731f3"
      ],
      "versions": [
        "c2143a7f-6970-450e-8a79-0302db9220a9"
      ],
      "franchises": [
        "61b24082-a6a9-482b-b126-0ad7be595791"
      ]
    },
    "titles": {
      "eng": "Synchrogazer"
    },
    "titles_default_language": "eng",
    "year": 2012
  }
}