{
  "header": {
    "version": 4,
    "description": "Karaoke Mugen Karaoke Data File"
  },
  "medias": [
    {
      "version": "Default",
      "filename": "JPN - Chuunibyou Demo KOI ga Shitai! - LIVE - Sparkling Daydream ~ Full Vers.mp4",
      "audiogain": 5.13,
      "loudnorm": "-23.43,-13.21,6.10,-33.61,-0.11",
      "filesize": 139053939,
      "duration": 286,
      "default": true,
      "lyrics": [
        {
          "filename": "JPN - Chuunibyou Demo KOI ga Shitai! - LIVE - Sparkling Daydream ~ Full Vers.ass",
          "default": true,
          "version": "Default"
        }
      ]
    }
  ],
  "data": {
    "created_at": "2022-08-04T23:11:09.348Z",
    "ignoreHooks": false,
    "kid": "4c6403ee-6784-49a5-b7cf-972f046195fb",
    "modified_at": "2022-08-10T14:51:01.784Z",
    "parents": [
      "891313ae-b12f-447b-b5a8-3711f62eab0a"
    ],
    "repository": "kara.moe",
    "tags": {
      "authors": [
        "05c1e4ad-32ba-490e-8f3c-5cd491c96d85"
      ],
      "collections": [
        "dbcf2c22-524d-4708-99bb-601703633927"
      ],
      "creators": [
        "d93786af-5098-49b2-9928-37edfb3d0322"
      ],
      "families": [
        "0377db02-3af6-43b8-9b08-c759df3d25c3"
      ],
      "groups": [
        "ae613721-1fbe-480d-ba6b-d6d0702b184d"
      ],
      "langs": [
        "4dcf9614-7914-42aa-99f4-dbce2e059133"
      ],
      "origins": [
        "938de218-5343-4865-94d3-fb33f2eaa152"
      ],
      "series": [
        "ed5a577a-e69a-4323-aa6f-87ca936c5723"
      ],
      "singers": [
        "3acbe973-912e-47ca-b5b2-6563181e0c51",
        "9332cf9e-20a6-4738-98a2-f6ef30529681",
        "c4927d85-e42d-415b-9486-be693c8a8bfe"
      ],
      "songtypes": [
        "a0167949-580c-4de3-bf13-497e462e02f3"
      ],
      "songwriters": [
        "3acbe973-912e-47ca-b5b2-6563181e0c51"
      ],
      "versions": [
        "c2143a7f-6970-450e-8a79-0302db9220a9"
      ],
      "franchises": [
        "ed5a577a-e69a-4323-aa6f-87ca936c5723"
      ]
    },
    "titles": {
      "eng": "Sparkling Daydream"
    },
    "titles_default_language": "eng",
    "title": "Sparkling Daydream",
    "year": 2012
  }
}