{
  "header": {
    "version": 4,
    "description": "Karaoke Mugen Karaoke Data File"
  },
  "medias": [
    {
      "version": "Default",
      "filename": "JPN - BanG Dream! 2nd Season - IN - Returns.mp4",
      "audiogain": -10.51,
      "loudnorm": "-7.97,0.13,14.10,-18.69,-1.50",
      "filesize": 95412299,
      "duration": 143,
      "default": true,
      "lyrics": [
        {
          "filename": "JPN - BanG Dream! 2nd Season - IN - Returns.ass",
          "default": true,
          "version": "Default"
        }
      ]
    }
  ],
  "data": {
    "created_at": "2019-06-18T02:07:30.000Z",
    "kid": "bc4b866f-c759-44b0-9d99-389556208785",
    "modified_at": "2021-12-03T20:49:53.124Z",
    "repository": "kara.moe",
    "tags": {
      "authors": [
        "34fb11c3-d473-4bb4-b185-d9ab528da1ea"
      ],
      "collections": [
        "c7db86a0-ff64-4044-9be4-66dd1ef1d1c1"
      ],
      "creators": [
        "4e1122b4-c09f-445f-bdfa-cbad9581f2dc"
      ],
      "families": [
        "0377db02-3af6-43b8-9b08-c759df3d25c3"
      ],
      "groups": [
        "ae613721-1fbe-480d-ba6b-d6d0702b184d"
      ],
      "langs": [
        "4dcf9614-7914-42aa-99f4-dbce2e059133"
      ],
      "origins": [
        "938de218-5343-4865-94d3-fb33f2eaa152"
      ],
      "series": [
        "4817b8e9-de06-4c38-be88-d4dca2ee7200"
      ],
      "singers": [
        "1477f7cf-7a03-4ecc-a3eb-81fe697202ed",
        "360a527f-69b3-47e2-b028-d2b176bfaaa2",
        "505910d1-e37a-4c15-8d91-3965a217ea6f",
        "721a998c-a803-416e-a40c-98294656ed8e",
        "8ab6e3f9-a691-4fd0-9c55-5426f2218c5d",
        "adb2af59-5df0-4e18-a0d1-b377416ef134"
      ],
      "songtypes": [
        "5e5250d9-351a-4a82-98eb-55db50ad8962"
      ],
      "songwriters": [
        "30e4f047-50d7-4ed7-8ed3-57cef0f20489",
        "74b347e5-fb3c-43c3-afe0-a2863f36d366",
        "af3ffe51-8059-461c-bbb8-78ea388731f3"
      ],
      "franchises": [
        "a65e956d-39ab-4995-9ede-889c30a5cbf0"
      ]
    },
    "titles": {
      "eng": "Returns"
    },
    "title": "Returns",
    "year": 2019,
    "titles_default_language": "eng"
  }
}