{
  "header": {
    "description": "Karaoke Mugen Karaoke Data File",
    "version": 4
  },
  "medias": [
    {
      "version": "Default",
      "filename": "JPN - FantasticYouth, Wolpis Kater - MV - Ao no Shiroiuta.mp4",
      "audiogain": -11.38,
      "loudnorm": "-7.64,2.26,8.10,-17.77,-1.07",
      "filesize": 13426310,
      "duration": 208,
      "default": true,
      "lyrics": [
        {
          "filename": "JPN - FantasticYouth, Wolpis Kater - MV - Ao no Shiroiuta.ass",
          "default": true,
          "version": "Default"
        }
      ]
    }
  ],
  "data": {
    "created_at": "2022-09-03T10:36:25.699Z",
    "kid": "f4ebb1b3-cc50-4d47-870f-d8531a74cae1",
    "modified_at": "2022-09-03T10:36:25.699Z",
    "tags": {
      "authors": [
        "449844e4-3a1f-46e1-8a92-bf72e2d1b6f1"
      ],
      "collections": [
        "dbcf2c22-524d-4708-99bb-601703633927"
      ],
      "creators": [
        "7e4b3966-9e00-4593-8047-1b67f358d2b9"
      ],
      "families": [
        "0377db02-3af6-43b8-9b08-c759df3d25c3"
      ],
      "groups": [
        "8e209ae4-4381-438f-89dc-1b21752027d2"
      ],
      "langs": [
        "4dcf9614-7914-42aa-99f4-dbce2e059133"
      ],
      "misc": [
        "1d6ceadf-a885-47e5-b23b-c07bf668a424"
      ],
      "singers": [
        "7ba7ec3c-7e6a-4c63-b4b2-5b8b5d16b1de",
        "d43adf80-9e0c-4c9e-8f89-a40a6c2b6ede"
      ],
      "songtypes": [
        "7be1b15c-cff8-4b37-a649-5c90f3d569a9"
      ],
      "songwriters": [
        "3aee12fd-07eb-4889-a20e-ff776188e08c",
        "c6d4a3d3-01de-46d5-81d0-aa6001ead75f"
      ]
    },
    "titles": {
      "qro": "Ao no Shiroiuta"
    },
    "titles_default_language": "qro",
    "titles_aliases": [],
    "title": "Ao no Shiroiuta",
    "year": 2022,
    "repository": "kara.moe"
  }
}