{
  "header": {
    "version": 4,
    "description": "Karaoke Mugen Karaoke Data File"
  },
  "medias": [
    {
      "version": "Default",
      "filename": "JPN - Shinka no Mi Shiranai Uchi ni Kachigumi Jinsei - ED1 - Moonlight Walk.mp4",
      "audiogain": -0.27,
      "loudnorm": "-16.80,-8.33,3.20,-26.81,-0.81",
      "filesize": 33512498,
      "duration": 89,
      "default": true,
      "lyrics": [
        {
          "filename": "JPN - Shinka no Mi Shiranai Uchi ni Kachigumi Jinsei - ED1 - Moonlight Walk.ass",
          "default": true,
          "version": "Default"
        }
      ]
    }
  ],
  "data": {
    "created_at": "2021-11-19T13:43:06.135Z",
    "kid": "3bf598f6-874b-4a94-a750-62d311072115",
    "modified_at": "2021-12-04T22:28:28.175Z",
    "repository": "kara.moe",
    "songorder": 1,
    "tags": {
      "authors": [
        "d63aae01-10ff-4b4f-a104-206af7771550"
      ],
      "collections": [
        "c7db86a0-ff64-4044-9be4-66dd1ef1d1c1"
      ],
      "families": [
        "0377db02-3af6-43b8-9b08-c759df3d25c3"
      ],
      "genres": [
        "4b80eca6-f44f-4262-a8d0-b6879d6b70cb"
      ],
      "groups": [
        "8e209ae4-4381-438f-89dc-1b21752027d2"
      ],
      "langs": [
        "4dcf9614-7914-42aa-99f4-dbce2e059133"
      ],
      "origins": [
        "938de218-5343-4865-94d3-fb33f2eaa152"
      ],
      "series": [
        "47e45fc4-71f9-47db-9b73-7ce8555c2268"
      ],
      "singers": [
        "adb2af59-5df0-4e18-a0d1-b377416ef134"
      ],
      "songtypes": [
        "38c77c56-2b95-4040-b676-0994a8cb0597"
      ],
      "songwriters": [
        "865e5270-3622-40db-a0f3-d493efec7c51"
      ]
    },
    "titles": {
      "eng": "Moonlight Walk"
    },
    "title": "Moonlight Walk",
    "year": 2021,
    "titles_default_language": "eng"
  }
}