{
  "header": {
    "version": 4,
    "description": "Karaoke Mugen Karaoke Data File"
  },
  "medias": [
    {
      "version": "Dance.",
      "filename": "JPN - Suzumiya Haruhi no Yuuutsu - ED1 - Hare Hare Yukai ~ Dance Vers.mp4",
      "audiogain": -5.25,
      "loudnorm": "-12.97,-4.82,4.90,-23.06,-1.01",
      "filesize": 83415957,
      "duration": 66,
      "default": true,
      "lyrics": [
        {
          "filename": "JPN - Suzumiya Haruhi no Yuuutsu - ED1 - Hare Hare Yukai ~ Dance Vers.ass",
          "default": true,
          "version": "Default",
          "subchecksum": "1d57320e1527c4df0d4f0728ea90b2c7"
        }
      ]
    }
  ],
  "data": {
    "created_at": "2017-10-11T17:01:12.000Z",
    "kid": "8a0de444-c233-407a-a74f-389a45cea69a",
    "modified_at": "2021-05-23T22:38:25.573Z",
    "parents": [
      "2fea8b45-38ba-40ed-b2ca-100c0328c95c"
    ],
    "repository": "kara.moe",
    "songorder": 1,
    "tags": {
      "authors": [
        "1df04771-a378-4f14-a5e1-1455187d681a"
      ],
      "collections": [
        "c7db86a0-ff64-4044-9be4-66dd1ef1d1c1"
      ],
      "creators": [
        "d93786af-5098-49b2-9928-37edfb3d0322"
      ],
      "families": [
        "0377db02-3af6-43b8-9b08-c759df3d25c3"
      ],
      "groups": [
        "3c14c864-533c-49e6-a3cc-6969f1233775",
        "56f41a2e-80fb-4bbe-9df0-420ee4c8997a"
      ],
      "langs": [
        "4dcf9614-7914-42aa-99f4-dbce2e059133"
      ],
      "misc": [
        "fe819ff1-9db8-4a0f-85dc-0e322c9126c4"
      ],
      "origins": [
        "938de218-5343-4865-94d3-fb33f2eaa152"
      ],
      "series": [
        "4f132535-c7b6-4147-a324-6995aad44df7"
      ],
      "singers": [
        "488aea99-01a0-4c2c-b475-b61d99efe994",
        "8c3ef7dd-5265-4527-ac49-c604ab822add",
        "c1e76c7e-a498-45b7-a1f5-9ec89f0bf560"
      ],
      "songtypes": [
        "38c77c56-2b95-4040-b676-0994a8cb0597"
      ],
      "songwriters": [
        "4f8ba040-1f56-4340-807d-eefa481ae17f",
        "f41e7218-6c19-4e19-9b5f-4612dcd58243"
      ],
      "versions": [
        "9c137e84-51c1-4883-8da4-9408bcb01465"
      ],
      "franchises": [
        "4f132535-c7b6-4147-a324-6995aad44df7"
      ]
    },
    "title": "Hare Hare Yukai",
    "titles": {
      "qro": "Hare Hare Yukai",
      "jpn": "ハレ晴レユカイ"
    },
    "year": 2006,
    "titles_default_language": "qro"
  }
}