{
  "header": {
    "version": 4,
    "description": "Karaoke Mugen Karaoke Data File"
  },
  "medias": [
    {
      "version": "Default",
      "filename": "JPN - Kiseijuu Sei no Kakuritsu - MV - Let Me Hear ~ Full Vers.mp4",
      "audiogain": -14.29,
      "loudnorm": "-1.86,5.09,3.60,-11.92,-2.01",
      "filesize": 112764038,
      "duration": 234,
      "default": true,
      "lyrics": [
        {
          "filename": "JPN - Kiseijuu Sei no Kakuritsu - MV - Let Me Hear ~ Full Vers.ass",
          "default": true,
          "version": "Default"
        }
      ]
    }
  ],
  "data": {
    "created_at": "2023-02-08T07:28:38.392Z",
    "ignoreHooks": false,
    "kid": "063cc21d-50ba-4c9d-baa4-f741c738ad2e",
    "modified_at": "2023-02-08T07:46:13.976Z",
    "parents": [
      "c2a10391-6a98-43c6-a02b-f9a0c13338ae"
    ],
    "repository": "kara.moe",
    "tags": {
      "authors": [
        "9cdf3b70-3550-457c-bdb9-038f3253c6ad"
      ],
      "collections": [
        "c7db86a0-ff64-4044-9be4-66dd1ef1d1c1"
      ],
      "creators": [
        "65eb05b7-17f6-4eec-96f6-34cf9cc48138"
      ],
      "families": [
        "5391f9fe-638c-415f-8dc9-958e3a2c5787"
      ],
      "groups": [
        "ae613721-1fbe-480d-ba6b-d6d0702b184d"
      ],
      "langs": [
        "4dcf9614-7914-42aa-99f4-dbce2e059133"
      ],
      "misc": [
        "ec4fee75-71fb-45b4-9772-2ca374b4b600"
      ],
      "origins": [
        "938de218-5343-4865-94d3-fb33f2eaa152"
      ],
      "series": [
        "e593f9c5-9f8a-40f7-b819-a44f355698ea"
      ],
      "singers": [
        "f46bf1d7-07e6-4fd1-a7ec-7a549acec2c1"
      ],
      "songtypes": [
        "7be1b15c-cff8-4b37-a649-5c90f3d569a9"
      ],
      "songwriters": [
        "f46bf1d7-07e6-4fd1-a7ec-7a549acec2c1"
      ],
      "versions": [
        "c2143a7f-6970-450e-8a79-0302db9220a9"
      ]
    },
    "titles": {
      "eng": "Let Me Hear"
    },
    "titles_default_language": "eng",
    "year": 2014
  }
}