{
  "header": {
    "version": 4,
    "description": "Karaoke Mugen Karaoke Data File"
  },
  "medias": [
    {
      "version": "Default",
      "filename": "JPN - Ou-sama Ranking - AMV - Hadaka no Yuusha ~ Full Vers.mp4",
      "audiogain": -9.06,
      "loudnorm": "-7.95,0.56,5.00,-18.14,-0.78",
      "filesize": 54564357,
      "duration": 200,
      "default": true,
      "lyrics": [
        {
          "filename": "JPN - Ou-sama Ranking - AMV - Hadaka no Yuusha ~ Full Vers.ass",
          "default": true,
          "version": "Default"
        }
      ]
    }
  ],
  "data": {
    "created_at": "2022-06-07T23:15:46.901Z",
    "ignoreHooks": false,
    "kid": "03c54873-d4e6-4ad2-a029-0827c4d81cd4",
    "modified_at": "2022-06-08T15:59:58.862Z",
    "parents": [
      "b23c1bc4-cfdd-4aee-b17b-39143adf7db8"
    ],
    "repository": "kara.moe",
    "tags": {
      "authors": [
        "5e93f02a-bcd1-40a9-ba7a-91ada6683aea"
      ],
      "collections": [
        "c7db86a0-ff64-4044-9be4-66dd1ef1d1c1"
      ],
      "creators": [
        "5e24aaad-83c9-4d8a-bbb9-37b766278ffe"
      ],
      "families": [
        "0377db02-3af6-43b8-9b08-c759df3d25c3"
      ],
      "groups": [
        "8e209ae4-4381-438f-89dc-1b21752027d2",
        "f53332f8-daed-4ac5-97c9-64239b520db0"
      ],
      "langs": [
        "4dcf9614-7914-42aa-99f4-dbce2e059133"
      ],
      "misc": [
        "fe819ff1-9db8-4a0f-85dc-0e322c9126c4"
      ],
      "origins": [
        "938de218-5343-4865-94d3-fb33f2eaa152"
      ],
      "series": [
        "901f279d-6daf-4e1c-9692-fb30741f3439"
      ],
      "singers": [
        "e5ee5e9e-c91d-4eb5-b92b-15954f91d905"
      ],
      "songtypes": [
        "a6c79ce5-89ee-4d50-afe8-3abd7317f6c2"
      ],
      "songwriters": [
        "e5ee5e9e-c91d-4eb5-b92b-15954f91d905"
      ],
      "versions": [
        "c2143a7f-6970-450e-8a79-0302db9220a9"
      ]
    },
    "titles": {
      "jpn": "裸の勇者",
      "qro": "Hadaka no Yûsha"
    },
    "titles_default_language": "qro",
    "titles_aliases": [
      "Yuusha"
    ],
    "title": "Hadaka no Yûsha",
    "year": 2022
  }
}