{
  "header": {
    "version": 4,
    "description": "Karaoke Mugen Karaoke Data File"
  },
  "medias": [
    {
      "version": "Default",
      "filename": "JPN - Touhou - MV - BloodDark -Koumuihentan-.mp4",
      "audiogain": -9.63,
      "loudnorm": "-6.82,2.45,1.80,-16.90,-0.12",
      "filesize": 229558120,
      "duration": 211,
      "default": true,
      "lyrics": [
        {
          "filename": "JPN - Touhou - MV - BloodDark -Koumuihentan-.ass",
          "default": true,
          "version": "Default"
        }
      ]
    }
  ],
  "data": {
    "created_at": "2022-03-07T20:35:31.210Z",
    "ignoreHooks": false,
    "kid": "a35775af-ef8d-425f-9400-b7bbe1cd7ec8",
    "modified_at": "2022-03-07T20:36:21.940Z",
    "repository": "kara.moe",
    "tags": {
      "authors": [
        "fb28c6d3-a81e-40c0-9a4c-e3268c60a64b"
      ],
      "collections": [
        "c7db86a0-ff64-4044-9be4-66dd1ef1d1c1"
      ],
      "creators": [
        "eb49131c-b890-422d-9947-0e82292801e1"
      ],
      "families": [
        "0377db02-3af6-43b8-9b08-c759df3d25c3"
      ],
      "groups": [
        "8e209ae4-4381-438f-89dc-1b21752027d2"
      ],
      "langs": [
        "4dcf9614-7914-42aa-99f4-dbce2e059133"
      ],
      "series": [
        "1bdaa5a1-dfa6-4365-b746-7a0b194dafd6"
      ],
      "singers": [
        "a6e3509f-befc-4b8b-ac1c-3614e1c32447"
      ],
      "songtypes": [
        "7be1b15c-cff8-4b37-a649-5c90f3d569a9"
      ],
      "songwriters": [
        "26cb5252-8510-49e0-897c-a611a05fc056",
        "3059eca0-7b9f-41e0-a5a6-2e7e3be5d025",
        "a6e3509f-befc-4b8b-ac1c-3614e1c32447"
      ],
      "franchises": [
        "1bdaa5a1-dfa6-4365-b746-7a0b194dafd6"
      ]
    },
    "titles": {
      "qro": "BloodDark -Koumuihentan-",
      "jpn": "BloodDark -紅霧異変譚-"
    },
    "title": "BloodDark -Koumuihentan-",
    "year": 2020,
    "titles_default_language": "qro"
  }
}