{
  "header": {
    "version": 4,
    "description": "Karaoke Mugen Karaoke Data File"
  },
  "medias": [
    {
      "version": "Default",
      "filename": "JPN - Touhou - MV - Sci-Fi ROMANCE TRAVELER.mp4",
      "audiogain": -8.35,
      "loudnorm": "-8.20,2.70,8.10,-18.61,-0.80",
      "filesize": 45708218,
      "duration": 258,
      "default": true,
      "lyrics": [
        {
          "filename": "JPN - Touhou - MV - Sci-Fi ROMANCE TRAVELER.ass",
          "default": true,
          "version": "Default"
        }
      ]
    }
  ],
  "data": {
    "comment": "So sweet I got diabetes. ❤",
    "created_at": "2022-03-31T21:07:05.845Z",
    "ignoreHooks": false,
    "kid": "ad7b3a2b-0d9b-4c3d-9df6-2f6ee55d554e",
    "modified_at": "2022-03-31T21:15:10.737Z",
    "repository": "kara.moe",
    "tags": {
      "authors": [
        "fb28c6d3-a81e-40c0-9a4c-e3268c60a64b"
      ],
      "collections": [
        "c7db86a0-ff64-4044-9be4-66dd1ef1d1c1"
      ],
      "creators": [
        "eb49131c-b890-422d-9947-0e82292801e1"
      ],
      "families": [
        "0377db02-3af6-43b8-9b08-c759df3d25c3"
      ],
      "groups": [
        "ae613721-1fbe-480d-ba6b-d6d0702b184d"
      ],
      "langs": [
        "4dcf9614-7914-42aa-99f4-dbce2e059133"
      ],
      "misc": [
        "1d6ceadf-a885-47e5-b23b-c07bf668a424"
      ],
      "origins": [
        "ac5085db-52d8-44b4-8fbb-1697b24d2046"
      ],
      "series": [
        "1bdaa5a1-dfa6-4365-b746-7a0b194dafd6"
      ],
      "singers": [
        "a6e3509f-befc-4b8b-ac1c-3614e1c32447"
      ],
      "songtypes": [
        "7be1b15c-cff8-4b37-a649-5c90f3d569a9"
      ],
      "songwriters": [
        "26cb5252-8510-49e0-897c-a611a05fc056",
        "3059eca0-7b9f-41e0-a5a6-2e7e3be5d025",
        "a6e3509f-befc-4b8b-ac1c-3614e1c32447"
      ],
      "franchises": [
        "1bdaa5a1-dfa6-4365-b746-7a0b194dafd6"
      ]
    },
    "titles": {
      "eng": "Sci-Fi ROMANCE TRAVELER"
    },
    "titles_default_language": "eng",
    "title": "Sci-Fi ROMANCE TRAVELER",
    "year": 2017
  }
}