{
  "header": {
    "version": 4,
    "description": "Karaoke Mugen Karaoke Data File"
  },
  "medias": [
    {
      "version": "Default",
      "filename": "JPN - Kimetsu no Yaiba Yukaku-hen - MV - Zankyou Sanka ~ Full Off Vocal Vers.mp4",
      "audiogain": -6.48,
      "loudnorm": "-9.25,1.23,3.30,-19.33,-0.80",
      "filesize": 170969279,
      "duration": 184,
      "default": true,
      "lyrics": [
        {
          "filename": "JPN - Kimetsu no Yaiba Yukaku-hen - MV - Zankyou Sanka ~ Full Off Vocal Vers.ass",
          "default": true,
          "version": "Default"
        }
      ]
    }
  ],
  "data": {
    "created_at": "2022-06-11T22:18:34.498Z",
    "ignoreHooks": false,
    "kid": "6be90f70-fb37-4308-8e9d-f8ec1c3d1d2b",
    "modified_at": "2022-07-20T11:07:10.908Z",
    "parents": [
      "1396c52f-a304-46ea-aefd-a9b9b1afa7a8"
    ],
    "repository": "kara.moe",
    "tags": {
      "authors": [
        "4b50fcec-273e-4cc5-83f2-b156c2300f7f",
        "90698f28-1d62-4673-82c4-33ae96b1ba97"
      ],
      "collections": [
        "dbcf2c22-524d-4708-99bb-601703633927"
      ],
      "creators": [
        "771735da-6b67-403d-8d5c-2761a0665168"
      ],
      "families": [
        "5391f9fe-638c-415f-8dc9-958e3a2c5787"
      ],
      "groups": [
        "8e209ae4-4381-438f-89dc-1b21752027d2",
        "f5e7d2fc-0cbb-4fb9-a84a-b25dfb0e9e77"
      ],
      "langs": [
        "4dcf9614-7914-42aa-99f4-dbce2e059133"
      ],
      "series": [
        "c8bf1816-de5f-4aae-afc7-a478bdb45b1c"
      ],
      "singers": [
        "6cfc20ab-c855-4f24-8bed-0981e465630b"
      ],
      "songtypes": [
        "7be1b15c-cff8-4b37-a649-5c90f3d569a9"
      ],
      "songwriters": [
        "c4b955ea-a5a1-4554-a8f8-eb4ad5b9c5ac"
      ],
      "versions": [
        "c0cc87b9-55b9-40f0-878a-fbb9e34c151e",
        "c2143a7f-6970-450e-8a79-0302db9220a9"
      ],
      "franchises": [
        "fedb7dc4-978d-425b-85ab-4cec99cee4f8"
      ]
    },
    "titles": {
      "eng": "Zankyou Sanka",
      "jpn": "残響散歌"
    },
    "titles_default_language": "eng",
    "title": "Zankyou Sanka",
    "year": 2021
  }
}