{
  "header": {
    "version": 4,
    "description": "Karaoke Mugen Karaoke Data File"
  },
  "medias": [
    {
      "version": "Default",
      "filename": "JPN - Kidou Senshi Gundam - Senkou no Hathway - AMV - Senkou ~ Full Vers.mp4",
      "audiogain": -5.71,
      "loudnorm": "-10.43,2.78,2.10,-20.51,-1.13",
      "filesize": 89334560,
      "duration": 265,
      "default": true,
      "lyrics": [
        {
          "filename": "JPN - Kidou Senshi Gundam - Senkou no Hathway - AMV - Senkou ~ Full Vers.ass",
          "default": true,
          "version": "Default"
        }
      ]
    }
  ],
  "data": {
    "created_at": "2021-08-22T19:54:57.865Z",
    "ignoreHooks": false,
    "kid": "e5b08a2d-f159-45ee-bca4-373db7c6b12e",
    "modified_at": "2022-12-22T16:08:57.835Z",
    "repository": "kara.moe",
    "tags": {
      "authors": [
        "06852e02-b77e-4106-b6f7-2d03942ad0ea"
      ],
      "collections": [
        "c7db86a0-ff64-4044-9be4-66dd1ef1d1c1"
      ],
      "creators": [
        "ef8f80e1-d244-4aea-b7f0-984d6dd4b82b"
      ],
      "families": [
        "0377db02-3af6-43b8-9b08-c759df3d25c3"
      ],
      "genres": [
        "f60ba57d-5ef4-49e0-b93b-d0dcbcff6592"
      ],
      "groups": [
        "8e209ae4-4381-438f-89dc-1b21752027d2"
      ],
      "langs": [
        "4dcf9614-7914-42aa-99f4-dbce2e059133"
      ],
      "misc": [
        "ec4fee75-71fb-45b4-9772-2ca374b4b600"
      ],
      "series": [
        "75443005-f3fc-4273-a658-4019678751cb"
      ],
      "singers": [
        "9035f935-1ed5-40a2-9cd7-66fa4fd533d5"
      ],
      "songtypes": [
        "a6c79ce5-89ee-4d50-afe8-3abd7317f6c2"
      ],
      "songwriters": [
        "65598b59-dd05-48cb-a8ad-04b13395b8a7",
        "9035f935-1ed5-40a2-9cd7-66fa4fd533d5",
        "c30f3e71-b81b-4fee-aa40-a38b8ef704a1"
      ],
      "versions": [
        "c2143a7f-6970-450e-8a79-0302db9220a9"
      ],
      "warnings": [
        "24371984-5e4c-4485-a937-fb0c480ca23b"
      ],
      "franchises": [
        "e6ade589-c2e4-49a1-acdb-ea9b03e57240"
      ]
    },
    "titles": {
      "jpn": "閃光",
      "qro": "Senkou"
    },
    "titles_default_language": "qro",
    "year": 2021
  }
}