{
  "header": {
    "version": 4,
    "description": "Karaoke Mugen Karaoke Data File"
  },
  "medias": [
    {
      "version": "Kanon & Keke.",
      "filename": "JPN - Love Live! Superstar!! - ED - Mirai wa Kaze no You ni ~ Kanon & Keke Vers.mp4",
      "audiogain": -1.34,
      "loudnorm": "-15.68,-5.24,5.80,-25.98,-0.28",
      "filesize": 37600052,
      "duration": 101,
      "default": true,
      "lyrics": [
        {
          "filename": "JPN - Love Live! Superstar!! - ED - Mirai wa Kaze no You ni ~ Kanon & Keke Vers.ass",
          "default": true,
          "version": "Default"
        }
      ]
    }
  ],
  "data": {
    "created_at": "2022-02-09T20:58:31.999Z",
    "ignoreHooks": false,
    "kid": "6c904047-a7ff-4f5c-9a33-10be56ebaf0e",
    "modified_at": "2022-09-30T22:05:27.904Z",
    "repository": "kara.moe",
    "tags": {
      "authors": [
        "da677ad5-b5dd-4ab9-a1fe-5461e36338a2"
      ],
      "collections": [
        "c7db86a0-ff64-4044-9be4-66dd1ef1d1c1"
      ],
      "creators": [
        "ef8f80e1-d244-4aea-b7f0-984d6dd4b82b"
      ],
      "families": [
        "0377db02-3af6-43b8-9b08-c759df3d25c3"
      ],
      "genres": [
        "caa86df2-0d59-474b-885c-f240a9e891b0"
      ],
      "groups": [
        "8e209ae4-4381-438f-89dc-1b21752027d2"
      ],
      "langs": [
        "4dcf9614-7914-42aa-99f4-dbce2e059133"
      ],
      "origins": [
        "938de218-5343-4865-94d3-fb33f2eaa152"
      ],
      "series": [
        "ed46191b-997b-4c2d-8088-bb30a5e6d4ca"
      ],
      "singers": [
        "8a484e8b-1945-416f-b778-97a887ff24eb",
        "c1fd3a67-0c3b-4d95-9cd8-f6aa2c8cc5a8"
      ],
      "songtypes": [
        "38c77c56-2b95-4040-b676-0994a8cb0597"
      ],
      "songwriters": [
        "21db1826-ce89-42a8-8fda-a9753576f238",
        "c6f679b1-a1e8-4ab2-80fa-5edf792440ce",
        "f41e7218-6c19-4e19-9b5f-4612dcd58243"
      ],
      "franchises": [
        "fd5d066e-e85a-4eea-8688-2979a887450a"
      ]
    },
    "titles": {
      "jpn": "未来は風のように ~ Kanon & Keke Vers.",
      "qro": "Mirai wa Kaze no You ni ~ Kanon & Keke Vers."
    },
    "titles_default_language": "qro",
    "title": "Mirai wa Kaze no You ni ~ Kanon & Keke Vers.",
    "year": 2021
  }
}