{
  "header": {
    "version": 4,
    "description": "Karaoke Mugen Karaoke Data File"
  },
  "medias": [
    {
      "version": "Default",
      "filename": "JPN - amazarashi - AUDIO - Karappo no Sora ni Tsubusareru.mp3",
      "audiogain": -10.59,
      "loudnorm": "-7.05,2.13,6.00,-17.23,-0.81",
      "filesize": 5457172,
      "duration": 339,
      "default": true,
      "lyrics": [
        {
          "filename": "JPN - amazarashi - AUDIO - Karappo no Sora ni Tsubusareru.ass",
          "default": true,
          "version": "Default",
          "subchecksum": "1edad831e3b645df536a2ac6da23f277"
        }
      ]
    }
  ],
  "data": {
    "created_at": "2020-05-10T19:35:03.628Z",
    "kid": "7c60d2a3-10f0-4f29-8957-2a521e6bf4e9",
    "modified_at": "2021-02-25T10:42:36.247Z",
    "repository": "kara.moe",
    "tags": {
      "authors": [
        "60defa7b-774e-4680-8321-51b742c2e009"
      ],
      "collections": [
        "c7db86a0-ff64-4044-9be4-66dd1ef1d1c1"
      ],
      "creators": [
        "9f10c180-4ed1-4a4e-9e39-c37e09b91d5f"
      ],
      "groups": [
        "60defa7b-774e-4680-8321-51b742c2e009",
        "ae613721-1fbe-480d-ba6b-d6d0702b184d"
      ],
      "langs": [
        "4dcf9614-7914-42aa-99f4-dbce2e059133"
      ],
      "misc": [
        "86705d4b-24e4-4756-9687-2b9c98bcf366"
      ],
      "singers": [
        "1e10b608-d701-4b51-9725-ccf808c44ce0"
      ],
      "songtypes": [
        "42a262ae-acba-4ab5-a446-c5789c96c821"
      ],
      "songwriters": [
        "caff84bc-059e-4a6e-b273-c857050e75f7"
      ]
    },
    "title": "Karappo no Sora ni Tsubusareru",
    "titles": {
      "qro": "Karappo no Sora ni Tsubusareru",
      "jpn": "空っぽの空に潰される"
    },
    "year": 2011,
    "titles_default_language": "qro"
  }
}