{
  "header": {
    "version": 4,
    "description": "Karaoke Mugen Karaoke Data File"
  },
  "medias": [
    {
      "version": "Default",
      "filename": "JPN - Perfume - MV - TOKYO GIRL.mp4",
      "audiogain": -3.92,
      "loudnorm": "-13.64,-1.69,7.10,-23.80,-0.79",
      "filesize": 138165030,
      "duration": 264,
      "default": true,
      "lyrics": [
        {
          "filename": "JPN - Perfume - MV - TOKYO GIRL.ass",
          "default": true,
          "version": "Default"
        }
      ]
    }
  ],
  "data": {
    "created_at": "2018-12-29T14:36:42.000Z",
    "ignoreHooks": false,
    "kid": "019b0a4e-f6fd-472c-b7bd-b4b608122fa4",
    "modified_at": "2022-12-22T16:08:57.406Z",
    "repository": "kara.moe",
    "tags": {
      "authors": [
        "6bebcb04-2694-453c-9e0c-eb1a2e2718d9"
      ],
      "collections": [
        "dbcf2c22-524d-4708-99bb-601703633927"
      ],
      "creators": [
        "f73ca9a0-75b7-403a-b137-29ce3f41f5b8"
      ],
      "families": [
        "5391f9fe-638c-415f-8dc9-958e3a2c5787"
      ],
      "groups": [
        "ae613721-1fbe-480d-ba6b-d6d0702b184d"
      ],
      "langs": [
        "4dcf9614-7914-42aa-99f4-dbce2e059133"
      ],
      "singers": [
        "78726a5c-35c9-4c82-9307-3564797ff50b"
      ],
      "songtypes": [
        "7be1b15c-cff8-4b37-a649-5c90f3d569a9"
      ],
      "songwriters": [
        "7cb65c58-557f-44f1-8e19-1d78b85e064a"
      ]
    },
    "titles": {
      "eng": "TOKYO GIRL"
    },
    "titles_default_language": "eng",
    "year": 2018
  }
}