{
  "header": {
    "version": 4,
    "description": "Karaoke Mugen Karaoke Data File"
  },
  "medias": [
    {
      "version": "Default",
      "filename": "JPN - MILGRAM - MV - After Pain.mp4",
      "audiogain": -7.47,
      "loudnorm": "-9.91,0.27,7.60,-20.09,-0.64",
      "filesize": 66257105,
      "duration": 218,
      "default": true,
      "lyrics": [
        {
          "filename": "JPN - MILGRAM - MV - After Pain.ass",
          "default": true,
          "version": "Default"
        }
      ]
    }
  ],
  "data": {
    "created_at": "2021-12-14T22:00:55.654Z",
    "kid": "0a3ffa13-ca53-4ead-ae4d-7e5fd61b99f2",
    "modified_at": "2021-12-14T22:03:42.945Z",
    "repository": "kara.moe",
    "tags": {
      "authors": [
        "fb28c6d3-a81e-40c0-9a4c-e3268c60a64b"
      ],
      "collections": [
        "c7db86a0-ff64-4044-9be4-66dd1ef1d1c1"
      ],
      "creators": [
        "f963181a-1214-47f8-b6f9-1705cbc33779"
      ],
      "families": [
        "0377db02-3af6-43b8-9b08-c759df3d25c3"
      ],
      "groups": [
        "8e209ae4-4381-438f-89dc-1b21752027d2"
      ],
      "langs": [
        "4dcf9614-7914-42aa-99f4-dbce2e059133"
      ],
      "series": [
        "c0e3120a-d593-4051-87dd-0bc28a803a5f"
      ],
      "singers": [
        "3b23a330-7b7a-40d9-b7d8-051d694fd8f3"
      ],
      "songtypes": [
        "7be1b15c-cff8-4b37-a649-5c90f3d569a9"
      ],
      "songwriters": [
        "48c8a778-756b-4ca8-80bc-397fb06ffc7d",
        "6d9eaa90-048f-41d5-a264-8d73df69cc22"
      ]
    },
    "titles": {
      "eng": "After Pain",
      "jpn": "アフターペイン"
    },
    "title": "After Pain",
    "year": 2020,
    "titles_default_language": "eng"
  }
}