{
  "header": {
    "version": 4,
    "description": "Karaoke Mugen Karaoke Data File"
  },
  "medias": [
    {
      "version": "Default",
      "filename": "JPN - Gintama' - MV - Tougenkyou Alien ~ Full Vers.mp4",
      "audiogain": -8.44,
      "loudnorm": "-8.22,-0.52,2.40,-18.31,-0.51",
      "filesize": 159759556,
      "duration": 311,
      "default": true,
      "lyrics": [
        {
          "filename": "JPN - Gintama' - MV - Tougenkyou Alien ~ Full Vers.ass",
          "default": true,
          "version": "Default"
        }
      ]
    }
  ],
  "data": {
    "created_at": "2020-08-19T14:40:23.103Z",
    "ignoreHooks": false,
    "kid": "dff81360-086c-4da0-b76a-c917074f955b",
    "modified_at": "2022-10-01T10:15:11.645Z",
    "parents": [
      "1d05c731-68f9-409c-9f7e-43ab6804b1fc"
    ],
    "repository": "kara.moe",
    "tags": {
      "authors": [
        "1d7745a8-73ea-40bb-ad99-826af98f6e41"
      ],
      "collections": [
        "dbcf2c22-524d-4708-99bb-601703633927"
      ],
      "creators": [
        "6fa9de67-21cf-420b-9ddb-57edb5abe523"
      ],
      "families": [
        "5391f9fe-638c-415f-8dc9-958e3a2c5787"
      ],
      "groups": [
        "ae613721-1fbe-480d-ba6b-d6d0702b184d"
      ],
      "langs": [
        "4dcf9614-7914-42aa-99f4-dbce2e059133"
      ],
      "misc": [
        "86705d4b-24e4-4756-9687-2b9c98bcf366"
      ],
      "series": [
        "32533db1-d153-4fa9-b691-e0b63a42fcdc"
      ],
      "singers": [
        "7e947487-1043-4fa4-8800-e3b123186247"
      ],
      "songtypes": [
        "7be1b15c-cff8-4b37-a649-5c90f3d569a9"
      ],
      "songwriters": [
        "2e2b5ddc-1b57-46cc-ae3f-ea43ac7d54e8",
        "53cdc0b6-b1af-4942-9fad-a275fa273e1d"
      ],
      "versions": [
        "c2143a7f-6970-450e-8a79-0302db9220a9"
      ],
      "franchises": [
        "0433ab0b-74bb-4837-8f1b-fd17a9e0c526"
      ]
    },
    "titles": {
      "jpn": "桃源郷エイリアン",
      "qro": "Tôgenkyô Alien"
    },
    "titles_default_language": "qro",
    "title": "Tôgenkyô Alien",
    "year": 2011,
    "titles_aliases": [
      "Tougenkyou"
    ]
  }
}