{
  "header": {
    "version": 4,
    "description": "Karaoke Mugen Karaoke Data File"
  },
  "medias": [
    {
      "version": "Default",
      "filename": "JPN - Naruto Shippuuden - ED11 - Omae Dattanda.mp4",
      "audiogain": -7.86,
      "loudnorm": "-8.67,0.98,2.30,-18.75,-0.26",
      "filesize": 36670913,
      "duration": 92,
      "default": true,
      "lyrics": [
        {
          "filename": "JPN - Naruto Shippuuden - ED11 - Omae Dattanda.ass",
          "default": true,
          "version": "Default",
          "subchecksum": "8e4275acfdc39b957e8b945ecf92edea"
        }
      ]
    }
  ],
  "data": {
    "created_at": "2017-10-11T17:02:21.000Z",
    "kid": "f9795717-2aa5-487c-a940-6dcfac18dfc2",
    "modified_at": "2021-02-25T12:33:31.645Z",
    "repository": "kara.moe",
    "songorder": 11,
    "tags": {
      "authors": [
        "5bdaba57-27f8-4568-8806-76a807728766"
      ],
      "collections": [
        "c7db86a0-ff64-4044-9be4-66dd1ef1d1c1"
      ],
      "creators": [
        "aaff4ba6-9a12-4bac-9bd0-c0cb783e4177"
      ],
      "families": [
        "0377db02-3af6-43b8-9b08-c759df3d25c3"
      ],
      "genres": [
        "a0aeef4a-6428-45ff-a6e1-468b595930c2"
      ],
      "groups": [
        "3c14c864-533c-49e6-a3cc-6969f1233775"
      ],
      "langs": [
        "4dcf9614-7914-42aa-99f4-dbce2e059133"
      ],
      "origins": [
        "938de218-5343-4865-94d3-fb33f2eaa152"
      ],
      "series": [
        "afd38f79-188d-47e4-95c6-f74c38895574"
      ],
      "singers": [
        "33706a36-4db9-4168-b095-fa90049d048c"
      ],
      "songtypes": [
        "38c77c56-2b95-4040-b676-0994a8cb0597"
      ],
      "songwriters": [
        "0250038c-c34d-45b3-ae75-d1a5c5b3adc9",
        "635e0e9a-480b-4762-bdda-b89c666b1fa2"
      ],
      "franchises": [
        "3201e723-3e75-46f9-bb21-d991f4f7731e"
      ]
    },
    "title": "Omae Dattanda",
    "titles": {
      "qro": "Omae Dattanda",
      "jpn": "おまえだったんだ"
    },
    "year": 2007,
    "titles_default_language": "qro"
  }
}