{
  "header": {
    "version": 4,
    "description": "Karaoke Mugen Karaoke Data File"
  },
  "medias": [
    {
      "version": "Default",
      "filename": "JPN - Bleach - MV - Asterisk ~ Full Vers.mp4",
      "audiogain": -3.18,
      "loudnorm": "-13.81,-1.48,11.50,-24.27,-0.27",
      "filesize": 16981598,
      "duration": 299,
      "default": true,
      "lyrics": [
        {
          "filename": "JPN - Bleach - MV - Asterisk ~ Full Vers.ass",
          "default": true,
          "version": "Default"
        }
      ]
    }
  ],
  "data": {
    "created_at": "2019-11-17T16:13:53.957Z",
    "kid": "548148d8-b81f-47b0-9072-8b995d43162a",
    "modified_at": "2022-06-04T00:21:50.021Z",
    "parents": [
      "1205a985-9731-4ae5-827d-26f7c7846cd2"
    ],
    "repository": "kara.moe",
    "songorder": null,
    "tags": {
      "authors": [
        "1db1738f-acdc-42fc-aec3-60f4bddf660d"
      ],
      "creators": [
        "dde803c3-3fa6-4864-9e8e-967866b0f335"
      ],
      "families": [
        "5391f9fe-638c-415f-8dc9-958e3a2c5787"
      ],
      "groups": [
        "3c14c864-533c-49e6-a3cc-6969f1233775"
      ],
      "langs": [
        "4dcf9614-7914-42aa-99f4-dbce2e059133"
      ],
      "series": [
        "d68e6557-fdc3-4c8b-805c-9778918abd03"
      ],
      "singers": [
        "68a6ce5a-bc2c-4ba0-ad71-6655b7e2a49e"
      ],
      "songtypes": [
        "7be1b15c-cff8-4b37-a649-5c90f3d569a9"
      ],
      "songwriters": [
        "68a6ce5a-bc2c-4ba0-ad71-6655b7e2a49e"
      ],
      "versions": [
        "c2143a7f-6970-450e-8a79-0302db9220a9"
      ],
      "collections": [
        "dbcf2c22-524d-4708-99bb-601703633927"
      ],
      "franchises": [
        "d68e6557-fdc3-4c8b-805c-9778918abd03"
      ]
    },
    "titles": {
      "eng": "Asterisk",
      "jpn": "*~アスタリスク~"
    },
    "titles_default_language": "eng",
    "title": "Asterisk",
    "year": 2004
  }
}