{
  "header": {
    "version": 4,
    "description": "Karaoke Mugen Karaoke Data File"
  },
  "medias": [
    {
      "version": "Default",
      "filename": "JPN - Tamaki Inuyama - MV - Dramaturgy ~ Cover Vers.mp4",
      "audiogain": -10.07,
      "loudnorm": "-7.40,2.13,4.10,-17.61,-0.49",
      "filesize": 173237354,
      "duration": 241,
      "default": true,
      "lyrics": [
        {
          "filename": "JPN - Tamaki Inuyama - MV - Dramaturgy ~ Cover Vers.ass",
          "default": true,
          "version": "Default"
        }
      ]
    }
  ],
  "data": {
    "created_at": "2019-12-15T22:49:10.705Z",
    "ignoreHooks": false,
    "kid": "43cace5d-2ff0-4162-ad81-584a24e2cdd5",
    "modified_at": "2022-08-22T20:03:14.358Z",
    "parents": [
      "4df62f82-35f7-4242-9708-8f99ceb4b8bd"
    ],
    "repository": "kara.moe",
    "tags": {
      "authors": [
        "f7ce702e-09aa-4b22-8742-0c99cd7a5409"
      ],
      "collections": [
        "c7db86a0-ff64-4044-9be4-66dd1ef1d1c1"
      ],
      "creators": [
        "e9f908f1-b4c4-48b0-8273-73e2e4cf07fb"
      ],
      "families": [
        "0377db02-3af6-43b8-9b08-c759df3d25c3"
      ],
      "groups": [
        "2b4e9972-5e17-481b-99f5-d0787c0ada56",
        "ae613721-1fbe-480d-ba6b-d6d0702b184d"
      ],
      "langs": [
        "4dcf9614-7914-42aa-99f4-dbce2e059133"
      ],
      "origins": [
        "ac5085db-52d8-44b4-8fbb-1697b24d2046"
      ],
      "singers": [
        "651b311d-d55f-4b1d-9093-5f743a18f1d2"
      ],
      "songtypes": [
        "7be1b15c-cff8-4b37-a649-5c90f3d569a9"
      ],
      "songwriters": [
        "a84f6a9f-4785-48bb-9f07-fdede3de7cae"
      ],
      "versions": [
        "03e1e1d2-8641-47b7-bbcb-39a3df9ff21c"
      ]
    },
    "titles": {
      "eng": "Dramaturgy",
      "jpn": "ドラマツルギー"
    },
    "titles_default_language": "eng",
    "title": "Dramaturgy",
    "year": 2019
  }
}