{
  "header": {
    "version": 4,
    "description": "Karaoke Mugen Karaoke Data File"
  },
  "medias": [
    {
      "version": "Default",
      "filename": "JPN - Tsukimonogatari - OP - Orange Mint.mp4",
      "audiogain": 7.95,
      "loudnorm": "-24.74,-15.44,1.60,-34.82,-0.24",
      "filesize": 75411199,
      "duration": 91,
      "default": true,
      "lyrics": [
        {
          "filename": "JPN - Tsukimonogatari - OP - Orange Mint.ass",
          "default": true,
          "version": "Default"
        }
      ]
    }
  ],
  "data": {
    "created_at": "2017-10-11T17:01:53.000Z",
    "ignoreHooks": false,
    "kid": "2f5ce3ff-4cfd-4a45-b4db-a2e74088bfe7",
    "modified_at": "2022-03-24T14:50:18.885Z",
    "repository": "kara.moe",
    "tags": {
      "authors": [
        "fa399f2f-ea1d-4902-8796-ea6d8218aff0"
      ],
      "collections": [
        "c7db86a0-ff64-4044-9be4-66dd1ef1d1c1"
      ],
      "creators": [
        "c3bd80ef-d1fe-427f-913f-a2ba2fe66114"
      ],
      "families": [
        "0377db02-3af6-43b8-9b08-c759df3d25c3"
      ],
      "groups": [
        "9a8e0fbc-dcae-4989-be82-7cad3436f1f5",
        "ae613721-1fbe-480d-ba6b-d6d0702b184d"
      ],
      "langs": [
        "4dcf9614-7914-42aa-99f4-dbce2e059133"
      ],
      "misc": [
        "fe819ff1-9db8-4a0f-85dc-0e322c9126c4"
      ],
      "origins": [
        "938de218-5343-4865-94d3-fb33f2eaa152"
      ],
      "series": [
        "bce014d5-0629-4a5c-a801-2a166a06fcd7"
      ],
      "singers": [
        "1e2a522f-776f-491a-882a-6892d061b4a2"
      ],
      "songtypes": [
        "f02ad9b3-0bd9-4aad-85b3-9976739ba0e4"
      ],
      "songwriters": [
        "81d493c9-3353-40d4-b94d-7fa42d3b4229",
        "8c88f3c6-ea88-458e-8935-f94f8408e349"
      ],
      "franchises": [
        "94c05ef3-bfff-4a4d-a1a4-b07c32389971"
      ]
    },
    "titles": {
      "eng": "Orange Mint",
      "jpn": "オレンジミント"
    },
    "titles_default_language": "eng",
    "title": "Orange Mint",
    "year": 2015
  }
}