{
  "header": {
    "version": 4,
    "description": "Karaoke Mugen Karaoke Data File"
  },
  "medias": [
    {
      "version": "Default",
      "filename": "JPN - ANGERME - MV - Atarashii Watashi ni Nare.mp4",
      "audiogain": -8.62,
      "loudnorm": "-9.28,0.53,6.90,-19.62,-1.07",
      "filesize": 53992795,
      "duration": 227,
      "default": true,
      "lyrics": [
        {
          "filename": "JPN - ANGERME - MV - Atarashii Watashi ni Nare.ass",
          "default": true,
          "version": "Default"
        }
      ]
    }
  ],
  "data": {
    "created_at": "2022-11-13T20:34:50.552Z",
    "ignoreHooks": false,
    "kid": "14d96798-47a4-4332-bf35-345f134b1f48",
    "modified_at": "2022-11-13T20:34:51.472Z",
    "repository": "kara.moe",
    "tags": {
      "authors": [
        "57e2d8c3-b3f3-4b82-88a4-2491946b24d9"
      ],
      "collections": [
        "dbcf2c22-524d-4708-99bb-601703633927"
      ],
      "families": [
        "5391f9fe-638c-415f-8dc9-958e3a2c5787"
      ],
      "groups": [
        "2b4e9972-5e17-481b-99f5-d0787c0ada56",
        "ae613721-1fbe-480d-ba6b-d6d0702b184d"
      ],
      "langs": [
        "4dcf9614-7914-42aa-99f4-dbce2e059133"
      ],
      "singers": [
        "be74b82d-f84d-41a7-9732-bba3c402b468"
      ],
      "songtypes": [
        "7be1b15c-cff8-4b37-a649-5c90f3d569a9"
      ],
      "songwriters": [
        "5938e181-5402-43ea-a5a0-a4ca2405705d",
        "81844a73-2646-40e4-9cb5-4da114164898"
      ]
    },
    "titles": {
      "jpn": "しい私になれ!",
      "qro": "Atarashii Watashi ni Nare"
    },
    "titles_default_language": "qro",
    "year": 2013
  }
}