{
  "header": {
    "version": 4,
    "description": "Karaoke Mugen Karaoke Data File"
  },
  "medias": [
    {
      "version": "Default",
      "filename": "JPN - Chainsaw Man - PV - KICK BACK ~ Short Vers.mp4",
      "audiogain": -2.42,
      "loudnorm": "-14.49,-0.41,7.00,-24.69,-0.28",
      "filesize": 22244023,
      "duration": 43,
      "default": true,
      "lyrics": [
        {
          "filename": "JPN - Chainsaw Man - PV - KICK BACK ~ Short Vers.ass",
          "default": true,
          "version": "Default"
        }
      ]
    }
  ],
  "data": {
    "created_at": "2022-09-26T12:27:37.848Z",
    "ignoreHooks": false,
    "kid": "b7ac2a4b-bb65-4a2d-aaa7-9b9f2fe38fc3",
    "modified_at": "2022-10-11T16:18:03.374Z",
    "parents": [
      "8c52fd43-8a07-429e-a8f8-a2c6c811480d"
    ],
    "repository": "kara.moe",
    "tags": {
      "authors": [
        "9cdf3b70-3550-457c-bdb9-038f3253c6ad"
      ],
      "collections": [
        "c7db86a0-ff64-4044-9be4-66dd1ef1d1c1"
      ],
      "creators": [
        "0a86e9ea-5e17-4371-8f2a-60c818324d58"
      ],
      "families": [
        "0377db02-3af6-43b8-9b08-c759df3d25c3"
      ],
      "genres": [
        "a0aeef4a-6428-45ff-a6e1-468b595930c2"
      ],
      "groups": [
        "8e209ae4-4381-438f-89dc-1b21752027d2"
      ],
      "langs": [
        "4dcf9614-7914-42aa-99f4-dbce2e059133"
      ],
      "origins": [
        "938de218-5343-4865-94d3-fb33f2eaa152"
      ],
      "series": [
        "0223cfec-8497-42fc-a5f4-b8eb0589c014"
      ],
      "singers": [
        "2a71d548-fb9e-4bbf-b10c-eee31eb68c1d",
        "a01d2fdc-095e-41ab-8fab-cc5278296a87"
      ],
      "songtypes": [
        "66e195b9-64ea-432d-a917-2e2c88d26052"
      ],
      "songwriters": [
        "13c1ef7a-0b82-4f0e-9ebb-0aef854fcc59",
        "2a71d548-fb9e-4bbf-b10c-eee31eb68c1d",
        "5938e181-5402-43ea-a5a0-a4ca2405705d"
      ],
      "versions": [
        "d125c80a-86c1-4321-88e9-07b7800679b6"
      ]
    },
    "titles": {
      "eng": "KICK BACK"
    },
    "titles_default_language": "eng",
    "title": "KICK BACK",
    "year": 2022
  }
}