{
  "header": {
    "version": 4,
    "description": "Karaoke Mugen Karaoke Data File"
  },
  "medias": [
    {
      "version": "Default",
      "filename": "JPN - YUI - MV - Umbrella.mp4",
      "audiogain": -9.11,
      "loudnorm": "-9.17,0.94,5.00,-19.33,-0.92",
      "filesize": 81447044,
      "duration": 262,
      "default": true,
      "lyrics": [
        {
          "filename": "JPN - YUI - MV - Umbrella.ass",
          "default": true,
          "version": "Default"
        }
      ]
    }
  ],
  "data": {
    "created_at": "2019-07-21T23:40:21.000Z",
    "kid": "498c9f0d-8f3a-4d80-8883-0ef6eefb81e8",
    "modified_at": "2022-06-04T00:14:07.581Z",
    "repository": "kara.moe",
    "songorder": null,
    "tags": {
      "authors": [
        "57e2d8c3-b3f3-4b82-88a4-2491946b24d9"
      ],
      "families": [
        "5391f9fe-638c-415f-8dc9-958e3a2c5787"
      ],
      "groups": [
        "2b4e9972-5e17-481b-99f5-d0787c0ada56",
        "3c14c864-533c-49e6-a3cc-6969f1233775"
      ],
      "langs": [
        "4dcf9614-7914-42aa-99f4-dbce2e059133"
      ],
      "singers": [
        "c7157cf5-e8bc-4e99-8028-33edbb268298"
      ],
      "songtypes": [
        "7be1b15c-cff8-4b37-a649-5c90f3d569a9"
      ],
      "songwriters": [
        "c7157cf5-e8bc-4e99-8028-33edbb268298"
      ],
      "collections": [
        "dbcf2c22-524d-4708-99bb-601703633927"
      ]
    },
    "titles": {
      "eng": "Umbrella"
    },
    "titles_default_language": "eng",
    "title": "Umbrella",
    "year": 2007
  }
}