{
  "header": {
    "version": 4,
    "description": "Karaoke Mugen Karaoke Data File"
  },
  "medias": [
    {
      "version": "Default",
      "filename": "JPN - Roce - MV - Jishu.mp4",
      "audiogain": -8.92,
      "loudnorm": "-8.17,0.17,3.70,-18.31,-0.82",
      "filesize": 22807119,
      "duration": 186,
      "default": true,
      "lyrics": [
        {
          "filename": "JPN - Roce - MV - Jishu.ass",
          "default": true,
          "version": "Default"
        }
      ]
    }
  ],
  "data": {
    "created_at": "2022-03-25T23:28:11.996Z",
    "ignoreHooks": false,
    "kid": "c47b617d-3b1c-4ec5-aa47-cee10a291af8",
    "modified_at": "2022-03-26T17:07:21.036Z",
    "repository": "kara.moe",
    "tags": {
      "authors": [
        "10891649-d475-46eb-b515-8eb3c1e14622"
      ],
      "collections": [
        "c7db86a0-ff64-4044-9be4-66dd1ef1d1c1"
      ],
      "creators": [
        "f963181a-1214-47f8-b6f9-1705cbc33779"
      ],
      "groups": [
        "8e209ae4-4381-438f-89dc-1b21752027d2"
      ],
      "langs": [
        "4dcf9614-7914-42aa-99f4-dbce2e059133"
      ],
      "misc": [
        "ec4fee75-71fb-45b4-9772-2ca374b4b600"
      ],
      "singers": [
        "28ab4df1-5c69-4733-a97f-9ac587278a2a"
      ],
      "songtypes": [
        "7be1b15c-cff8-4b37-a649-5c90f3d569a9"
      ],
      "songwriters": [
        "28ab4df1-5c69-4733-a97f-9ac587278a2a"
      ]
    },
    "titles": {
      "qro": "Jishu",
      "jpn": "自主"
    },
    "titles_default_language": "qro",
    "title": "Jishu",
    "year": 2022
  }
}