{
  "header": {
    "version": 4,
    "description": "Karaoke Mugen Karaoke Data File"
  },
  "medias": [
    {
      "version": "Default",
      "filename": "JPN - Steins Gate - ED1 - Toki Tsukasadoru Juuni no Meiyaku.mp4",
      "audiogain": 1.32,
      "loudnorm": "-18.95,-7.58,6.00,-29.10,-1.38",
      "filesize": 37180756,
      "duration": 92,
      "default": true,
      "lyrics": [
        {
          "filename": "JPN - Steins Gate - ED1 - Toki Tsukasadoru Juuni no Meiyaku.ass",
          "default": true,
          "version": "Default"
        }
      ]
    }
  ],
  "data": {
    "created_at": "2017-10-11T17:02:50.000Z",
    "ignoreHooks": false,
    "kid": "a20a52b9-d997-4791-8467-b3caf50055c9",
    "modified_at": "2022-12-11T11:27:33.913Z",
    "repository": "kara.moe",
    "songorder": 1,
    "tags": {
      "authors": [
        "5bdaba57-27f8-4568-8806-76a807728766"
      ],
      "collections": [
        "c7db86a0-ff64-4044-9be4-66dd1ef1d1c1"
      ],
      "creators": [
        "01b5630b-d291-4ad5-a781-2cb717804d18"
      ],
      "families": [
        "0377db02-3af6-43b8-9b08-c759df3d25c3"
      ],
      "groups": [
        "ae613721-1fbe-480d-ba6b-d6d0702b184d"
      ],
      "langs": [
        "4dcf9614-7914-42aa-99f4-dbce2e059133"
      ],
      "origins": [
        "938de218-5343-4865-94d3-fb33f2eaa152"
      ],
      "series": [
        "afc0f5fc-26e3-4292-b818-1e96c196988a"
      ],
      "singers": [
        "8be7b6e2-4c57-42b1-824d-1f4c14efe028"
      ],
      "singergroups": [
        "7d912311-59e5-47e1-8c70-b79729fc8c5b"
      ],
      "songtypes": [
        "38c77c56-2b95-4040-b676-0994a8cb0597"
      ],
      "songwriters": [
        "66339ced-7df9-40c8-aefd-59b2990df294",
        "79c60771-76ad-4ed5-afcd-c245d011b3c1"
      ],
      "franchises": [
        "afc0f5fc-26e3-4292-b818-1e96c196988a"
      ]
    },
    "titles": {
      "jpn": "刻司ル十二ノ盟約",
      "qro": "Toki Tsukasadoru Jûni no Meiyaku"
    },
    "titles_default_language": "qro",
    "titles_aliases": [
      "Juuni"
    ],
    "year": 2011
  }
}