{
  "header": {
    "version": 4,
    "description": "Karaoke Mugen Karaoke Data File"
  },
  "medias": [
    {
      "version": "Default",
      "filename": "JPN - Rockman 9 Yabou no Fukkatsu - AUDIO - GALAXY FANTASY.mp3",
      "audiogain": -11.44,
      "loudnorm": "-6.57,1.73,2.80,-16.65,-0.27",
      "filesize": 7128095,
      "duration": 232,
      "default": true,
      "lyrics": [
        {
          "filename": "JPN - Rockman 9 Yabou no Fukkatsu - AUDIO - GALAXY FANTASY.ass",
          "default": true,
          "version": "Default",
          "subchecksum": "909a174be0cc6ae9efbfc44eec4d8596"
        }
      ]
    }
  ],
  "data": {
    "created_at": "2021-05-29T18:13:15.248Z",
    "kid": "f8054fbb-ca5b-46ae-84d2-3222a97af613",
    "modified_at": "2021-05-29T18:34:53.983Z",
    "repository": "kara.moe",
    "tags": {
      "authors": [
        "fb28c6d3-a81e-40c0-9a4c-e3268c60a64b"
      ],
      "collections": [
        "c7db86a0-ff64-4044-9be4-66dd1ef1d1c1"
      ],
      "creators": [
        "ca654b25-30b5-4054-a2c0-35028fdcae22"
      ],
      "groups": [
        "ae613721-1fbe-480d-ba6b-d6d0702b184d"
      ],
      "langs": [
        "4dcf9614-7914-42aa-99f4-dbce2e059133"
      ],
      "series": [
        "dc90d65d-e530-4bbb-bb18-02f41a663c63"
      ],
      "singers": [
        "49d38b66-5461-4e30-8167-b1e17c81e2a4"
      ],
      "songtypes": [
        "42a262ae-acba-4ab5-a446-c5789c96c821"
      ],
      "songwriters": [
        "23351848-e3cc-4420-b564-db2bfe2b7f3d",
        "7339f837-69b2-4b50-b2e6-a77c5061c563"
      ],
      "franchises": [
        "74eff3a1-8127-44f1-aa19-fdddc357af23"
      ]
    },
    "title": "GALAXY FANTASY",
    "titles": {
      "eng": "GALAXY FANTASY"
    },
    "year": 2012,
    "titles_default_language": "eng"
  }
}