{
  "header": {
    "version": 4,
    "description": "Karaoke Mugen Karaoke Data File"
  },
  "medias": [
    {
      "version": "Default",
      "filename": "KOR - BLACKPINK - MV - Whistle.mp4",
      "audiogain": -9.25,
      "loudnorm": "-7.37,2.58,5.00,-17.80,-0.96",
      "filesize": 72140409,
      "duration": 230,
      "default": true,
      "lyrics": [
        {
          "filename": "KOR - BLACKPINK - MV - Whistle.ass",
          "default": true,
          "version": "Default"
        }
      ]
    }
  ],
  "data": {
    "created_at": "2022-04-06T19:44:05.371Z",
    "kid": "f6c38a74-591a-4f25-af4d-9027450e3092",
    "modified_at": "2022-05-26T16:30:57.073Z",
    "repository": "kara.moe",
    "songorder": null,
    "tags": {
      "authors": [
        "1d7745a8-73ea-40bb-ad99-826af98f6e41"
      ],
      "creators": [
        "b4ac6a4a-0d54-460b-a56d-f3c97aaeb45e"
      ],
      "families": [
        "5391f9fe-638c-415f-8dc9-958e3a2c5787"
      ],
      "groups": [
        "ae613721-1fbe-480d-ba6b-d6d0702b184d"
      ],
      "langs": [
        "3b9e2749-27d0-4a78-873d-ea91a9ee9a25"
      ],
      "singers": [
        "0e965310-c0c9-4001-8c2c-42e74b41573e"
      ],
      "songtypes": [
        "7be1b15c-cff8-4b37-a649-5c90f3d569a9"
      ],
      "songwriters": [
        "209cdc0a-9333-48d0-944f-15fdf6eb1997",
        "5092adbb-0292-47be-bf28-dc0b20025086",
        "527a8280-ebed-4d1a-a967-7f4323699eaf",
        "5d845d78-a067-46da-b8ee-52d340648506"
      ],
      "collections": [
        "dbcf2c22-524d-4708-99bb-601703633927"
      ]
    },
    "titles": {
      "eng": "Whistle"
    },
    "titles_default_language": "eng",
    "title": "Whistle",
    "year": 2016
  }
}