{
  "header": {
    "version": 4,
    "description": "Karaoke Mugen Karaoke Data File"
  },
  "medias": [
    {
      "version": "Default",
      "filename": "KOR - CLC - MV - Like.mp4",
      "audiogain": -10.43,
      "loudnorm": "-6.62,4.49,4.50,-16.99,-0.36",
      "filesize": 106314357,
      "duration": 233,
      "default": true,
      "lyrics": [
        {
          "filename": "KOR - CLC - MV - Like.ass",
          "default": true,
          "version": "Default"
        }
      ]
    }
  ],
  "data": {
    "created_at": "2019-09-22T12:24:33.000Z",
    "kid": "d6f459aa-fdcd-465a-bbb0-9efe4d9c5f0c",
    "modified_at": "2022-05-26T16:30:26.249Z",
    "repository": "kara.moe",
    "songorder": null,
    "tags": {
      "authors": [
        "622e2a6d-e4e8-4ff5-b218-890e8d7a3abf"
      ],
      "creators": [
        "6b8ffb9d-bc6a-4de7-b8a7-b4c6b4c2f475"
      ],
      "families": [
        "5391f9fe-638c-415f-8dc9-958e3a2c5787"
      ],
      "groups": [
        "2b4e9972-5e17-481b-99f5-d0787c0ada56",
        "ae613721-1fbe-480d-ba6b-d6d0702b184d"
      ],
      "langs": [
        "3b9e2749-27d0-4a78-873d-ea91a9ee9a25"
      ],
      "singers": [
        "cea5e706-0134-4bbb-b228-c9479e2b4fd4"
      ],
      "songtypes": [
        "7be1b15c-cff8-4b37-a649-5c90f3d569a9"
      ],
      "songwriters": [
        "51ebf97e-2f0c-4292-8cdd-aa232f649238",
        "9b3a1a85-f379-495d-8840-f8582d935e7d",
        "b43e9ee8-4bd5-4cd9-903b-1ab13b1c9ae5"
      ],
      "collections": [
        "dbcf2c22-524d-4708-99bb-601703633927"
      ]
    },
    "titles": {
      "eng": "Like"
    },
    "titles_default_language": "eng",
    "title": "Like",
    "year": 2015
  }
}