{
  "header": {
    "version": 4,
    "description": "Karaoke Mugen Karaoke Data File"
  },
  "medias": [
    {
      "version": "Default",
      "filename": "KOR - CLC - MV - Pepe.mp4",
      "audiogain": -10.66,
      "loudnorm": "-7.32,3.11,6.70,-17.62,-0.84",
      "filesize": 92395408,
      "duration": 209,
      "default": true,
      "lyrics": [
        {
          "filename": "KOR - CLC - MV - Pepe.ass",
          "default": true,
          "version": "Default"
        }
      ]
    }
  ],
  "data": {
    "created_at": "2019-09-22T12:53:09.000Z",
    "kid": "8e71b0ca-8d1d-4275-840e-cf28281b15cd",
    "modified_at": "2022-05-26T16:31:24.723Z",
    "repository": "kara.moe",
    "songorder": null,
    "tags": {
      "authors": [
        "622e2a6d-e4e8-4ff5-b218-890e8d7a3abf"
      ],
      "creators": [
        "6b8ffb9d-bc6a-4de7-b8a7-b4c6b4c2f475"
      ],
      "families": [
        "5391f9fe-638c-415f-8dc9-958e3a2c5787"
      ],
      "groups": [
        "2b4e9972-5e17-481b-99f5-d0787c0ada56",
        "ae613721-1fbe-480d-ba6b-d6d0702b184d"
      ],
      "langs": [
        "3b9e2749-27d0-4a78-873d-ea91a9ee9a25"
      ],
      "singers": [
        "cea5e706-0134-4bbb-b228-c9479e2b4fd4"
      ],
      "songtypes": [
        "7be1b15c-cff8-4b37-a649-5c90f3d569a9"
      ],
      "songwriters": [
        "4152331f-48a3-44c3-a262-c8daa1d72dc3",
        "a6c8fc54-233a-49aa-b8f0-3aad86512cc2",
        "eaadb2a8-dbe6-45fa-8a54-ff934a255963"
      ],
      "collections": [
        "dbcf2c22-524d-4708-99bb-601703633927"
      ]
    },
    "titles": {
      "eng": "Pepe"
    },
    "titles_default_language": "eng",
    "title": "Pepe",
    "year": 2015
  }
}