{
  "header": {
    "version": 4,
    "description": "Karaoke Mugen Karaoke Data File"
  },
  "medias": [
    {
      "version": "Default",
      "filename": "KOR - TWICE - MV - CHEER UP ~ Off Vocal Vers.mp4",
      "audiogain": -8.67,
      "loudnorm": "-7.63,2.40,8.90,-17.93,-1.42",
      "filesize": 89078577,
      "duration": 240,
      "default": true,
      "lyrics": [
        {
          "filename": "KOR - TWICE - MV - CHEER UP ~ Off Vocal Vers.ass",
          "default": true,
          "version": "Default"
        }
      ]
    }
  ],
  "data": {
    "created_at": "2022-01-19T22:00:22.994Z",
    "kid": "3b19288c-1362-4c12-94c3-2d437b8e895c",
    "modified_at": "2022-05-26T16:31:55.325Z",
    "parents": [
      "19cf2cea-10cc-40f8-b2e1-976a77726e33"
    ],
    "repository": "kara.moe",
    "songorder": null,
    "tags": {
      "authors": [
        "4d71ce82-eed1-4c44-ac85-5f7255f3dad3",
        "90698f28-1d62-4673-82c4-33ae96b1ba97"
      ],
      "creators": [
        "e1a9a889-9e39-49c9-8ff7-7d7d16331ee5"
      ],
      "families": [
        "5391f9fe-638c-415f-8dc9-958e3a2c5787"
      ],
      "groups": [
        "ae613721-1fbe-480d-ba6b-d6d0702b184d"
      ],
      "langs": [
        "3b9e2749-27d0-4a78-873d-ea91a9ee9a25"
      ],
      "singers": [
        "fe421082-61b7-4758-bcf2-71b03dd52a1d"
      ],
      "songtypes": [
        "7be1b15c-cff8-4b37-a649-5c90f3d569a9"
      ],
      "songwriters": [
        "6e177b9a-ba33-4373-ba4a-f44fd8e35b03",
        "9c0ac289-1862-4b50-bf6e-31fc563114ff"
      ],
      "versions": [
        "c0cc87b9-55b9-40f0-878a-fbb9e34c151e"
      ],
      "collections": [
        "dbcf2c22-524d-4708-99bb-601703633927"
      ]
    },
    "titles": {
      "eng": "CHEER UP"
    },
    "titles_default_language": "eng",
    "title": "CHEER UP",
    "year": 2016
  }
}