{
  "header": {
    "version": 4,
    "description": "Karaoke Mugen Karaoke Data File"
  },
  "medias": [
    {
      "version": "Default",
      "filename": "KOR - BLACKPINK - MV - Kill This Love.mp4",
      "audiogain": -9.89,
      "loudnorm": "-8.50,2.23,5.80,-18.56,-0.60",
      "filesize": 70421461,
      "duration": 193,
      "default": true,
      "lyrics": [
        {
          "filename": "KOR - BLACKPINK - MV - Kill This Love.ass",
          "default": true,
          "version": "Default"
        }
      ]
    }
  ],
  "data": {
    "created_at": "2022-04-06T19:44:05.371Z",
    "kid": "2cc297ca-f792-44e1-b3e2-594073b78e69",
    "modified_at": "2022-05-26T16:30:30.112Z",
    "repository": "kara.moe",
    "songorder": null,
    "tags": {
      "authors": [
        "1d7745a8-73ea-40bb-ad99-826af98f6e41"
      ],
      "creators": [
        "b4ac6a4a-0d54-460b-a56d-f3c97aaeb45e"
      ],
      "families": [
        "5391f9fe-638c-415f-8dc9-958e3a2c5787"
      ],
      "groups": [
        "ae613721-1fbe-480d-ba6b-d6d0702b184d"
      ],
      "langs": [
        "3b9e2749-27d0-4a78-873d-ea91a9ee9a25"
      ],
      "singers": [
        "0e965310-c0c9-4001-8c2c-42e74b41573e"
      ],
      "songtypes": [
        "7be1b15c-cff8-4b37-a649-5c90f3d569a9"
      ],
      "songwriters": [
        "209cdc0a-9333-48d0-944f-15fdf6eb1997",
        "3e9e5b76-e9c8-4aed-86a2-65749fb98ade",
        "5092adbb-0292-47be-bf28-dc0b20025086",
        "6339f99c-80bb-4730-948a-83d979c73b3d"
      ],
      "collections": [
        "dbcf2c22-524d-4708-99bb-601703633927"
      ]
    },
    "titles": {
      "eng": "Kill This Love"
    },
    "titles_default_language": "eng",
    "title": "Kill This Love",
    "year": 2019
  }
}