{
  "header": {
    "version": 4,
    "description": "Karaoke Mugen Karaoke Data File"
  },
  "medias": [
    {
      "version": "Default",
      "filename": "KOR - Glee - IN - Gangnam Style ~ Cover Vers.mp4",
      "audiogain": -3.72,
      "loudnorm": "-12.89,-0.40,2.80,-22.93,-0.52",
      "filesize": 112496466,
      "duration": 146,
      "default": true,
      "lyrics": [
        {
          "filename": "KOR - Glee - IN - Gangnam Style ~ Cover Vers.ass",
          "default": true,
          "version": "Default"
        }
      ]
    }
  ],
  "data": {
    "created_at": "2022-12-11T12:33:16.258Z",
    "ignoreHooks": false,
    "kid": "bbe93fc2-f23c-4caf-903a-7e23f65754dc",
    "modified_at": "2022-12-11T12:33:17.935Z",
    "parents": [
      "2a1683bd-8bae-4b20-989f-0ccb34bcc8b2"
    ],
    "repository": "kara.moe",
    "tags": {
      "authors": [
        "aea68e75-e469-45bd-be80-67f2af0e6b2d"
      ],
      "collections": [
        "efe171c0-e8a1-4d03-98c0-60ecf741ad52"
      ],
      "creators": [
        "ac5f4b76-3d0e-4e80-9583-d3ba1cafef0d"
      ],
      "families": [
        "5391f9fe-638c-415f-8dc9-958e3a2c5787"
      ],
      "groups": [
        "ae613721-1fbe-480d-ba6b-d6d0702b184d"
      ],
      "langs": [
        "3b9e2749-27d0-4a78-873d-ea91a9ee9a25"
      ],
      "origins": [
        "938de218-5343-4865-94d3-fb33f2eaa152"
      ],
      "series": [
        "c0724ccb-da73-4fc6-bf55-d17759e05bfc"
      ],
      "singers": [
        "a7f9ceaf-ee64-4f6d-884f-bd7214aedf3a"
      ],
      "songtypes": [
        "5e5250d9-351a-4a82-98eb-55db50ad8962"
      ],
      "songwriters": [
        "5debcfa8-ffe9-4fac-a188-46c126ee9b01",
        "aea49184-0d9f-4af0-a9c4-0cfc8b3cf305"
      ],
      "versions": [
        "03e1e1d2-8641-47b7-bbcb-39a3df9ff21c"
      ]
    },
    "titles": {
      "eng": "Gangnam Style"
    },
    "titles_default_language": "eng",
    "year": 2012
  }
}