{
  "header": {
    "version": 4,
    "description": "Karaoke Mugen Karaoke Data File"
  },
  "medias": [
    {
      "version": "Default",
      "filename": "KOR - Dalmatian - MV - That Man Opposed.mp4",
      "audiogain": -4.52,
      "loudnorm": "-12.52,-1.28,2.30,-22.60,-0.31",
      "filesize": 80109337,
      "duration": 217,
      "default": true,
      "lyrics": [
        {
          "filename": "KOR - Dalmatian - MV - That Man Opposed.ass",
          "default": true,
          "version": "Default"
        }
      ]
    }
  ],
  "data": {
    "created_at": "2019-10-06T14:03:28.000Z",
    "kid": "ab2af859-6707-4328-a248-7165ed450fa0",
    "modified_at": "2022-05-26T16:30:27.476Z",
    "repository": "kara.moe",
    "songorder": null,
    "tags": {
      "authors": [
        "622e2a6d-e4e8-4ff5-b218-890e8d7a3abf"
      ],
      "creators": [
        "4786bdec-b363-4a31-a9ea-c0c28525c983"
      ],
      "families": [
        "5391f9fe-638c-415f-8dc9-958e3a2c5787"
      ],
      "groups": [
        "2b4e9972-5e17-481b-99f5-d0787c0ada56",
        "ae613721-1fbe-480d-ba6b-d6d0702b184d"
      ],
      "langs": [
        "3b9e2749-27d0-4a78-873d-ea91a9ee9a25"
      ],
      "singers": [
        "a3eb4a92-ffd4-4f6b-bfd3-d2698c65a34b"
      ],
      "songtypes": [
        "7be1b15c-cff8-4b37-a649-5c90f3d569a9"
      ],
      "songwriters": [
        "142b28aa-2d9b-454a-9fd0-8021333af777",
        "22ec6c16-57a0-421d-b796-0009488b825f",
        "8dfe5b2d-bc27-40b2-852e-a801e1dc0250",
        "d11faafc-f6c0-4c07-9d48-2c088b23e439",
        "fad0632f-3d43-4b8d-b893-ce5612a5c2d7"
      ],
      "collections": [
        "dbcf2c22-524d-4708-99bb-601703633927"
      ]
    },
    "titles": {
      "eng": "That Man Opposed"
    },
    "titles_default_language": "eng",
    "title": "That Man Opposed",
    "year": 2011
  }
}