{
  "header": {
    "version": 4,
    "description": "Karaoke Mugen Karaoke Data File"
  },
  "medias": [
    {
      "version": "Default",
      "filename": "KOR - f(x) - MV - Electric Shock.mp4",
      "audiogain": -12.44,
      "loudnorm": "-5.57,3.85,4.30,-15.63,-0.19",
      "filesize": 37149782,
      "duration": 197,
      "default": true,
      "lyrics": [
        {
          "filename": "KOR - f(x) - MV - Electric Shock.ass",
          "default": true,
          "version": "Default"
        }
      ]
    }
  ],
  "data": {
    "created_at": "2022-08-04T13:20:10.590Z",
    "ignoreHooks": false,
    "kid": "2ea109a1-be1e-4748-bc9b-b3b85481fdf3",
    "modified_at": "2022-08-24T09:18:58.167Z",
    "repository": "kara.moe",
    "tags": {
      "authors": [
        "4d71ce82-eed1-4c44-ac85-5f7255f3dad3"
      ],
      "collections": [
        "dbcf2c22-524d-4708-99bb-601703633927"
      ],
      "creators": [
        "41112842-f1a3-4fef-9ebd-55b7fa600589"
      ],
      "families": [
        "5391f9fe-638c-415f-8dc9-958e3a2c5787"
      ],
      "groups": [
        "ae613721-1fbe-480d-ba6b-d6d0702b184d"
      ],
      "langs": [
        "3b9e2749-27d0-4a78-873d-ea91a9ee9a25"
      ],
      "singers": [
        "f8cecbce-7b95-4ebb-85c5-c29d1fb48bcb"
      ],
      "songtypes": [
        "7be1b15c-cff8-4b37-a649-5c90f3d569a9"
      ],
      "songwriters": [
        "35b05d79-6e84-4b3c-aa88-32093071d2e4",
        "b3a07175-76e1-42f1-ae2a-74504a0f293c",
        "ec723ee5-a612-43b1-9f6e-7eaab6434bc0",
        "f8b1921f-e510-4aab-a301-6b7182c857e2"
      ]
    },
    "titles": {
      "eng": "Electric Shock"
    },
    "titles_default_language": "eng",
    "title": "Electric Shock",
    "year": 2012
  }
}