{
  "header": {
    "version": 4,
    "description": "Karaoke Mugen Karaoke Data File"
  },
  "medias": [
    {
      "version": "Default",
      "filename": "KOR - TWICE - MV - CHEER UP.mp4",
      "audiogain": -11.77,
      "loudnorm": "-5.52,3.22,7.40,-15.85,-1.20",
      "filesize": 83469420,
      "duration": 240,
      "default": true,
      "lyrics": [
        {
          "filename": "KOR - TWICE - MV - CHEER UP.ass",
          "default": true,
          "version": "Default"
        }
      ]
    }
  ],
  "data": {
    "created_at": "2022-01-16T18:14:52.192Z",
    "kid": "19cf2cea-10cc-40f8-b2e1-976a77726e33",
    "modified_at": "2022-05-26T16:30:33.207Z",
    "repository": "kara.moe",
    "songorder": null,
    "tags": {
      "authors": [
        "4d71ce82-eed1-4c44-ac85-5f7255f3dad3",
        "90698f28-1d62-4673-82c4-33ae96b1ba97"
      ],
      "creators": [
        "e1a9a889-9e39-49c9-8ff7-7d7d16331ee5"
      ],
      "families": [
        "5391f9fe-638c-415f-8dc9-958e3a2c5787"
      ],
      "groups": [
        "ae613721-1fbe-480d-ba6b-d6d0702b184d"
      ],
      "langs": [
        "3b9e2749-27d0-4a78-873d-ea91a9ee9a25"
      ],
      "singers": [
        "fe421082-61b7-4758-bcf2-71b03dd52a1d"
      ],
      "songtypes": [
        "7be1b15c-cff8-4b37-a649-5c90f3d569a9"
      ],
      "songwriters": [
        "6e177b9a-ba33-4373-ba4a-f44fd8e35b03",
        "9c0ac289-1862-4b50-bf6e-31fc563114ff"
      ],
      "collections": [
        "dbcf2c22-524d-4708-99bb-601703633927"
      ]
    },
    "titles": {
      "eng": "CHEER UP"
    },
    "titles_default_language": "eng",
    "title": "CHEER UP",
    "year": 2016
  }
}