{
  "header": {
    "version": 4,
    "description": "Karaoke Mugen Karaoke Data File"
  },
  "medias": [
    {
      "version": "Default",
      "filename": "LAT - Lamento Beyond the Void - PC GAME OP - Lamento.mp4",
      "audiogain": -4.01,
      "loudnorm": "-13.34,1.15,8.10,-23.50,0.35",
      "filesize": 13272751,
      "duration": 88,
      "default": true,
      "lyrics": [
        {
          "filename": "LAT - Lamento Beyond the Void - PC GAME OP - Lamento.ass",
          "default": true,
          "version": "Default",
          "subchecksum": "b833d626570ddf72a4554fea297814bf"
        }
      ]
    }
  ],
  "data": {
    "created_at": "2017-10-11T17:01:49.000Z",
    "kid": "652c0be6-44f4-467c-b8ea-6b08068bda3e",
    "modified_at": "2021-02-25T13:48:48.019Z",
    "repository": "kara.moe",
    "tags": {
      "authors": [
        "5bdaba57-27f8-4568-8806-76a807728766"
      ],
      "collections": [
        "c7db86a0-ff64-4044-9be4-66dd1ef1d1c1"
      ],
      "creators": [
        "d8c36618-4baf-4969-a667-188a901a1f00"
      ],
      "groups": [
        "3c14c864-533c-49e6-a3cc-6969f1233775"
      ],
      "langs": [
        "9020a9e0-ed66-43b0-b795-7ef67eecf676"
      ],
      "origins": [
        "2f96e82c-c61b-4413-817e-e6b247509b95",
        "dbedd6b3-d125-4cd8-aa32-c4175e4ca3a3"
      ],
      "platforms": [
        "3c15f758-e1bc-4266-8bb9-3c14112f504a"
      ],
      "series": [
        "37870155-ce09-48b2-953f-bc34527fe119"
      ],
      "singers": [
        "3b97f60d-23e3-4e23-bf7f-9835bba682a7"
      ],
      "songtypes": [
        "f02ad9b3-0bd9-4aad-85b3-9976739ba0e4"
      ],
      "songwriters": [
        "8b3b3e30-0d28-43e0-90e0-ad0eef33509c",
        "eae43792-43ca-44cd-871b-5d46e5531c45"
      ]
    },
    "title": "Lamento",
    "titles": {
      "eng": "Lamento"
    },
    "year": 2006
  }
}