{
  "header": {
    "version": 4,
    "description": "Karaoke Mugen Karaoke Data File"
  },
  "medias": [
    {
      "version": "Default",
      "filename": "TUR - Tarkan - MV - Simarik.mp4",
      "audiogain": 7.97,
      "loudnorm": "-25.77,-10.77,1.90,-35.81,-0.41",
      "filesize": 21162509,
      "duration": 191,
      "default": true,
      "lyrics": [
        {
          "filename": "TUR - Tarkan - MV - Simarik.ass",
          "default": true,
          "version": "Default"
        }
      ]
    }
  ],
  "data": {
    "created_at": "2022-04-22T22:54:27.938Z",
    "ignoreHooks": false,
    "kid": "f9dfa3d8-e249-4794-8f53-d3fa342487af",
    "modified_at": "2022-04-22T22:54:28.431Z",
    "repository": "kara.moe",
    "tags": {
      "authors": [
        "0c8e4377-ee35-4896-89ed-9d06a1b5acd5"
      ],
      "collections": [
        "efe171c0-e8a1-4d03-98c0-60ecf741ad52"
      ],
      "creators": [
        "d4ac84d8-8910-4fd3-accb-8654df057cfb"
      ],
      "families": [
        "5391f9fe-638c-415f-8dc9-958e3a2c5787"
      ],
      "langs": [
        "8951673a-9fd3-47e8-9607-1f89729f8519"
      ],
      "singers": [
        "1bd2b744-702f-4656-902c-68694b57d140"
      ],
      "songtypes": [
        "7be1b15c-cff8-4b37-a649-5c90f3d569a9"
      ],
      "songwriters": [
        "a3c5b7bf-746b-417b-a439-a6b19e37a1ba",
        "fb7643ca-50dc-4f21-9fe5-64157b409497"
      ],
      "groups": [
        "24db50aa-a126-4d34-a48a-e45db79c4245"
      ]
    },
    "titles": {
      "tur": "Şımarık"
    },
    "titles_default_language": "tur",
    "titles_aliases": [
      "Kiss Kiss"
    ],
    "title": "Şımarık",
    "year": 1998
  }
}