{
  "header": {
    "description": "Karaoke Mugen Tag File",
    "version": 1
  },
  "tag": {
    "aliases": [
      "COMbat Providence AnalysiS System"
    ],
    "i18n": {
      "eng": "#COMPASS",
      "jpn": "#COMPASS",
      "qro": "#COMPASS"
    },
    "modified_at": "2020-03-31T19:04:30.857Z",
    "name": "#COMPASS",
    "repository": "kara.moe",
    "tid": "6a65cbdd-6d8d-4af0-925a-7e497de92c50",
    "types": [
      "series",
      "1"
    ]
  }
}