{
  "header": {
    "description": "Karaoke Mugen Tag File",
    "version": 1
  },
  "tag": {
    "i18n": {
      "eng": "&Etic System Stupéfiant"
    },
    "name": "&Etic System Stupéfiant",
    "repository": "kara.moe",
    "tid": "105a4e17-cbb9-4bf5-a252-cdd6e533e700",
    "types": [
      "creators",
      "4"
    ]
  }
}