{
  "header": {
    "description": "Karaoke Mugen Tag File",
    "version": 1
  },
  "tag": {
    "i18n": {
      "eng": "① (Maruichi)"
    },
    "name": "① (Maruichi)",
    "repository": "kara.moe",
    "tid": "258e3003-7053-44b2-8a29-e7c423021d0e",
    "types": [
      "creators",
      "4"
    ]
  }
}