{
  "header": {
    "description": "Karaoke Mugen Tag File",
    "version": 1
  },
  "tag": {
    "i18n": {
      "eng": "04 Limited Sazabys"
    },
    "name": "04 Limited Sazabys",
    "tid": "8e506e27-a41b-4676-87b1-5493fdb5a3e5",
    "types": [
      "singers",
      "2",
      "songwriters",
      "8"
    ],
    "repository": "kara.moe",
    "modified_at": "2020-03-31T19:04:33.221Z"
  }
}