{
  "header": {
    "description": "Karaoke Mugen Tag File",
    "version": 1
  },
  "tag": {
    "aliases": [
      "I'm Standing on 1,000,000 Lives",
      "Я стою на миллионах трупов",
      "나는 100만 명의 목숨 위에 서 있다"
    ],
    "external_database_ids": {
      "anilist": 116242,
      "myanimelist": 41380,
      "kitsu": 43367
    },
    "i18n": {
      "eng": "I'm Standing on a Million Lives",
      "jpn": "100万の命の上に俺は立っている",
      "ara": "أنا أقف على مليون حياة",
      "chi": "我立於百萬生命之上",
      "qro": "100-man no Inochi no Ue ni Ore wa Tatte Iru"
    },
    "modified_at": "2021-05-20T19:32:56.708Z",
    "name": "100-man no Inochi no Ue ni Ore wa Tatte Iru",
    "repository": "kara.moe",
    "tid": "c3f5977a-753f-4c8d-af6d-d66e3fffe605",
    "types": [
      "series",
      "1"
    ]
  }
}