{
  "header": {
    "description": "Karaoke Mugen Tag File",
    "version": 1
  },
  "tag": {
    "i18n": {
      "eng": "11eyes CrossOver"
    },
    "name": "11eyes CrossOver",
    "repository": "kara.moe",
    "tid": "7f4acd85-3c40-4231-bfb1-5b1994e6967b",
    "types": [
      "series",
      "1"
    ]
  }
}