{
  "header": {
    "description": "Karaoke Mugen Tag File",
    "version": 1
  },
  "tag": {
    "i18n": {
      "eng": "2℃"
    },
    "name": "2℃",
    "repository": "kara.moe",
    "tid": "6a787b2a-525d-4f97-b234-6b1e57e39013",
    "types": [
      "songwriters",
      "8"
    ]
  }
}