{
  "header": {
    "description": "Karaoke Mugen Tag File",
    "version": 1
  },
  "tag": {
    "i18n": {
      "eng": "22/7"
    },
    "name": "22/7",
    "repository": "kara.moe",
    "tid": "a1199d43-b010-41da-ac32-272e2a973dcc",
    "types": [
      "singergroups",
      "17"
    ]
  }
}