{
  "header": {
    "description": "Karaoke Mugen Tag File",
    "version": 1
  },
  "tag": {
    "i18n": {
      "eng": "√5"
    },
    "name": "√5",
    "tid": "47c4458d-9339-42cc-95af-e4e36188c7a9",
    "types": [
      "singers",
      "2"
    ],
    "repository": "kara.moe",
    "modified_at": "2020-03-31T19:04:33.240Z"
  }
}