{
  "header": {
    "description": "Karaoke Mugen Tag File",
    "version": 1
  },
  "tag": {
    "aliases": [
      "Kuroneko",
      "96 Neko"
    ],
    "i18n": {
      "eng": "96Neko",
      "jpn": "96猫",
      "qro": "96Neko"
    },
    "modified_at": "2021-05-08T15:13:15.995Z",
    "name": "96Neko",
    "repository": "kara.moe",
    "tid": "32c304d7-49ff-482f-a586-7223aba33639",
    "types": [
      "singers",
      "2"
    ]
  }
}