{
  "header": {
    "description": "Karaoke Mugen Tag File",
    "version": 1
  },
  "tag": {
    "i18n": {
      "eng": "A-chan"
    },
    "name": "A-chan",
    "repository": "kara.moe",
    "tid": "b2dc37d8-8b56-4ae4-a0e0-4fb6692e3ba2",
    "types": [
      "singers",
      "2"
    ]
  }
}