{
  "header": {
    "description": "Karaoke Mugen Tag File",
    "version": 1
  },
  "tag": {
    "i18n": {
      "eng": "A.YAMI"
    },
    "name": "A.YAMI",
    "repository": "kara.moe",
    "tid": "8eb5350d-a26c-4431-9427-187d1746b2ba",
    "types": [
      "creators",
      "4"
    ]
  }
}