{
  "header": {
    "description": "Karaoke Mugen Tag File",
    "version": 1
  },
  "tag": {
    "i18n": {
      "eng": "AAA"
    },
    "name": "AAA",
    "tid": "5646881b-891d-424b-82db-fc2bde31d498",
    "types": [
      "singers",
      "2"
    ],
    "repository": "kara.moe",
    "modified_at": "2020-03-31T19:04:33.268Z"
  }
}