{
  "header": {
    "description": "Karaoke Mugen Tag File",
    "version": 1
  },
  "tag": {
    "i18n": {
      "eng": "Abby Trott"
    },
    "name": "Abby Trott",
    "tid": "e17986e2-7d73-4b38-800d-17bb178d06f5",
    "types": [
      "singers",
      "2"
    ],
    "repository": "kara.moe",
    "modified_at": "2020-03-31T19:04:33.273Z"
  }
}