{
  "header": {
    "description": "Karaoke Mugen Tag File",
    "version": 1
  },
  "tag": {
    "i18n": {
      "eng": "AbsoЯute Zero"
    },
    "name": "AbsoЯute Zero",
    "repository": "kara.moe",
    "tid": "be87985d-c332-46bf-b207-4830e44ff1ce",
    "types": [
      "creators",
      "4"
    ]
  }
}