{
  "header": {
    "description": "Karaoke Mugen Tag File",
    "version": 1
  },
  "tag": {
    "aliases": [
      "ac dc",
      "acdc"
    ],
    "i18n": {
      "eng": "AC/DC"
    },
    "name": "AC/DC",
    "repository": "kara.moe",
    "tid": "e99a65f7-5e04-4f1a-b893-18bc421752c3",
    "types": [
      "singers",
      "2"
    ]
  }
}