{
  "header": {
    "description": "Karaoke Mugen Tag File",
    "version": 1
  },
  "tag": {
    "i18n": {
      "eng": "ACE"
    },
    "modified_at": "2020-07-29T16:22:23.127Z",
    "name": "ACE",
    "repository": "kara.moe",
    "tid": "158c5dde-2c76-4200-9062-a5d4e309c75d",
    "types": [
      "songwriters",
      "8"
    ]
  }
}