{
  "header": {
    "description": "Karaoke Mugen Tag File",
    "version": 1
  },
  "tag": {
    "i18n": {
      "eng": "Ado"
    },
    "modified_at": "2021-05-09T13:17:34.501Z",
    "name": "Ado",
    "repository": "kara.moe",
    "tid": "98152dec-f25d-410b-b827-fd9fe2ac5a15",
    "types": [
      "singers",
      "2"
    ]
  }
}