{
  "header": {
    "description": "Karaoke Mugen Tag File",
    "version": 1
  },
  "tag": {
    "i18n": {
      "eng": "Aerian"
    },
    "name": "Aerian",
    "repository": "kara.moe",
    "tid": "47e3164b-4766-4330-aee0-5e080caaee44",
    "types": [
      "songwriters",
      "8"
    ]
  }
}