{
  "header": {
    "description": "Karaoke Mugen Tag File",
    "version": 1
  },
  "tag": {
    "i18n": {
      "eng": "After Midnight Project"
    },
    "modified_at": "2021-02-27T01:52:30.391Z",
    "name": "After Midnight Project",
    "repository": "kara.moe",
    "tid": "5b4cfd0f-01a3-4048-b604-41e97bf96f20",
    "types": [
      "songwriters",
      "8",
      "singers",
      "2"
    ]
  }
}