{
  "header": {
    "description": "Karaoke Mugen Tag File",
    "version": 1
  },
  "tag": {
    "i18n": {
      "jpn": "大西 亜玖璃",
      "qro": "Aguri Oonishi"
    },
    "name": "Aguri Oonishi",
    "repository": "kara.moe",
    "tid": "458ec0c5-db5e-4103-af88-b15a1699264d",
    "types": [
      "singers",
      "2"
    ]
  }
}