{
  "header": {
    "description": "Karaoke Mugen Tag File",
    "version": 1
  },
  "tag": {
    "aliases": [
      "أهيرو نو سورا, اهيرو نو سورا"
    ],
    "external_database_ids": {
      "anilist": 101239,
      "myanimelist": 37403,
      "kitsu": 41399
    },
    "i18n": {
      "ara": "آهيرو نو سورا",
      "chi": "鸭子的天空",
      "eng": "Ahiru no Sora",
      "jpn": "あひるの空",
      "qro": "Ahiru no Sora"
    },
    "modified_at": "2020-03-31T19:04:30.892Z",
    "name": "Ahiru no Sora",
    "repository": "kara.moe",
    "tid": "bd500687-9941-4f8d-82ed-f5e7ecf179c1",
    "types": [
      "series",
      "1"
    ]
  }
}