{
  "header": {
    "description": "Karaoke Mugen Tag File",
    "version": 1
  },
  "tag": {
    "i18n": {
      "eng": "Ai Furihata"
    },
    "modified_at": "2020-08-27T18:35:30.185Z",
    "name": "Ai Furihata",
    "repository": "kara.moe",
    "tid": "b4084895-9bbd-426a-8384-feef794ca53c",
    "types": [
      "singers",
      "2"
    ]
  }
}