{
  "header": {
    "description": "Karaoke Mugen Tag File",
    "version": 1
  },
  "tag": {
    "aliases": [
      "Aikatsu! Idol Activities!",
      "Aikatsu! Idol Katsudou!",
      "katsudou"
    ],
    "external_database_ids": {
      "anilist": 15061,
      "myanimelist": 15061,
      "kitsu": 7205
    },
    "i18n": {
      "eng": "Aikatsu!",
      "jpn": "アイカツ! アイドルカツドウ!",
      "qro": "Aikatsu! Idol Katsudô!"
    },
    "modified_at": "2020-03-31T19:04:30.899Z",
    "name": "Aikatsu! Idol Katsudô!",
    "repository": "kara.moe",
    "tid": "362c8f7b-3d47-4e59-9b09-df6c47b191d7",
    "types": [
      "series",
      "1"
    ]
  }
}