{
  "header": {
    "description": "Karaoke Mugen Tag File",
    "version": 1
  },
  "tag": {
    "i18n": {
      "eng": "AILA"
    },
    "name": "AILA",
    "tid": "630c65e0-5785-4127-84a7-a42a10ed6556",
    "types": [
      "songwriters",
      "8"
    ],
    "repository": "kara.moe",
    "modified_at": "2020-03-31T19:04:33.322Z"
  }
}