{
  "header": {
    "description": "Karaoke Mugen Tag File",
    "version": 1
  },
  "tag": {
    "aliases": [
      "A i r i"
    ],
    "i18n": {
      "eng": ""
    },
    "name": "Airi",
    "repository": "kara.moe",
    "tid": "8c32560f-a789-49f8-bf99-26cfcc63b2ba",
    "types": [
      "singers",
      "2"
    ]
  }
}