{
  "header": {
    "description": "Karaoke Mugen Tag File",
    "version": 1
  },
  "tag": {
    "aliases": [
      "Akagami no Shirayukihime"
    ],
    "external_database_ids": {
      "anilist": 21058,
      "myanimelist": 30123,
      "kitsu": 10621
    },
    "i18n": {
      "eng": "Snow White with the Red Hair",
      "fre": "Shirayuki aux cheveux rouges",
      "ger": "Die rothaarige Schneeprinzessin",
      "jpn": "赤髪の白雪姫 Snow White with the Red Hair",
      "qro": "Akagami no Shirayuki-hime"
    },
    "modified_at": "2020-03-31T19:04:30.910Z",
    "name": "Akagami no Shirayuki-hime",
    "repository": "kara.moe",
    "tid": "8a0840bd-c159-4510-88e0-743804087f1a",
    "types": [
      "series",
      "1",
      "franchises",
      "18"
    ]
  }
}