{
  "header": {
    "description": "Karaoke Mugen Tag File",
    "version": 1
  },
  "tag": {
    "i18n": {
      "eng": "Akari Harukawa"
    },
    "name": "Akari Harukawa",
    "tid": "a223b392-aa77-4946-997c-fa9854788171",
    "types": [
      "songwriters",
      "8"
    ],
    "repository": "kara.moe",
    "modified_at": "2020-03-31T19:04:33.345Z"
  }
}