{
  "header": {
    "description": "Karaoke Mugen Tag File",
    "version": 1
  },
  "tag": {
    "i18n": {
      "eng": "Akari Yura"
    },
    "name": "Akari Yura",
    "repository": "kara.moe",
    "tid": "291e8119-6b4d-45c9-806d-d67a86311e98",
    "types": [
      "singers",
      "2"
    ]
  }
}