{
  "header": {
    "description": "Karaoke Mugen Tag File",
    "version": 1
  },
  "tag": {
    "i18n": {
      "eng": "Akatin",
      "jpn": "赤ティン ",
      "qro": "Akatin"
    },
    "name": "Akatin",
    "repository": "kara.moe",
    "tid": "24ca903c-9c94-4135-8aa2-97ae3d9fb97a",
    "types": [
      "songwriters",
      "8"
    ]
  }
}