{
  "header": {
    "description": "Karaoke Mugen Tag File",
    "version": 1
  },
  "tag": {
    "i18n": {
      "eng": "Aki Mimeguchi"
    },
    "name": "Aki Mimeguchi",
    "tid": "f0a57254-e002-4a1f-9402-7373650c9351",
    "types": [
      "songwriters",
      "8"
    ],
    "repository": "kara.moe",
    "modified_at": "2020-03-31T19:04:33.360Z"
  }
}