{
  "header": {
    "description": "Karaoke Mugen Tag File",
    "version": 1
  },
  "tag": {
    "aliases": [
      "Akie秋绘"
    ],
    "i18n": {
      "eng": "Akie",
      "chi": "秋绘"
    },
    "name": "Akie",
    "repository": "kara.moe",
    "tid": "e214f9e3-4593-4b4c-8d67-8b65c45e8c5f",
    "types": [
      "singers",
      "2"
    ]
  }
}