{
  "header": {
    "description": "Karaoke Mugen Tag File",
    "version": 1
  },
  "tag": {
    "external_database_ids": {
      "anilist": 5112,
      "kitsu": 3935,
      "myanimelist": 5112
    },
    "i18n": {
      "eng": "Empty Can!",
      "qro": "Akikan!",
      "jpn": "アキカン!"
    },
    "name": "Akikan!",
    "repository": "kara.moe",
    "tid": "ab1914f6-f261-4e8d-8295-e2bc90cf5c31",
    "types": [
      "series",
      "1"
    ]
  }
}