{
  "header": {
    "description": "Karaoke Mugen Tag File",
    "version": 1
  },
  "tag": {
    "i18n": {
      "eng": "Akiko_Himura"
    },
    "modified_at": "2021-11-13T12:57:40.442Z",
    "name": "Akiko_Himura",
    "repository": "kara.moe",
    "tid": "1415b96a-84da-47ca-afc3-9484c83d0b88",
    "types": [
      "authors",
      "6"
    ]
  }
}