{
  "header": {
    "description": "Karaoke Mugen Tag File",
    "version": 1
  },
  "tag": {
    "i18n": {
      "eng": "Akiko Yano"
    },
    "name": "Akiko Yano",
    "repository": "kara.moe",
    "tid": "97cf966a-d677-4e20-9e5c-af4b1cf3087a",
    "types": [
      "songwriters",
      "8"
    ],
    "modified_at": "2020-03-31T19:04:33.381Z"
  }
}