{
  "header": {
    "description": "Karaoke Mugen Tag File",
    "version": 1
  },
  "tag": {
    "i18n": {
      "eng": "Akimitsu Honma"
    },
    "name": "Akimitsu Honma",
    "tid": "9440a48e-d17c-45af-9340-f3f77042ea4e",
    "types": [
      "songwriters",
      "8"
    ],
    "repository": "kara.moe",
    "modified_at": "2020-03-31T19:04:33.383Z"
  }
}