{
  "header": {
    "description": "Karaoke Mugen Tag File",
    "version": 1
  },
  "tag": {
    "aliases": [
      "Chuna"
    ],
    "i18n": {
      "eng": "Akina",
      "jpn": "秋奈",
      "qro": "Akina"
    },
    "modified_at": "2021-05-10T15:45:05.350Z",
    "name": "Akina",
    "repository": "kara.moe",
    "tid": "c06de857-8928-41e9-b5db-d5af620d0f89",
    "types": [
      "singers",
      "2"
    ]
  }
}