{
  "header": {
    "description": "Karaoke Mugen Tag File",
    "version": 1
  },
  "tag": {
    "i18n": {
      "eng": "Akio Ootsuka"
    },
    "modified_at": "2020-07-19T14:34:18.327Z",
    "name": "Akio Ootsuka",
    "repository": "kara.moe",
    "tid": "178be83f-4beb-438f-a53a-6a96945d4727",
    "types": [
      "singers",
      "2"
    ]
  }
}