{
  "header": {
    "description": "Karaoke Mugen Tag File",
    "version": 1
  },
  "tag": {
    "i18n": {
      "eng": "Akira Horie"
    },
    "name": "Akira Horie",
    "tid": "64742f1d-e1f1-4a7c-956a-c0bab5d459fc",
    "types": [
      "songwriters",
      "8"
    ],
    "repository": "kara.moe",
    "modified_at": "2020-03-31T19:04:33.392Z"
  }
}