{
  "header": {
    "description": "Karaoke Mugen Tag File",
    "version": 1
  },
  "tag": {
    "i18n": {
      "eng": "Akira Yamato"
    },
    "modified_at": "2020-08-20T16:54:27.382Z",
    "name": "Akira Yamato",
    "repository": "kara.moe",
    "tid": "5c4b8137-853e-46cb-962a-38dc25099af7",
    "types": [
      "songwriters",
      "8"
    ]
  }
}