{
  "header": {
    "description": "Karaoke Mugen Tag File",
    "version": 1
  },
  "tag": {
    "i18n": {
      "eng": "Akira Kushida"
    },
    "name": "Akira Kushida",
    "tid": "0c13f6f7-7189-46c8-b7ff-311fc504a4d0",
    "types": [
      "singers",
      "2",
      "songwriters",
      "8"
    ],
    "repository": "kara.moe",
    "modified_at": "2020-03-31T19:04:33.396Z"
  }
}