{
  "header": {
    "description": "Karaoke Mugen Tag File",
    "version": 1
  },
  "tag": {
    "i18n": {
      "eng": "Akira Ishikari"
    },
    "name": "Akira Ishikari",
    "tid": "aaaf8667-3ef6-4434-930f-f40fdea9e4b0",
    "types": [
      "songwriters",
      "8"
    ],
    "repository": "kara.moe",
    "modified_at": "2020-03-31T19:04:33.394Z"
  }
}