{
  "header": {
    "description": "Karaoke Mugen Tag File",
    "version": 1
  },
  "tag": {
    "i18n": {
      "eng": "Alain Cassard"
    },
    "modified_at": "2020-12-18T18:48:18.143Z",
    "name": "Alain Cassard",
    "repository": "kara.moe",
    "tid": "6f07d4cb-f952-449a-a5e8-70e093afb0d5",
    "types": [
      "songwriters",
      "8"
    ]
  }
}