{
  "header": {
    "description": "Karaoke Mugen Tag File",
    "version": 1
  },
  "tag": {
    "i18n": {
      "eng": "Alberto Emilio Contini"
    },
    "name": "Alberto Emilio Contini",
    "repository": "kara.moe",
    "tid": "b222bd3e-53cd-49df-950a-f2334183e837",
    "types": [
      "songwriters",
      "8"
    ],
    "modified_at": "2020-03-31T19:04:33.423Z"
  }
}