{
  "header": {
    "description": "Karaoke Mugen Tag File",
    "version": 1
  },
  "tag": {
    "i18n": {
      "eng": "Alex Seaver"
    },
    "name": "Alex Seaver",
    "tid": "a37ca975-c7dd-45f2-b561-88ca4a4dc1aa",
    "types": [
      "songwriters",
      "8"
    ],
    "repository": "kara.moe",
    "modified_at": "2020-03-31T19:04:33.427Z"
  }
}