{
  "header": {
    "description": "Karaoke Mugen Tag File",
    "version": 1
  },
  "tag": {
    "i18n": {
      "eng": "Alexandre Desplat"
    },
    "name": "Alexandre Desplat",
    "tid": "dfc44dfb-1a72-4595-8786-7eaee27fcf5d",
    "types": [
      "songwriters",
      "8"
    ],
    "repository": "kara.moe",
    "modified_at": "2020-03-31T19:04:33.430Z"
  }
}