{
  "header": {
    "description": "Karaoke Mugen Tag File",
    "version": 1
  },
  "tag": {
    "i18n": {
      "eng": "[Alexandros]"
    },
    "modified_at": "2021-08-22T20:05:50.639Z",
    "name": "[Alexandros]",
    "repository": "kara.moe",
    "tid": "9035f935-1ed5-40a2-9cd7-66fa4fd533d5",
    "types": [
      "songwriters",
      "8",
      "singers",
      "2"
    ]
  }
}