{
  "header": {
    "description": "Karaoke Mugen Tag File",
    "version": 1
  },
  "tag": {
    "i18n": {
      "eng": "Alex Borstein"
    },
    "name": "Alex Borstein",
    "repository": "kara.moe",
    "tid": "869cc214-ff45-4255-bcbf-cd0a9d657d6f",
    "types": [
      "singers",
      "2"
    ]
  }
}