{
  "header": {
    "description": "Karaoke Mugen Tag File",
    "version": 1
  },
  "tag": {
    "i18n": {
      "eng": "ALI PROJECT"
    },
    "name": "ALI PROJECT",
    "tid": "f4d627b6-f0f8-46c9-ad63-24148031d21b",
    "types": [
      "singers",
      "2"
    ],
    "repository": "kara.moe",
    "modified_at": "2020-03-31T19:04:33.437Z"
  }
}