{
  "header": {
    "description": "Karaoke Mugen Tag File",
    "version": 1
  },
  "tag": {
    "i18n": {
      "eng": "Ali"
    },
    "modified_at": "2020-10-25T01:28:00.651Z",
    "name": "Ali",
    "repository": "kara.moe",
    "tid": "7e4553d7-e8ee-45d3-9955-3cf492181d12",
    "types": [
      "songwriters",
      "8"
    ]
  }
}