{
  "header": {
    "description": "Karaoke Mugen Tag File",
    "version": 1
  },
  "tag": {
    "i18n": {
      "eng": "Alice Mononobe"
    },
    "modified_at": "2021-01-29T01:02:28.534Z",
    "name": "Alice Mononobe",
    "repository": "kara.moe",
    "tid": "8aef6bae-3ac1-4bba-b0b3-9c94ec16356b",
    "types": [
      "singers",
      "2"
    ]
  }
}