{
  "header": {
    "description": "Karaoke Mugen Tag File",
    "version": 1
  },
  "tag": {
    "i18n": {
      "eng": "ALIVE"
    },
    "name": "ALIVE",
    "repository": "kara.moe",
    "tid": "a56e2e2c-1ec2-437f-ab0f-819a5b733bfc",
    "types": [
      "singergroups",
      "17"
    ]
  }
}