{
  "header": {
    "description": "Karaoke Mugen Tag File",
    "version": 1
  },
  "tag": {
    "aliases": [
      "Allison a Lillia",
      "Allison and Lillia",
      "Allison och Lillia",
      "Allison İle Lillia",
      "AltoLi",
      "Алисон и Лилия",
      "Алисън и Лилия",
      "Аллисон и Лилия",
      "艾莉森与莉莉亚"
    ],
    "external_database_ids": {
      "anilist": 3549,
      "myanimelist": 3549,
      "kitsu": 3093
    },
    "i18n": {
      "eng": "Allison & Lillia",
      "jpn": "アリソンとリリア",
      "pol": "Allison i Lillia",
      "slo": "Allison a Lillia",
      "qro": "Allison to Lillia"
    },
    "modified_at": "2020-03-31T19:04:30.931Z",
    "name": "Allison to Lillia",
    "repository": "kara.moe",
    "tid": "92aaa42e-3ddb-4bf3-b541-1448ca03ce6d",
    "types": [
      "series",
      "1"
    ]
  }
}