{
  "header": {
    "description": "Karaoke Mugen Tag File",
    "version": 1
  },
  "tag": {
    "i18n": {
      "eng": "Alonzo Miller"
    },
    "modified_at": "2021-04-29T22:14:06.158Z",
    "name": "Alonzo Miller",
    "repository": "kara.moe",
    "tid": "12e7a89e-a4f4-49d8-8982-8a255de7fbbc",
    "types": [
      "songwriters",
      "8"
    ]
  }
}