{
  "header": {
    "description": "Karaoke Mugen Tag File",
    "version": 1
  },
  "tag": {
    "i18n": {
      "eng": "Alshkor"
    },
    "name": "Alshkor",
    "repository": "kara.moe",
    "tid": "531cf155-28d3-46f6-a106-229622f2d491",
    "types": [
      "authors",
      "6"
    ]
  }
}