{
  "header": {
    "description": "Karaoke Mugen Tag File",
    "version": 1
  },
  "tag": {
    "i18n": {
      "eng": "Amane Nanase"
    },
    "modified_at": "1982-04-06",
    "name": "Amane Nanase",
    "repository": "kara.moe",
    "tid": "83dd9a28-894f-46a4-9334-af6abd3af1d6",
    "types": [
      "singers",
      "2"
    ]
  }
}