{
  "header": {
    "description": "Karaoke Mugen Tag File",
    "version": 1
  },
  "tag": {
    "i18n": {
      "eng": "Amanda Achen"
    },
    "modified_at": "1982-04-06",
    "name": "Amanda Achen",
    "repository": "kara.moe",
    "tid": "32ba5f5f-d172-4af8-be0a-653162ff81ef",
    "types": [
      "singers",
      "2"
    ]
  }
}