{
  "header": {
    "description": "Karaoke Mugen Tag File",
    "version": 1
  },
  "tag": {
    "i18n": {
      "eng": "Amazing"
    },
    "modified_at": "2021-09-21T21:03:35.562Z",
    "name": "Amazing",
    "repository": "kara.moe",
    "tid": "b73c8cd2-f190-4df1-bb46-3922b38ae81d",
    "types": [
      "creators",
      "4"
    ]
  }
}