{
  "header": {
    "description": "Karaoke Mugen Tag File",
    "version": 1
  },
  "tag": {
    "i18n": {
      "eng": "Amber Efe"
    },
    "name": "Amber Efe",
    "tid": "fa6a8e15-f5b7-4811-8733-a237c9db80f7",
    "types": [
      "singers",
      "2"
    ],
    "repository": "kara.moe",
    "modified_at": "2020-03-31T19:04:33.454Z"
  }
}