{
  "header": {
    "description": "Karaoke Mugen Tag File",
    "version": 1
  },
  "tag": {
    "i18n": {
      "eng": "Ame"
    },
    "modified_at": "2020-04-26T20:03:09.607Z",
    "name": "Ame",
    "repository": "kara.moe",
    "tid": "a9deced9-137b-42b3-8de1-2a28822fa1d0",
    "types": [
      "songwriters",
      "8"
    ]
  }
}