{
  "header": {
    "description": "Karaoke Mugen Tag File",
    "version": 1
  },
  "tag": {
    "i18n": {
      "eng": "Amemura"
    },
    "name": "Amemura",
    "repository": "kara.moe",
    "tid": "ca2e7cff-7e16-47c2-85a4-6da217b60386",
    "types": [
      "creators",
      "4"
    ]
  }
}