{
  "header": {
    "description": "Karaoke Mugen Tag File",
    "version": 1
  },
  "tag": {
    "i18n": {
      "eng": "Ami Aimoto"
    },
    "name": "Ami Aimoto",
    "repository": "kara.moe",
    "tid": "e7340cc7-02d6-4ced-81de-e281b3c22c8c",
    "types": [
      "singers",
      "2"
    ]
  }
}