{
  "header": {
    "description": "Karaoke Mugen Tag File",
    "version": 1
  },
  "tag": {
    "i18n": {
      "eng": "Ami Onuki"
    },
    "name": "Ami Onuki",
    "tid": "d8e81f6e-ca48-4096-8e42-e96a376ba31d",
    "types": [
      "singers",
      "2"
    ],
    "repository": "kara.moe",
    "modified_at": "2020-03-31T19:04:33.461Z"
  }
}