{
  "header": {
    "description": "Karaoke Mugen Tag File",
    "version": 1
  },
  "tag": {
    "aliases": [
      "アムネシア ワールド"
    ],
    "i18n": {
      "eng": "Amnesia World",
      "jpn": "AMNESIA World",
      "qro": "Amnesia World"
    },
    "modified_at": "2020-03-31T19:04:30.946Z",
    "name": "Amnesia World",
    "repository": "kara.moe",
    "tid": "f2c5802b-2730-4d2f-a9f7-3c98cb8f399d",
    "types": [
      "series",
      "1"
    ]
  }
}