{
  "header": {
    "description": "Karaoke Mugen Tag File",
    "version": 1
  },
  "tag": {
    "i18n": {
      "eng": "Anba"
    },
    "name": "Anba",
    "repository": "kara.moe",
    "tid": "86a888b2-7542-48cb-a9d0-56514a1041d0",
    "types": [
      "singers",
      "2"
    ]
  }
}