{
  "header": {
    "description": "Karaoke Mugen Tag File",
    "version": 1
  },
  "tag": {
    "i18n": {
      "eng": "Andreas Frege"
    },
    "modified_at": "2021-03-19T19:53:15.922Z",
    "name": "Andreas Frege",
    "repository": "kara.moe",
    "tid": "91132157-6f0f-4e49-8690-914bb1f60a57",
    "types": [
      "songwriters",
      "8"
    ]
  }
}