{
  "header": {
    "description": "Karaoke Mugen Tag File",
    "version": 1
  },
  "tag": {
    "i18n": {
      "eng": "Andrew Ridgeley"
    },
    "name": "Andrew Ridgeley",
    "repository": "kara.moe",
    "tid": "e6bddb4d-5366-45c1-a601-aea31759bf06",
    "types": [
      "songwriters",
      "8"
    ]
  }
}