{
  "header": {
    "description": "Karaoke Mugen Tag File",
    "version": 1
  },
  "tag": {
    "i18n": {
      "eng": "Animeson Productions"
    },
    "name": "Animeson Productions",
    "tid": "45ce7e23-1aa2-4a6c-b17d-4c4a31b628bd",
    "types": [
      "creators",
      "4"
    ],
    "repository": "kara.moe",
    "modified_at": "2020-03-31T19:04:33.493Z"
  }
}