{
  "header": {
    "description": "Karaoke Mugen Tag File",
    "version": 1
  },
  "tag": {
    "i18n": {
      "eng": "Animation Staff Room"
    },
    "name": "Animation Staff Room",
    "tid": "51456ada-3cbb-49e1-9c1e-6d5bbe63537d",
    "types": [
      "creators",
      "4"
    ],
    "repository": "kara.moe",
    "modified_at": "2020-03-31T19:04:33.490Z"
  }
}