{
  "header": {
    "description": "Karaoke Mugen Tag File",
    "version": 1
  },
  "tag": {
    "i18n": {
      "eng": "Animentary Ketsudan",
      "jpn": "アニメンタリー・決断",
      "qro": "Animentary Ketsudan"
    },
    "modified_at": "2020-03-31T19:04:30.957Z",
    "name": "Animentary Ketsudan",
    "repository": "kara.moe",
    "tid": "d7473d29-48c8-4f80-a3f5-56639651f50b",
    "types": [
      "series",
      "1"
    ]
  }
}