{
  "header": {
    "description": "Karaoke Mugen Tag File",
    "version": 1
  },
  "tag": {
    "i18n": {
      "eng": "Anne Valery"
    },
    "name": "Anne Valery",
    "tid": "fe054f57-f090-4c30-ac8b-13ac90c91c1d",
    "types": [
      "songwriters",
      "8"
    ],
    "repository": "kara.moe",
    "modified_at": "2020-03-31T19:04:33.502Z"
  }
}