{
  "header": {
    "description": "Karaoke Mugen Tag File",
    "version": 1
  },
  "tag": {
    "i18n": {
      "eng": "Aoi Mizuki"
    },
    "name": "Aoi Mizuki",
    "repository": "kara.moe",
    "tid": "93cd6577-0d1e-46fb-886b-454d72d95eef",
    "types": [
      "singers",
      "2"
    ]
  }
}