{
  "header": {
    "description": "Karaoke Mugen Tag File",
    "version": 1
  },
  "tag": {
    "external_database_ids": {
      "anilist": 3631,
      "myanimelist": 3631,
      "kitsu": 3154
    },
    "i18n": {
      "ara": "الوميض الأزرق",
      "eng": "Blue Blink",
      "fre": "Magie bleue",
      "heb": "בלו בלינק",
      "jpn": "青いブリンク",
      "por": "Raio Azul",
      "qro": "Aoi Blink"
    },
    "modified_at": "2020-03-31T19:04:30.968Z",
    "name": "Aoi Blink",
    "repository": "kara.moe",
    "tid": "10051b43-9961-4f44-ae4a-74246099b2bb",
    "types": [
      "series",
      "1"
    ]
  }
}