{
  "header": {
    "description": "Karaoke Mugen Tag File",
    "version": 1
  },
  "tag": {
    "i18n": {
      "eng": "Aomi Himeshiro"
    },
    "name": "Aomi Himeshiro",
    "repository": "kara.moe",
    "tid": "45358aff-4745-4d3c-81fc-91969589ea80",
    "types": [
      "singers",
      "2"
    ]
  }
}