{
  "header": {
    "description": "Karaoke Mugen Tag File",
    "version": 1
  },
  "tag": {
    "i18n": {
      "eng": "aoYringo"
    },
    "name": "aoYringo",
    "tid": "00b42121-dcaa-40c9-bea0-2c12b78a3cff",
    "types": [
      "songwriters",
      "8"
    ],
    "repository": "kara.moe",
    "modified_at": "2020-03-31T19:04:33.525Z"
  }
}