{
  "header": {
    "description": "Karaoke Mugen Tag File",
    "version": 1
  },
  "tag": {
    "i18n": {
      "eng": "apapico"
    },
    "modified_at": "2021-05-09T15:11:13.549Z",
    "name": "apapico",
    "repository": "kara.moe",
    "tid": "9becfd01-1a26-452d-9662-6fc599fc8de8",
    "types": [
      "creators",
      "4"
    ]
  }
}