{
  "header": {
    "description": "Karaoke Mugen Tag File",
    "version": 1
  },
  "tag": {
    "i18n": {
      "eng": "Aqours"
    },
    "name": "Aqours",
    "repository": "kara.moe",
    "tid": "b34161c7-a60d-4f1a-8436-11abc0875436",
    "types": [
      "singergroups",
      "17"
    ]
  }
}