{
  "header": {
    "description": "Karaoke Mugen Tag File",
    "version": 1
  },
  "tag": {
    "external_database_ids": {},
    "i18n": {
      "eng": "Aquarion",
      "jpn": "アクエリオン"
    },
    "name": "Aquarion",
    "repository": "kara.moe",
    "tid": "c257e40c-7877-474d-8d75-db1491197c92",
    "types": [
      "franchises",
      "18"
    ]
  }
}