{
  "header": {
    "description": "Karaoke Mugen Tag File",
    "version": 1
  },
  "tag": {
    "external_database_ids": {
      "anilist": 1224,
      "myanimelist": 1224,
      "kitsu": 1101
    },
    "i18n": {
      "eng": "Aquarian Age: Sign for Evolution",
      "fre": "L'âge du Verseau ‒ Signe d'évolution",
      "ger": "Aquarian Age: Sign for Evolution",
      "jpn": "アクエリアンエイジ Sign for Evolution",
      "qro": "Aquarian Age: Sign for Evolution"
    },
    "modified_at": "2020-03-31T19:04:30.973Z",
    "name": "Aquarian Age: Sign for Evolution",
    "repository": "kara.moe",
    "tid": "2e6e3bd8-2784-4f99-a8e8-34a6c4fde846",
    "types": [
      "series",
      "1"
    ]
  }
}