{
  "header": {
    "description": "Karaoke Mugen Tag File",
    "version": 1
  },
  "tag": {
    "aliases": [
      "AUtB",
      "Arakava Po Tiltu",
      "Под моста на Аракава",
      "荒川爆笑团"
    ],
    "external_database_ids": {
      "anilist": 7647,
      "myanimelist": 7647,
      "kitsu": 5067
    },
    "i18n": {
      "chi": "荒川爆笑團",
      "eng": "Arakawa Under the Bridge",
      "jpn": "荒川アンダーザブリッジ",
      "qro": "Arakawa Under the Bridge"
    },
    "modified_at": "2020-06-21T23:45:31.966Z",
    "name": "Arakawa Under the Bridge",
    "repository": "kara.moe",
    "tid": "d8408c3e-34a1-417d-9be9-7eda946d2b31",
    "types": [
      "series",
      "1",
      "franchises",
      "18"
    ]
  }
}