{
  "header": {
    "description": "Karaoke Mugen Tag File",
    "version": 1
  },
  "tag": {
    "i18n": {
      "eng": "Arata Furuta"
    },
    "modified_at": "2020-12-22T00:09:09.143Z",
    "name": "Arata Furuta",
    "repository": "kara.moe",
    "tid": "381fdf19-79a0-43f2-a84d-1759fce0bca9",
    "types": [
      "singers",
      "2"
    ]
  }
}