{
  "header": {
    "description": "Karaoke Mugen Tag File",
    "version": 1
  },
  "tag": {
    "i18n": {
      "eng": "Arata Umehara"
    },
    "modified_at": "2020-05-04T21:34:31.084Z",
    "name": "Arata Umehara",
    "repository": "kara.moe",
    "tid": "b91349e8-7025-4213-bd22-2540073ca16c",
    "types": [
      "songwriters",
      "8"
    ]
  }
}