{
  "header": {
    "description": "Karaoke Mugen Tag File",
    "version": 1
  },
  "tag": {
    "aliases": [
      "アー・ユー・アリス"
    ],
    "i18n": {
      "eng": "Are you Alice?",
      "jpn": "Are you Alice?",
      "qro": "Are you Alice?"
    },
    "modified_at": "2020-08-23T17:18:09.758Z",
    "name": "Are you Alice?",
    "repository": "kara.moe",
    "tid": "e9bdff53-9985-4e7b-89bb-77ed6defb931",
    "types": [
      "series",
      "1"
    ]
  }
}