{
  "header": {
    "description": "Karaoke Mugen Tag File",
    "version": 1
  },
  "tag": {
    "i18n": {
      "eng": "Ari Renaldi"
    },
    "name": "Ari Renaldi",
    "repository": "kara.moe",
    "tid": "def80fc5-ab9f-45c4-8f93-8e5c5ffbabb6",
    "types": [
      "songwriters",
      "8"
    ]
  }
}