{
  "header": {
    "description": "Karaoke Mugen Tag File",
    "version": 1
  },
  "tag": {
    "i18n": {
      "eng": "Ari Ozawa"
    },
    "name": "Ari Ozawa",
    "tid": "55e25eff-ac9a-4164-b9c7-352488eb6a34",
    "types": [
      "singers",
      "2"
    ],
    "repository": "kara.moe",
    "modified_at": "2020-03-31T19:04:33.536Z"
  }
}