{
  "header": {
    "description": "Karaoke Mugen Tag File",
    "version": 1
  },
  "tag": {
    "i18n": {
      "eng": "ARIA"
    },
    "name": "ARIA",
    "repository": "kara.moe",
    "tid": "90643cc3-9286-4730-914c-e6e2cd5e67f6",
    "types": [
      "creators",
      "4"
    ]
  }
}