{
  "header": {
    "description": "Karaoke Mugen Tag File",
    "version": 1
  },
  "tag": {
    "aliases": [
      "Zensou"
    ],
    "external_database_ids": {
      "anilist": 140660,
      "kitsu": 45367,
      "myanimelist": 50205
    },
    "i18n": {
      "eng": "Arknights: Prelude to Dawn",
      "jpn": "アークナイツ 黎明前奏",
      "chi": "明日方舟：黎明前奏",
      "qro": "Arknights: Reimei Zensô"
    },
    "name": "Arknights: Prelude to Dawn",
    "repository": "kara.moe",
    "tid": "d80a7d8d-edea-47eb-a62a-df18a7873405",
    "types": [
      "series",
      "1"
    ]
  }
}