{
  "header": {
    "description": "Karaoke Mugen Tag File",
    "version": 1
  },
  "tag": {
    "i18n": {
      "eng": "aro"
    },
    "name": "aro",
    "repository": "kara.moe",
    "tid": "749bc738-9f5a-4a8c-9567-c89300632e1e",
    "types": [
      "creators",
      "4"
    ]
  }
}