{
  "header": {
    "description": "Karaoke Mugen Tag File",
    "version": 1
  },
  "tag": {
    "i18n": {
      "eng": "Arsenium"
    },
    "name": "Arsenium",
    "repository": "kara.moe",
    "tid": "2c283a6c-51ea-405f-b74e-40867534a515",
    "types": [
      "singers",
      "2",
      "songwriters",
      "8"
    ]
  }
}