{
  "header": {
    "description": "Karaoke Mugen Tag File",
    "version": 1
  },
  "tag": {
    "i18n": {
      "eng": "Artmic"
    },
    "name": "Artmic",
    "tid": "fceab2c9-3cf6-46f8-858f-4b3526b5f38a",
    "types": [
      "creators",
      "4"
    ],
    "repository": "kara.moe",
    "modified_at": "2020-03-31T19:04:33.549Z"
  }
}