{
  "header": {
    "description": "Karaoke Mugen Tag File",
    "version": 1
  },
  "tag": {
    "aliases": [
      "AnM",
      "Maidens of Morning Mist",
      "Priestesses of the Morning Mist"
    ],
    "external_database_ids": {
      "anilist": 231,
      "myanimelist": 231,
      "kitsu": 206
    },
    "i18n": {
      "eng": "Shrine of the Morning Mist",
      "fre": "Asagiri : Les Prêtresses de l'aube",
      "jpn": "朝霧の巫女",
      "qro": "Asagiri no Miko"
    },
    "modified_at": "2020-03-31T19:04:30.992Z",
    "name": "Asagiri no Miko",
    "repository": "kara.moe",
    "tid": "f9839913-818a-413b-8b92-d8a79abc0210",
    "types": [
      "series",
      "1"
    ]
  }
}