{
  "header": {
    "description": "Karaoke Mugen Tag File",
    "version": 1
  },
  "tag": {
    "i18n": {
      "eng": "Asakawa_Izumo"
    },
    "name": "Asakawa_Izumo",
    "repository": "kara.moe",
    "tid": "3a590faa-d293-48c1-9926-107482686490",
    "types": [
      "creators",
      "4"
    ]
  }
}