{
  "header": {
    "description": "Karaoke Mugen Tag File",
    "version": 1
  },
  "tag": {
    "i18n": {
      "eng": "ASCAP"
    },
    "name": "ASCAP",
    "tid": "933d5eeb-c93f-41f5-a534-81ef6a08410e",
    "types": [
      "creators",
      "4"
    ],
    "repository": "kara.moe",
    "modified_at": "2020-03-31T19:04:33.565Z"
  }
}