{
  "header": {
    "description": "Karaoke Mugen Tag File",
    "version": 1
  },
  "tag": {
    "i18n": {
      "eng": "Ashinaga Oji-san"
    },
    "name": "Ashinaga Oji-san",
    "tid": "d8946e20-f01d-47dd-ba8d-3526d502fd65",
    "types": [
      "creators",
      "4"
    ],
    "repository": "kara.moe",
    "modified_at": "2020-03-31T19:04:33.567Z"
  }
}