{
  "header": {
    "description": "Karaoke Mugen Tag File",
    "version": 1
  },
  "tag": {
    "external_database_ids": {
      "anilist": 104722,
      "myanimelist": 38572,
      "kitsu": 42328
    },
    "i18n": {
      "ara": "فخر المغتال",
      "eng": "Assassins Pride",
      "jpn": "アサシンズプライド",
      "qro": "Assassins Pride"
    },
    "modified_at": "2020-03-31T19:04:31.002Z",
    "name": "Assassins Pride",
    "repository": "kara.moe",
    "tid": "bc553f7f-a20b-42d5-afaf-a6665a5202d2",
    "types": [
      "series",
      "1"
    ]
  }
}