{
  "header": {
    "description": "Karaoke Mugen Tag File",
    "version": 1
  },
  "tag": {
    "i18n": {
      "eng": "Asterisk@"
    },
    "name": "Asterisk@",
    "repository": "kara.moe",
    "tid": "89c6966b-6bb9-4178-84d5-868d36f104e6",
    "types": [
      "creators",
      "4"
    ]
  }
}