{
  "header": {
    "description": "Karaoke Mugen Tag File",
    "version": 1
  },
  "tag": {
    "aliases": [
      "AnY",
      "Ashita no Yoichi",
      "Ashita no Yoichi!",
      "Asu no Yoichi",
      "Rytojaus Yoichis",
      "Yoichi",
      "Yoichi of Tomorrow",
      "Ёити завтра",
      "明日的与一!"
    ],
    "external_database_ids": {
      "anilist": 4999,
      "myanimelist": 4999,
      "kitsu": 3876
    },
    "i18n": {
      "eng": "Samurai Harem",
      "fre": "High School Samurai",
      "jpn": "明日のよいち!",
      "qro": "Asu no Yoichi!"
    },
    "modified_at": "2020-03-31T19:04:31.007Z",
    "name": "Asu no Yoichi!",
    "repository": "kara.moe",
    "tid": "a054e3bd-18a0-45c4-b023-2985150b6e9b",
    "types": [
      "series",
      "1"
    ]
  }
}