{
  "header": {
    "description": "Karaoke Mugen Tag File",
    "version": 1
  },
  "tag": {
    "i18n": {
      "eng": "ASUNARO"
    },
    "name": "ASUNARO",
    "tid": "eedd37ae-2440-428b-a777-3bad4c2bd447",
    "types": [
      "singers",
      "2"
    ],
    "repository": "kara.moe",
    "modified_at": "2020-03-31T19:04:33.581Z"
  }
}