{
  "header": {
    "description": "Karaoke Mugen Tag File",
    "version": 1
  },
  "tag": {
    "i18n": {
      "eng": "Atelier Kaguya BerkshireYorkshire"
    },
    "name": "Atelier Kaguya BerkshireYorkshire",
    "repository": "kara.moe",
    "tid": "66f27c38-49b3-46f0-811d-8538d2667b4a",
    "types": [
      "creators",
      "4"
    ]
  }
}