{
  "header": {
    "description": "Karaoke Mugen Tag File",
    "version": 1
  },
  "tag": {
    "i18n": {
      "eng": "Atsushi Yanaka"
    },
    "name": "Atsushi Yanaka",
    "tid": "04a44fb1-9569-4291-93c9-b7fb3a1559bd",
    "types": [
      "songwriters",
      "8"
    ],
    "repository": "kara.moe",
    "modified_at": "2020-03-31T19:04:33.595Z"
  }
}