{
  "header": {
    "description": "Karaoke Mugen Tag File",
    "version": 1
  },
  "tag": {
    "i18n": {
      "eng": "Atsushi Tomita"
    },
    "name": "Atsushi Tomita",
    "tid": "e8e57788-e767-4558-8b02-213958e28198",
    "types": [
      "songwriters",
      "8"
    ],
    "repository": "kara.moe",
    "modified_at": "2020-03-31T19:04:33.593Z"
  }
}