{
  "header": {
    "description": "Karaoke Mugen Tag File",
    "version": 1
  },
  "tag": {
    "i18n": {
      "eng": "Atsushi Tamaru"
    },
    "name": "Atsushi Tamaru",
    "tid": "930cbfdb-5069-4ce6-8f32-166063166e5e",
    "types": [
      "singers",
      "2"
    ],
    "repository": "kara.moe",
    "modified_at": "2020-03-31T19:04:33.592Z"
  }
}