{
  "header": {
    "description": "Karaoke Mugen Tag File",
    "version": 1
  },
  "tag": {
    "i18n": {
      "eng": "Atsushi Shimada"
    },
    "modified_at": "2021-05-18T16:22:19.201Z",
    "name": "Atsushi Shimada",
    "repository": "kara.moe",
    "tid": "435d9012-c2e4-48d0-b9af-d2e061e0c6e7",
    "types": [
      "songwriters",
      "8"
    ]
  }
}