{
  "header": {
    "description": "Karaoke Mugen Tag File",
    "version": 1
  },
  "tag": {
    "aliases": [
      "La ilusión de triunfar",
      "Quella magnifica dozzina"
    ],
    "external_database_ids": {
      "anilist": 1550,
      "myanimelist": 1550,
      "kitsu": 1391
    },
    "i18n": {
      "fre": "Les Attaquantes",
      "jpn": "アタックNo.1 (1970)",
      "ger": "Mila Superstar",
      "ita": "Mimì e la nazionale di pallavolo",
      "spa": "La panda de Julia",
      "hun": "Mila, a szupersztár",
      "qro": "Attack No.1"
    },
    "modified_at": "2021-07-23T23:36:34.385Z",
    "name": "Attack No.1",
    "repository": "kara.moe",
    "tid": "c9a1efaa-ceb0-4489-9ab7-e6a79111313c",
    "types": [
      "series",
      "1"
    ]
  }
}