{
  "header": {
    "description": "Karaoke Mugen Tag File",
    "version": 1
  },
  "tag": {
    "aliases": [
      "Host Club Le lycée de la séduction",
      "Lucky Star",
      "Lucky☆Star",
      "OHSHC",
      "Ouran High School Host Club",
      "Ouran Koukou Host Club",
      "Suzumiya Haruhi no Yuuutsu",
      "Suzumiya Haruhi no Yûutsu",
      "Ôran Kôkô Host Club"
    ],
    "i18n": {
      "eng": "Attack of the Otaku"
    },
    "modified_at": "2020-03-31T19:04:31.011Z",
    "name": "Attack of the Otaku",
    "repository": "kara.moe",
    "tid": "6019bef9-cb0e-4077-9de0-e26e6471ddb0",
    "types": [
      "series",
      "1"
    ]
  }
}