{
  "header": {
    "description": "Karaoke Mugen Tag File",
    "version": 1
  },
  "tag": {
    "i18n": {
      "eng": "Audio Highs"
    },
    "name": "Audio Highs",
    "tid": "48f38154-2803-4357-b9f5-e9134bfa1cec",
    "types": [
      "songwriters",
      "8"
    ],
    "repository": "kara.moe",
    "modified_at": "2020-03-31T19:04:33.598Z"
  }
}