{
  "header": {
    "description": "Karaoke Mugen Tag File",
    "version": 1
  },
  "tag": {
    "i18n": {
      "eng": "Avenged Sevenfold"
    },
    "name": "Avenged Sevenfold",
    "repository": "kara.moe",
    "tid": "190bad17-5b55-4ca0-b911-15af9a4edc3c",
    "types": [
      "singers",
      "2",
      "songwriters",
      "8"
    ]
  }
}