{
  "header": {
    "description": "Karaoke Mugen Tag File",
    "version": 1
  },
  "tag": {
    "i18n": {
      "eng": "Aya Ishihara"
    },
    "modified_at": "2021-02-08T19:27:59.144Z",
    "name": "Aya Ishihara",
    "repository": "kara.moe",
    "tid": "cae78ea3-94a1-4517-89cd-890768f8369e",
    "types": [
      "singers",
      "2"
    ]
  }
}