{
  "header": {
    "description": "Karaoke Mugen Tag File",
    "version": 1
  },
  "tag": {
    "aliases": [
      "Ayaka Ōhashi"
    ],
    "i18n": {
      "eng": "Ayaka Oohashi"
    },
    "modified_at": "2021-11-27T20:20:08.667Z",
    "name": "Ayaka Oohashi",
    "repository": "kara.moe",
    "tid": "8ab6e3f9-a691-4fd0-9c55-5426f2218c5d",
    "types": [
      "singers",
      "2"
    ]
  }
}