{
  "header": {
    "description": "Karaoke Mugen Tag File",
    "version": 1
  },
  "tag": {
    "i18n": {
      "eng": "Ayaka Saitô"
    },
    "name": "Ayaka Saitô",
    "tid": "7f96e66b-6491-4e86-b594-50d0779c5aeb",
    "types": [
      "singers",
      "2"
    ],
    "repository": "kara.moe",
    "modified_at": "2020-03-31T19:04:33.621Z"
  }
}