{
  "header": {
    "description": "Karaoke Mugen Tag File",
    "version": 1
  },
  "tag": {
    "i18n": {
      "afr": "Aymara",
      "amh": "Aymara",
      "ara": "الأيمارا",
      "aze": "Аймара",
      "bak": "Аймара теле",
      "bel": "Аймара",
      "bul": "Аймара",
      "ben": "আয়মারা",
      "bos": "Dolgan",
      "cat": "Aymara",
      "cze": "Ajmarština",
      "wel": "Aymara",
      "dan": "Aymara",
      "ger": "Aymara",
      "gre": "Aymara",
      "eng": "Aymara",
      "epo": "Aymara",
      "spa": "Aymara",
      "est": "Aimara",
      "baq": "Aymara",
      "per": "Aymara",
      "fin": "Aymara",
      "fre": "Aymara",
      "gle": "Aymara",
      "gla": "Aymara",
      "glg": "Aimará",
      "guj": "આયમારા",
      "heb": "איימרהname",
      "hin": "आयमारा",
      "hrv": "Ajmarski",
      "hat": "Aymara",
      "hun": "Aymara",
      "arm": "Aymara",
      "ind": "Bahasa Aymara",
      "ice": "Aymara",
      "ita": "Aymara",
      "jpn": "Aymara",
      "jav": "Aimara",
      "geo": "აიმარა",
      "kaz": "Аймара",
      "kan": "ಅಯ್ಮಾರಾ",
      "kor": "Aymara",
      "kir": "Аймара",
      "lat": "Aymara",
      "lit": "Aimarų",
      "lav": "Aimaru",
      "mlg": "Aymara",
      "mao": "Aymara",
      "mac": "Aymara",
      "mal": "Aymara",
      "mon": "Aymara",
      "mar": "Aymara",
      "may": "Aymara",
      "mlt": "Ajmara",
      "nep": "एमारा",
      "dut": "Aymara",
      "nor": "Aymara",
      "pan": "Aymara",
      "pol": "Ajmara",
      "por": "Aymara",
      "rum": "Aymara",
      "rus": "Аймара",
      "sin": "Aymara",
      "slo": "Aymara",
      "slv": "Aymara",
      "alb": "Aymara",
      "srp": "Аймара",
      "sun": "Aymara, malayu",
      "swe": "Aymara",
      "swa": "Aymara",
      "tam": "அய்மரா",
      "tel": "ఐమారా",
      "tgk": "Аймара",
      "tha": "ภาษาอัยมารา name",
      "tgl": "Aymara",
      "tur": "Aymara",
      "tat": "Аймара теле",
      "ukr": "Аймара",
      "urd": "ایمارا",
      "uzb": "Aymara",
      "vie": "Bạo lực tràn",
      "xho": "Aymara",
      "yid": "Aymara",
      "chi": "艾马拉"
    },
    "name": "aym",
    "tid": "6dfebcbc-77f5-4e91-b04a-a6101763d23a",
    "types": [
      "langs",
      "5"
    ],
    "repository": "kara.moe",
    "modified_at": "2020-03-31T19:04:33.636Z"
  }
}