{
  "header": {
    "description": "Karaoke Mugen Tag File",
    "version": 1
  },
  "tag": {
    "i18n": {
      "eng": "Ayumi Takeo"
    },
    "name": "Ayumi Takeo",
    "tid": "d9a3fbfc-3caa-47d1-bb0c-3666995d95ac",
    "types": [
      "singers",
      "2"
    ],
    "repository": "kara.moe",
    "modified_at": "2020-03-31T19:04:33.642Z"
  }
}