{
  "header": {
    "description": "Karaoke Mugen Tag File",
    "version": 1
  },
  "tag": {
    "i18n": {
      "eng": "Ayumi Mano"
    },
    "name": "Ayumi Mano",
    "tid": "6c8360e3-36c6-4cfa-8f43-12ede11574f5",
    "types": [
      "singers",
      "2"
    ],
    "repository": "kara.moe",
    "modified_at": "2020-03-31T19:04:33.639Z"
  }
}