{
  "header": {
    "description": "Karaoke Mugen Tag File",
    "version": 1
  },
  "tag": {
    "i18n": {
      "eng": "BΣretta X' Rain"
    },
    "modified_at": "2021-01-29T01:02:28.601Z",
    "name": "BΣretta X' Rain",
    "repository": "kara.moe",
    "tid": "3fca40bc-3b30-40f1-8c4a-79343a16a319",
    "types": [
      "singers",
      "2"
    ]
  }
}