{
  "header": {
    "description": "Karaoke Mugen Tag File",
    "version": 1
  },
  "tag": {
    "aliases": [
      "Murder Train",
      "baccano",
      "Баккано!",
      "Рейвах!",
      "Шумиха!",
      "Шумотевица!",
      "باكانو"
    ],
    "external_database_ids": {
      "anilist": 2251,
      "myanimelist": 2251,
      "kitsu": 2039
    },
    "i18n": {
      "eng": "Baccano!",
      "jpn": "バッカーノ!",
      "pol": "Baccano!",
      "qro": "Baccano!"
    },
    "modified_at": "2020-06-21T23:45:31.966Z",
    "name": "Baccano!",
    "repository": "kara.moe",
    "tid": "f41e4a61-784b-46b0-b569-12d33a1bfc04",
    "types": [
      "series",
      "1"
    ]
  }
}