{
  "header": {
    "description": "Karaoke Mugen Tag File",
    "version": 1
  },
  "tag": {
    "i18n": {
      "eng": "Baelz Hakos"
    },
    "name": "Baelz Hakos",
    "repository": "kara.moe",
    "tid": "37a0d0df-aab7-482b-b2f2-65b9ca1cc639",
    "types": [
      "singers",
      "2",
      "songwriters",
      "8"
    ]
  }
}