{
  "header": {
    "description": "Karaoke Mugen Tag File",
    "version": 1
  },
  "tag": {
    "aliases": [
      "BMG",
      "Ghostory",
      "Monogatari Series",
      "Monstrų Istorijos",
      "bakemono",
      "Бакемоноґатарі",
      "Истории за Чудовището",
      "Истории о Чудовищах",
      "Монстрассказы",
      "Монстроповідання",
      "Оповідання про монстрів",
      "Потвороповідь",
      "باکمونوگاتاری",
      "داستان از ما بهتران",
      "บาเกะโมโนกาตาริ",
      "化物語"
    ],
    "external_database_ids": {
      "anilist": 5081,
      "myanimelist": 5081,
      "kitsu": 3919
    },
    "i18n": {
      "chi": "化物语",
      "eng": "Bakemonogatari",
      "fre": "Bakemonogatari",
      "jpn": "化物語",
      "kor": "괴물 이야기",
      "tha": "ปกรณัมของเหล่าภูต",
      "tur": "Canavar Hikayeleri",
      "qro": "Bakemonogatari"
    },
    "modified_at": "2020-03-31T19:04:31.027Z",
    "name": "Bakemonogatari",
    "repository": "kara.moe",
    "tid": "115d19ee-c8c9-4b8a-a401-edc09bcd612a",
    "types": [
      "series",
      "1"
    ]
  }
}