{
  "header": {
    "description": "Karaoke Mugen Tag File",
    "version": 1
  },
  "tag": {
    "aliases": [
      "Bakuman 2nd Season",
      "Bakuman S2",
      "bakuman2",
      "Бакуман (2011)",
      "Бакуман 2"
    ],
    "external_database_ids": {
      "anilist": 10030,
      "myanimelist": 10030,
      "kitsu": 6001
    },
    "i18n": {
      "eng": "Bakuman. 2nd Season",
      "fre": "Bakuman. 2",
      "jpn": "バクマン. 2",
      "qro": "Bakuman. 2nd Season"
    },
    "modified_at": "2020-03-31T19:04:31.028Z",
    "name": "Bakuman. 2nd Season",
    "repository": "kara.moe",
    "tid": "944912e3-6c12-4f18-8670-a4f2471e874c",
    "types": [
      "series",
      "1"
    ]
  }
}