{
  "header": {
    "description": "Karaoke Mugen Tag File",
    "version": 1
  },
  "tag": {
    "i18n": {
      "eng": "Balak"
    },
    "name": "Balak",
    "tid": "306bd694-ec62-423d-ad3c-19ec220a3f62",
    "types": [
      "singers",
      "2"
    ],
    "repository": "kara.moe",
    "modified_at": "2020-03-31T19:04:33.677Z"
  }
}