{
  "header": {
    "description": "Karaoke Mugen Tag File",
    "version": 1
  },
  "tag": {
    "i18n": {
      "eng": "BARNABYS"
    },
    "modified_at": "2020-08-28T20:48:01.721Z",
    "name": "BARNABYS",
    "repository": "kara.moe",
    "tid": "2a230974-a6d0-498f-a3db-af8244f06da1",
    "types": [
      "singers",
      "2"
    ]
  }
}