{
  "header": {
    "description": "Karaoke Mugen Tag File",
    "version": 1
  },
  "tag": {
    "i18n": {
      "eng": "Basil Poledouris"
    },
    "modified_at": "2021-01-15T21:04:46.843Z",
    "name": "Basil Poledouris",
    "repository": "kara.moe",
    "tid": "7411a11f-9247-48a8-8673-8a67601e4b92",
    "types": [
      "songwriters",
      "8"
    ]
  }
}