{
  "header": {
    "description": "Karaoke Mugen Tag File",
    "version": 1
  },
  "tag": {
    "i18n": {
      "eng": "Beauty and the Beast (1991)",
      "fre": "La Belle et la Bête (1991)",
      "jpn": "美女と野獣 (1991)",
      "qro": "Beauty and the Beast (1991)"
    },
    "modified_at": "2020-03-31T19:04:31.060Z",
    "name": "Beauty and the Beast (1991)",
    "repository": "kara.moe",
    "tid": "6935e660-d071-433a-8072-442c8e6200ee",
    "types": [
      "series",
      "1"
    ]
  }
}