{
  "header": {
    "description": "Karaoke Mugen Tag File",
    "version": 1
  },
  "tag": {
    "aliases": [
      "Beelzebub: Hirotta Akachan wa Daimaou!?",
      "Beelzebub: The Baby I Picked Up Is the Great Demon King!?",
      "Белзебъб: Бебето което намерих е Крал на Демоните?",
      "Вельзепуз ОВА",
      "恶魔奶爸",
      "daimaou"
    ],
    "external_database_ids": {
      "anilist": 9120,
      "myanimelist": 9120,
      "kitsu": 5608
    },
    "i18n": {
      "eng": "Beelzebub: Hirotta Akachan wa Daimaô!?",
      "jpn": "べるぜバブ 拾った赤ちゃんは大魔王!?",
      "qro": "Beelzebub: Hirotta Akachan wa Daimaô!?"
    },
    "modified_at": "2020-03-31T19:04:31.062Z",
    "name": "Beelzebub: Hirotta Akachan wa Daimaô!?",
    "repository": "kara.moe",
    "tid": "e87eea65-1c71-4db9-8687-41964e1ec815",
    "types": [
      "series",
      "1"
    ]
  }
}