{
  "header": {
    "description": "Karaoke Mugen Tag File",
    "version": 1
  },
  "tag": {
    "i18n": {
      "eng": "Being Inc."
    },
    "modified_at": "2020-04-27T10:44:17.447Z",
    "name": "Being Inc.",
    "repository": "kara.moe",
    "tid": "82e3ccd7-2612-45ec-a0d7-e63f2d83a5a6",
    "types": [
      "creators",
      "4"
    ]
  }
}