{
  "header": {
    "description": "Karaoke Mugen Tag File",
    "version": 1
  },
  "tag": {
    "i18n": {
      "eng": "Ben Watkins"
    },
    "name": "Ben Watkins",
    "repository": "kara.moe",
    "tid": "3e90e9c9-f1a7-4d81-8564-22536b8d771d",
    "types": [
      "songwriters",
      "8"
    ]
  }
}