{
  "header": {
    "description": "Karaoke Mugen Tag File",
    "version": 1
  },
  "tag": {
    "i18n": {
      "eng": "Ben Sasaki"
    },
    "name": "Ben Sasaki",
    "repository": "kara.moe",
    "tid": "db2f30da-b268-47f5-9fa9-5714ba9e1a06",
    "types": [
      "songwriters",
      "8"
    ],
    "modified_at": "2020-03-31T19:04:33.709Z"
  }
}