{
  "header": {
    "description": "Karaoke Mugen Tag File",
    "version": 1
  },
  "tag": {
    "i18n": {
      "eng": "Ben Harper"
    },
    "name": "Ben Harper",
    "repository": "kara.moe",
    "tid": "9cb00a1f-a6c9-4fbf-9bbf-f62e75730e15",
    "types": [
      "songwriters",
      "8"
    ]
  }
}