{
  "header": {
    "description": "Karaoke Mugen Tag File",
    "version": 1
  },
  "tag": {
    "aliases": [
      "Benjamin Daniel"
    ],
    "i18n": {
      "eng": "Benzaie"
    },
    "modified_at": "2021-11-06T10:58:10.318Z",
    "name": "Benzaie",
    "repository": "kara.moe",
    "tid": "f1a2dd16-f82b-4750-abf9-e12d6fc4d231",
    "types": [
      "creators",
      "4"
    ]
  }
}