{
  "header": {
    "description": "Karaoke Mugen Tag File",
    "version": 1
  },
  "tag": {
    "i18n": {
      "eng": "Bernard Lavalette"
    },
    "name": "Bernard Lavalette",
    "tid": "18224691-2644-4d48-99a4-9d13449aad8a",
    "types": [
      "singers",
      "2"
    ],
    "repository": "kara.moe",
    "modified_at": "2020-03-31T19:04:33.720Z"
  }
}