{
  "header": {
    "description": "Karaoke Mugen Tag File",
    "version": 1
  },
  "tag": {
    "i18n": {
      "eng": "Bernd Meinunger"
    },
    "modified_at": "2021-03-18T22:29:22.948Z",
    "name": "Bernd Meinunger",
    "repository": "kara.moe",
    "tid": "ff7391aa-49b6-4a98-8d49-4029f90ac467",
    "types": [
      "songwriters",
      "8"
    ]
  }
}