{
  "header": {
    "description": "Karaoke Mugen Tag File",
    "version": 1
  },
  "tag": {
    "aliases": [
      "Берсерк"
    ],
    "i18n": {
      "eng": "Berserk",
      "jpn": "ベルセルク"
    },
    "name": "Berserk",
    "repository": "kara.moe",
    "tid": "df349ba1-421a-4599-9fac-542677577555",
    "types": [
      "franchises",
      "18"
    ]
  }
}