{
  "header": {
    "description": "Karaoke Mugen Tag File",
    "version": 1
  },
  "tag": {
    "i18n": {
      "eng": "bibialice"
    },
    "modified_at": "2020-07-03T22:59:31.088Z",
    "name": "bibialice",
    "repository": "kara.moe",
    "tid": "0275191e-6efa-4aee-b15c-74f594274dd3",
    "types": [
      "authors",
      "6"
    ]
  }
}