{
  "header": {
    "description": "Karaoke Mugen Tag File",
    "version": 1
  },
  "tag": {
    "i18n": {
      "eng": "Bibury Animation Studios"
    },
    "name": "Bibury Animation Studios",
    "tid": "6086c170-04fa-4ad3-9b42-7379793e889d",
    "types": [
      "creators",
      "4"
    ],
    "repository": "kara.moe",
    "modified_at": "2020-03-31T19:04:33.726Z"
  }
}