{
  "header": {
    "description": "Karaoke Mugen Tag File",
    "version": 1
  },
  "tag": {
    "i18n": {
      "eng": "Big SsanCho"
    },
    "name": "Big SsanCho",
    "tid": "12b2a0ef-add4-4578-9a65-e7d9d88aa264",
    "types": [
      "songwriters",
      "8"
    ],
    "repository": "kara.moe",
    "modified_at": "2020-03-31T19:04:33.730Z"
  }
}