{
  "header": {
    "description": "Karaoke Mugen Tag File",
    "version": 1
  },
  "tag": {
    "i18n": {
      "eng": "Bill Danoff"
    },
    "name": "Bill Danoff",
    "tid": "0ac392b1-5372-43b5-a828-48474d496a5c",
    "types": [
      "songwriters",
      "8"
    ],
    "repository": "kara.moe",
    "modified_at": "2020-03-31T19:04:33.733Z"
  }
}