{
  "header": {
    "description": "Karaoke Mugen Tag File",
    "version": 1
  },
  "tag": {
    "i18n": {
      "eng": "Bill Berry"
    },
    "name": "Bill Berry",
    "repository": "kara.moe",
    "tid": "88615e9e-7d28-4a45-a93c-47b4e091f14e",
    "types": [
      "songwriters",
      "8"
    ]
  }
}