{
  "header": {
    "description": "Karaoke Mugen Tag File",
    "version": 1
  },
  "tag": {
    "i18n": {
      "eng": "Bill Rahko"
    },
    "name": "Bill Rahko",
    "repository": "kara.moe",
    "tid": "81f223b9-8daf-4eb2-9d33-223be479d831",
    "types": [
      "songwriters",
      "8"
    ]
  }
}