{
  "header": {
    "description": "Karaoke Mugen Tag File",
    "version": 1
  },
  "tag": {
    "aliases": [
      "BF",
      "Bindzume Yousei",
      "Binzume Yousei",
      "bofa",
      "Феи из бутылки",
      "yousei"
    ],
    "external_database_ids": {
      "anilist": 348,
      "myanimelist": 348,
      "kitsu": 315
    },
    "i18n": {
      "eng": "Bottle Fairy",
      "fre": "Binzume Yôsei",
      "jpn": "瓶詰妖精",
      "qro": "Binzume Yôsei"
    },
    "modified_at": "2020-03-31T19:04:31.072Z",
    "name": "Binzume Yôsei",
    "repository": "kara.moe",
    "tid": "5d737af4-e804-47b7-8779-0c9bc0a67415",
    "types": [
      "series",
      "1"
    ]
  }
}