{
  "header": {
    "description": "Karaoke Mugen Tag File",
    "version": 1
  },
  "tag": {
    "aliases": [
      "Bishoujo Senshi Sailor Moon Stars",
      "Pretty Guardian Sailor Moon",
      "Pretty Soldier Sailor Moon",
      "bishoujo"
    ],
    "external_database_ids": {
      "anilist": 996,
      "myanimelist": 996,
      "kitsu": 886
    },
    "i18n": {
      "eng": "Sailor Moon Sailor Stars",
      "fre": "Sailor Moon Sailor Stars",
      "ger": "Sailor Moon Sailor Stars",
      "ita": "Petali di stelle per Sailor Moon",
      "jpn": "美少女戦士セーラームーン セーラースターズ",
      "pol": "Czarodziejka z Księżyca: Sailor Moon Sailor Stars",
      "por": "Sailor Moon Sailor Stars",
      "rum": "Sailor Moon Sailor Stars",
      "spa": "Sailor Moon Sailor Stars",
      "tha": "เซเลอร์มูน เซเลอร์สตาร์ส",
      "ukr": "Сейлор Мун",
      "qro": "Bishôjo Senshi Sailor Moon Sailor Stars"
    },
    "modified_at": "2020-06-21T23:45:31.966Z",
    "name": "Bishôjo Senshi Sailor Moon Sailor Stars",
    "repository": "kara.moe",
    "tid": "606a0d74-6d1f-47a2-b0b8-0c8054908066",
    "types": [
      "series",
      "1"
    ]
  }
}