{
  "header": {
    "description": "Karaoke Mugen Tag File",
    "version": 1
  },
  "tag": {
    "i18n": {
      "eng": "BLACK ROSE",
      "jpn": "BLACK ROSE 分解探偵アウル",
      "qro": "BLACK ROSE: Bunkai Tantei Owl"
    },
    "name": "BLACK ROSE: Bunkai Tantei Owl",
    "repository": "kara.moe",
    "tid": "af358e64-d5ea-4830-b356-9f0dd1fa043b",
    "types": [
      "series",
      "1"
    ]
  }
}