{
  "header": {
    "description": "Karaoke Mugen Tag File",
    "version": 1
  },
  "tag": {
    "aliases": [
      "BLΛƆKPIИK"
    ],
    "i18n": {
      "eng": "BLACKPINK",
      "kor": "블랙핑크"
    },
    "modified_at": "2021-05-09T15:47:01.003Z",
    "name": "BLACKPINK",
    "repository": "kara.moe",
    "tid": "0e965310-c0c9-4001-8c2c-42e74b41573e",
    "types": [
      "singers",
      "2"
    ]
  }
}