{
  "header": {
    "description": "Karaoke Mugen Tag File",
    "version": 1
  },
  "tag": {
    "external_database_ids": {
      "anilist": 7059,
      "myanimelist": 7059,
      "kitsu": 4854
    },
    "i18n": {
      "eng": "Black★Rock Shooter OVA",
      "jpn": "ブラック★ロックシューター",
      "qro": "Black★Rock Shooter OVA"
    },
    "modified_at": "2020-03-31T19:04:31.086Z",
    "name": "Black★Rock Shooter OVA",
    "repository": "kara.moe",
    "tid": "8bdc9013-f814-45fe-8270-a0a077997ad6",
    "types": [
      "series",
      "1"
    ]
  }
}