{
  "header": {
    "description": "Karaoke Mugen Tag File",
    "version": 1
  },
  "tag": {
    "aliases": [
      "BJ21"
    ],
    "external_database_ids": {
      "anilist": 2214,
      "myanimelist": 2214,
      "kitsu": 2005
    },
    "i18n": {
      "jpn": "ブラック・ジャック 21",
      "qro": "Black Jack 21"
    },
    "modified_at": "2020-03-31T19:04:31.083Z",
    "name": "Black Jack 21",
    "repository": "kara.moe",
    "tid": "bcf6e519-e194-42ee-878b-92fd3e6dbafe",
    "types": [
      "series",
      "1"
    ]
  }
}