{
  "header": {
    "description": "Karaoke Mugen Tag File",
    "version": 1
  },
  "tag": {
    "external_database_ids": {
      "anilist": 5829,
      "myanimelist": 5829,
      "kitsu": 4292
    },
    "i18n": {
      "eng": "Blocker Corps",
      "ita": "Astrorobot Contatto Y",
      "jpn": "ブロッカー軍団IVマシーンブラスター",
      "qro": "Blocker Gundan IV Machine Blaster"
    },
    "modified_at": "2020-03-31T19:04:31.099Z",
    "name": "Blocker Gundan IV Machine Blaster",
    "repository": "kara.moe",
    "tid": "b3e8318a-f404-4fdd-8ff5-11c3c421cb60",
    "types": [
      "series",
      "1"
    ]
  }
}