{
  "header": {
    "description": "Karaoke Mugen Tag File",
    "version": 1
  },
  "tag": {
    "i18n": {
      "eng": "Blue SWAT",
      "jpn": "ブルースワット",
      "qro": "Blue SWAT"
    },
    "modified_at": "2020-03-31T19:04:31.104Z",
    "name": "Blue SWAT",
    "repository": "kara.moe",
    "tid": "1afff77c-c1b7-478c-a2f7-c48c3146b390",
    "types": [
      "series",
      "1"
    ]
  }
}