{
  "header": {
    "description": "Karaoke Mugen Tag File",
    "version": 1
  },
  "tag": {
    "external_database_ids": {
      "anilist": 137822,
      "kitsu": 44973,
      "myanimelist": 49596
    },
    "i18n": {
      "eng": "Blue Lock",
      "jpn": "ブルーロック"
    },
    "name": "Blue Lock",
    "repository": "kara.moe",
    "tid": "2c914a09-76b7-45dd-8bac-9c31d0d91a57",
    "types": [
      "franchises",
      "18",
      "series",
      "1"
    ]
  }
}