{
  "header": {
    "description": "Karaoke Mugen Tag File",
    "version": 1
  },
  "tag": {
    "i18n": {
      "eng": "BoA (Kwon)"
    },
    "name": "BoA (Kwon)",
    "tid": "3d1909d8-b30c-4b81-8550-914f092c5544",
    "types": [
      "singers",
      "2"
    ],
    "repository": "kara.moe",
    "modified_at": "2020-03-31T19:04:33.755Z"
  }
}