{
  "header": {
    "description": "Karaoke Mugen Tag File",
    "version": 1
  },
  "tag": {
    "aliases": [
      "Boku no Chikyuu wo Mamotte",
      "Bokutama",
      "PSME",
      "bokutama",
      "psme",
      "ぼくたま",
      "ぼく地球",
      "나의 지구를 지켜줘",
      "chikyuu"
    ],
    "external_database_ids": {
      "anilist": 526,
      "myanimelist": 526,
      "kitsu": 485
    },
    "i18n": {
      "eng": "Please Save My Earth",
      "fre": "Réincarnations ‒ Please Save My Earth",
      "jpn": "ぼくの地球を守って",
      "rus": "Пожалуйста, спасите мою Землю!",
      "qro": "Boku no Chikyû o Mamotte"
    },
    "modified_at": "2020-03-31T19:04:31.106Z",
    "name": "Boku no Chikyû o Mamotte",
    "repository": "kara.moe",
    "tid": "b71a0a1f-da8d-4d0c-8291-a839cbef9bb4",
    "types": [
      "series",
      "1"
    ]
  }
}