{
  "header": {
    "description": "Karaoke Mugen Tag File",
    "version": 1
  },
  "tag": {
    "i18n": {
      "eng": "Botan Shishiro",
      "jpn": "獅白ぼたん",
      "qro": "Botan Shishiro"
    },
    "modified_at": "2021-09-02T20:55:47.846Z",
    "name": "Botan Shishiro",
    "repository": "kara.moe",
    "tid": "69ca087d-f773-4a28-b4b4-aacab1390e45",
    "types": [
      "singers",
      "2"
    ]
  }
}