{
  "header": {
    "description": "Karaoke Mugen Tag File",
    "version": 1
  },
  "tag": {
    "i18n": {
      "eng": "Brad Delson"
    },
    "name": "Brad Delson",
    "repository": "kara.moe",
    "tid": "a4d8bda7-fda8-4c80-bcf4-e6bc70f05ee9",
    "types": [
      "songwriters",
      "8"
    ]
  }
}