{
  "header": {
    "description": "Karaoke Mugen Tag File",
    "version": 1
  },
  "tag": {
    "aliases": [
      "Храбрые ведьмы"
    ],
    "external_database_ids": {
      "anilist": 20454,
      "myanimelist": 32866,
      "kitsu": 11887
    },
    "i18n": {
      "eng": "Brave Witches",
      "jpn": "ブレイブウィッチーズ",
      "qro": "Brave Witches"
    },
    "modified_at": "2020-03-31T19:04:31.126Z",
    "name": "Brave Witches",
    "repository": "kara.moe",
    "tid": "53561fe2-64be-4c0d-bf71-4e83c344520d",
    "types": [
      "series",
      "1"
    ]
  }
}