{
  "header": {
    "description": "Karaoke Mugen Tag File",
    "version": 1
  },
  "tag": {
    "i18n": {
      "eng": "BREAKERS"
    },
    "name": "BREAKERS",
    "repository": "kara.moe",
    "tid": "6b7e359a-f6a9-405c-895e-488a42ce6d15",
    "types": [
      "singergroups",
      "17"
    ]
  }
}