{
  "header": {
    "description": "Karaoke Mugen Tag File",
    "version": 1
  },
  "tag": {
    "i18n": {
      "eng": "Bree Sharp"
    },
    "name": "Bree Sharp",
    "tid": "e481622f-53f1-47c2-8fa6-0d78262b2f45",
    "types": [
      "singers",
      "2"
    ],
    "repository": "kara.moe",
    "modified_at": "2020-03-31T19:04:33.785Z"
  }
}