{
  "header": {
    "description": "Karaoke Mugen Tag File",
    "version": 1
  },
  "tag": {
    "i18n": {
      "eng": "Brendon Urie"
    },
    "name": "Brendon Urie",
    "repository": "kara.moe",
    "tid": "17f3ead7-49d0-420e-9595-2d2bac43c43c",
    "types": [
      "songwriters",
      "8"
    ]
  }
}