{
  "header": {
    "description": "Karaoke Mugen Tag File",
    "version": 1
  },
  "tag": {
    "i18n": {
      "eng": "Brian Lee"
    },
    "name": "Brian Lee",
    "repository": "kara.moe",
    "tid": "00654ef0-98f6-435d-b7de-efcbc04de2d5",
    "types": [
      "songwriters",
      "8"
    ]
  }
}