{
  "header": {
    "description": "Karaoke Mugen Tag File",
    "version": 1
  },
  "tag": {
    "i18n": {
      "eng": "Brigitte Lecordier"
    },
    "name": "Brigitte Lecordier",
    "tid": "bc9e3c53-ef5f-4093-b233-0d4ab7f429a1",
    "types": [
      "singers",
      "2"
    ],
    "repository": "kara.moe",
    "modified_at": "2020-03-31T19:04:33.793Z"
  }
}