{
  "header": {
    "description": "Karaoke Mugen Tag File",
    "version": 1
  },
  "tag": {
    "i18n": {
      "eng": "BRILLIANT4"
    },
    "name": "BRILLIANT4",
    "tid": "e3789409-25ff-4b94-a8a2-1be328704299",
    "types": [
      "singers",
      "2"
    ],
    "repository": "kara.moe",
    "modified_at": "2020-03-31T19:04:33.794Z"
  }
}