{
  "header": {
    "description": "Karaoke Mugen Tag File",
    "version": 1
  },
  "tag": {
    "i18n": {
      "eng": "Brookwell McNamara Entertainment"
    },
    "name": "Brookwell McNamara Entertainment",
    "tid": "314e8c06-6b05-4cf3-b775-3dd4334e5e67",
    "types": [
      "creators",
      "4"
    ],
    "repository": "kara.moe",
    "modified_at": "2020-03-31T19:04:33.798Z"
  }
}