{
  "header": {
    "description": "Karaoke Mugen Tag File",
    "version": 1
  },
  "tag": {
    "i18n": {
      "eng": "BrotherSu",
      "kor": "브라더수"
    },
    "name": "BrotherSu",
    "repository": "kara.moe",
    "tid": "ccc19b20-626b-45b7-8edf-f8438e74361f",
    "types": [
      "songwriters",
      "8"
    ]
  }
}