{
  "header": {
    "description": "Karaoke Mugen Tag File",
    "version": 1
  },
  "tag": {
    "i18n": {
      "eng": "Bruce Blanchard"
    },
    "name": "Bruce Blanchard",
    "repository": "kara.moe",
    "tid": "2932aeac-486d-4bc7-82e8-334825ae2af7",
    "types": [
      "singers",
      "2"
    ],
    "modified_at": "2020-03-31T19:04:33.800Z"
  }
}