{
  "header": {
    "description": "Karaoke Mugen Tag File",
    "version": 1
  },
  "tag": {
    "i18n": {
      "eng": "Buff"
    },
    "modified_at": "2020-07-31T20:54:37.891Z",
    "name": "Buff",
    "repository": "kara.moe",
    "tid": "9cc78f1c-75cc-4170-a048-f306bac44153",
    "types": [
      "authors",
      "6"
    ]
  }
}