{
  "header": {
    "description": "Karaoke Mugen Tag File",
    "version": 1
  },
  "tag": {
    "i18n": {
      "eng": "Bullet Train"
    },
    "name": "Bullet Train",
    "tid": "f076ef80-5630-4d40-955b-2cdb3bde4a75",
    "types": [
      "singers",
      "2"
    ],
    "repository": "kara.moe",
    "modified_at": "2020-03-31T19:04:33.810Z"
  }
}