{
  "header": {
    "description": "Karaoke Mugen Tag File",
    "version": 1
  },
  "tag": {
    "i18n": {
      "eng": "C-Station"
    },
    "name": "C-Station",
    "tid": "503c656c-6c92-42c5-b580-6fe448668cdb",
    "types": [
      "creators",
      "4"
    ],
    "repository": "kara.moe",
    "modified_at": "2020-03-31T19:04:33.827Z"
  }
}