{
  "header": {
    "description": "Karaoke Mugen Tag File",
    "version": 1
  },
  "tag": {
    "i18n": {
      "eng": "Caleb Hyles"
    },
    "name": "Caleb Hyles",
    "repository": "kara.moe",
    "tid": "26ad4244-bd76-4893-a4b4-063a21996a0c",
    "types": [
      "singers",
      "2",
      "creators",
      "4"
    ]
  }
}