{
  "header": {
    "description": "Karaoke Mugen Tag File",
    "version": 1
  },
  "tag": {
    "i18n": {
      "eng": "Canae Sakura"
    },
    "name": "Canae Sakura",
    "repository": "kara.moe",
    "tid": "9e41e670-82c9-49b3-af75-59808a41f0f1",
    "types": [
      "singers",
      "2"
    ]
  }
}