{
  "header": {
    "description": "Karaoke Mugen Tag File",
    "version": 1
  },
  "tag": {
    "aliases": [
      "Kanana",
      "Канаан",
      "Ханаан",
      "كانان",
      "迦南"
    ],
    "external_database_ids": {
      "anilist": 5356,
      "myanimelist": 5356,
      "kitsu": 4072
    },
    "i18n": {
      "eng": "Canaan",
      "fre": "Canaan",
      "ger": "Canaan",
      "jpn": "カナン",
      "rus": "Ханаан",
      "qro": "Canaan"
    },
    "modified_at": "2020-03-31T19:04:31.145Z",
    "name": "Canaan",
    "repository": "kara.moe",
    "tid": "b8fae8ac-5a6d-4873-822b-ede98e43d104",
    "types": [
      "series",
      "1"
    ]
  }
}