{
  "header": {
    "description": "Karaoke Mugen Tag File",
    "version": 1
  },
  "tag": {
    "i18n": {
      "eng": "Caoli Kano"
    },
    "name": "Caoli Kano",
    "tid": "0962750d-b6f5-4bdf-8ef4-264abaae7d5d",
    "types": [
      "songwriters",
      "8"
    ],
    "repository": "kara.moe",
    "modified_at": "2020-03-31T19:04:33.838Z"
  }
}