{
  "header": {
    "description": "Karaoke Mugen Tag File",
    "version": 1
  },
  "tag": {
    "i18n": {
      "eng": "Caos Caos Caos"
    },
    "modified_at": "2020-08-19T16:54:32.219Z",
    "name": "Caos Caos Caos",
    "repository": "kara.moe",
    "tid": "81bf0b4e-d5bf-4cbc-a70f-3e2fdd3a0f4e",
    "types": [
      "singers",
      "2"
    ]
  }
}