{
  "header": {
    "description": "Karaoke Mugen Tag File",
    "version": 1
  },
  "tag": {
    "aliases": [
      "CT 2001",
      "Holly & Benjii"
    ],
    "external_database_ids": {
      "anilist": 1614,
      "myanimelist": 1614,
      "kitsu": 7924
    },
    "i18n": {
      "ara": "الشبح",
      "cze": "Kapitán Tsubasa",
      "eng": "Captain Tsubasa: Road to Dream",
      "fre": "Olive et Tom ‒ Le retour",
      "ger": "Super Kickers 2006 - Captain Tsubasa",
      "hun": "Tsubasa Kapitány (2001)",
      "ita": "Holly e Benji Forever",
      "jpn": "キャプテン翼 (2001)",
      "per": "2001 فوتبالیست ها",
      "por": "Campeões: Oliver e Benji",
      "qro": "Captain Tsubasa: Road to 2002",
      "rum": "Căpitanul Tsubasa",
      "spa": "Campeones: Hacia el Mundial"
    },
    "modified_at": "2021-10-10T21:36:49.546Z",
    "name": "Captain Tsubasa: Road to 2002",
    "repository": "kara.moe",
    "tid": "8fef2cc0-f323-4515-82f5-a18ace889cb5",
    "types": [
      "series",
      "1"
    ]
  }
}