{
  "header": {
    "description": "Karaoke Mugen Tag File",
    "version": 1
  },
  "tag": {
    "i18n": {
      "eng": "Caramell"
    },
    "modified_at": "2020-04-27T00:21:18.725Z",
    "name": "Caramell",
    "repository": "kara.moe",
    "tid": "252855d8-e443-4c05-a7cc-814c066af2ee",
    "types": [
      "singers",
      "2"
    ]
  }
}