{
  "header": {
    "description": "Karaoke Mugen Tag File",
    "version": 1
  },
  "tag": {
    "aliases": [
      "Kero's Corner",
      "Leave it to Kero-chan"
    ],
    "external_database_ids": {
      "anilist": 1078,
      "myanimelist": 1078,
      "kitsu": 963
    },
    "i18n": {
      "eng": "Cardcaptor Sakura: Kero-chan ni Omakase!",
      "qro": "Cardcaptor Sakura: Kero-chan ni Omakase!",
      "jpn": "ケロちゃんにおまかせ！"
    },
    "name": "Cardcaptor Sakura: Kero-chan ni Omakase!",
    "repository": "kara.moe",
    "tid": "d1a12803-6d84-48f5-9409-d307473cef2a",
    "types": [
      "series",
      "1"
    ]
  }
}