{
  "header": {
    "description": "Karaoke Mugen Tag File",
    "version": 1
  },
  "tag": {
    "i18n": {
      "eng": "Carla Azar"
    },
    "modified_at": "2020-08-29T18:21:19.210Z",
    "name": "Carla Azar",
    "repository": "kara.moe",
    "tid": "34665e40-e4ba-4a85-8e25-93ae29c83bd7",
    "types": [
      "singers",
      "2"
    ]
  }
}