{
  "header": {
    "description": "Karaoke Mugen Tag File",
    "version": 1
  },
  "tag": {
    "i18n": {
      "eng": "Carpi"
    },
    "modified_at": "2020-07-10T22:39:00.413Z",
    "name": "Carpi",
    "repository": "kara.moe",
    "tid": "cd67a4a1-140b-437e-bef3-1fb13f6c8a63",
    "types": [
      "authors",
      "6"
    ]
  }
}