{
  "header": {
    "description": "Karaoke Mugen Tag File",
    "version": 1
  },
  "tag": {
    "i18n": {
      "eng": "CBS Disques"
    },
    "modified_at": "2020-07-12T12:49:48.747Z",
    "name": "CBS Disques",
    "repository": "kara.moe",
    "tid": "f3dc1c73-8de5-4f6f-bac0-2134986e5dbe",
    "types": [
      "creators",
      "4"
    ]
  }
}