{
  "header": {
    "description": "Karaoke Mugen Tag File",
    "version": 1
  },
  "tag": {
    "i18n": {
      "eng": "Ceui"
    },
    "name": "Ceui",
    "tid": "81dae4ae-0735-49ab-8cbc-ed7313486e74",
    "types": [
      "singers",
      "2",
      "songwriters",
      "8"
    ],
    "repository": "kara.moe",
    "modified_at": "2020-03-31T19:04:33.867Z"
  }
}