{
  "header": {
    "description": "Karaoke Mugen Tag File",
    "version": 1
  },
  "tag": {
    "aliases": [
      "チェンクロ"
    ],
    "external_database_ids": {
      "anilist": 20986,
      "myanimelist": 28833,
      "kitsu": 10071
    },
    "i18n": {
      "chi": "锁链战记～赫克瑟塔斯之光～",
      "eng": "Chain Chronicle: The Light of Haecceitas ",
      "jpn": "チェインクロニクル ~ヘクセイタスの閃",
      "qro": "Chain Chronicle: Haecceitas no Hikari"
    },
    "modified_at": "2020-03-31T19:04:31.167Z",
    "name": "Chain Chronicle: Haecceitas no Hikari",
    "repository": "kara.moe",
    "tid": "16caed34-ce06-43af-9f65-64c0ff538386",
    "types": [
      "series",
      "1"
    ]
  }
}