{
  "header": {
    "description": "Karaoke Mugen Tag File",
    "version": 1
  },
  "tag": {
    "i18n": {
      "eng": "Chalili"
    },
    "name": "Chalili",
    "repository": "kara.moe",
    "tid": "a63ba4a6-ebd2-4b0f-bbc6-a21022ebb5c6",
    "types": [
      "singers",
      "2"
    ]
  }
}