{
  "header": {
    "description": "Karaoke Mugen Tag File",
    "version": 1
  },
  "tag": {
    "i18n": {
      "eng": "Charlie Grant"
    },
    "name": "Charlie Grant",
    "tid": "0b67edae-95e0-4c35-8700-ae8fcca1f238",
    "types": [
      "songwriters",
      "8"
    ],
    "repository": "kara.moe",
    "modified_at": "2020-03-31T19:04:33.877Z"
  }
}