{
  "header": {
    "description": "Karaoke Mugen Tag File",
    "version": 1
  },
  "tag": {
    "i18n": {
      "eng": "Chazne"
    },
    "name": "Chazne",
    "tid": "492588dc-dcba-4295-8aca-e31cbd58b0e1",
    "types": [
      "songwriters",
      "8"
    ],
    "repository": "kara.moe",
    "modified_at": "2020-03-31T19:04:33.883Z"
  }
}