{
  "header": {
    "description": "Karaoke Mugen Tag File",
    "version": 1
  },
  "tag": {
    "i18n": {
      "eng": "Cheope"
    },
    "name": "Cheope",
    "repository": "kara.moe",
    "tid": "c78c62b1-6837-4d97-975f-37944ef1cd84",
    "types": [
      "songwriters",
      "8"
    ]
  }
}