{
  "header": {
    "description": "Karaoke Mugen Tag File",
    "version": 1
  },
  "tag": {
    "i18n": {
      "eng": "Cher Watanabe"
    },
    "name": "Cher Watanabe",
    "tid": "7e1575ac-ccf4-4d58-a8b3-a421d06b06fe",
    "types": [
      "songwriters",
      "8"
    ],
    "repository": "kara.moe",
    "modified_at": "2020-03-31T19:04:33.887Z"
  }
}