{
  "header": {
    "description": "Karaoke Mugen Tag File",
    "version": 1
  },
  "tag": {
    "i18n": {
      "eng": "Chester Bennington"
    },
    "name": "Chester Bennington",
    "repository": "kara.moe",
    "tid": "d9abe9ac-4e0a-4184-9eca-82fb1baa3cb8",
    "types": [
      "songwriters",
      "8"
    ]
  }
}