{
  "header": {
    "description": "Karaoke Mugen Tag File",
    "version": 1
  },
  "tag": {
    "i18n": {
      "jpn": "たかはし 智秋",
      "qro": "Chiaki Takahashi"
    },
    "name": "Chiaki Takahashi",
    "repository": "kara.moe",
    "tid": "1b168e50-934e-4d55-8772-53f71b94a001",
    "types": [
      "singers",
      "2"
    ]
  }
}