{
  "header": {
    "description": "Karaoke Mugen Tag File",
    "version": 1
  },
  "tag": {
    "i18n": {
      "eng": "Chie Harada"
    },
    "modified_at": "2020-11-29T22:48:52.376Z",
    "name": "Chie Harada",
    "repository": "kara.moe",
    "tid": "00f320e9-880f-4ef1-98c2-f167000c1b4e",
    "types": [
      "singers",
      "2"
    ]
  }
}