{
  "header": {
    "description": "Karaoke Mugen Tag File",
    "version": 1
  },
  "tag": {
    "i18n": {
      "eng": "Chihaya Yoshitake"
    },
    "name": "Chihaya Yoshitake",
    "tid": "0a4a1409-bf37-41c3-a198-811bc1f893ac",
    "types": [
      "singers",
      "2"
    ],
    "repository": "kara.moe",
    "modified_at": "2020-03-31T19:04:33.909Z"
  }
}