{
  "header": {
    "description": "Karaoke Mugen Tag File",
    "version": 1
  },
  "tag": {
    "i18n": {
      "eng": "Chihiro Kannami",
      "jpn": "神波千尋",
      "qro": "Chihiro Kannami"
    },
    "name": "Chihiro Kannami",
    "repository": "kara.moe",
    "tid": "e7952dc9-fab3-414d-a8e2-d2a9ab3ae4e7",
    "types": [
      "singers",
      "2"
    ]
  }
}