{
  "header": {
    "description": "Karaoke Mugen Tag File",
    "version": 1
  },
  "tag": {
    "i18n": {
      "eng": "ChiliChill"
    },
    "name": "ChiliChill",
    "repository": "kara.moe",
    "tid": "0976a55c-39dc-4335-ac62-02c7f07b4763",
    "types": [
      "songwriters",
      "8"
    ]
  }
}