{
  "header": {
    "description": "Karaoke Mugen Tag File",
    "version": 1
  },
  "tag": {
    "i18n": {
      "eng": "Children's Playground Entertainment"
    },
    "modified_at": "2021-12-12T19:04:01.377Z",
    "name": "Children's Playground Entertainment",
    "repository": "kara.moe",
    "tid": "ab8686ff-119f-4532-8ff8-ae623bd79766",
    "types": [
      "creators",
      "4"
    ]
  }
}