{
  "header": {
    "description": "Karaoke Mugen Tag File",
    "version": 1
  },
  "tag": {
    "i18n": {
      "eng": "Chinfa Kan"
    },
    "name": "Chinfa Kan",
    "tid": "176b72bf-a0b1-4f36-8e27-f16607f1b2d1",
    "types": [
      "songwriters",
      "8"
    ],
    "repository": "kara.moe",
    "modified_at": "2020-03-31T19:04:33.925Z"
  }
}