{
  "header": {
    "description": "Karaoke Mugen Tag File",
    "version": 1
  },
  "tag": {
    "i18n": {
      "eng": "Chiyoko Shimakura"
    },
    "name": "Chiyoko Shimakura",
    "tid": "41ff00dd-bddd-4d5e-b32b-a8a48408bdb7",
    "types": [
      "singers",
      "2"
    ],
    "repository": "kara.moe",
    "modified_at": "2020-03-31T19:04:33.937Z"
  }
}