{
  "header": {
    "description": "Karaoke Mugen Tag File",
    "version": 1
  },
  "tag": {
    "i18n": {
      "eng": "Chœurs - Peter Pan"
    },
    "name": "Chœurs - Peter Pan",
    "repository": "kara.moe",
    "tid": "add207d3-b560-4053-b582-946977e26ebd",
    "types": [
      "singers",
      "2"
    ]
  }
}