{
  "header": {
    "description": "Karaoke Mugen Tag File",
    "version": 1
  },
  "tag": {
    "aliases": [
      "Choujuu Kishin Dancougar",
      "Super Mechanimal Dancougar",
      "ダンクーガ",
      "choujuu"
    ],
    "external_database_ids": {
      "anilist": 2255,
      "myanimelist": 2255,
      "kitsu": 2043
    },
    "i18n": {
      "eng": "Super Beastial Machine God Dancougar",
      "fre": "Dancougar, les Cadets de l'Espace",
      "jpn": "超獣機神ダンクーガ",
      "qro": "Chôjû Kishin Dancougar"
    },
    "modified_at": "2020-06-21T23:45:31.966Z",
    "name": "Chôjû Kishin Dancougar",
    "repository": "kara.moe",
    "tid": "ed90c67e-202f-4ed6-92f1-d9c06db1b93a",
    "types": [
      "series",
      "1"
    ]
  }
}