{
  "header": {
    "description": "Karaoke Mugen Tag File",
    "version": 1
  },
  "tag": {
    "aliases": [
      "Chou"
    ],
    "i18n": {
      "eng": "Butterfly's Poison; Blood Chains",
      "jpn": "蝶の毒 華の鎖",
      "qro": "Chô no Doku Hana no Kusari"
    },
    "name": "Chô no Doku Hana no Kusari",
    "repository": "kara.moe",
    "tid": "2e3d6694-ef86-4940-9f05-ce371d95ac50",
    "types": [
      "series",
      "1"
    ]
  }
}