{
  "header": {
    "description": "Karaoke Mugen Tag File",
    "version": 1
  },
  "tag": {
    "aliases": [
      "Chou Denji Machine Voltes V",
      "Choudenji Machine Voltes V",
      "Super Electromagnetic Machine Voltes V",
      "Super Electron Machine Voltes V",
      "Ultra Electromagnetic Machine Voltes V",
      "Voltes 5",
      "chou"
    ],
    "external_database_ids": {
      "anilist": 1069,
      "myanimelist": 1069,
      "kitsu": 956
    },
    "i18n": {
      "eng": "Super Electron Machine Voltes V",
      "ita": "Vultus V",
      "jpn": "超電磁マシーン ボルテスV",
      "tgl": "Voltes V",
      "qro": "Chô Denji Machine Voltes V"
    },
    "modified_at": "2020-06-21T23:45:31.966Z",
    "name": "Chô Denji Machine Voltes V",
    "repository": "kara.moe",
    "tid": "3abd37f1-87d1-4212-b3c9-b60634ed2974",
    "types": [
      "series",
      "1"
    ]
  }
}