{
  "header": {
    "description": "Karaoke Mugen Tag File",
    "version": 1
  },
  "tag": {
    "aliases": [
      "Chou Juushin Gravion Zwei",
      "Choujuushin Gravion 2",
      "Choujuushin Gravion Two",
      "Choujuushin Gravion Zwei",
      "Choujyuushin Gravion Tsuvai",
      "Gravion 2",
      "Gravion Two",
      "Super Heavy God Gravion 2",
      "Super Heavy God Gravion Two",
      "Super Heavy God Gravion Zwei",
      "g2",
      "choujuushin"
    ],
    "external_database_ids": {
      "anilist": 1149,
      "myanimelist": 1149,
      "kitsu": 1030
    },
    "i18n": {
      "eng": "Gravion Zwei",
      "fre": "Super Gravity God Gravion 2",
      "jpn": "超重神グラヴィオンツヴァイ",
      "por": "Gravion Zwei",
      "qro": "Chôjûshin Gravion Zwei"
    },
    "modified_at": "2020-03-31T19:04:31.210Z",
    "name": "Chôjûshin Gravion Zwei",
    "repository": "kara.moe",
    "tid": "700b6e45-0178-41d2-9563-c48ec2cb4326",
    "types": [
      "series",
      "1"
    ]
  }
}