{
  "header": {
    "description": "Karaoke Mugen Tag File",
    "version": 1
  },
  "tag": {
    "i18n": {
      "eng": "Christelle Labonne"
    },
    "name": "Christelle Labonne",
    "tid": "ed5792f0-278a-410c-a1e3-e93e433a95a2",
    "types": [
      "singers",
      "2"
    ],
    "repository": "kara.moe",
    "modified_at": "2020-03-31T19:04:33.955Z"
  }
}