{
  "header": {
    "description": "Karaoke Mugen Tag File",
    "version": 1
  },
  "tag": {
    "i18n": {
      "eng": "CHRIS"
    },
    "name": "CHRIS",
    "tid": "5ba00a34-aeb0-4c80-8836-f3c684b5d56a",
    "types": [
      "creators",
      "4"
    ],
    "repository": "kara.moe",
    "modified_at": "2020-03-31T19:04:33.954Z"
  }
}