{
  "header": {
    "description": "Karaoke Mugen Tag File",
    "version": 1
  },
  "tag": {
    "i18n": {
      "eng": "Cindy Morrow"
    },
    "name": "Cindy Morrow",
    "tid": "d6d47a4d-ec90-424f-8957-5f375d87e25a",
    "types": [
      "songwriters",
      "8"
    ],
    "repository": "kara.moe",
    "modified_at": "2020-03-31T19:04:33.966Z"
  }
}