{
  "header": {
    "description": "Karaoke Mugen Tag File",
    "version": 1
  },
  "tag": {
    "i18n": {
      "eng": "cj beats"
    },
    "modified_at": "2021-05-31T21:27:56.109Z",
    "name": "cj beats",
    "repository": "kara.moe",
    "tid": "31b71faa-fd26-4bd4-8da8-9e279995969b",
    "types": [
      "songwriters",
      "8"
    ]
  }
}