{
  "header": {
    "description": "Karaoke Mugen Tag File",
    "version": 1
  },
  "tag": {
    "external_database_ids": {
      "anilist": 21250,
      "myanimelist": 31157,
      "kitsu": 11172
    },
    "i18n": {
      "eng": "ClassicaLoid",
      "jpn": "クラシカロイド",
      "kor": "클래시컬로이드",
      "qro": "ClassicaLoid"
    },
    "modified_at": "2020-03-31T19:04:31.231Z",
    "name": "ClassicaLoid",
    "repository": "kara.moe",
    "tid": "18643f50-0215-4413-87e3-1e95e85b9967",
    "types": [
      "series",
      "1"
    ]
  }
}