{
  "header": {
    "description": "Karaoke Mugen Tag File",
    "version": 1
  },
  "tag": {
    "i18n": {
      "eng": "Claudio Accatino"
    },
    "name": "Claudio Accatino",
    "repository": "kara.moe",
    "tid": "459f363b-5a86-4b54-9a11-501fcacce103",
    "types": [
      "songwriters",
      "8"
    ]
  }
}