{
  "header": {
    "description": "Karaoke Mugen Tag File",
    "version": 1
  },
  "tag": {
    "aliases": [
      "SPECTRA"
    ],
    "i18n": {
      "eng": "Claudio Maioli"
    },
    "modified_at": "2021-08-07T15:38:04.570Z",
    "name": "Claudio Maioli",
    "repository": "kara.moe",
    "tid": "9ccdbdce-4768-4eda-b7df-13713076734a",
    "types": [
      "songwriters",
      "8",
      "singers",
      "2"
    ]
  }
}