{
  "header": {
    "description": "Karaoke Mugen Tag File",
    "version": 1
  },
  "tag": {
    "external_database_ids": {
      "anilist": 21563,
      "myanimelist": 32407,
      "kitsu": 11662
    },
    "i18n": {
      "eng": "Clockwork Planet",
      "jpn": "クロックワーク・プラネット",
      "kor": "클락워크 플래닛",
      "qro": "Clockwork Planet"
    },
    "modified_at": "2020-03-31T19:04:31.233Z",
    "name": "Clockwork Planet",
    "repository": "kara.moe",
    "tid": "862953b7-8a9d-4e6b-a5da-b78f253bf3ed",
    "types": [
      "series",
      "1"
    ]
  }
}