{
  "header": {
    "description": "Karaoke Mugen Tag File",
    "version": 1
  },
  "tag": {
    "aliases": [
      "CLD",
      "Clover Days",
      "クローバーデイズ"
    ],
    "i18n": {
      "jpn": "Clover Day's",
      "qro": "Clover Day's"
    },
    "modified_at": "2020-03-31T19:04:31.234Z",
    "name": "Clover Day's",
    "repository": "kara.moe",
    "tid": "377b0234-a782-49f5-b68e-fc8598f19f7f",
    "types": [
      "series",
      "1"
    ]
  }
}