{
  "header": {
    "description": "Karaoke Mugen Tag File",
    "version": 1
  },
  "tag": {
    "i18n": {
      "eng": "COALTAR OF THE DEEPERS"
    },
    "name": "COALTAR OF THE DEEPERS",
    "repository": "kara.moe",
    "tid": "51302e4f-b3b1-4149-a469-f5fa220ccbcf",
    "types": [
      "singergroups",
      "17"
    ]
  }
}