{
  "header": {
    "description": "Karaoke Mugen Tag File",
    "version": 1
  },
  "tag": {
    "i18n": {
      "eng": "Codename Raven"
    },
    "name": "Codename Raven",
    "repository": "kara.moe",
    "tid": "efbdd7c6-4460-470d-9c95-4bfcbcacf8b6",
    "types": [
      "creators",
      "4"
    ],
    "modified_at": "2020-03-31T19:04:33.993Z"
  }
}