{
  "header": {
    "description": "Karaoke Mugen Tag File",
    "version": 1
  },
  "tag": {
    "i18n": {
      "eng": "coffa"
    },
    "name": "coffa",
    "tid": "5375fe92-5c4d-400b-ab83-941951f96d42",
    "types": [
      "songwriters",
      "8"
    ],
    "repository": "kara.moe",
    "modified_at": "2020-03-31T19:04:33.994Z"
  }
}