{
  "header": {
    "description": "Karaoke Mugen Tag File",
    "version": 1
  },
  "tag": {
    "i18n": {
      "eng": "Colgate"
    },
    "name": "Colgate",
    "repository": "kara.moe",
    "tid": "a5dbab74-510b-48c5-9cea-5a537a81c974",
    "types": [
      "authors",
      "6",
      "creators",
      "4"
    ]
  }
}