{
  "header": {
    "description": "Karaoke Mugen Tag File",
    "version": 1
  },
  "tag": {
    "i18n": {
      "eng": "CONNECT"
    },
    "name": "CONNECT",
    "tid": "e56bc34a-dcf7-41c8-acc7-66d91957c683",
    "types": [
      "creators",
      "4"
    ],
    "repository": "kara.moe",
    "modified_at": "2020-03-31T19:04:34.003Z"
  }
}