{
  "header": {
    "description": "Karaoke Mugen Tag File",
    "version": 1
  },
  "tag": {
    "i18n": {
      "eng": "Corbin Bleu"
    },
    "modified_at": "2020-07-07T14:51:22.684Z",
    "name": "Corbin Bleu",
    "repository": "kara.moe",
    "tid": "94f92e19-27e7-430e-a5c4-f96b2e9e317f",
    "types": [
      "singers",
      "2"
    ]
  }
}