{
  "header": {
    "description": "Karaoke Mugen Tag File",
    "version": 1
  },
  "tag": {
    "aliases": [
      "Bebop TV",
      "CB",
      "CBB",
      "CowBe",
      "Kaubojus Bebopas",
      "Kaubojus Bibopas",
      "Kovboy Bebop",
      "Ковбой Бибоп ТВ",
      "Ковбой Бібоп ТБ",
      "راعي البقر بيبوب",
      "کابوی بیباپ"
    ],
    "external_database_ids": {
      "anilist": 1,
      "myanimelist": 1,
      "kitsu": 1
    },
    "i18n": {
      "bul": "Марсиански каубой",
      "cat": "Cowboy Bebop",
      "chi": "星際牛仔",
      "cze": "Kovboj Bebop",
      "eng": "Cowboy Bebop",
      "fin": "Cowboy Bebop",
      "fre": "Cowboy Bebop",
      "ger": "Cowboy Bebop",
      "heb": "קאובוי ביבופ",
      "hun": "Csillagközi fejvadászok",
      "ita": "Cowboy Bebop",
      "jpn": "カウボーイビバップ",
      "kor": "카우보이 비밥",
      "pol": "Cowboy Bebop",
      "por": "Cowboy Bebop",
      "rum": "Cowboy Bebop",
      "spa": "Cowboy Bebop",
      "qro": "Cowboy Bebop"
    },
    "modified_at": "2020-06-21T23:45:31.966Z",
    "name": "Cowboy Bebop",
    "repository": "kara.moe",
    "tid": "3fb73793-f9b4-431f-ba13-3e1fa28c805e",
    "types": [
      "series",
      "1",
      "franchises",
      "18"
    ]
  }
}