{
  "header": {
    "description": "Karaoke Mugen Tag File",
    "version": 1
  },
  "tag": {
    "aliases": [
      "CRS",
      "CRTS",
      "星际海盗"
    ],
    "external_database_ids": {
      "anilist": 1194,
      "myanimelist": 1194,
      "kitsu": 1074
    },
    "i18n": {
      "eng": "Coyote Ragtime Show",
      "fre": "Coyote Ragtime Show",
      "ger": "Coyote Ragtime Show",
      "jpn": "コヨーテ ラグタイムショー",
      "pol": "Coyote Ragtime Show",
      "rus": "Койот рэгтайм",
      "qro": "Coyote Ragtime Show"
    },
    "modified_at": "2020-06-21T23:45:31.966Z",
    "name": "Coyote Ragtime Show",
    "repository": "kara.moe",
    "tid": "9dc10d8c-ea16-4938-b3c4-218f3b4484fa",
    "types": [
      "series",
      "1"
    ]
  }
}