{
  "header": {
    "description": "Karaoke Mugen Tag File",
    "version": 1
  },
  "tag": {
    "i18n": {
      "eng": "Cree Summer"
    },
    "name": "Cree Summer",
    "repository": "kara.moe",
    "tid": "52ffd50a-0f24-4dcb-adf7-094d2c09a919",
    "types": [
      "singers",
      "2"
    ]
  }
}