{
  "header": {
    "description": "Karaoke Mugen Tag File",
    "version": 1
  },
  "tag": {
    "aliases": [
      "Cross Ange",
      "Cross Ange Tenshi to Ryuu no Rondo",
      "ryuu"
    ],
    "external_database_ids": {
      "anilist": 20806,
      "myanimelist": 25731,
      "kitsu": 8653
    },
    "i18n": {
      "eng": "Cross Ange: Rondo of Angel and Dragon",
      "fre": "Cross Ange",
      "jpn": "クロスアンジュ 天使と竜の輪舞[ロンド]",
      "kor": "크로스 앙쥬: 천사와 용의 윤무",
      "qro": "Cross Ange: Tenshi to Ryû no Rondo"
    },
    "modified_at": "2020-03-31T19:04:31.258Z",
    "name": "Cross Ange: Tenshi to Ryû no Rondo",
    "repository": "kara.moe",
    "tid": "10730638-b625-4aa1-811c-687d080cda8e",
    "types": [
      "series",
      "1"
    ]
  }
}