{
  "header": {
    "description": "Karaoke Mugen Tag File",
    "version": 1
  },
  "tag": {
    "i18n": {
      "eng": "Cube Entertainment"
    },
    "name": "Cube Entertainment",
    "tid": "6b8ffb9d-bc6a-4de7-b8a7-b4c6b4c2f475",
    "types": [
      "creators",
      "4"
    ],
    "repository": "kara.moe",
    "modified_at": "2020-03-31T19:04:34.031Z"
  }
}