{
  "header": {
    "description": "Karaoke Mugen Tag File",
    "version": 1
  },
  "tag": {
    "i18n": {
      "eng": "cyangreen"
    },
    "modified_at": "2020-08-17T12:05:13.368Z",
    "name": "cyangreen",
    "repository": "kara.moe",
    "tid": "732bc528-6a14-4aa4-858a-afe06900fe9a",
    "types": [
      "authors",
      "6"
    ]
  }
}