{
  "header": {
    "description": "Karaoke Mugen Tag File",
    "version": 1
  },
  "tag": {
    "i18n": {
      "eng": "Cybersound"
    },
    "name": "Cybersound",
    "repository": "kara.moe",
    "tid": "ff0addac-1d71-4faa-9a01-4f0bda73a50a",
    "types": [
      "songwriters",
      "8"
    ]
  }
}