{
  "header": {
    "description": "Karaoke Mugen Tag File",
    "version": 1
  },
  "tag": {
    "i18n": {
      "eng": "D-selections"
    },
    "name": "D-selections",
    "tid": "f091a89d-328d-48e1-9a9a-b6d9dfcc256f",
    "types": [
      "singers",
      "2"
    ],
    "repository": "kara.moe",
    "modified_at": "2020-03-31T19:04:34.043Z"
  }
}