{
  "header": {
    "description": "Karaoke Mugen Tag File",
    "version": 1
  },
  "tag": {
    "aliases": [
      "D.G",
      "D.格雷少年",
      "DGM",
      "Grayman",
      "O Homen Cinza",
      "dgrayman",
      "Сивият",
      "دي. جراي مان",
      "ディー・グレイマン"
    ],
    "external_database_ids": {
      "anilist": 1482,
      "myanimelist": 1482,
      "kitsu": 1328
    },
    "i18n": {
      "bul": "Ди Грей Мен",
      "chi": "驅魔少年",
      "cze": "D.Gray-Man",
      "eng": "D.Gray-man",
      "fre": "D.Gray-Man",
      "ger": "D.Gray-man",
      "hun": "D.Gray-man",
      "jpn": "ディー・グレイマン",
      "kor": "디그레이맨",
      "pol": "D.Gray-man",
      "spa": "D.Gray-man",
      "tha": "ดีเกรย์แมน",
      "qro": "D.Gray-man"
    },
    "modified_at": "2020-03-31T19:04:31.269Z",
    "name": "D.Gray-man",
    "repository": "kara.moe",
    "tid": "8024310d-f718-4b8a-bae9-da27e3ddb950",
    "types": [
      "series",
      "1",
      "franchises",
      "18"
    ]
  }
}