{
  "header": {
    "description": "Karaoke Mugen Tag File",
    "version": 1
  },
  "tag": {
    "i18n": {
      "eng": "D.O.E."
    },
    "name": "D.O.E.",
    "repository": "kara.moe",
    "tid": "8b86b837-0574-41ae-8306-b7befb1f6473",
    "types": [
      "singers",
      "2"
    ]
  }
}