{
  "header": {
    "description": "Karaoke Mugen Tag File",
    "version": 1
  },
  "tag": {
    "aliases": [
      "Lettuce Shichijou",
      "七条レタス",
      "Shitijou Retasu",
      "D.wat.",
      "daisuke w."
    ],
    "i18n": {
      "eng": "D.watt"
    },
    "name": "D.watt",
    "repository": "kara.moe",
    "tid": "826126a7-31a4-4dbe-a072-112b731dc065",
    "types": [
      "songwriters",
      "8"
    ]
  }
}