{
  "header": {
    "description": "Karaoke Mugen Tag File",
    "version": 1
  },
  "tag": {
    "i18n": {
      "eng": "Dai (TO DESTINATION)"
    },
    "name": "Dai (TO DESTINATION)",
    "tid": "9f9d198e-92b8-4017-a98b-58f1f7c30b1c",
    "types": [
      "songwriters",
      "8"
    ],
    "repository": "kara.moe",
    "modified_at": "2020-03-31T19:04:34.047Z"
  }
}