{
  "header": {
    "description": "Karaoke Mugen Tag File",
    "version": 1
  },
  "tag": {
    "i18n": {
      "eng": "Dai-Ichi Dôga"
    },
    "name": "Dai-Ichi Dôga",
    "tid": "b7a23181-7b37-406f-bc02-3a20c6ac2d3e",
    "types": [
      "creators",
      "4"
    ],
    "repository": "kara.moe",
    "modified_at": "2020-03-31T19:04:34.051Z"
  }
}