{
  "header": {
    "description": "Karaoke Mugen Tag File",
    "version": 1
  },
  "tag": {
    "i18n": {
      "eng": "DAIGO☆STARDUST"
    },
    "name": "DAIGO☆STARDUST",
    "repository": "kara.moe",
    "tid": "38d34363-f033-492b-8a87-15b1773fb41a",
    "types": [
      "songwriters",
      "8"
    ]
  }
}