{
  "header": {
    "description": "Karaoke Mugen Tag File",
    "version": 1
  },
  "tag": {
    "i18n": {
      "eng": "Daiki Yamashita"
    },
    "name": "Daiki Yamashita",
    "tid": "65441047-58cf-4275-9a2e-c1a67ebadd1f",
    "types": [
      "singers",
      "2"
    ],
    "repository": "kara.moe",
    "modified_at": "2020-03-31T19:04:34.058Z"
  }
}