{
  "header": {
    "description": "Karaoke Mugen Tag File",
    "version": 1
  },
  "tag": {
    "i18n": {
      "eng": "Daisuke Achiwa"
    },
    "name": "Daisuke Achiwa",
    "tid": "d2aedeb7-42fc-4021-a622-1c6b240873cc",
    "types": [
      "songwriters",
      "8"
    ],
    "repository": "kara.moe",
    "modified_at": "2020-03-31T19:04:34.060Z"
  }
}