{
  "header": {
    "description": "Karaoke Mugen Tag File",
    "version": 1
  },
  "tag": {
    "aliases": [
      "96"
    ],
    "i18n": {
      "eng": "Daisuke Kurosawa",
      "jpn": "黒沢ダイスケ",
      "qro": "Daisuke Kurosawa"
    },
    "name": "Daisuke Kurosawa",
    "repository": "kara.moe",
    "tid": "3579c0d4-924f-465c-89a0-3c9e732ec2f7",
    "types": [
      "songwriters",
      "8"
    ]
  }
}