{
  "header": {
    "description": "Karaoke Mugen Tag File",
    "version": 1
  },
  "tag": {
    "i18n": {
      "eng": "Daisuke Iwasaki"
    },
    "name": "Daisuke Iwasaki",
    "tid": "c41cb891-206a-45e5-bf1c-5b98f2958b89",
    "types": [
      "songwriters",
      "8"
    ],
    "repository": "kara.moe",
    "modified_at": "2020-03-31T19:04:34.065Z"
  }
}