{
  "header": {
    "description": "Karaoke Mugen Tag File",
    "version": 1
  },
  "tag": {
    "i18n": {
      "eng": "Daisuke Kanazawa"
    },
    "modified_at": "2021-02-12T20:50:30.183Z",
    "name": "Daisuke Kanazawa",
    "repository": "kara.moe",
    "tid": "846cb675-87eb-4650-9320-412e1fa488fe",
    "types": [
      "songwriters",
      "8"
    ]
  }
}