{
  "header": {
    "description": "Karaoke Mugen Tag File",
    "version": 1
  },
  "tag": {
    "i18n": {
      "eng": "Dallas"
    },
    "name": "Dallas",
    "repository": "kara.moe",
    "tid": "bd3963f8-2eb8-4b60-9714-65be935b86c1",
    "types": [
      "singers",
      "2"
    ]
  }
}