{
  "header": {
    "description": "Karaoke Mugen Tag File",
    "version": 1
  },
  "tag": {
    "i18n": {
      "eng": "Dalton Academy Warblers"
    },
    "modified_at": "2020-08-16T16:38:13.516Z",
    "name": "Dalton Academy Warblers",
    "repository": "kara.moe",
    "tid": "7331aa0e-7106-4c86-a372-513c0eaefe6a",
    "types": [
      "singers",
      "2"
    ]
  }
}