{
  "header": {
    "description": "Karaoke Mugen Tag File",
    "version": 1
  },
  "tag": {
    "i18n": {
      "eng": "Dancing Blade Katte ni Momotenshi II: Tears of Eden Kanzenban",
      "jpn": "Dancing Blade かってに桃天使II 〜Tears of Eden〜",
      "qro": "Dancing Blade Katte ni Momotenshi II: Tears of Eden Kanzenban"
    },
    "modified_at": "2020-03-31T19:04:31.286Z",
    "name": "Dancing Blade Katte ni Momotenshi II: Tears of Eden Kanzenban",
    "repository": "kara.moe",
    "tid": "9848f608-9765-48e3-8299-ff4f53634d60",
    "types": [
      "series",
      "1"
    ]
  }
}