{
  "header": {
    "description": "Karaoke Mugen Tag File",
    "version": 1
  },
  "tag": {
    "i18n": {
      "eng": "Dango-sama _ DAZE"
    },
    "modified_at": "2021-03-19T22:27:34.677Z",
    "name": "Dango-sama _ DAZE",
    "repository": "kara.moe",
    "tid": "77aa77c7-cb7f-4baf-af9a-bafa85c4778e",
    "types": [
      "creators",
      "4"
    ]
  }
}