{
  "header": {
    "description": "Karaoke Mugen Tag File",
    "version": 1
  },
  "tag": {
    "i18n": {
      "eng": "Daniel-Steinbock"
    },
    "name": "Daniel-Steinbock",
    "repository": "kara.moe",
    "tid": "0fc51123-7e03-4e75-9321-e909403a1fb9",
    "types": [
      "authors",
      "6"
    ]
  }
}