{
  "header": {
    "description": "Karaoke Mugen Tag File",
    "version": 1
  },
  "tag": {
    "i18n": {
      "eng": "Danny Elfman"
    },
    "name": "Danny Elfman",
    "tid": "f76570f0-8093-4d4a-b3a5-33a155a794de",
    "types": [
      "songwriters",
      "8"
    ],
    "repository": "kara.moe",
    "modified_at": "2020-03-31T19:04:34.097Z"
  }
}