{
  "header": {
    "description": "Karaoke Mugen Tag File",
    "version": 1
  },
  "tag": {
    "i18n": {
      "eng": "DarkLink"
    },
    "modified_at": "2020-07-13T22:55:16.670Z",
    "name": "DarkLink",
    "repository": "kara.moe",
    "tid": "e0e2deaf-a6c3-4fee-8eeb-5d0c0fc44ad1",
    "types": [
      "authors",
      "6"
    ]
  }
}