{
  "header": {
    "description": "Karaoke Mugen Tag File",
    "version": 1
  },
  "tag": {
    "i18n": {
      "eng": "Dave Roth"
    },
    "modified_at": "2021-07-18T18:02:46.530Z",
    "name": "Dave Roth",
    "repository": "kara.moe",
    "tid": "6b16a8e5-33eb-42c9-949f-c5cbba52ace6",
    "types": [
      "songwriters",
      "8"
    ]
  }
}