{
  "header": {
    "description": "Karaoke Mugen Tag File",
    "version": 1
  },
  "tag": {
    "i18n": {
      "eng": "Dave Dor"
    },
    "name": "Dave Dor",
    "tid": "2f7b1ac6-5b81-4255-b70f-b4f9ee5d1e40",
    "types": [
      "singers",
      "2"
    ],
    "repository": "kara.moe",
    "modified_at": "2020-03-31T19:04:34.108Z"
  }
}