{
  "header": {
    "description": "Karaoke Mugen Tag File",
    "version": 1
  },
  "tag": {
    "i18n": {
      "eng": "David Wolfert"
    },
    "name": "David Wolfert",
    "tid": "164ed444-263a-4944-8cd9-b103e5e54fb4",
    "types": [
      "songwriters",
      "8"
    ],
    "repository": "kara.moe",
    "modified_at": "2020-03-31T19:04:34.120Z"
  }
}