{
  "header": {
    "description": "Karaoke Mugen Tag File",
    "version": 1
  },
  "tag": {
    "i18n": {
      "eng": "DC Entertainment"
    },
    "name": "DC Entertainment",
    "tid": "a6f362e3-b94c-43b8-945d-48541d2d0c7e",
    "types": [
      "creators",
      "4"
    ],
    "repository": "kara.moe",
    "modified_at": "2020-03-31T19:04:34.124Z"
  }
}