{
  "header": {
    "description": "Karaoke Mugen Tag File",
    "version": 1
  },
  "tag": {
    "i18n": {
      "eng": "DEEN"
    },
    "name": "DEEN",
    "tid": "0be96c36-c76f-4b07-b87e-5598927b45ec",
    "types": [
      "singers",
      "2",
      "songwriters",
      "8"
    ],
    "repository": "kara.moe",
    "modified_at": "2020-03-31T19:04:34.130Z"
  }
}