{
  "header": {
    "description": "Karaoke Mugen Tag File",
    "version": 1
  },
  "tag": {
    "aliases": [
      "Den'ei Shoujo Video Girl AI",
      "Ай - девyшка с кассеты",
      "전영소녀",
      "shoujo"
    ],
    "external_database_ids": {
      "anilist": 201,
      "myanimelist": 201,
      "kitsu": 178
    },
    "i18n": {
      "eng": "Video Girl Ai",
      "jpn": "電影少女 VIDEO・GIRL・AI",
      "fre": "Video Girl Ai",
      "qro": "Den'ei Shôjo Video Girl AI"
    },
    "modified_at": "2020-08-18T19:43:12.141Z",
    "name": "Den'ei Shôjo Video Girl AI",
    "repository": "kara.moe",
    "tid": "343207d3-284a-4957-a150-c2c4eab52978",
    "types": [
      "series",
      "1"
    ]
  }
}