{
  "header": {
    "description": "Karaoke Mugen Tag File",
    "version": 1
  },
  "tag": {
    "i18n": {
      "eng": "Denk!Girls"
    },
    "name": "Denk!Girls",
    "tid": "eb17326e-282f-4c60-97bf-ce65cafc6c47",
    "types": [
      "singers",
      "2"
    ],
    "repository": "kara.moe",
    "modified_at": "2020-03-31T19:04:34.135Z"
  }
}