{
  "header": {
    "description": "Karaoke Mugen Tag File",
    "version": 1
  },
  "tag": {
    "aliases": [
      "DenYuDen",
      "DenYuuDen",
      "Densetsu no Yuusha no Densetsu",
      "Die Legende Der Legendären Helden",
      "LOLH",
      "denyuden",
      "lol heroes",
      "lolh",
      "Легенда о Легендарных Героях",
      "أسطورة الأبطال الأسطوريون",
      "でんゆうでん",
      "伝勇伝",
      "传说中的勇者传说",
      "마법전사 라이너",
      "전설의 용자의 전설",
      "yuusha"
    ],
    "external_database_ids": {
      "anilist": 8086,
      "myanimelist": 8086,
      "kitsu": 5191
    },
    "i18n": {
      "eng": "The Legend of the Legendary Heroes",
      "jpn": "伝説の勇者の伝説",
      "ukr": "Легенда про легендарних героїв",
      "qro": "Densetsu no Yûsha no Densetsu"
    },
    "modified_at": "2020-03-31T19:04:31.314Z",
    "name": "Densetsu no Yûsha no Densetsu",
    "repository": "kara.moe",
    "tid": "5cfe30cc-ce0a-4e68-ae65-697324851418",
    "types": [
      "series",
      "1"
    ]
  }
}