{
  "header": {
    "description": "Karaoke Mugen Tag File",
    "version": 1
  },
  "tag": {
    "i18n": {
      "eng": "Desiigner"
    },
    "name": "Desiigner",
    "repository": "kara.moe",
    "tid": "072f917e-e168-4285-a587-6d29ebf0c445",
    "types": [
      "songwriters",
      "8"
    ]
  }
}