{
  "header": {
    "description": "Karaoke Mugen Tag File",
    "version": 1
  },
  "tag": {
    "aliases": [
      "Suddenly Princess"
    ],
    "external_database_ids": {
      "anilist": 2693,
      "myanimelist": 2693,
      "kitsu": 2455
    },
    "i18n": {
      "eng": "Suddendly Princess",
      "fre": "Detatoko Princess",
      "jpn": "でたとこプリンセス",
      "qro": "Detatoko Princess"
    },
    "modified_at": "2020-03-31T19:04:31.320Z",
    "name": "Detatoko Princess",
    "repository": "kara.moe",
    "tid": "fc696fb5-6bdb-4e79-a998-a78301a9f6a5",
    "types": [
      "series",
      "1"
    ]
  }
}