{
  "header": {
    "description": "Karaoke Mugen Tag File",
    "version": 1
  },
  "tag": {
    "i18n": {
      "eng": "Devin Kinoshita"
    },
    "name": "Devin Kinoshita",
    "repository": "kara.moe",
    "tid": "48235955-b756-4932-ab49-60853a37e500",
    "types": [
      "songwriters",
      "8"
    ]
  }
}