{
  "header": {
    "description": "Karaoke Mugen Tag File",
    "version": 1
  },
  "tag": {
    "i18n": {
      "eng": "Digic Pictures"
    },
    "name": "Digic Pictures",
    "tid": "60cb475c-83fa-4a59-a74b-48afab6276ef",
    "types": [
      "creators",
      "4"
    ],
    "repository": "kara.moe",
    "modified_at": "2020-03-31T19:04:34.153Z"
  }
}