{
  "header": {
    "description": "Karaoke Mugen Tag File",
    "version": 1
  },
  "tag": {
    "i18n": {
      "eng": "DINSOR Zz"
    },
    "name": "DINSOR Zz",
    "repository": "kara.moe",
    "tid": "7bc75cc7-7743-4ee1-b3c8-1b9cf33dc307",
    "types": [
      "creators",
      "4"
    ]
  }
}