{
  "header": {
    "description": "Karaoke Mugen Tag File",
    "version": 1
  },
  "tag": {
    "i18n": {
      "eng": "DJ Okawari"
    },
    "name": "DJ Okawari",
    "repository": "kara.moe",
    "tid": "f38076fd-2549-481a-bad8-7e8b7a54b795",
    "types": [
      "songwriters",
      "8"
    ]
  }
}