{
  "header": {
    "description": "Karaoke Mugen Tag File",
    "version": 1
  },
  "tag": {
    "i18n": {
      "eng": "DJ'Tekina//Something"
    },
    "name": "DJ'Tekina//Something",
    "repository": "kara.moe",
    "tid": "dd4df159-6739-44e2-9d38-c86648e8353d",
    "types": [
      "singers",
      "2",
      "songwriters",
      "8"
    ]
  }
}