{
  "header": {
    "description": "Karaoke Mugen Tag File",
    "version": 1
  },
  "tag": {
    "i18n": {
      "eng": "DK"
    },
    "name": "DK",
    "repository": "kara.moe",
    "tid": "db7e8ed1-c6b9-4b6c-b2e0-0b6d045e833e",
    "types": [
      "authors",
      "6"
    ]
  }
}