{
  "header": {
    "description": "Karaoke Mugen Tag File",
    "version": 1
  },
  "tag": {
    "i18n": {
      "eng": "Dohatsuten"
    },
    "modified_at": "2020-10-10T20:53:35.983Z",
    "name": "Dohatsuten",
    "repository": "kara.moe",
    "tid": "1eb49555-c00e-4d4b-93d5-fe0cde6b9140",
    "types": [
      "singers",
      "2",
      "songwriters",
      "8"
    ]
  }
}