{
  "header": {
    "description": "Karaoke Mugen Tag File",
    "version": 1
  },
  "tag": {
    "i18n": {
      "eng": "DOLLCHESTRA"
    },
    "name": "DOLLCHESTRA",
    "repository": "kara.moe",
    "tid": "4af676a8-9381-477e-99c2-e693b416f095",
    "types": [
      "singergroups",
      "17"
    ]
  }
}