{
  "header": {
    "description": "Karaoke Mugen Tag File",
    "version": 1
  },
  "tag": {
    "i18n": {
      "eng": "Dominique Dubois"
    },
    "modified_at": "2021-06-05T19:20:55.057Z",
    "name": "Dominique Dubois",
    "repository": "kara.moe",
    "tid": "273f5c8e-56a1-4fc5-b89d-9c18a665b8db",
    "types": [
      "songwriters",
      "8"
    ]
  }
}