{
  "header": {
    "description": "Karaoke Mugen Tag File",
    "version": 1
  },
  "tag": {
    "i18n": {
      "eng": "Donga",
      "tel": "దొంగ"
    },
    "modified_at": "2020-03-31T19:04:31.352Z",
    "name": "Donga",
    "repository": "kara.moe",
    "tid": "60a79323-e033-4d9b-b000-842444ea17fe",
    "types": [
      "series",
      "1"
    ]
  }
}