{
  "header": {
    "description": "Karaoke Mugen Tag File",
    "version": 1
  },
  "tag": {
    "aliases": [
      "Cloudy Laugh",
      "Смях под облаците"
    ],
    "external_database_ids": {
      "anilist": 20817,
      "myanimelist": 21743,
      "kitsu": 7907
    },
    "i18n": {
      "eng": "Laughing Under the Clouds",
      "fre": "Donten ni Warau",
      "jpn": "曇天に笑う",
      "qro": "Donten ni Warau"
    },
    "modified_at": "2020-03-31T19:04:31.354Z",
    "name": "Donten ni Warau",
    "repository": "kara.moe",
    "tid": "f8cc88ba-ac8e-4d00-94df-92307ca59440",
    "types": [
      "series",
      "1"
    ]
  }
}