{
  "header": {
    "description": "Karaoke Mugen Tag File",
    "version": 1
  },
  "tag": {
    "external_database_ids": {
      "anilist": 9493,
      "myanimelist": 9493,
      "kitsu": 5751
    },
    "i18n": {
      "eng": "Ghastly Prince Enma Burning Up",
      "fre": "Dororon Enma-kun Meeramera",
      "jpn": "Dororonえん魔くん メ~ラめら",
      "qro": "Dororon Enma-kun Meeramera"
    },
    "modified_at": "2020-06-21T23:45:31.966Z",
    "name": "Dororon Enma-kun Meeramera",
    "repository": "kara.moe",
    "tid": "10f3dea0-19ba-4a1b-8e86-96e12fe3d557",
    "types": [
      "series",
      "1"
    ]
  }
}