{
  "header": {
    "description": "Karaoke Mugen Tag File",
    "version": 1
  },
  "tag": {
    "i18n": {
      "eng": "Double Sidekick"
    },
    "name": "Double Sidekick",
    "tid": "4152331f-48a3-44c3-a262-c8daa1d72dc3",
    "types": [
      "songwriters",
      "8"
    ],
    "repository": "kara.moe",
    "modified_at": "2020-03-31T19:04:34.189Z"
  }
}