{
  "header": {
    "description": "Karaoke Mugen Tag File",
    "version": 1
  },
  "tag": {
    "i18n": {
      "eng": "DoubleDee"
    },
    "name": "DoubleDee",
    "repository": "kara.moe",
    "tid": "a13fe1e7-f532-4e1c-a4a9-678b8cdc10fb",
    "types": [
      "authors",
      "6"
    ]
  }
}