{
  "header": {
    "description": "Karaoke Mugen Tag File",
    "version": 1
  },
  "tag": {
    "external_database_ids": {
      "anilist": 103874,
      "myanimelist": 38145,
      "kitsu": 42000
    },
    "i18n": {
      "eng": "My Roommate is a Cat",
      "jpn": "同居人はひざ、時々、頭のうえ。",
      "qro": "Doukyonin wa Hiza, Tokidoki, Atama no Ue.",
      "fre": "My Roommate is a Cat"
    },
    "name": "Doukyonin wa Hiza, Tokidoki, Atama no Ue.",
    "repository": "kara.moe",
    "tid": "036b210b-500f-4cc7-849b-bedd102536ff",
    "types": [
      "series",
      "1"
    ]
  }
}