{
  "header": {
    "description": "Karaoke Mugen Tag File",
    "version": 1
  },
  "tag": {
    "i18n": {
      "eng": "Dracu-riot!",
      "jpn": "ドラクリオット",
      "qro": "DRACU-RIOT!"
    },
    "modified_at": "2020-03-31T19:04:31.361Z",
    "name": "DRACU-RIOT!",
    "repository": "kara.moe",
    "tid": "0399c64e-d01d-4886-81da-f11b2f58d8c1",
    "types": [
      "series",
      "1"
    ]
  }
}