{
  "header": {
    "description": "Karaoke Mugen Tag File",
    "version": 1
  },
  "tag": {
    "aliases": [
      "DBZ Movie 13",
      "Dragon Ball Z 13 - Tapion",
      "Dragon Ball Z: Dragon Fist Explosion!! If Goku Can't Do It Who Can",
      "Dragon Ball Z: L'eroe del Pianeta Conuts",
      "ドラゴンボールZ 龍拳爆発!! 悟空がやらねば誰がやる",
      "ryuuken"
    ],
    "external_database_ids": {
      "anilist": 906,
      "myanimelist": 906,
      "kitsu": 806
    },
    "i18n": {
      "eng": "Dragon Ball Z: Wrath of the Dragon",
      "fre": "Dragon Ball Z le film 13 : L'attaque du dragon",
      "jpn": "DRAGON BALL Z 龍拳爆発!! 悟空がやらねば誰がやる",
      "pol": "Dragon Ball Z: Atak smoka",
      "por": "Dragon Ball Z 13 - O Ataque do Dragão",
      "qro": "Dragon Ball Z Movie 13: Ryûken Bakuhatsu!! Goku ga Yaraneba Dare ga Yaru"
    },
    "modified_at": "2020-03-31T19:04:31.370Z",
    "name": "Dragon Ball Z Movie 13: Ryûken Bakuhatsu!! Goku ga Yaraneba Dare ga Yaru",
    "repository": "kara.moe",
    "tid": "cef43a0e-ddc0-4043-a709-2a77647179a1",
    "types": [
      "series",
      "1"
    ]
  }
}