{
  "header": {
    "description": "Karaoke Mugen Tag File",
    "version": 1
  },
  "tag": {
    "aliases": [
      "DMMdrc",
      "DMMdre",
      "DRAMAtical Murder Fandisk",
      "dmr",
      "re connect"
    ],
    "i18n": {
      "eng": "DRAMAtical Murder Re:Connect",
      "jpn": "ドラマティカル マーダー リコネクト",
      "qro": "DRAMAtical Murder Re:Connect"
    },
    "modified_at": "2020-03-31T19:04:31.380Z",
    "name": "DRAMAtical Murder Re:Connect",
    "repository": "kara.moe",
    "tid": "c4ba514a-150d-47ca-9a24-dd8ef4e168aa",
    "types": [
      "series",
      "1"
    ]
  }
}