{
  "header": {
    "description": "Karaoke Mugen Tag File",
    "version": 1
  },
  "tag": {
    "i18n": {
      "eng": "DrPenguin"
    },
    "name": "DrPenguin",
    "tid": "c367c55d-e2f3-4623-85b5-6b8ea55ed836",
    "types": [
      "creators",
      "4"
    ],
    "repository": "kara.moe",
    "modified_at": "2020-03-31T19:04:34.203Z"
  }
}