{
  "header": {
    "description": "Karaoke Mugen Tag File",
    "version": 1
  },
  "tag": {
    "i18n": {
      "eng": "dsp14"
    },
    "modified_at": "2020-05-13T14:28:19.394Z",
    "name": "dsp14",
    "repository": "kara.moe",
    "tid": "8ce3868c-339c-48ac-9c07-60a660fffd48",
    "types": [
      "authors",
      "6"
    ]
  }
}