{
  "header": {
    "description": "Karaoke Mugen Tag File",
    "version": 1
  },
  "tag": {
    "aliases": [
      "DRRR!!",
      "Dhurarara!!",
      "Drrr!!",
      "Dulalala!!",
      "Dullalala",
      "Dullalala!!",
      "Durarara",
      "Dyurarara!!",
      "drrr",
      "drrr1",
      "Дурарара!!",
      "无头骑士异闻录",
      "無頭騎士異聞錄",
      "듀라라라!!"
    ],
    "external_database_ids": {
      "anilist": 6746,
      "myanimelist": 6746,
      "kitsu": 4696
    },
    "i18n": {
      "chi": "無頭騎士異聞錄 DuRaRaRa!!",
      "eng": "Durarara!!",
      "ger": "Durarara!!",
      "jpn": "デュラララ!!",
      "rus": "Дюрарара!!",
      "qro": "Durarara!!"
    },
    "modified_at": "2020-03-31T19:04:31.387Z",
    "name": "Durarara!!",
    "repository": "kara.moe",
    "tid": "e045db8b-053c-41b5-b99f-470d02b871fa",
    "types": [
      "series",
      "1",
      "franchises",
      "18"
    ]
  }
}