{
  "header": {
    "description": "Karaoke Mugen Tag File",
    "version": 1
  },
  "tag": {
    "external_database_ids": {
      "anilist": 21695,
      "myanimelist": 32915,
      "kitsu": 11933
    },
    "i18n": {
      "eng": "Durarara!!x2 Ketsu: Dufufufu!!",
      "qro": "Durarara!!x2 Ketsu: Dufufufu!!",
      "jpn": "デュラララ!!×２ 結　第19.5話「デュフフフ!!」"
    },
    "name": "Durarara!!x2 Ketsu: Dufufufu!!",
    "repository": "kara.moe",
    "tid": "ebee6fdb-f682-42f3-af44-7b5a8560a5ee",
    "types": [
      "series",
      "1"
    ]
  }
}