{
  "header": {
    "description": "Karaoke Mugen Tag File",
    "version": 1
  },
  "tag": {
    "i18n": {
      "eng": "DY-T"
    },
    "name": "DY-T",
    "tid": "d8a28c69-a57c-4231-945e-7eac97c2d8e7",
    "types": [
      "songwriters",
      "8"
    ],
    "repository": "kara.moe",
    "modified_at": "2020-03-31T19:04:34.210Z"
  }
}