{
  "header": {
    "description": "Karaoke Mugen Tag File",
    "version": 1
  },
  "tag": {
    "i18n": {
      "eng": "Dysp"
    },
    "name": "Dysp",
    "tid": "87096920-112f-485f-a310-04156cb4624d",
    "types": [
      "authors",
      "6"
    ],
    "repository": "kara.moe",
    "modified_at": "2020-03-31T19:04:34.214Z"
  }
}