{
  "header": {
    "description": "Karaoke Mugen Tag File",
    "version": 1
  },
  "tag": {
    "i18n": {
      "eng": "eagle8burger"
    },
    "modified_at": "2020-11-22T20:45:28.960Z",
    "name": "eagle8burger",
    "repository": "kara.moe",
    "tid": "a89f4d1a-fb58-4882-8d3e-13e89bad1d32",
    "types": [
      "songwriters",
      "8",
      "singers",
      "2"
    ]
  }
}