{
  "header": {
    "description": "Karaoke Mugen Tag File",
    "version": 1
  },
  "tag": {
    "i18n": {
      "eng": "earthmind"
    },
    "name": "earthmind",
    "tid": "188b2cdb-6748-41da-8c87-121f3e447cb4",
    "types": [
      "singers",
      "2"
    ],
    "repository": "kara.moe",
    "modified_at": "2020-03-31T19:04:34.220Z"
  }
}