{
  "header": {
    "description": "Karaoke Mugen Tag File",
    "version": 1
  },
  "tag": {
    "i18n": {
      "eng": "Eddy Marnay"
    },
    "name": "Eddy Marnay",
    "tid": "a67741f1-b6f6-4a72-960f-db45ac30669c",
    "types": [
      "songwriters",
      "8"
    ],
    "repository": "kara.moe",
    "modified_at": "2020-03-31T19:04:34.226Z"
  }
}