{
  "header": {
    "description": "Karaoke Mugen Tag File",
    "version": 1
  },
  "tag": {
    "i18n": {
      "eng": "edogawa"
    },
    "name": "edogawa",
    "repository": "kara.moe",
    "tid": "72541e65-0da8-4cd9-88ac-de12bb29298c",
    "types": [
      "songwriters",
      "8"
    ]
  }
}