{
  "header": {
    "description": "Karaoke Mugen Tag File",
    "version": 1
  },
  "tag": {
    "aliases": [
      "Eien no Aselia: Kono Daichi no Hate de"
    ],
    "i18n": {
      "eng": "Eien no Aselia -The Spirit of Eternity Sword-",
      "jpn": "永遠のアセリア-The Spirit of Eternity Sword-",
      "qro": "Eien no Aselia -The Spirit of Eternity Sword-"
    },
    "modified_at": "2020-03-31T19:04:31.393Z",
    "name": "Eien no Aselia -The Spirit of Eternity Sword-",
    "repository": "kara.moe",
    "tid": "83eb7edf-d7ee-4ad3-b98a-b46a15266ffa",
    "types": [
      "series",
      "1"
    ]
  }
}