{
  "header": {
    "description": "Karaoke Mugen Tag File",
    "version": 1
  },
  "tag": {
    "i18n": {
      "eng": "Eiji Kawamura"
    },
    "name": "Eiji Kawamura",
    "tid": "3e8e467c-7964-4405-b8b7-bb47d9866d9d",
    "types": [
      "songwriters",
      "8"
    ],
    "repository": "kara.moe",
    "modified_at": "2020-03-31T19:04:34.240Z"
  }
}