{
  "header": {
    "description": "Karaoke Mugen Tag File",
    "version": 1
  },
  "tag": {
    "aliases": [
      "eijun"
    ],
    "i18n": {
      "eng": "Eijun Suganami"
    },
    "name": "Eijun Suganami",
    "repository": "kara.moe",
    "tid": "60ec3e20-bcc7-4203-afee-d80798cac2b4",
    "types": [
      "songwriters",
      "8"
    ]
  }
}