{
  "header": {
    "description": "Karaoke Mugen Tag File",
    "version": 1
  },
  "tag": {
    "i18n": {
      "eng": "EileMonty"
    },
    "name": "EileMonty",
    "tid": "dcb34e70-4e26-40a5-b45d-f2d1ee0a34a7",
    "types": [
      "singers",
      "2"
    ],
    "repository": "kara.moe",
    "modified_at": "2020-03-31T19:04:34.247Z"
  }
}