{
  "header": {
    "description": "Karaoke Mugen Tag File",
    "version": 1
  },
  "tag": {
    "i18n": {
      "eng": "ElephantKingdom"
    },
    "name": "ElephantKingdom",
    "tid": "da24f561-a94d-4e6d-aff5-4eeffbd7396d",
    "types": [
      "songwriters",
      "8"
    ],
    "repository": "kara.moe",
    "modified_at": "2020-03-31T19:04:34.253Z"
  }
}