{
  "header": {
    "description": "Karaoke Mugen Tag File",
    "version": 1
  },
  "tag": {
    "i18n": {
      "eng": "Elfie Weiss"
    },
    "name": "Elfie Weiss",
    "tid": "7b3132f7-48ee-45cb-a1b4-8c86ca176b9f",
    "types": [
      "singers",
      "2"
    ],
    "repository": "kara.moe",
    "modified_at": "2020-03-31T19:04:34.254Z"
  }
}