{
  "header": {
    "description": "Karaoke Mugen Tag File",
    "version": 1
  },
  "tag": {
    "i18n": {
      "eng": "Engine Sentai Go-Onger",
      "jpn": "炎神戦隊ゴーオンジャー",
      "qro": "Engine Sentai Go-Onger"
    },
    "modified_at": "2020-03-31T19:04:31.406Z",
    "name": "Engine Sentai Go-Onger",
    "repository": "kara.moe",
    "tid": "287e60e7-939e-4ac5-b732-16546a009f8d",
    "types": [
      "series",
      "1"
    ]
  }
}