{
  "header": {
    "description": "Karaoke Mugen Tag File",
    "version": 1
  },
  "tag": {
    "i18n": {
      "eng": "Erika Ender"
    },
    "name": "Erika Ender",
    "repository": "kara.moe",
    "tid": "669bffaa-fbc9-4d68-a1b4-7683d397911f",
    "types": [
      "songwriters",
      "8"
    ]
  }
}