{
  "header": {
    "description": "Karaoke Mugen Tag File",
    "version": 1
  },
  "tag": {
    "i18n": {
      "eng": "Eriko Matsui"
    },
    "name": "Eriko Matsui",
    "tid": "cf6185de-6eeb-46b8-bff9-17d0a8504d5b",
    "types": [
      "singers",
      "2"
    ],
    "repository": "kara.moe",
    "modified_at": "2020-03-31T19:04:34.318Z"
  }
}