{
  "header": {
    "description": "Karaoke Mugen Tag File",
    "version": 1
  },
  "tag": {
    "i18n": {
      "eng": "Erika Amamiya"
    },
    "name": "Erika Amamiya",
    "repository": "kara.moe",
    "tid": "e8084302-e901-4211-bd7d-6e29b17c93cb",
    "types": [
      "singers",
      "2"
    ]
  }
}