{
  "header": {
    "description": "Karaoke Mugen Tag File",
    "version": 1
  },
  "tag": {
    "i18n": {
      "eng": "Erik Lidbom"
    },
    "name": "Erik Lidbom",
    "repository": "kara.moe",
    "tid": "e41de84b-0e2c-476e-abda-020db228afb6",
    "types": [
      "songwriters",
      "8"
    ],
    "modified_at": "2020-03-31T19:04:34.314Z"
  }
}