{
  "header": {
    "description": "Karaoke Mugen Tag File",
    "version": 1
  },
  "tag": {
    "i18n": {
      "eng": "Escu:de"
    },
    "name": "Escu:de",
    "tid": "962e6604-bff8-4c8c-823b-296b311c2d03",
    "types": [
      "creators",
      "4"
    ],
    "repository": "kara.moe",
    "modified_at": "2020-03-31T19:04:34.324Z"
  }
}