{
  "header": {
    "description": "Karaoke Mugen Tag File",
    "version": 1
  },
  "tag": {
    "i18n": {
      "eng": "ESME MORI"
    },
    "name": "ESME MORI",
    "tid": "a4721b41-b1f1-409b-8afb-bfc57a322606",
    "types": [
      "songwriters",
      "8"
    ],
    "repository": "kara.moe",
    "modified_at": "2020-03-31T19:04:34.324Z"
  }
}