{
  "header": {
    "description": "Karaoke Mugen Tag File",
    "version": 1
  },
  "tag": {
    "i18n": {
      "eng": "Etsuko Yamakawa"
    },
    "name": "Etsuko Yamakawa",
    "tid": "544ac6bf-a400-4aee-bb5e-ca934612bd23",
    "types": [
      "songwriters",
      "8"
    ],
    "repository": "kara.moe",
    "modified_at": "2020-03-31T19:04:34.333Z"
  }
}