{
  "header": {
    "description": "Karaoke Mugen Tag File",
    "version": 1
  },
  "tag": {
    "i18n": {
      "eng": "Etsuko Sai"
    },
    "modified_at": "2020-05-17T11:57:52.872Z",
    "name": "Etsuko Sai",
    "repository": "kara.moe",
    "tid": "4b4cae46-d5c4-4915-8d5b-3edae4ac12de",
    "types": [
      "singers",
      "2"
    ]
  }
}