{
  "header": {
    "description": "Karaoke Mugen Tag File",
    "version": 1
  },
  "tag": {
    "i18n": {
      "eng": "Etsuko Yakushimaru"
    },
    "name": "Etsuko Yakushimaru",
    "repository": "kara.moe",
    "tid": "49f072be-b82b-470e-a3bf-a1600efc1b83",
    "types": [
      "singers",
      "2",
      "songwriters",
      "8"
    ],
    "modified_at": "2020-03-31T19:04:34.332Z"
  }
}