{
  "header": {
    "description": "Karaoke Mugen Tag File",
    "version": 1
  },
  "tag": {
    "i18n": {
      "eng": "Eunsol(1008)"
    },
    "name": "Eunsol(1008)",
    "repository": "kara.moe",
    "tid": "100cbd10-a833-4a80-8cd2-349f58efab99",
    "types": [
      "songwriters",
      "8"
    ]
  }
}