{
  "header": {
    "description": "Karaoke Mugen Tag File",
    "version": 1
  },
  "tag": {
    "aliases": [
      "E7 AO",
      "Eureka 7 AO",
      "Eureka 7 Ao",
      "Eureka Seven Astral Ocean",
      "Eureka Seven: Astral Ocean",
      "e7 ao",
      "e7ao"
    ],
    "external_database_ids": {
      "anilist": 12471,
      "myanimelist": 12471,
      "kitsu": 6741
    },
    "i18n": {
      "eng": "Eureka Seven AO",
      "jpn": "エウレカセブンAO",
      "kor": "에우레카 세븐 AO",
      "qro": "Eureka Seven AO"
    },
    "modified_at": "2020-03-31T19:04:31.412Z",
    "name": "Eureka Seven AO",
    "repository": "kara.moe",
    "tid": "156cb008-64b0-45f8-b610-dca173572d2d",
    "types": [
      "series",
      "1"
    ]
  }
}