{
  "header": {
    "description": "Karaoke Mugen Tag File",
    "version": 1
  },
  "tag": {
    "i18n": {
      "eng": "Eurovision"
    },
    "name": "Eurovision",
    "tid": "8b64a50c-a04b-40cc-84c1-d60311b8abd5",
    "types": [
      "creators",
      "4"
    ],
    "repository": "kara.moe",
    "modified_at": "2020-03-31T19:04:34.334Z"
  }
}