{
  "header": {
    "description": "Karaoke Mugen Tag File",
    "version": 1
  },
  "tag": {
    "i18n": {
      "eng": "Evan Call"
    },
    "name": "Evan Call",
    "repository": "kara.moe",
    "tid": "5d1704bf-c5e0-4295-b1a4-f74d6afe89e8",
    "types": [
      "songwriters",
      "8"
    ]
  }
}