{
  "header": {
    "description": "Karaoke Mugen Tag File",
    "version": 1
  },
  "tag": {
    "i18n": {
      "eng": "Evla"
    },
    "name": "Evla",
    "tid": "c2205bc1-b31a-4bbd-8953-7070204b5cbf",
    "types": [
      "authors",
      "6"
    ],
    "repository": "kara.moe",
    "modified_at": "2020-03-31T19:04:34.341Z"
  }
}