{
  "header": {
    "description": "Karaoke Mugen Tag File",
    "version": 1
  },
  "tag": {
    "i18n": {
      "afr": "Ooi",
      "amh": "Ewe",
      "ara": "الإيوي",
      "aze": "Эве",
      "bak": "Эве теле",
      "bel": "Ewe",
      "bul": "Еве",
      "ben": "ইউই",
      "bos": "Eve",
      "cat": "Ewe",
      "cze": "Ewe",
      "wel": "Famog",
      "dan": "Moderfår",
      "ger": "Ewe",
      "gre": "Προβατίνα",
      "eng": "Ewe",
      "epo": "Ewe",
      "spa": "Ewe",
      "est": "Ute",
      "baq": "Ewe",
      "per": "Ewe",
      "fin": "Ewe",
      "fre": "Brebis",
      "gle": "Ewe",
      "gla": "Ewe",
      "glg": "Ewé",
      "guj": "ઈવ",
      "heb": "יווו",
      "hin": "भेड़",
      "hrv": "Ewe",
      "hat": "Ewe",
      "hun": "Anyajuh",
      "arm": "Էվե",
      "ind": "Ewe",
      "ice": "Eve",
      "ita": "Pecora",
      "jpn": "羊",
      "jav": "Ewe",
      "geo": "ევე",
      "kaz": "Эве",
      "kan": "ಎವ್",
      "kor": "웨어",
      "kir": "Эве",
      "lat": "Ewe",
      "lit": "Ėriavedę",
      "lav": "Piemaksa par aitām",
      "mlg": "Ondrivavy",
      "mao": "English",
      "mac": "Ewe",
      "mal": "ഈവ്",
      "mon": "Ewe",
      "mar": "मेंढी",
      "may": "Betina",
      "mlt": "Nagħġa",
      "nep": "भेड",
      "dut": "Ewe",
      "nor": "Ewe",
      "pan": "ਇਊ",
      "pol": "Ewe",
      "por": "Ovelha",
      "rum": "Ewe",
      "rus": "Эве",
      "sin": "Ewe",
      "slo": "Ovce",
      "slv": "Ovce",
      "alb": "Një dele me gjithë të",
      "srp": "Еве",
      "sun": "Ewe",
      "swe": "Ewe",
      "swa": "Mke",
      "tam": "Ewe",
      "tel": "ఈవీ",
      "tgk": "Эве",
      "tha": "Ewe",
      "tgl": "Ewe",
      "tur": "Ewe",
      "tat": "Эве теле",
      "ukr": "Еве",
      "urd": "ایو",
      "uzb": "Ewe",
      "vie": "Cừu",
      "xho": "Ewe",
      "yid": "יו",
      "chi": "羊"
    },
    "name": "ewe",
    "tid": "a00e0524-9e5c-4127-a9f9-b71e377cc03a",
    "types": [
      "langs",
      "5"
    ],
    "repository": "kara.moe",
    "modified_at": "2020-03-31T19:04:34.342Z"
  }
}