{
  "header": {
    "description": "Karaoke Mugen Tag File",
    "version": 1
  },
  "tag": {
    "i18n": {
      "jpn": "Executioner Ciel",
      "qro": "Executioner Ciel"
    },
    "modified_at": "2020-03-31T19:04:31.416Z",
    "name": "Executioner Ciel",
    "repository": "kara.moe",
    "tid": "5053c2ab-81ea-4ded-bd5f-11ddacee06f4",
    "types": [
      "series",
      "1"
    ]
  }
}