{
  "header": {
    "description": "Karaoke Mugen Tag File",
    "version": 1
  },
  "tag": {
    "i18n": {
      "eng": "EXO"
    },
    "name": "EXO",
    "tid": "51730e93-967a-4b7e-9830-e8e127a7ae54",
    "types": [
      "singers",
      "2"
    ],
    "repository": "kara.moe",
    "modified_at": "2020-03-31T19:04:34.343Z"
  }
}