{
  "header": {
    "description": "Karaoke Mugen Tag File",
    "version": 1
  },
  "tag": {
    "i18n": {
      "eng": "Fabio Gargiulo"
    },
    "name": "Fabio Gargiulo",
    "tid": "e21551d1-6e48-4543-86ee-d7c6954a9834",
    "types": [
      "songwriters",
      "8"
    ],
    "repository": "kara.moe",
    "modified_at": "2020-03-31T19:04:34.347Z"
  }
}