{
  "header": {
    "description": "Karaoke Mugen Tag File",
    "version": 1
  },
  "tag": {
    "i18n": {
      "eng": "Fain"
    },
    "modified_at": "2021-05-09T10:51:18.763Z",
    "name": "Fain",
    "repository": "kara.moe",
    "tid": "0f1f42ac-83e5-4b85-8657-16f96c927fc3",
    "types": [
      "creators",
      "4"
    ]
  }
}