{
  "header": {
    "description": "Karaoke Mugen Tag File",
    "version": 1
  },
  "tag": {
    "i18n": {
      "eng": "FAIRY FORE"
    },
    "name": "FAIRY FORE",
    "tid": "ed34b6e0-3a13-49d3-9c13-794c83b9e206",
    "types": [
      "singers",
      "2"
    ],
    "repository": "kara.moe",
    "modified_at": "2020-03-31T19:04:34.351Z"
  }
}