{
  "header": {
    "description": "Karaoke Mugen Tag File",
    "version": 1
  },
  "tag": {
    "aliases": [
      "F/K 2",
      "Fate/Kaleid Liner Prisma Illya 2wei!",
      "Fate/kaleid liner プリズマ☆イリヤ ツヴァイ!",
      "Prillya Zwei",
      "Prisma Illya S2",
      "fk 2",
      "Fate kaleid liner",
      "fate kaleid",
      "prisma illya"
    ],
    "external_database_ids": {
      "anilist": 20467,
      "myanimelist": 20509,
      "kitsu": 8003
    },
    "i18n": {
      "eng": "Fate/kaleid Liner Prisma☆Illya 2wei!",
      "jpn": "Fate/kaleid liner プリズマ☆イリヤ 2wei!",
      "qro": "Fate/kaleid liner Prisma☆Illya 2wei!"
    },
    "modified_at": "2020-09-16T22:23:33.718Z",
    "name": "Fate/kaleid liner Prisma☆Illya 2wei!",
    "repository": "kara.moe",
    "tid": "f1a5f075-bd52-4d46-bb55-9f3a2a4cfc6c",
    "types": [
      "series",
      "1"
    ]
  }
}