{
  "header": {
    "description": "Karaoke Mugen Tag File",
    "version": 1
  },
  "tag": {
    "aliases": [
      "フェイト/エクストラ CCC",
      "Fate Extra CCC",
      "fate extra"
    ],
    "i18n": {
      "eng": "Fate/Extra CCC",
      "jpn": "Fate/Extra CCC",
      "qro": "Fate/Extra CCC"
    },
    "modified_at": "2021-03-07T12:40:24.780Z",
    "name": "Fate/Extra CCC",
    "repository": "kara.moe",
    "tid": "da3c41dc-9c2d-4d90-a3d4-aa04b889ddc5",
    "types": [
      "series",
      "1"
    ]
  }
}