{
  "header": {
    "description": "Karaoke Mugen Tag File",
    "version": 1
  },
  "tag": {
    "i18n": {
      "eng": "fault: milestone one",
      "jpn": "fault: milestone one",
      "qro": "fault: milestone one"
    },
    "modified_at": "2020-03-31T19:04:31.437Z",
    "name": "fault: milestone one",
    "repository": "kara.moe",
    "tid": "ec2a194d-18c5-4a1c-8666-2dd3fd205575",
    "types": [
      "series",
      "1"
    ]
  }
}