{
  "header": {
    "description": "Karaoke Mugen Tag File",
    "version": 1
  },
  "tag": {
    "i18n": {
      "eng": "feel."
    },
    "name": "feel.",
    "tid": "5c15c11c-e09d-4a4f-ab3d-143d69439fc2",
    "types": [
      "creators",
      "4"
    ],
    "repository": "kara.moe",
    "modified_at": "2020-03-31T19:04:34.365Z"
  }
}