{
  "header": {
    "description": "Karaoke Mugen Tag File",
    "version": 1
  },
  "tag": {
    "i18n": {
      "eng": "Fei Yu-ching"
    },
    "name": "Fei Yu-ching",
    "repository": "kara.moe",
    "tid": "ae38ab38-8313-4fde-9a6e-9189c75f443b",
    "types": [
      "singers",
      "2"
    ]
  }
}