{
  "header": {
    "description": "Karaoke Mugen Tag File",
    "version": 1
  },
  "tag": {
    "i18n": {
      "chi": "安錫國際動畫影展",
      "eng": "Annecy International Animated Film Festival",
      "fre": "Festival international du film d'animation d'Annecy",
      "ind": "Festival Film Animasi Internasional Annecy",
      "may": "Pesta Filem Animasi Antarabangsa Annecy",
      "por": "Festival de cinema de animação de Annecy",
      "rus": "Международный фестиваль анимационных фильмов в Анси",
      "spa": "Festival Internacional de Cine de Animación de Annecy"
    },
    "modified_at": "2020-03-31T19:04:31.437Z",
    "name": "Festival international du film d'animation d'Annecy",
    "repository": "kara.moe",
    "tid": "728fd719-6a02-441d-976c-bf9387d1957f",
    "types": [
      "series",
      "1"
    ]
  }
}