{
  "header": {
    "description": "Karaoke Mugen Tag File",
    "version": 1
  },
  "tag": {
    "i18n": {
      "eng": "Filippo Cordioli"
    },
    "name": "Filippo Cordioli",
    "repository": "kara.moe",
    "tid": "48ecd12f-c15e-4069-8dec-abe49e5a21cc",
    "types": [
      "songwriters",
      "8"
    ]
  }
}