{
  "header": {
    "description": "Karaoke Mugen Tag File",
    "version": 1
  },
  "tag": {
    "aliases": [
      "FF 6",
      "FF VI",
      "FF6",
      "FFVI",
      "Final Fantasy III"
    ],
    "i18n": {
      "ara": "VI فاينل فانتَسي",
      "chi": "最终幻想VI",
      "eng": "Final Fantasy VI",
      "fre": "Final Fantasy VI",
      "jpn": "ファイナルファンタジーVI",
      "qro": "Final Fantasy VI"
    },
    "name": "Final Fantasy VI",
    "repository": "kara.moe",
    "tid": "3c5961b3-55bf-4945-a8ee-ca8c7824a89c",
    "types": [
      "series",
      "1"
    ]
  }
}