{
  "header": {
    "description": "Karaoke Mugen Tag File",
    "version": 1
  },
  "tag": {
    "i18n": {
      "eng": "Fingazz"
    },
    "name": "Fingazz",
    "repository": "kara.moe",
    "tid": "9b932853-d42d-429d-892d-399445a2e5d5",
    "types": [
      "songwriters",
      "8"
    ]
  }
}