{
  "header": {
    "description": "Karaoke Mugen Tag File",
    "version": 1
  },
  "tag": {
    "i18n": {
      "eng": "Firaxis Games"
    },
    "name": "Firaxis Games",
    "repository": "kara.moe",
    "tid": "2017844c-b69c-4ff5-b831-b7b79a1974fd",
    "types": [
      "creators",
      "4"
    ]
  }
}