{
  "header": {
    "description": "Karaoke Mugen Tag File",
    "version": 1
  },
  "tag": {
    "aliases": [
      "Fooley Cooley",
      "Fooly Cooly",
      "Fuli Culi",
      "Furi Curi",
      "Фури Кури",
      "Фурі Курі",
      "فولی کولی"
    ],
    "external_database_ids": {
      "anilist": 227,
      "kitsu": 202,
      "myanimelist": 227
    },
    "i18n": {
      "eng": "FLCL",
      "fre": "FLCL",
      "ger": "FLCL",
      "ita": "FLCL",
      "jpn": "フリクリ",
      "kor": "프리크리",
      "per": "باحال و احمقانه",
      "spa": "FLCL",
      "qro": "Furi Kuri"
    },
    "name": "FLCL",
    "repository": "kara.moe",
    "tid": "1159dad7-17ad-4591-b491-bba67e159a78",
    "types": [
      "series",
      "1"
    ]
  }
}