{
  "header": {
    "description": "Karaoke Mugen Tag File",
    "version": 1
  },
  "tag": {
    "i18n": {
      "eng": "FlyingDog"
    },
    "name": "FlyingDog",
    "repository": "kara.moe",
    "tid": "796cf85f-02a8-4fb7-8fa7-74456eb4c3dc",
    "types": [
      "creators",
      "4"
    ]
  }
}