{
  "header": {
    "description": "Karaoke Mugen Tag File",
    "version": 1
  },
  "tag": {
    "i18n": {
      "eng": "Fo'xTails"
    },
    "name": "Fo'xTails",
    "tid": "d0a961b1-4fbe-4f2a-95b1-eded1abe6ccd",
    "types": [
      "singers",
      "2"
    ],
    "repository": "kara.moe",
    "modified_at": "2020-03-31T19:04:34.389Z"
  }
}