{
  "header": {
    "description": "Karaoke Mugen Tag File",
    "version": 1
  },
  "tag": {
    "i18n": {
      "eng": "Fora"
    },
    "modified_at": "2020-07-12T23:10:06.616Z",
    "name": "Fora",
    "repository": "kara.moe",
    "tid": "0871383e-f493-4a7c-b453-272ae48d9e85",
    "types": [
      "authors",
      "6"
    ]
  }
}