{
  "header": {
    "description": "Karaoke Mugen Tag File",
    "version": 1
  },
  "tag": {
    "i18n": {
      "eng": "France Audon"
    },
    "name": "France Audon",
    "repository": "kara.moe",
    "tid": "97f7c4c5-04a2-479c-8efb-2c653d6aa26f",
    "types": [
      "songwriters",
      "8"
    ]
  }
}