{
  "header": {
    "description": "Karaoke Mugen Tag File",
    "version": 1
  },
  "tag": {
    "i18n": {
      "eng": "François de Roubaix"
    },
    "name": "François de Roubaix",
    "tid": "1b4f4bd1-5a36-4f12-8068-a6f72ddcc577",
    "types": [
      "songwriters",
      "8",
      "singers",
      "2"
    ],
    "repository": "kara.moe",
    "modified_at": "2020-03-31T19:04:34.404Z"
  }
}