{
  "header": {
    "description": "Karaoke Mugen Tag File",
    "version": 1
  },
  "tag": {
    "i18n": {
      "eng": "François Bouchet"
    },
    "name": "François Bouchet",
    "repository": "kara.moe",
    "tid": "5342a08f-930c-4853-9d69-df8c2e282de2",
    "types": [
      "songwriters",
      "8"
    ]
  }
}