{
  "header": {
    "description": "Karaoke Mugen Tag File",
    "version": 1
  },
  "tag": {
    "i18n": {
      "eng": "François Ledanois"
    },
    "name": "François Ledanois",
    "tid": "91d5514d-fb95-40a2-bd9e-4ece6b234834",
    "types": [
      "singers",
      "2"
    ],
    "repository": "kara.moe",
    "modified_at": "2020-03-31T19:04:34.405Z"
  }
}