{
  "header": {
    "description": "Karaoke Mugen Tag File",
    "version": 1
  },
  "tag": {
    "i18n": {
      "eng": "Fraser Lance Thorneycroft Smith"
    },
    "name": "Fraser Lance Thorneycroft Smith",
    "repository": "kara.moe",
    "tid": "355cd3bd-d36a-4d1f-8f3a-79ca670b1b6b",
    "types": [
      "songwriters",
      "8"
    ]
  }
}