{
  "header": {
    "description": "Karaoke Mugen Tag File",
    "version": 1
  },
  "tag": {
    "i18n": {
      "eng": "Fredrik \"Fredro\" Odesjo"
    },
    "name": "Fredrik \"Fredro\" Odesjo",
    "tid": "639b6b87-36cc-4488-be6a-906fea947793",
    "types": [
      "songwriters",
      "8"
    ],
    "repository": "kara.moe",
    "modified_at": "2020-03-31T19:04:34.409Z"
  }
}