{
  "header": {
    "description": "Karaoke Mugen Tag File",
    "version": 1
  },
  "tag": {
    "aliases": [
      "Suiei-hen",
      "Свобода!",
      "Свободен!",
      "フリー！"
    ],
    "external_database_ids": {
      "anilist": 18507,
      "myanimelist": 18507,
      "kitsu": 7664
    },
    "i18n": {
      "eng": "Free! Iwatobi Swim Club",
      "fre": "Free!",
      "jpn": "Free!",
      "per": "آزاد!",
      "spa": "¡Free! Club de Natación Iwatobi",
      "qro": "Free!"
    },
    "modified_at": "2020-03-31T19:04:31.462Z",
    "name": "Free!",
    "repository": "kara.moe",
    "tid": "217ac64b-479e-46c7-9f72-0f5ca443d2af",
    "types": [
      "series",
      "1",
      "franchises",
      "18"
    ]
  }
}