{
  "header": {
    "description": "Karaoke Mugen Tag File",
    "version": 1
  },
  "tag": {
    "i18n": {
      "eng": "Frontier Records"
    },
    "name": "Frontier Records",
    "tid": "f8d68918-3c62-4e06-acae-e8f77ac8902e",
    "types": [
      "creators",
      "4"
    ],
    "repository": "kara.moe",
    "modified_at": "2020-03-31T19:04:34.417Z"
  }
}