{
  "header": {
    "description": "Karaoke Mugen Tag File",
    "version": 1
  },
  "tag": {
    "aliases": [
      "furuba",
      "FB",
      "fruba"
    ],
    "external_database_ids": {
      "anilist": 124194,
      "myanimelist": 42938,
      "kitsu": 43578
    },
    "i18n": {
      "eng": "Fruits Basket (2019) The Final season",
      "jpn": "フルーツバスケット The Final",
      "fre": "Fruits Basket (2019) saison 3",
      "qro": "Fruits Basket (2019) The Final"
    },
    "modified_at": "2021-05-09T11:01:52.720Z",
    "name": "Fruits Basket (2019) The Final",
    "repository": "kara.moe",
    "tid": "61bc2b81-a444-4557-bde8-881d16e5ae7b",
    "types": [
      "series",
      "1"
    ]
  }
}