{
  "header": {
    "description": "Karaoke Mugen Tag File",
    "version": 1
  },
  "tag": {
    "i18n": {
      "eng": "Fumi Ootou"
    },
    "name": "Fumi Ootou",
    "tid": "e3b7ada6-597d-4713-a2da-b2540ff66f0c",
    "types": [
      "singers",
      "2"
    ],
    "repository": "kara.moe",
    "modified_at": "2020-03-31T19:04:34.432Z"
  }
}