{
  "header": {
    "description": "Karaoke Mugen Tag File",
    "version": 1
  },
  "tag": {
    "i18n": {
      "eng": "Funta"
    },
    "name": "Funta",
    "tid": "f563919c-7343-4378-ab8e-13273b1fb617",
    "types": [
      "songwriters",
      "8"
    ],
    "repository": "kara.moe",
    "modified_at": "2020-03-31T19:04:34.443Z"
  }
}