{
  "header": {
    "description": "Karaoke Mugen Tag File",
    "version": 1
  },
  "tag": {
    "external_database_ids": {
      "anilist": 1496,
      "kitsu": 1342,
      "myanimelist": 1496
    },
    "i18n": {
      "eng": "Miyuki-chan in Wonderland",
      "jpn": "不思議の国の美幸ちゃん",
      "qro": "Fushigi no Kuni no Miyuki-chan"
    },
    "name": "Fushigi no Kuni no Miyuki-chan",
    "repository": "kara.moe",
    "tid": "0dd6f59e-f5c0-4891-8441-d14b5af9c30a",
    "types": [
      "series",
      "1"
    ]
  }
}