{
  "header": {
    "description": "Karaoke Mugen Tag File",
    "version": 1
  },
  "tag": {
    "i18n": {
      "eng": "Futoshi"
    },
    "name": "Futoshi",
    "tid": "a4e16e48-831f-4cfe-a0f2-7d41e71ecfa8",
    "types": [
      "songwriters",
      "8"
    ],
    "repository": "kara.moe",
    "modified_at": "2020-03-31T19:04:34.447Z"
  }
}