{
  "header": {
    "description": "Karaoke Mugen Tag File",
    "version": 1
  },
  "tag": {
    "i18n": {
      "eng": "Fuuma"
    },
    "name": "Fuuma",
    "tid": "074e1f7d-c9c8-4f1c-b011-9aadf193cd19",
    "types": [
      "songwriters",
      "8"
    ],
    "repository": "kara.moe",
    "modified_at": "2020-03-31T19:04:34.449Z"
  }
}