{
  "header": {
    "description": "Karaoke Mugen Tag File",
    "version": 1
  },
  "tag": {
    "i18n": {
      "eng": "Fuyugumi"
    },
    "name": "Fuyugumi",
    "repository": "kara.moe",
    "tid": "f292c5e4-a1d0-4d0b-acd4-abef71c98858",
    "types": [
      "singergroups",
      "17"
    ]
  }
}