{
  "header": {
    "description": "Karaoke Mugen Tag File",
    "version": 1
  },
  "tag": {
    "i18n": {
      "eng": "Fuyu"
    },
    "modified_at": "2020-05-09T22:32:19.324Z",
    "name": "Fuyu",
    "repository": "kara.moe",
    "tid": "efe8a5a9-23f4-484f-9558-56e1a200ba9f",
    "types": [
      "songwriters",
      "8"
    ]
  }
}