{
  "header": {
    "description": "Karaoke Mugen Tag File",
    "version": 1
  },
  "tag": {
    "aliases": [
      "Honda san"
    ],
    "external_database_ids": {
      "anilist": 100093,
      "myanimelist": 36317,
      "kitsu": 13821
    },
    "i18n": {
      "eng": "Skull-face Bookseller Honda-san",
      "jpn": "ガイコツ書店員 本田さん",
      "qro": "Gaikotsu Shotenin Honda-san"
    },
    "modified_at": "2020-06-21T23:45:31.966Z",
    "name": "Gaikotsu Shotenin Honda-san",
    "repository": "kara.moe",
    "tid": "7c4c4f81-b60a-44e9-98f4-84f6a57ed166",
    "types": [
      "series",
      "1"
    ]
  }
}