{
  "header": {
    "description": "Karaoke Mugen Tag File",
    "version": 1
  },
  "tag": {
    "i18n": {
      "eng": "GALLOP"
    },
    "name": "GALLOP",
    "tid": "3416bd66-667d-4c3f-91f3-6e692001ef25",
    "types": [
      "creators",
      "4"
    ],
    "repository": "kara.moe",
    "modified_at": "2020-03-31T19:04:34.468Z"
  }
}