{
  "header": {
    "description": "Karaoke Mugen Tag File",
    "version": 1
  },
  "tag": {
    "i18n": {
      "eng": "GARNiDELiA"
    },
    "name": "GARNiDELiA",
    "repository": "kara.moe",
    "tid": "40777238-a776-4235-9f5e-eec754c96827",
    "types": [
      "singers",
      "2",
      "songwriters",
      "8"
    ],
    "modified_at": "2020-03-31T19:04:34.476Z"
  }
}