{
  "header": {
    "description": "Karaoke Mugen Tag File",
    "version": 1
  },
  "tag": {
    "i18n": {
      "eng": "GATALIS"
    },
    "name": "GATALIS",
    "tid": "352a1f21-3d09-462a-9112-994a6d4e011e",
    "types": [
      "singers",
      "2"
    ],
    "repository": "kara.moe",
    "modified_at": "2020-03-31T19:04:34.478Z"
  }
}