{
  "header": {
    "description": "Karaoke Mugen Tag File",
    "version": 1
  },
  "tag": {
    "aliases": [
      "Battle of the Planets",
      "La bataille des planètes"
    ],
    "external_database_ids": {},
    "i18n": {
      "jpn": "ガッチャマン",
      "qro": "Gatchaman"
    },
    "name": "Gatchaman",
    "repository": "kara.moe",
    "tid": "ce418b89-88ac-4bd6-870d-13e21d0f21a8",
    "types": [
      "franchises",
      "18"
    ]
  }
}