{
  "header": {
    "description": "Karaoke Mugen Tag File",
    "version": 1
  },
  "tag": {
    "aliases": [
      "Ged'in Savaş Günlükleri",
      "Ged's War Chronicles",
      "Gedo Senki Ιστορίες απο την Γαιοθάλασσα",
      "Магьосникът от Землемория",
      "Повісті Земномор’я",
      "ゲド戦",
      "gedosen"
    ],
    "i18n": {
      "eng": "TALES from EARTHSEA",
      "jpn": "ゲド戦記 TALES from EARTHSEA",
      "por": "Contos de Terramar",
      "spa": "Cuentos de Terramar",
      "ger": "Die Chroniken von Erdsee",
      "ita": "I Racconti di Terramare",
      "swe": "Legender Från Övärlden",
      "fre": "Les contes de Terremer",
      "fin": "Maameren tarinat",
      "est": "Meremaa lood",
      "pol": "Opowieści z Ziemiomorza",
      "tur": "Yerdeniz Öyküleri",
      "lit": "Žemjūrės pasakos",
      "rus": "Сказания Земноморья",
      "heb": "הקוסם מארץ ים",
      "hun": "Földtenger varázslója",
      "dan": "Legenden om Jordhavet",
      "cze": "Příběhy ze Zeměmoří",
      "bul": "Приказки от Землемория",
      "ukr": "Хроніки Геда",
      "chi": "地海戰記",
      "kor": "게드전기",
      "qro": "Ged Senki: Tales from Earthsea"
    },
    "modified_at": "2020-07-15T21:52:34.116Z",
    "name": "Ged Senki: Tales from Earthsea",
    "repository": "kara.moe",
    "tid": "580e6507-3141-4ebb-8799-e78315d097bc",
    "types": [
      "series",
      "1"
    ]
  }
}