{
  "header": {
    "description": "Karaoke Mugen Tag File",
    "version": 1
  },
  "tag": {
    "aliases": [
      "GeGeGe no Kitarou 2007",
      "Kitaro 2007",
      "kitarou"
    ],
    "external_database_ids": {
      "anilist": 2165,
      "myanimelist": 2165,
      "kitsu": 1960
    },
    "i18n": {
      "jpn": "ゲゲゲの鬼太郎 5期",
      "qro": "GeGeGe no Kitarô 5 (2007)"
    },
    "modified_at": "2020-03-31T19:04:31.521Z",
    "name": "GeGeGe no Kitarô 5 (2007)",
    "repository": "kara.moe",
    "tid": "3bb70401-daba-459a-ae67-089122588e3a",
    "types": [
      "series",
      "1"
    ]
  }
}