{
  "header": {
    "description": "Karaoke Mugen Tag File",
    "version": 1
  },
  "tag": {
    "aliases": [
      "Gekijouban Made in Abyss: Fukaki Tamashii no Reimei",
      "来自深渊 深沉灵魂的黎明",
      "Wyprodukowano w Otchłani: Brzask duszy Otchłani",
      "صنع في الهاوية فجر الروح العميقة"
    ],
    "external_database_ids": {
      "anilist": 100643,
      "myanimelist": 36862,
      "kitsu": 14027
    },
    "i18n": {
      "eng": "Made in Abyss: Dawn of the Deep Soul",
      "qro": "Gekijôban Made in Abyss: Fukaki Tamashii no Reimei",
      "fre": "Made in Abyss : L'Aurore de l'âme des profondeurs",
      "jpn": "劇場版メイドインアビス 深き魂の黎明",
      "ger": "Made in Abyss: Seelen der Finsternis",
      "chi": "劇場版 來自深淵 深沉靈魂的黎明"
    },
    "name": "Gekijôban Made in Abyss: Fukaki Tamashii no Reimei",
    "repository": "kara.moe",
    "tid": "c20ff916-2ef7-4e7f-abd6-1cff40c43896",
    "types": [
      "series",
      "1"
    ]
  }
}