{
  "header": {
    "description": "Karaoke Mugen Tag File",
    "version": 1
  },
  "tag": {
    "aliases": [
      "Gekijouban ",
      "Fuuin "
    ],
    "external_database_ids": {
      "anilist": 372,
      "kitsu": 339,
      "myanimelist": 372
    },
    "i18n": {
      "eng": "Cardcaptor Sakura: The Sealed Card",
      "fre": "Cardcaptor Sakura : La carte scellée",
      "ger": "Cardcaptor Sakura: Der Film - Die versiegelte Karte",
      "heb": "סאקורה: הקלף הנסתר",
      "jpn": "劇場版カードキャプターさくら封印されたカード",
      "pol": "Zdobywczyni kart Sakura: Film drugi - zaczarowane karty",
      "por": "Sakura Card Captors: A Carta Selada",
      "qro": "Gekijôban Cardcaptor Sakura: Fûin Sareta Card",
      "spa": "Sakura Card Captor: La Carta Sellada"
    },
    "name": "Gekijôban Cardcaptor Sakura: Fûin Sareta Card",
    "repository": "kara.moe",
    "tid": "08916da2-b20c-4708-9fe4-6bb1ecc3827c",
    "types": [
      "series",
      "1"
    ]
  }
}