{
  "header": {
    "description": "Karaoke Mugen Tag File",
    "version": 1
  },
  "tag": {
    "aliases": [
      "Gekijouban"
    ],
    "i18n": {
      "chi": "剧场版 咒术回战 0",
      "eng": "Jujutsu Kaisen 0",
      "jpn": "劇場版 呪術廻戦 0",
      "qro": "Gekijôban Jujutsu Kaisen 0"
    },
    "name": "Gekijôban Jujutsu Kaisen 0",
    "repository": "kara.moe",
    "tid": "e0773f05-8ac9-4ed7-b2d9-37967070d642",
    "types": [
      "series",
      "1"
    ]
  }
}