{
  "header": {
    "description": "Karaoke Mugen Tag File",
    "version": 1
  },
  "tag": {
    "aliases": [
      ""
    ],
    "external_database_ids": {
      "anilist": 16680,
      "myanimelist": 16680,
      "kitsu": 7489
    },
    "i18n": {
      "eng": "Pokémon the Movie 16: Genesect and the Legend Awakened",
      "fre": "Pokémon le film 16 : Genesect et l'éveil de la légende",
      "jpn": "劇場版ポケットモンスター ベストウイッシュ 神速のゲノセクト ミュウツー覚醒",
      "qro": "Gekijôban Pocket Monsters Best Wishes! ‒ Shinsoku no Genesect: Mewtwo Kakusei"
    },
    "modified_at": "2020-06-21T23:45:31.966Z",
    "name": "Gekijôban Pocket Monsters Best Wishes! ‒ Shinsoku no Genesect: Mewtwo Kakusei",
    "repository": "kara.moe",
    "tid": "7fdc040f-57ea-49d9-9a6b-fd1cad2d29de",
    "types": [
      "series",
      "1"
    ]
  }
}