{
  "header": {
    "description": "Karaoke Mugen Tag File",
    "version": 1
  },
  "tag": {
    "aliases": [
      "Gekkan Shoujo Nozaki-kun",
      "gsnk",
      "shoujo"
    ],
    "external_database_ids": {
      "anilist": 20668,
      "myanimelist": 23289,
      "kitsu": 8402
    },
    "i18n": {
      "chi": "月刊少女野崎君",
      "eng": "Monthly Girls' Nozaki-kun",
      "fre": "Gekkan Shôjo Nozaki-kun",
      "jpn": "月刊少女野崎くん",
      "qro": "Gekkan Shôjo Nozaki-kun"
    },
    "modified_at": "2020-06-21T23:45:31.966Z",
    "name": "Gekkan Shôjo Nozaki-kun",
    "repository": "kara.moe",
    "tid": "111307a7-4d00-42c6-be03-78baa038d849",
    "types": [
      "series",
      "1"
    ]
  }
}