{
  "header": {
    "description": "Karaoke Mugen Tag File",
    "version": 1
  },
  "tag": {
    "i18n": {
      "eng": "Tokyo Mirage Sessions ♯FE",
      "jpn": "幻影異聞録♯FE",
      "qro": "Genei Ibun Roku #FE"
    },
    "modified_at": "2020-03-31T19:04:31.546Z",
    "name": "Genei Ibun Roku #FE",
    "repository": "kara.moe",
    "tid": "79bb4766-6056-4171-b254-99b8b4236208",
    "types": [
      "series",
      "1"
    ]
  }
}