{
  "header": {
    "description": "Karaoke Mugen Tag File",
    "version": 1
  },
  "tag": {
    "aliases": [
      "Chłopiec z Parku Jurajskiego",
      "GSR",
      "Genshi Shounen Ryuu",
      "Ryu the Primitive Boy",
      "Первобытный мальчик Рю",
      "shounen",
      "ryuu"
    ],
    "external_database_ids": {
      "anilist": 1537,
      "myanimelist": 1537,
      "kitsu": 1378
    },
    "i18n": {
      "eng": "Ryu the Primitive Boy",
      "fin": "Rai Luolapoika",
      "fre": "Nolan",
      "hun": "Rai, a dzsungel fia",
      "ita": "Ryu, il ragazzo delle caverne",
      "jpn": "原始少年リュウ",
      "pol": "Jaskiniowy chłopiec",
      "swe": "Rai - Grottpojken",
      "qro": "Genshi Shônen Ryû"
    },
    "modified_at": "2020-03-31T19:04:31.547Z",
    "name": "Genshi Shônen Ryû",
    "repository": "kara.moe",
    "tid": "cf6d639b-194a-40d4-818b-1f3cc339ebce",
    "types": [
      "series",
      "1"
    ]
  }
}