{
  "header": {
    "description": "Karaoke Mugen Tag File",
    "version": 1
  },
  "tag": {
    "aliases": [
      "Sociedad para el Estudio de la Cultura Visual Moderna OVA",
      "ゲンシケン (2006)",
      "现视研OVA"
    ],
    "external_database_ids": {
      "anilist": 1813,
      "myanimelist": 1813,
      "kitsu": 1631
    },
    "i18n": {
      "eng": "Genshiken OVA",
      "jpn": "げんしけん (2006)",
      "qro": "Genshiken OVA"
    },
    "modified_at": "2020-06-21T23:45:31.966Z",
    "name": "Genshiken OVA",
    "repository": "kara.moe",
    "tid": "3b60d210-5858-4fa7-ad9d-2f31c1184870",
    "types": [
      "series",
      "1"
    ]
  }
}