{
  "header": {
    "description": "Karaoke Mugen Tag File",
    "version": 1
  },
  "tag": {
    "aliases": [
      "Gensou Suikoden I Harmonia no Kenshi",
      "Gensô Suikoden I Harmonia no Kenshi"
    ],
    "i18n": {
      "eng": "Suikogaiden Volume 1: Swordsman of Harmonia",
      "jpn": "幻想水滸外伝Vol.1 ハルモニアの剣士",
      "qro": "Genso Suikogaiden Vol.1"
    },
    "name": "Genso Suikogaiden Vol.1",
    "repository": "kara.moe",
    "tid": "6535b56b-d83d-4c65-830f-f8ed407d4d4b",
    "types": [
      "series",
      "1"
    ]
  }
}