{
  "header": {
    "description": "Karaoke Mugen Tag File",
    "version": 1
  },
  "tag": {
    "i18n": {
      "eng": "Gérard Presgurvic"
    },
    "name": "Gérard Presgurvic",
    "repository": "kara.moe",
    "tid": "10a5538a-571b-4ef1-9416-c6c734715fc7",
    "types": [
      "songwriters",
      "8"
    ]
  }
}