{
  "header": {
    "description": "Karaoke Mugen Tag File",
    "version": 1
  },
  "tag": {
    "i18n": {
      "eng": "Géraldine Baille"
    },
    "modified_at": "2020-09-07T19:57:47.674Z",
    "name": "Géraldine Baille",
    "repository": "kara.moe",
    "tid": "a6860203-e7a5-4e16-9db3-a9f0b89919df",
    "types": [
      "singers",
      "2"
    ]
  }
}