{
  "header": {
    "description": "Karaoke Mugen Tag File",
    "version": 1
  },
  "tag": {
    "i18n": {
      "eng": "GET IN THE RING"
    },
    "name": "GET IN THE RING",
    "repository": "kara.moe",
    "tid": "a4b42473-3b8c-4987-9e34-01d434e67302",
    "types": [
      "creators",
      "4"
    ]
  }
}