{
  "header": {
    "description": "Karaoke Mugen Tag File",
    "version": 1
  },
  "tag": {
    "i18n": {
      "eng": "Ghostbusters",
      "fre": "SOS Fantômes"
    },
    "modified_at": "2021-09-12T13:39:39.976Z",
    "name": "Ghostbusters",
    "repository": "kara.moe",
    "tid": "029fcd9d-3769-41c4-8e5a-2f44bf9d5f2d",
    "types": [
      "series",
      "1",
      "franchises",
      "18"
    ]
  }
}