{
  "header": {
    "description": "Karaoke Mugen Tag File",
    "version": 1
  },
  "tag": {
    "i18n": {
      "eng": "Gilrael"
    },
    "modified_at": "2020-05-13T14:38:38.322Z",
    "name": "Gilrael",
    "repository": "kara.moe",
    "tid": "70e26885-c0b5-4a01-b95b-2f492b8a8f10",
    "types": [
      "authors",
      "6"
    ]
  }
}