{
  "header": {
    "description": "Karaoke Mugen Tag File",
    "version": 1
  },
  "tag": {
    "aliases": [
      "GE999 EF",
      "은하철도 999: 영원한 판타지",
      "tetsudou",
      "Gekijouban",
      "Gekijôban"
    ],
    "external_database_ids": {
      "anilist": 3602,
      "kitsu": 3135,
      "myanimelist": 3602
    },
    "i18n": {
      "eng": "Galaxy Express 999: Eternal Fantasy",
      "jpn": "銀河鉄道999 エターナルファンタジー",
      "qro": "Ginga Tetsudô 999: Eternal Fantasy"
    },
    "name": "Ginga Tetsudô 999: Eternal Fantasy",
    "repository": "kara.moe",
    "tid": "26ccbd5e-a279-44f5-8fc2-fda32015c482",
    "types": [
      "series",
      "1"
    ]
  }
}