{
  "header": {
    "description": "Karaoke Mugen Tag File",
    "version": 1
  },
  "tag": {
    "i18n": {
      "eng": "Ginji Itô"
    },
    "name": "Ginji Itô",
    "tid": "68e1e82e-6dff-4af7-ad21-119bd1accd78",
    "types": [
      "songwriters",
      "8"
    ],
    "repository": "kara.moe",
    "modified_at": "2020-03-31T19:04:34.515Z"
  }
}