{
  "header": {
    "description": "Karaoke Mugen Tag File",
    "version": 1
  },
  "tag": {
    "i18n": {
      "eng": "Gioachino Rossini"
    },
    "modified_at": "2020-05-03T15:40:12.825Z",
    "name": "Gioachino Rossini",
    "repository": "kara.moe",
    "tid": "2713d0a3-f534-475c-857e-e17b3848219f",
    "types": [
      "songwriters",
      "8"
    ]
  }
}