{
  "header": {
    "description": "Karaoke Mugen Tag File",
    "version": 1
  },
  "tag": {
    "external_database_ids": {
      "anilist": 108430,
      "myanimelist": 39533,
      "kitsu": 42379
    },
    "i18n": {
      "eng": "Given",
      "fre": "Given",
      "jpn": "ギヴン",
      "qro": "Given"
    },
    "modified_at": "2020-03-31T19:04:31.577Z",
    "name": "Given",
    "repository": "kara.moe",
    "tid": "c1c35fbb-db52-4ddd-bc0d-3b6038ad0719",
    "types": [
      "series",
      "1"
    ]
  }
}