{
  "header": {
    "description": "Karaoke Mugen Tag File",
    "version": 1
  },
  "tag": {
    "aliases": [
      "GochiUsa 2",
      "Gochuumon wa Usagi Desuka 2",
      "gochiusa2",
      "gochuumon"
    ],
    "external_database_ids": {
      "anilist": 21034,
      "myanimelist": 29787,
      "kitsu": 10346
    },
    "i18n": {
      "eng": "Is the Order a Rabbit??",
      "fre": "Gochûmon wa Usagi Desu ka??",
      "jpn": "ご注文はうさぎですか??",
      "kor": "주문은 토끼입니까??",
      "qro": "Gochûmon wa Usagi Desu ka??"
    },
    "modified_at": "2020-03-31T19:04:31.585Z",
    "name": "Gochûmon wa Usagi Desu ka??",
    "repository": "kara.moe",
    "tid": "0c6cdb14-54e4-4ab8-849f-dc3f2bf49fa2",
    "types": [
      "series",
      "1"
    ]
  }
}