{
  "header": {
    "description": "Karaoke Mugen Tag File",
    "version": 1
  },
  "tag": {
    "i18n": {
      "eng": "GOING UNDER GROUND"
    },
    "name": "GOING UNDER GROUND",
    "tid": "91877fdc-03d5-48ac-8a1a-894cb8c01898",
    "types": [
      "singers",
      "2"
    ],
    "repository": "kara.moe",
    "modified_at": "2020-03-31T19:04:34.535Z"
  }
}