{
  "header": {
    "description": "Karaoke Mugen Tag File",
    "version": 1
  },
  "tag": {
    "i18n": {
      "eng": "GojimajiP"
    },
    "name": "GojimajiP",
    "tid": "8d8bb14c-a310-4bd4-bc88-1b3121993160",
    "types": [
      "songwriters",
      "8"
    ],
    "repository": "kara.moe",
    "modified_at": "2020-03-31T19:04:34.536Z"
  }
}