{
  "header": {
    "description": "Karaoke Mugen Tag File",
    "version": 1
  },
  "tag": {
    "i18n": {
      "eng": "GOKU"
    },
    "modified_at": "2020-08-17T16:35:37.553Z",
    "name": "GOKU",
    "repository": "kara.moe",
    "tid": "80e0f584-c662-4e8d-9e03-51b7a1a60b67",
    "types": [
      "singers",
      "2"
    ]
  }
}