{
  "header": {
    "description": "Karaoke Mugen Tag File",
    "version": 1
  },
  "tag": {
    "aliases": [
      "Goku Sayonara Zetsubou Sensei",
      "SZS OAV",
      "gszs",
      "szs ova",
      "szs3",
      "Сбогом отчаян учителю: Тишина",
      "狱·再见! 绝望老师",
      "zetsubou-sensei"
    ],
    "external_database_ids": {
      "anilist": 4872,
      "myanimelist": 4872,
      "kitsu": 3832
    },
    "i18n": {
      "eng": "Goodbye Mr. Despair OVA",
      "fre": "Sayonara Monsieur Désespoir OVA",
      "jpn": "獄・さよなら絶望先生",
      "qro": "Goku Sayonara Zetsubô-Sensei"
    },
    "modified_at": "2020-03-31T19:04:31.593Z",
    "name": "Goku Sayonara Zetsubô-Sensei",
    "repository": "kara.moe",
    "tid": "24500b47-050c-4aef-aef1-53091d2a86cb",
    "types": [
      "series",
      "1"
    ]
  }
}