{
  "header": {
    "description": "Karaoke Mugen Tag File",
    "version": 1
  },
  "tag": {
    "i18n": {
      "eng": "Gorô Miyazaki"
    },
    "name": "Gorô Miyazaki",
    "tid": "2903b227-0771-4d50-842a-e9c349a74068",
    "types": [
      "songwriters",
      "8"
    ],
    "repository": "kara.moe",
    "modified_at": "2020-03-31T19:04:34.546Z"
  }
}