{
  "header": {
    "description": "Karaoke Mugen Tag File",
    "version": 1
  },
  "tag": {
    "aliases": [
      "Goshiku",
      "Госик",
      "Готика",
      "Готически свят"
    ],
    "external_database_ids": {
      "anilist": 8425,
      "myanimelist": 8425,
      "kitsu": 5330
    },
    "i18n": {
      "eng": "Gosick",
      "jpn": "GOSICK",
      "qro": "Gosick"
    },
    "modified_at": "2020-03-31T19:04:31.599Z",
    "name": "Gosick",
    "repository": "kara.moe",
    "tid": "3d558999-9c58-4de9-87e9-5f8ecdf54acb",
    "types": [
      "series",
      "1"
    ]
  }
}