{
  "header": {
    "description": "Karaoke Mugen Tag File",
    "version": 1
  },
  "tag": {
    "i18n": {
      "eng": "Gô Ishikuro"
    },
    "name": "Gô Ishikuro",
    "repository": "kara.moe",
    "tid": "8681d449-ff9e-4dc0-8890-2a800af6df91",
    "types": [
      "songwriters",
      "8"
    ]
  }
}