{
  "header": {
    "description": "Karaoke Mugen Tag File",
    "version": 1
  },
  "tag": {
    "i18n": {
      "eng": "Gôjirô Nakayama"
    },
    "name": "Gôjirô Nakayama",
    "tid": "e493f65d-9691-40a8-9ccb-ab776a19c232",
    "types": [
      "songwriters",
      "8"
    ],
    "repository": "kara.moe",
    "modified_at": "2020-03-31T19:04:34.552Z"
  }
}