{
  "header": {
    "description": "Karaoke Mugen Tag File",
    "version": 1
  },
  "tag": {
    "i18n": {
      "eng": "Gpm"
    },
    "modified_at": "2020-07-22T17:04:41.832Z",
    "name": "Gpm",
    "repository": "kara.moe",
    "tid": "0eb8d4ae-e21b-4dc3-bfad-df1382396386",
    "types": [
      "songwriters",
      "8",
      "creators",
      "4"
    ]
  }
}