{
  "header": {
    "description": "Karaoke Mugen Tag File",
    "version": 1
  },
  "tag": {
    "i18n": {
      "eng": "Graham Edwards"
    },
    "name": "Graham Edwards",
    "repository": "kara.moe",
    "tid": "71548811-ed4c-44d5-93df-1982d9cf70e0",
    "types": [
      "songwriters",
      "8"
    ]
  }
}