{
  "header": {
    "description": "Karaoke Mugen Tag File",
    "version": 1
  },
  "tag": {
    "external_database_ids": {
      "anilist": 108147,
      "myanimelist": 39417,
      "kitsu": 42159
    },
    "i18n": {
      "eng": "Granbelm",
      "jpn": "グランベルム",
      "qro": "Granbelm"
    },
    "modified_at": "2020-03-31T19:04:31.600Z",
    "name": "Granbelm",
    "repository": "kara.moe",
    "tid": "c5977a29-0650-4b2e-947c-be25d7570270",
    "types": [
      "series",
      "1"
    ]
  }
}