{
  "header": {
    "description": "Karaoke Mugen Tag File",
    "version": 1
  },
  "tag": {
    "aliases": [
      "Baki (2001)"
    ],
    "external_database_ids": {
      "anilist": 1859,
      "myanimelist": 1859,
      "kitsu": 1676
    },
    "i18n": {
      "eng": "Baki the Grappler",
      "jpn": "グラップラー刃牙",
      "fre": "Baki the Grappler",
      "qro": "Grappler Baki"
    },
    "modified_at": "2021-07-25T00:59:04.611Z",
    "name": "Grappler Baki",
    "repository": "kara.moe",
    "tid": "82ee3ba1-50cd-4171-88c8-c6bb6735bf80",
    "types": [
      "series",
      "1"
    ]
  }
}