{
  "header": {
    "description": "Karaoke Mugen Tag File",
    "version": 1
  },
  "tag": {
    "i18n": {
      "eng": "Gravitation"
    },
    "name": "Gravitation",
    "repository": "kara.moe",
    "tid": "e85425bc-332b-4d6e-9fda-7b6a5637984b",
    "types": [
      "franchises",
      "18"
    ]
  }
}