{
  "header": {
    "description": "Karaoke Mugen Tag File",
    "version": 1
  },
  "tag": {
    "i18n": {
      "eng": "Green United Music"
    },
    "modified_at": "2021-11-21T21:41:58.197Z",
    "name": "Green United Music",
    "repository": "kara.moe",
    "tid": "d7ceb8ce-ec67-4bcb-ab8e-a7e4bdd3128f",
    "types": [
      "creators",
      "4"
    ]
  }
}