{
  "header": {
    "description": "Karaoke Mugen Tag File",
    "version": 1
  },
  "tag": {
    "i18n": {
      "eng": "Greta Svabo Bech"
    },
    "modified_at": "2020-08-29T18:21:19.292Z",
    "name": "Greta Svabo Bech",
    "repository": "kara.moe",
    "tid": "ddacb5f7-92c1-4419-b1c6-84c4117c602d",
    "types": [
      "singers",
      "2"
    ]
  }
}