{
  "header": {
    "description": "Karaoke Mugen Tag File",
    "version": 1
  },
  "tag": {
    "i18n": {
      "eng": "Gridman Universe",
      "jpn": "グリッドマン ユニバース"
    },
    "name": "Gridman Universe",
    "repository": "kara.moe",
    "tid": "6a4337fe-5d58-40cb-b8bb-b62c7ba0e63c",
    "types": [
      "franchises",
      "18"
    ]
  }
}