{
  "header": {
    "description": "Karaoke Mugen Tag File",
    "version": 1
  },
  "tag": {
    "i18n": {
      "eng": "Group Tamashi"
    },
    "name": "Group Tamashi",
    "tid": "0972d11e-9982-43ab-b460-a0ec39952f60",
    "types": [
      "singers",
      "2"
    ],
    "repository": "kara.moe",
    "modified_at": "2020-03-31T19:04:34.570Z"
  }
}