{
  "header": {
    "description": "Karaoke Mugen Tag File",
    "version": 1
  },
  "tag": {
    "i18n": {
      "eng": "Guchiko"
    },
    "name": "Guchiko",
    "repository": "kara.moe",
    "tid": "fb1d9bc2-f799-47c1-a587-e5ce9d19bb28",
    "types": [
      "creators",
      "4"
    ]
  }
}