{
  "header": {
    "description": "Karaoke Mugen Tag File",
    "version": 1
  },
  "tag": {
    "i18n": {
      "eng": "Guillaume Beaujolais"
    },
    "name": "Guillaume Beaujolais",
    "tid": "ee29ec13-3d09-46ae-a609-a098cabbe444",
    "types": [
      "singers",
      "2"
    ],
    "repository": "kara.moe",
    "modified_at": "2020-03-31T19:04:34.573Z"
  }
}