{
  "header": {
    "description": "Karaoke Mugen Tag File",
    "version": 1
  },
  "tag": {
    "aliases": [
      "ギルティギア"
    ],
    "i18n": {
      "eng": "Guilty Gear -Strive-"
    },
    "name": "Guilty Gear (2020)",
    "repository": "kara.moe",
    "tid": "fa5f9325-0975-4df8-b3a8-8f9ef0c5aa2a",
    "types": [
      "series",
      "1"
    ]
  }
}