{
  "header": {
    "description": "Karaoke Mugen Tag File",
    "version": 1
  },
  "tag": {
    "i18n": {
      "eng": "Guillaume Houzé"
    },
    "name": "Guillaume Houzé",
    "tid": "4017dce3-d99c-4210-961a-850c61ca43e4",
    "types": [
      "songwriters",
      "8"
    ],
    "repository": "kara.moe",
    "modified_at": "2020-03-31T19:04:34.575Z"
  }
}