{
  "header": {
    "description": "Karaoke Mugen Tag File",
    "version": 1
  },
  "tag": {
    "aliases": [
      "Sakmė apie Guiną",
      "Сага за Гуин",
      "Сага о Гуине",
      "豹头王传说"
    ],
    "external_database_ids": {
      "anilist": 5041,
      "myanimelist": 5041,
      "kitsu": 3900
    },
    "i18n": {
      "eng": "Guin Saga",
      "jpn": "グイン・サーガ",
      "qro": "Guin Saga"
    },
    "modified_at": "2020-03-31T19:04:31.614Z",
    "name": "Guin Saga",
    "repository": "kara.moe",
    "tid": "0b5c7f0d-2708-47e3-a43b-50ffb245009d",
    "types": [
      "series",
      "1"
    ]
  }
}