{
  "header": {
    "description": "Karaoke Mugen Tag File",
    "version": 1
  },
  "tag": {
    "i18n": {
      "eng": "Gustav Mared"
    },
    "name": "Gustav Mared",
    "repository": "kara.moe",
    "tid": "829cc44e-61ee-483f-be5f-2117ed14f9f9",
    "types": [
      "songwriters",
      "8"
    ]
  }
}