{
  "header": {
    "description": "Karaoke Mugen Tag File",
    "version": 1
  },
  "tag": {
    "i18n": {
      "eng": "Guy Berriman"
    },
    "name": "Guy Berriman",
    "repository": "kara.moe",
    "tid": "06ebc99e-0407-4379-b01f-400ba091ddd8",
    "types": [
      "songwriters",
      "8"
    ]
  }
}