{
  "header": {
    "description": "Karaoke Mugen Tag File",
    "version": 1
  },
  "tag": {
    "aliases": [
      "GyakuSai",
      "Phoenix Wright"
    ],
    "external_database_ids": {},
    "i18n": {
      "eng": "Ace Attorney",
      "jpn": "逆転裁判",
      "qro": "Gyakuten Saiban"
    },
    "name": "Gyakuten Saiban",
    "repository": "kara.moe",
    "tid": "276aa63d-ebe7-44d3-817f-957edb4966b2",
    "types": [
      "franchises",
      "18"
    ]
  }
}