{
  "header": {
    "description": "Karaoke Mugen Tag File",
    "version": 1
  },
  "tag": {
    "i18n": {
      "eng": "Gyuuniku"
    },
    "name": "Gyuuniku",
    "repository": "kara.moe",
    "tid": "82b2f33f-3dbf-4079-835f-02b48cd68a16",
    "types": [
      "songwriters",
      "8"
    ]
  }
}