{
  "header": {
    "description": "Karaoke Mugen Tag File",
    "version": 1
  },
  "tag": {
    "i18n": {
      "eng": "HaccaWorks*"
    },
    "name": "HaccaWorks*",
    "tid": "f202084b-8dff-48b7-b327-71b166a2d64b",
    "types": [
      "creators",
      "4"
    ],
    "repository": "kara.moe",
    "modified_at": "2020-03-31T19:04:34.588Z"
  }
}