{
  "header": {
    "description": "Karaoke Mugen Tag File",
    "version": 1
  },
  "tag": {
    "aliases": [
      "Bal Ve Yonca",
      "HachiKuro",
      "Hachimitsu & Clover",
      "Hachimitsu to Kuroba",
      "Honey & Clover",
      "Honey and Clover",
      "Mel e Trevo",
      "Miód i koniczyna",
      "W poszukiwaniu czterolistnej koniczyny",
      "h&c",
      "Μέλι και Τριφύλλι",
      "Мед з конюшиною",
      "Мед и Детелина",
      "Мед і клевер І",
      "Мёд и клевер",
      "דבש ותלתן",
      "عسل و شبدر"
    ],
    "external_database_ids": {
      "anilist": 16,
      "myanimelist": 16,
      "kitsu": 7
    },
    "i18n": {
      "bul": "Хъни и Кловър",
      "chi": "蜂蜜与四叶草",
      "cze": "Med a Čtyřlístek",
      "eng": "Honey & Clover",
      "hun": "Méz és lóhere",
      "jpn": "ハチミツとクローバー",
      "pol": "Honey & Clover",
      "por": "Honey & Clover",
      "rum": "Honey & Clover",
      "spa": "Honey & Clover",
      "tha": "หวานใจกับใบโคลเวอร์",
      "qro": "Hachimitsu to Clover"
    },
    "modified_at": "2020-03-31T19:04:31.625Z",
    "name": "Hachimitsu to Clover",
    "repository": "kara.moe",
    "tid": "f733cbf5-993b-4c26-99d9-1a4e4de0be8f",
    "types": [
      "series",
      "1",
      "franchises",
      "18"
    ]
  }
}