{
  "header": {
    "description": "Karaoke Mugen Tag File",
    "version": 1
  },
  "tag": {
    "aliases": [
      "(2009) الخيميائي المعدني الكامل",
      "FMA (2009)",
      "FMA Brotherhood",
      "FMA2",
      "FMA: B",
      "FMA:B",
      "FMAB",
      "Full Metal Alchemist 2",
      "Full Metal Alchemist: Brotherhood",
      "Fullmetal Alchemist (2009)",
      "Fullmetal Alchemist 2",
      "Fullmetal Alchemist Brotherhood",
      "Fullmetal Alchemist: Teräsalkemisti",
      "HagaRen",
      "HagaRen (2009)",
      "Haganeno",
      "Metal Simyacı: Kardeşlik",
      "Metalinis Alchemikas 2",
      "Stalowy Alchemik",
      "Stålalkemisten",
      "hagaren2",
      "Металният алхимик 2",
      "Металният алхимик: Братство",
      "Стальной Алхимик: Братство",
      "Стоманеният алхимик (2009 г.)",
      "Стоманеният алхимик 2",
      "Стоманеният алхимик: Братство",
      "Суцільнометалевий алхімік: Братерство",
      "אלכימאי המתכת 2009",
      "الخيميائي المعدني الكامل: الأخوة",
      "鋼之鍊金術師 BROTHERHOOD",
      "钢之炼金术师 2009",
      "강철의 연금술사 리메이크"
    ],
    "external_database_ids": {
      "anilist": 5114,
      "myanimelist": 5114,
      "kitsu": 3936
    },
    "i18n": {
      "bul": "Железният алхимик: Братство",
      "chi": "钢之炼金术师 FULLMETAL ALCHEMIST",
      "cze": "Fullmetal Alchemist - Bratrství",
      "eng": "Fullmetal Alchemist: Brotherhood",
      "fre": "Fullmetal Alchemist: Brotherhood",
      "ger": "Fullmetal Alchemist Brotherhood",
      "hun": "Fullmetal Alchemist: Testvériség",
      "ita": "Fullmetal Alchemist: Brotherhood",
      "jpn": "鋼の錬金術師 FULLMETAL ALCHEMIST (2009)",
      "mon": "Цулметаллан Алхимич: Ахан дүүсийн барилдлага",
      "per": "کیمیاگر تمام فلزی : داستان برادری",
      "por": "Fullmetal Alchemist: Brotherhood",
      "rum": "Full Metal Alchemist: Fraternitate",
      "spa": "Fullmetal Alchemist: Brotherhood",
      "ukr": "Сталевий алхімік. Братерство",
      "qro": "Hagane no Renkinjutsushi: Fullmetal Alchemist"
    },
    "modified_at": "2020-03-31T19:04:31.628Z",
    "name": "Hagane no Renkinjutsushi: Fullmetal Alchemist",
    "repository": "kara.moe",
    "tid": "9efa9cb0-6474-4f49-9757-08aed6e3274d",
    "types": [
      "series",
      "1"
    ]
  }
}