{
  "header": {
    "description": "Karaoke Mugen Tag File",
    "version": 1
  },
  "tag": {
    "aliases": [
      "Fighting Spirit TV",
      "Hajime no Ippo",
      "HnI",
      "ippo",
      "Боен дух: Борбата",
      "Первый шаг",
      "هاجيمي نو إيبو"
    ],
    "external_database_ids": {
      "anilist": 263,
      "myanimelist": 263,
      "kitsu": 238
    },
    "i18n": {
      "bul": "Боен дух: Борбата!",
      "eng": "Fighting Spirit",
      "fre": "Hajime no Ippo: The Fighting!",
      "jpn": "はじめの一歩 THE FIGHTING!",
      "kor": "더 파이팅",
      "spa": "Espíritu de Lucha",
      "tha": "ก้าวแรกสู่สังเวียน",
      "qro": "Hajime no Ippo: The Fighting!"
    },
    "modified_at": "2020-03-31T19:04:31.640Z",
    "name": "Hajime no Ippo: The Fighting!",
    "repository": "kara.moe",
    "tid": "276cb567-2411-4410-9c83-6f20e9c3ec64",
    "types": [
      "series",
      "1"
    ]
  }
}