{
  "header": {
    "description": "Karaoke Mugen Tag File",
    "version": 1
  },
  "tag": {
    "aliases": [
      "Hakkenden: Touhou Hakken Ibun",
      "Хаккэндэн: Легенда о восьми псах востока",
      "touhou"
    ],
    "external_database_ids": {
      "anilist": 15613,
      "myanimelist": 15613,
      "kitsu": 7284
    },
    "i18n": {
      "eng": "Hakkenden: Eight Dogs of the East",
      "jpn": "八犬伝 -東方八犬異聞-",
      "chi": "八犬传-东方八犬异闻-",
      "qro": "Hakkenden: Tôhô Hakken Ibun"
    },
    "modified_at": "2020-08-19T21:01:15.181Z",
    "name": "Hakkenden: Tôhô Hakken Ibun",
    "repository": "kara.moe",
    "tid": "d488d21a-39a3-4bd8-9ee6-ed545f54676d",
    "types": [
      "series",
      "1",
      "franchises",
      "18"
    ]
  }
}