{
  "header": {
    "description": "Karaoke Mugen Tag File",
    "version": 1
  },
  "tag": {
    "aliases": [
      "Dilute Cherry Demon: Strangely-spoken-of Shinsengumi",
      "Hakuoki",
      "Hakuoki SSL",
      "Hakuoki: Shinsengumi Kitan",
      "Hakuouki Shinsengumi Kitan",
      "Демонът в черешите: Хроники за Шинсенгуми",
      "薄樱鬼",
      "hakuouki"
    ],
    "external_database_ids": {
      "anilist": 6895,
      "myanimelist": 6895,
      "kitsu": 4775
    },
    "i18n": {
      "eng": "Hakuoki: Demon of the Fleeting Blossom",
      "fre": "Hakuôki: Demon of the Fleeting Blossom",
      "jpn": "薄桜鬼 新選組奇譚",
      "qro": "Hakuôki: Shinsengumi Kitan"
    },
    "modified_at": "2020-03-31T19:04:31.644Z",
    "name": "Hakuôki: Shinsengumi Kitan",
    "repository": "kara.moe",
    "tid": "5c01f3f5-2aba-4162-be6e-b3a88666686e",
    "types": [
      "series",
      "1"
    ]
  }
}