{
  "header": {
    "description": "Karaoke Mugen Tag File",
    "version": 1
  },
  "tag": {
    "aliases": [
      "HAL"
    ],
    "i18n": {
      "eng": "HΛL"
    },
    "name": "HΛL",
    "tid": "7b03b824-9e49-4fbb-b336-257e32204860",
    "types": [
      "singers",
      "2"
    ],
    "repository": "kara.moe",
    "modified_at": "2020-03-31T19:04:34.603Z"
  }
}