{
  "header": {
    "description": "Karaoke Mugen Tag File",
    "version": 1
  },
  "tag": {
    "aliases": [
      "花八岐"
    ],
    "external_database_ids": {
      "anilist": 20575,
      "myanimelist": 21681,
      "kitsu": 8138
    },
    "i18n": {
      "eng": "Hanayamata",
      "fre": "HaNaYaMaTa",
      "jpn": "ハナヤマタ",
      "qro": "Hanayamata"
    },
    "modified_at": "2020-03-31T19:04:31.653Z",
    "name": "Hanayamata",
    "repository": "kara.moe",
    "tid": "ee62bd3e-067c-4d44-9af1-882373dec46b",
    "types": [
      "series",
      "1"
    ]
  }
}