{
  "header": {
    "description": "Karaoke Mugen Tag File",
    "version": 1
  },
  "tag": {
    "aliases": [
      "HMG",
      "Monogatari Series: Second Season +α"
    ],
    "external_database_ids": {
      "anilist": 20593,
      "myanimelist": 21855,
      "kitsu": 8032
    },
    "i18n": {
      "eng": "Hanamonogatari",
      "jpn": "花物語 するがデビル",
      "qro": "Hanamonogatari"
    },
    "modified_at": "2020-03-31T19:04:31.649Z",
    "name": "Hanamonogatari",
    "repository": "kara.moe",
    "tid": "8e11b98d-f63b-4e99-819f-2830186e54c2",
    "types": [
      "series",
      "1"
    ]
  }
}