{
  "header": {
    "description": "Karaoke Mugen Tag File",
    "version": 1
  },
  "tag": {
    "i18n": {
      "eng": "Hanae"
    },
    "name": "Hanae",
    "tid": "4b200b1b-ca34-469d-b54e-93e57687ea78",
    "types": [
      "singers",
      "2"
    ],
    "repository": "kara.moe",
    "modified_at": "2020-03-31T19:04:34.615Z"
  }
}