{
  "header": {
    "description": "Karaoke Mugen Tag File",
    "version": 1
  },
  "tag": {
    "i18n": {
      "eng": "Hana Awase",
      "jpn": "華アワセ",
      "qro": "Hana Awase"
    },
    "name": "Hana Awase",
    "repository": "kara.moe",
    "tid": "2a680247-2f8a-4b62-b429-db0ba08efc2e",
    "types": [
      "franchises",
      "18"
    ]
  }
}