{
  "header": {
    "description": "Karaoke Mugen Tag File",
    "version": 1
  },
  "tag": {
    "external_database_ids": {
      "anilist": 1812,
      "myanimelist": 1812,
      "kitsu": 1630
    },
    "i18n": {
      "eng": "Hanoka",
      "jpn": "HANOKA~葉ノ香~",
      "qro": "Hanoka"
    },
    "modified_at": "2020-03-31T19:04:31.656Z",
    "name": "Hanoka",
    "repository": "kara.moe",
    "tid": "29d32809-5edd-436c-aab5-15321a104689",
    "types": [
      "series",
      "1"
    ]
  }
}