{
  "header": {
    "description": "Karaoke Mugen Tag File",
    "version": 1
  },
  "tag": {
    "i18n": {
      "eng": "Hao Chen"
    },
    "name": "Hao Chen",
    "repository": "kara.moe",
    "tid": "ec7c2fcb-adc2-48a6-8d35-f87910a46253",
    "types": [
      "songwriters",
      "8"
    ]
  }
}