{
  "header": {
    "description": "Karaoke Mugen Tag File",
    "version": 1
  },
  "tag": {
    "aliases": [
      "HL"
    ],
    "external_database_ids": {},
    "i18n": {
      "eng": "HAPPY☆LESSON"
    },
    "name": "Happy Lesson",
    "repository": "kara.moe",
    "tid": "0a85ffb7-6c8b-457b-9250-8890f31a6c50",
    "types": [
      "franchises",
      "18"
    ]
  }
}