{
  "header": {
    "description": "Karaoke Mugen Tag File",
    "version": 1
  },
  "tag": {
    "i18n": {
      "eng": "Haruko Momoi"
    },
    "name": "Haruko Momoi",
    "tid": "6b469883-82b3-4fa3-8b2b-c374aab91f81",
    "types": [
      "singers",
      "2",
      "songwriters",
      "8"
    ],
    "repository": "kara.moe",
    "modified_at": "2020-03-31T19:04:34.649Z"
  }
}