{
  "header": {
    "description": "Karaoke Mugen Tag File",
    "version": 1
  },
  "tag": {
    "i18n": {
      "eng": "HARUKI"
    },
    "modified_at": "2021-10-29T19:00:29.213Z",
    "name": "HARUKI",
    "repository": "kara.moe",
    "tid": "b8f79bab-1439-446f-a404-7a4ec202a91f",
    "types": [
      "singers",
      "2"
    ]
  }
}