{
  "header": {
    "description": "Karaoke Mugen Tag File",
    "version": 1
  },
  "tag": {
    "i18n": {
      "eng": "Haruka Kudô"
    },
    "name": "Haruka Kudô",
    "tid": "4497072a-f5b1-471b-9427-e4dfd4f7158d",
    "types": [
      "singers",
      "2"
    ],
    "repository": "kara.moe",
    "modified_at": "2020-03-31T19:04:34.638Z"
  }
}