{
  "header": {
    "description": "Karaoke Mugen Tag File",
    "version": 1
  },
  "tag": {
    "i18n": {
      "eng": "Haruo Yoda"
    },
    "modified_at": "2020-05-12T13:33:36.907Z",
    "name": "Haruo Yoda",
    "repository": "kara.moe",
    "tid": "177d4884-85ba-466f-b00f-e438e100967c",
    "types": [
      "songwriters",
      "8"
    ]
  }
}