{
  "header": {
    "description": "Karaoke Mugen Tag File",
    "version": 1
  },
  "tag": {
    "i18n": {
      "eng": "Hasunosora Girls' High School Idol Club",
      "jpn": "蓮ノ空女学院スクールアイドルクラブ"
    },
    "name": "Hasunosora Girls' High School Idol Club",
    "repository": "kara.moe",
    "tid": "dac54d91-1b9b-4d49-843a-122b083d310d",
    "types": [
      "singergroups",
      "17"
    ]
  }
}