{
  "header": {
    "description": "Karaoke Mugen Tag File",
    "version": 1
  },
  "tag": {
    "i18n": {
      "eng": "Hatake"
    },
    "name": "Hatake",
    "tid": "9c4da7ef-47f1-4bbe-88c8-8a05ea73218f",
    "types": [
      "songwriters",
      "8"
    ],
    "repository": "kara.moe",
    "modified_at": "2020-03-31T19:04:34.658Z"
  }
}