{
  "header": {
    "description": "Karaoke Mugen Tag File",
    "version": 1
  },
  "tag": {
    "external_database_ids": {
      "anilist": 1592,
      "myanimelist": 1592,
      "kitsu": 1432
    },
    "i18n": {
      "eng": "Working Man",
      "jpn": "働きマン",
      "qro": "Hataraki Man"
    },
    "modified_at": "2020-03-31T19:04:31.663Z",
    "name": "Hataraki Man",
    "repository": "kara.moe",
    "tid": "bb71100f-598f-44c0-9a8e-3d58ebb2fb8e",
    "types": [
      "series",
      "1"
    ]
  }
}