{
  "header": {
    "description": "Karaoke Mugen Tag File",
    "version": 1
  },
  "tag": {
    "i18n": {
      "eng": "HaTo"
    },
    "name": "HaTo",
    "repository": "kara.moe",
    "tid": "82787f1e-81da-4bb8-aacf-54488bab4877",
    "types": [
      "songwriters",
      "8"
    ]
  }
}