{
  "header": {
    "description": "Karaoke Mugen Tag File",
    "version": 1
  },
  "tag": {
    "aliases": [
      "Hatsune Miku: Project DIVA F 2nd"
    ],
    "i18n": {
      "eng": "Hatsune Miku: Project DIVA ƒ 2nd",
      "jpn": "初音ミク Project DIVA ƒ 2nd",
      "qro": "Hatsune Miku ~ Project DIVA F 2nd"
    },
    "modified_at": "2020-03-31T19:04:31.669Z",
    "name": "Hatsune Miku ~ Project DIVA F 2nd",
    "repository": "kara.moe",
    "tid": "a22abd37-5fc3-49d9-8aef-9cda9851d992",
    "types": [
      "series",
      "1"
    ]
  }
}