{
  "header": {
    "description": "Karaoke Mugen Tag File",
    "version": 1
  },
  "tag": {
    "i18n": {
      "eng": "Hatsune Miku: Project DIVA Arcade Future Tone",
      "jpn": "初音ミク -Project DIVA Arcade Future Tone-",
      "qro": "Hatsune Miku ~ Project DIVA Arcade Future Tone"
    },
    "modified_at": "2020-03-31T19:04:31.669Z",
    "name": "Hatsune Miku ~ Project DIVA Arcade Future Tone",
    "repository": "kara.moe",
    "tid": "10b144ba-23b0-412a-9d78-253af4ee10ae",
    "types": [
      "series",
      "1"
    ]
  }
}