{
  "header": {
    "description": "Karaoke Mugen Tag File",
    "version": 1
  },
  "tag": {
    "i18n": {
      "eng": "HAYAMETAL"
    },
    "name": "HAYAMETAL",
    "repository": "kara.moe",
    "tid": "1b9a8497-be7b-44a4-b818-338573937699",
    "types": [
      "songwriters",
      "8"
    ]
  }
}