{
  "header": {
    "description": "Karaoke Mugen Tag File",
    "version": 1
  },
  "tag": {
    "aliases": [
      "He Si Wei"
    ],
    "i18n": {
      "chi": "何思薇",
      "qro": "Hé Sī Wēi"
    },
    "name": "Hé Sī Wēi",
    "repository": "kara.moe",
    "tid": "761c53bf-da3a-4d1f-b6b1-1f15f8c682b2",
    "types": [
      "songwriters",
      "8"
    ]
  }
}