{
  "header": {
    "description": "Karaoke Mugen Tag File",
    "version": 1
  },
  "tag": {
    "i18n": {
      "eng": "Heather Anne Campbell"
    },
    "name": "Heather Anne Campbell",
    "repository": "kara.moe",
    "tid": "429b2c4a-8b2e-4433-bcf6-ff9751d928a7",
    "types": [
      "singers",
      "2",
      "songwriters",
      "8"
    ]
  }
}