{
  "header": {
    "description": "Karaoke Mugen Tag File",
    "version": 1
  },
  "tag": {
    "i18n": {
      "eng": "Heinrich Riethmüller"
    },
    "modified_at": "2021-12-04T22:16:25.915Z",
    "name": "Heinrich Riethmüller",
    "repository": "kara.moe",
    "tid": "c68bdefa-858f-41d8-9519-7df4177944cb",
    "types": [
      "songwriters",
      "8"
    ]
  }
}