{
  "header": {
    "description": "Karaoke Mugen Tag File",
    "version": 1
  },
  "tag": {
    "i18n": {
      "eng": "Hekicha"
    },
    "name": "Hekicha",
    "tid": "139d798d-dfef-47cb-8060-71d9fe41071c",
    "types": [
      "creators",
      "4"
    ],
    "repository": "kara.moe",
    "modified_at": "2020-03-31T19:04:34.674Z"
  }
}