{
  "header": {
    "description": "Karaoke Mugen Tag File",
    "version": 1
  },
  "tag": {
    "i18n": {
      "eng": "Her0ism"
    },
    "name": "Her0ism",
    "tid": "d268f6f2-8c82-4719-89e8-2f75b2cb2ff4",
    "types": [
      "songwriters",
      "8"
    ],
    "repository": "kara.moe",
    "modified_at": "2020-03-31T19:04:34.683Z"
  }
}