{
  "header": {
    "description": "Karaoke Mugen Tag File",
    "version": 1
  },
  "tag": {
    "i18n": {
      "jpn": "へたのよこずき",
      "qro": "Heta no Yokozuki"
    },
    "name": "Heta no Yokozuki",
    "repository": "kara.moe",
    "tid": "358558ee-7a4f-48df-9b0a-5987c4be3191",
    "types": [
      "creators",
      "4"
    ]
  }
}