{
  "header": {
    "description": "Karaoke Mugen Tag File",
    "version": 1
  },
  "tag": {
    "i18n": {
      "eng": "Hewigkeyt"
    },
    "name": "Hewigkeyt",
    "tid": "5fdaaa56-79aa-465c-91f9-afb1938c3eb6",
    "types": [
      "authors",
      "6"
    ],
    "repository": "kara.moe",
    "modified_at": "2020-03-31T19:04:34.692Z"
  }
}