{
  "header": {
    "description": "Karaoke Mugen Tag File",
    "version": 1
  },
  "tag": {
    "i18n": {
      "eng": "Hideki Sudô"
    },
    "name": "Hideki Sudô",
    "tid": "77c47d8a-85de-4529-944a-a921936324e7",
    "types": [
      "songwriters",
      "8"
    ],
    "repository": "kara.moe",
    "modified_at": "2020-03-31T19:04:34.708Z"
  }
}