{
  "header": {
    "description": "Karaoke Mugen Tag File",
    "version": 1
  },
  "tag": {
    "i18n": {
      "eng": "Hideaki Yamasaki"
    },
    "name": "Hideaki Yamasaki",
    "tid": "090f4e68-cddb-4760-814d-465e101a3b91",
    "types": [
      "songwriters",
      "8"
    ],
    "repository": "kara.moe",
    "modified_at": "2020-03-31T19:04:34.702Z"
  }
}