{
  "header": {
    "description": "Karaoke Mugen Tag File",
    "version": 1
  },
  "tag": {
    "i18n": {
      "eng": "Hidehiro Kawai"
    },
    "name": "Hidehiro Kawai",
    "tid": "d5a3ea27-e89d-4602-8387-9d6b56ffc68b",
    "types": [
      "songwriters",
      "8"
    ],
    "repository": "kara.moe",
    "modified_at": "2020-03-31T19:04:34.703Z"
  }
}