{
  "header": {
    "description": "Karaoke Mugen Tag File",
    "version": 1
  },
  "tag": {
    "i18n": {
      "eng": "Hideya Nakazaki"
    },
    "name": "Hideya Nakazaki",
    "tid": "2aecc865-0078-446f-ad57-6a8dbd41cfaa",
    "types": [
      "songwriters",
      "8"
    ],
    "repository": "kara.moe",
    "modified_at": "2020-03-31T19:04:34.722Z"
  }
}