{
  "header": {
    "description": "Karaoke Mugen Tag File",
    "version": 1
  },
  "tag": {
    "i18n": {
      "eng": "Hideki Hayashi"
    },
    "name": "Hideki Hayashi",
    "tid": "7ad63b19-c045-434a-9275-7253a8ac332d",
    "types": [
      "songwriters",
      "8"
    ],
    "repository": "kara.moe",
    "modified_at": "2020-03-31T19:04:34.705Z"
  }
}