{
  "header": {
    "description": "Karaoke Mugen Tag File",
    "version": 1
  },
  "tag": {
    "i18n": {
      "eng": "Hige Driver"
    },
    "name": "Hige Driver",
    "tid": "ad8ef7bf-28ee-4c9b-b454-07bef357f053",
    "types": [
      "singers",
      "2",
      "songwriters",
      "8"
    ],
    "repository": "kara.moe",
    "modified_at": "2020-03-31T19:04:34.725Z"
  }
}