{
  "header": {
    "description": "Karaoke Mugen Tag File",
    "version": 1
  },
  "tag": {
    "aliases": [
      "HiguKira",
      "The Moment the Cicadas Cry",
      "higu4",
      "le sanglot des cigales",
      "В час коли плачуть цикади:Блиск",
      "Яскравий час коли плачуть цикади",
      "hnnkn",
      "WTC"
    ],
    "external_database_ids": {
      "anilist": 10491,
      "myanimelist": 10491,
      "kitsu": 6204
    },
    "i18n": {
      "eng": "Higurashi: When They Cry – Kira",
      "fre": "Hinamizawa, le village maudit ‒ OVA (Kira)",
      "jpn": "ひぐらしのなく頃に煌",
      "qro": "Higurashi no Naku Koro ni Kira"
    },
    "modified_at": "2020-10-08T20:20:58.156Z",
    "name": "Higurashi no Naku Koro ni Kira",
    "repository": "kara.moe",
    "tid": "f999201d-761a-4528-a189-75b141e66dfd",
    "types": [
      "series",
      "1"
    ]
  }
}