{
  "header": {
    "description": "Karaoke Mugen Tag File",
    "version": 1
  },
  "tag": {
    "aliases": [
      "Hikari - Die kleinen Superstars",
      "Legend of Light",
      "Legenda Światła",
      "The Story of Hikari",
      "Легенда о Хикари"
    ],
    "external_database_ids": {
      "anilist": 2224,
      "myanimelist": 2224,
      "kitsu": 2015
    },
    "i18n": {
      "eng": "Legend of Light",
      "fre": "Cynthia ou le rythme de la vie",
      "ger": "Die kleinen Superstars",
      "ita": "Hilary",
      "jpn": "光の伝説",
      "spa": "Piruetas",
      "qro": "Hikari no Densetsu"
    },
    "modified_at": "2020-03-31T19:04:31.706Z",
    "name": "Hikari no Densetsu",
    "repository": "kara.moe",
    "tid": "ff5150b5-20d9-468e-87fe-a60bc7e4575c",
    "types": [
      "series",
      "1"
    ]
  }
}