{
  "header": {
    "description": "Karaoke Mugen Tag File",
    "version": 1
  },
  "tag": {
    "i18n": {
      "jpn": "葉月 ひまり",
      "qro": "Himari Hazuki"
    },
    "name": "Himari Hazuki",
    "repository": "kara.moe",
    "tid": "4c03d862-2bec-46eb-a044-ad87dc8fba87",
    "types": [
      "singers",
      "2"
    ]
  }
}