{
  "header": {
    "description": "Karaoke Mugen Tag File",
    "version": 1
  },
  "tag": {
    "external_database_ids": {
      "anilist": 102875,
      "myanimelist": 36945,
      "kitsu": 41961
    },
    "i18n": {
      "eng": "HIMOTE HOUSE: A share house of super psychic girls",
      "jpn": "ひもてはうす",
      "qro": "Himote House"
    },
    "modified_at": "2020-03-31T19:04:31.711Z",
    "name": "Himote House",
    "repository": "kara.moe",
    "tid": "6a0a3c31-499b-4ec1-8dc9-e67344dc2570",
    "types": [
      "series",
      "1"
    ]
  }
}