{
  "header": {
    "description": "Karaoke Mugen Tag File",
    "version": 1
  },
  "tag": {
    "i18n": {
      "eng": "HINA☆GERU"
    },
    "modified_at": "2021-04-09T12:11:26.219Z",
    "name": "HINA☆GERU",
    "repository": "kara.moe",
    "tid": "a9f3ba76-e9c8-4ac9-8bc5-5b6bb9c73f4c",
    "types": [
      "singers",
      "2"
    ]
  }
}