{
  "header": {
    "description": "Karaoke Mugen Tag File",
    "version": 1
  },
  "tag": {
    "aliases": [
      "Rain in the Sunshine"
    ],
    "external_database_ids": {
      "anilist": 20471,
      "myanimelist": 20673,
      "kitsu": 8080
    },
    "i18n": {
      "eng": "Sonny Boy & Dewdrop Girl",
      "fre": "Hinata no Aoshigure",
      "jpn": "陽なたのアオシグレ",
      "qro": "Hinata no Aoshigure"
    },
    "modified_at": "2020-03-31T19:04:31.715Z",
    "name": "Hinata no Aoshigure",
    "repository": "kara.moe",
    "tid": "0d9eb0f7-b62f-4179-82d3-3dd1ada6ba25",
    "types": [
      "series",
      "1"
    ]
  }
}