{
  "header": {
    "description": "Karaoke Mugen Tag File",
    "version": 1
  },
  "tag": {
    "i18n": {
      "eng": "hinayukki"
    },
    "name": "hinayukki",
    "repository": "kara.moe",
    "tid": "a3785d6d-902f-4da1-a5fb-8ee8c52511a8",
    "types": [
      "creators",
      "4",
      "songwriters",
      "8"
    ]
  }
}