{
  "header": {
    "description": "Karaoke Mugen Tag File",
    "version": 1
  },
  "tag": {
    "i18n": {
      "eng": "Hina Suzuki"
    },
    "name": "Hina Suzuki",
    "tid": "b12eca1b-2ee4-456e-bad6-f76d92a1ed00",
    "types": [
      "singers",
      "2"
    ],
    "repository": "kara.moe",
    "modified_at": "2020-03-31T19:04:34.749Z"
  }
}