{
  "header": {
    "description": "Karaoke Mugen Tag File",
    "version": 1
  },
  "tag": {
    "i18n": {
      "eng": "Hinako Tsubakiyama",
      "jpn": "日南子 椿山"
    },
    "name": "Hinako Tsubakiyama",
    "repository": "kara.moe",
    "tid": "3b51e1dd-a00c-4cf6-94b0-9eb6660f65e2",
    "types": [
      "songwriters",
      "8"
    ]
  }
}