{
  "header": {
    "description": "Karaoke Mugen Tag File",
    "version": 1
  },
  "tag": {
    "i18n": {
      "eng": "Hirotaka Suzuoki"
    },
    "modified_at": "2020-11-21T15:51:06.092Z",
    "name": "Hirotaka Suzuoki",
    "repository": "kara.moe",
    "tid": "d95eee14-96af-4236-b5c4-31f430620676",
    "types": [
      "singers",
      "2"
    ]
  }
}