{
  "header": {
    "description": "Karaoke Mugen Tag File",
    "version": 1
  },
  "tag": {
    "i18n": {
      "eng": "Hiroki Arai"
    },
    "name": "Hiroki Arai",
    "tid": "53cdc0b6-b1af-4942-9fad-a275fa273e1d",
    "types": [
      "songwriters",
      "8"
    ],
    "repository": "kara.moe",
    "modified_at": "2020-03-31T19:04:34.774Z"
  }
}