{
  "header": {
    "description": "Karaoke Mugen Tag File",
    "version": 1
  },
  "tag": {
    "i18n": {
      "eng": "Hironaga Masuda"
    },
    "name": "Hironaga Masuda",
    "tid": "dcc83bdb-265d-4334-ab1f-a6a8336afc3a",
    "types": [
      "songwriters",
      "8"
    ],
    "repository": "kara.moe",
    "modified_at": "2020-03-31T19:04:34.799Z"
  }
}