{
  "header": {
    "description": "Karaoke Mugen Tag File",
    "version": 1
  },
  "tag": {
    "i18n": {
      "eng": "Hiromoto Tobisawa"
    },
    "name": "Hiromoto Tobisawa",
    "tid": "813f690e-15f7-4900-9b9e-45d13db10733",
    "types": [
      "songwriters",
      "8"
    ],
    "repository": "kara.moe",
    "modified_at": "2020-03-31T19:04:34.797Z"
  }
}