{
  "header": {
    "description": "Karaoke Mugen Tag File",
    "version": 1
  },
  "tag": {
    "i18n": {
      "eng": "Hiromi Hirata"
    },
    "name": "Hiromi Hirata",
    "tid": "51abb542-01b4-4267-821e-56c07d9a2705",
    "types": [
      "singers",
      "2"
    ],
    "repository": "kara.moe",
    "modified_at": "2020-03-31T19:04:34.789Z"
  }
}