{
  "header": {
    "description": "Karaoke Mugen Tag File",
    "version": 1
  },
  "tag": {
    "i18n": {
      "eng": "Hiromi Igarashi"
    },
    "name": "Hiromi Igarashi",
    "tid": "58b21a71-099b-4723-955f-ad08271d96c2",
    "types": [
      "singers",
      "2"
    ],
    "repository": "kara.moe",
    "modified_at": "2020-03-31T19:04:34.790Z"
  }
}