{
  "header": {
    "description": "Karaoke Mugen Tag File",
    "version": 1
  },
  "tag": {
    "i18n": {
      "eng": "Hiroaki Suzuku"
    },
    "name": "Hiroaki Suzuku",
    "tid": "99fe48e4-6619-40b6-9c52-6ef968b14e9a",
    "types": [
      "songwriters",
      "8"
    ],
    "repository": "kara.moe",
    "modified_at": "2020-03-31T19:04:34.766Z"
  }
}