{
  "header": {
    "description": "Karaoke Mugen Tag File",
    "version": 1
  },
  "tag": {
    "i18n": {
      "eng": "Hiroto Kômoto"
    },
    "name": "Hiroto Kômoto",
    "tid": "219fdd2a-0e88-4fa9-b838-3ee60a3cdc53",
    "types": [
      "songwriters",
      "8"
    ],
    "repository": "kara.moe",
    "modified_at": "2020-03-31T19:04:34.822Z"
  }
}