{
  "header": {
    "description": "Karaoke Mugen Tag File",
    "version": 1
  },
  "tag": {
    "i18n": {
      "eng": "HIRO-X"
    },
    "name": "HIRO-X",
    "tid": "2f2b3a6f-e1e8-438d-8d75-9f6232e0f65e",
    "types": [
      "singers",
      "2"
    ],
    "repository": "kara.moe",
    "modified_at": "2020-03-31T19:04:34.760Z"
  }
}