{
  "header": {
    "description": "Karaoke Mugen Tag File",
    "version": 1
  },
  "tag": {
    "i18n": {
      "eng": "Hirth"
    },
    "modified_at": "2021-02-08T19:27:59.283Z",
    "name": "Hirth",
    "repository": "kara.moe",
    "tid": "c9f9df30-d953-4b5e-afcf-6ea0baf35513",
    "types": [
      "songwriters",
      "8"
    ]
  }
}