{
  "header": {
    "description": "Karaoke Mugen Tag File",
    "version": 1
  },
  "tag": {
    "i18n": {
      "eng": "Hisaaki Hogari"
    },
    "name": "Hisaaki Hogari",
    "tid": "c67c1c2e-6008-4c8a-b994-89ba79f63465",
    "types": [
      "songwriters",
      "8"
    ],
    "repository": "kara.moe",
    "modified_at": "2020-03-31T19:04:34.846Z"
  }
}