{
  "header": {
    "description": "Karaoke Mugen Tag File",
    "version": 1
  },
  "tag": {
    "i18n": {
      "eng": "Hitomi Mieno"
    },
    "name": "Hitomi Mieno",
    "tid": "bd984759-eefc-46cf-9d04-bed84bec292d",
    "types": [
      "songwriters",
      "8",
      "singers",
      "2"
    ],
    "repository": "kara.moe",
    "modified_at": "2020-03-31T19:04:34.858Z"
  }
}