{
  "header": {
    "description": "Karaoke Mugen Tag File",
    "version": 1
  },
  "tag": {
    "i18n": {
      "eng": "Hitomi Nabatame"
    },
    "name": "Hitomi Nabatame",
    "repository": "kara.moe",
    "tid": "81cc41a1-1887-43e9-8a09-a7b43c55af32",
    "types": [
      "singers",
      "2",
      "songwriters",
      "8"
    ]
  }
}