{
  "header": {
    "description": "Karaoke Mugen Tag File",
    "version": 1
  },
  "tag": {
    "i18n": {
      "eng": "Hitomi Ueda"
    },
    "name": "Hitomi Ueda",
    "tid": "a72844b8-6b7a-49f9-aacd-43f3c266c1ba",
    "types": [
      "singers",
      "2"
    ],
    "repository": "kara.moe",
    "modified_at": "2020-03-31T19:04:34.862Z"
  }
}