{
  "header": {
    "description": "Karaoke Mugen Tag File",
    "version": 1
  },
  "tag": {
    "i18n": {
      "eng": "Hitomi (Kuroishi)",
      "jpn": "黒石ひとみ",
      "qro": "Kuroishi Hitomi"
    },
    "modified_at": "2021-10-21T20:44:45.230Z",
    "name": "Hitomi (Kuroishi)",
    "repository": "kara.moe",
    "tid": "c2fd519e-a49f-44fe-be70-29038398b1af",
    "types": [
      "singers",
      "2",
      "songwriters",
      "8"
    ]
  }
}