{
  "header": {
    "description": "Karaoke Mugen Tag File",
    "version": 1
  },
  "tag": {
    "aliases": [
      "Hitori Bocchi's Marumaru Lifestyle",
      "Hitori Bocchi's ○○ Lifestyle",
      "Hitoribocchi no Marumaruseikatsu",
      "Hitoribocchi no OO Seikatsu"
    ],
    "external_database_ids": {
      "anilist": 101386,
      "myanimelist": 37614,
      "kitsu": 41124
    },
    "i18n": {
      "eng": "Hitori Bocchi no Marumaru Seikatsu",
      "jpn": "ひとりぼっちの○○生活",
      "qro": "Hitoribocchi no Marumaru Seikatsu"
    },
    "modified_at": "2020-03-31T19:04:31.718Z",
    "name": "Hitoribocchi no Marumaru Seikatsu",
    "repository": "kara.moe",
    "tid": "1e30ff5a-0557-407a-8b59-c7a908d3a9eb",
    "types": [
      "series",
      "1"
    ]
  }
}