{
  "header": {
    "description": "Karaoke Mugen Tag File",
    "version": 1
  },
  "tag": {
    "i18n": {
      "eng": "Hitotsuyanagi Tai"
    },
    "modified_at": "2021-01-13T20:11:15.571Z",
    "name": "Hitotsuyanagi Tai",
    "repository": "kara.moe",
    "tid": "1de5781c-8351-418c-9bc6-f96618737d31",
    "types": [
      "singers",
      "2"
    ]
  }
}