{
  "header": {
    "description": "Karaoke Mugen Tag File",
    "version": 1
  },
  "tag": {
    "i18n": {
      "eng": "Homecomings"
    },
    "name": "Homecomings",
    "tid": "3e878ec4-31b3-42a1-ab61-0bb385718b4f",
    "types": [
      "creators",
      "4",
      "singers",
      "2",
      "songwriters",
      "8"
    ],
    "repository": "kara.moe",
    "modified_at": "2020-03-31T19:04:34.875Z"
  }
}