{
  "header": {
    "description": "Karaoke Mugen Tag File",
    "version": 1
  },
  "tag": {
    "i18n": {
      "eng": "Hong Ying Animation"
    },
    "name": "Hong Ying Animation",
    "tid": "7f71ce0f-3ed7-46e5-9046-7751b0582c63",
    "types": [
      "creators",
      "4"
    ],
    "repository": "kara.moe",
    "modified_at": "2020-03-31T19:04:34.879Z"
  }
}