{
  "header": {
    "description": "Karaoke Mugen Tag File",
    "version": 1
  },
  "tag": {
    "i18n": {
      "eng": "Horimoto Riku"
    },
    "modified_at": "2021-08-02T22:35:18.895Z",
    "name": "Horimoto Riku",
    "repository": "kara.moe",
    "tid": "6bbea770-88f5-4bb4-b5e4-3d4e359290c3",
    "types": [
      "songwriters",
      "8"
    ]
  }
}