{
  "header": {
    "description": "Karaoke Mugen Tag File",
    "version": 1
  },
  "tag": {
    "i18n": {
      "eng": "Hoshimi Aoi"
    },
    "name": "Hoshimi Aoi",
    "repository": "kara.moe",
    "tid": "45b25ca2-c585-463c-9783-9e5ee9e96445",
    "types": [
      "singers",
      "2"
    ]
  }
}