{
  "header": {
    "description": "Karaoke Mugen Tag File",
    "version": 1
  },
  "tag": {
    "aliases": [
      "Children Who Chase Stars",
      "Hoshi o Ou Kodomo",
      "Journey to Agartha",
      "별을 쫓는 아이"
    ],
    "external_database_ids": {
      "anilist": 9760,
      "myanimelist": 9760,
      "kitsu": 5855
    },
    "i18n": {
      "eng": "Children Who Chase Lost Voices",
      "jpn": "星を追う子ども",
      "cze": "Děti, které následují hvězdy",
      "lit": "Vaikai, kurie vijosi žvaigždes",
      "spa": "Viaje a Agartha",
      "fre": "Voyage vers Agartha",
      "ger": "Die Reise nach Agartha",
      "rus": "Ловцы забытых голосов",
      "tha": "เด็กสาวกับเสียงเพรียกแห่งพิภพเทวา",
      "kor": "별을 쫓는 아이:아가르타의 전설",
      "qro": "Hoshi wo Ou Kodomo"
    },
    "modified_at": "2020-06-01T14:32:07.682Z",
    "name": "Hoshi wo Ou Kodomo",
    "repository": "kara.moe",
    "tid": "766273b5-8515-4a07-8377-dd16f8bd8e0d",
    "types": [
      "series",
      "1"
    ]
  }
}