{
  "header": {
    "description": "Karaoke Mugen Tag File",
    "version": 1
  },
  "tag": {
    "i18n": {
      "eng": "Hotalsou"
    },
    "name": "Hotalsou",
    "tid": "1fae1f7b-c74d-4739-a02b-ca87890ca146",
    "types": [
      "creators",
      "4"
    ],
    "repository": "kara.moe",
    "modified_at": "2020-03-31T19:04:34.885Z"
  }
}