{
  "header": {
    "description": "Karaoke Mugen Tag File",
    "version": 1
  },
  "tag": {
    "aliases": [
      "Hourou Musuko",
      "Wandering Son",
      "Блудный сын",
      "hourou"
    ],
    "external_database_ids": {
      "anilist": 8426,
      "myanimelist": 8426,
      "kitsu": 5331
    },
    "i18n": {
      "eng": "Wandering Son",
      "fre": "Hôrô Musuko",
      "jpn": "放浪息子",
      "qro": "Hôrô Musuko"
    },
    "modified_at": "2020-03-31T19:04:31.730Z",
    "name": "Hôrô Musuko",
    "repository": "kara.moe",
    "tid": "3377ca17-6931-4929-a131-4cae4da5af6d",
    "types": [
      "series",
      "1"
    ]
  }
}