{
  "header": {
    "description": "Karaoke Mugen Tag File",
    "version": 1
  },
  "tag": {
    "i18n": {
      "eng": "HuaMei Animation"
    },
    "name": "HuaMei Animation",
    "repository": "kara.moe",
    "tid": "6a84270a-1c05-49f9-8bbd-0c5ae2ab5d9c",
    "types": [
      "creators",
      "4"
    ]
  }
}