{
  "header": {
    "description": "Karaoke Mugen Tag File",
    "version": 1
  },
  "tag": {
    "aliases": [
      "pretty cure",
      "ハグっと! プリキュア"
    ],
    "external_database_ids": {
      "anilist": 100661,
      "myanimelist": 36593,
      "kitsu": 13972
    },
    "i18n": {
      "eng": "Hugtto! PreCure",
      "jpn": "HuGっと! プリキュア",
      "qro": "Hugtto! PreCure"
    },
    "modified_at": "2020-03-31T19:04:31.733Z",
    "name": "Hugtto! PreCure",
    "repository": "kara.moe",
    "tid": "d25dd0a6-1a5c-420a-a0f2-697043af7c3b",
    "types": [
      "series",
      "1"
    ]
  }
}