{
  "header": {
    "description": "Karaoke Mugen Tag File",
    "version": 1
  },
  "tag": {
    "aliases": [
      "GIF",
      "GIFinal",
      "Hunter X Hunter OVA 3",
      "HxH GI Final",
      "HxH GIF",
      "HxH Greed Island Final",
      "HxH OVA 3",
      "hunterxhunter",
      "ハンター×ハンター"
    ],
    "external_database_ids": {
      "anilist": 139,
      "myanimelist": 139,
      "kitsu": 118
    },
    "i18n": {
      "eng": "Hunter × Hunter: Greed Island Final",
      "fre": "Hunter × Hunter: Greed Island Final",
      "jpn": "HUNTER×HUNTER G・I Final",
      "tha": "ฮันเตอร์ x ฮันเตอร์ OVA GI FINAL",
      "qro": "Hunter X Hunter: Greed Island Final"
    },
    "modified_at": "2020-06-21T23:45:31.966Z",
    "name": "Hunter X Hunter: Greed Island Final",
    "repository": "kara.moe",
    "tid": "7366210d-0b2c-4ccd-893a-4eaf62f84eb2",
    "types": [
      "series",
      "1"
    ]
  }
}