{
  "header": {
    "description": "Karaoke Mugen Tag File",
    "version": 1
  },
  "tag": {
    "i18n": {
      "eng": "hyde"
    },
    "name": "hyde",
    "tid": "d9dfb8ac-7af2-46de-b963-b91d5d1a580c",
    "types": [
      "singers",
      "2",
      "songwriters",
      "8"
    ],
    "repository": "kara.moe",
    "modified_at": "2020-03-31T19:04:34.901Z"
  }
}