{
  "header": {
    "description": "Karaoke Mugen Tag File",
    "version": 1
  },
  "tag": {
    "i18n": {
      "eng": "Hydraxs"
    },
    "modified_at": "2021-07-20T20:52:14.282Z",
    "name": "Hydraxs",
    "repository": "kara.moe",
    "tid": "921dc57c-e3e5-4a36-b1d7-399f5dec952a",
    "types": [
      "authors",
      "6"
    ]
  }
}