{
  "header": {
    "description": "Karaoke Mugen Tag File",
    "version": 1
  },
  "tag": {
    "i18n": {
      "eng": "Hypergryph"
    },
    "name": "Hypergryph",
    "repository": "kara.moe",
    "tid": "2401a14c-16ce-4050-aeec-661b6517d3d2",
    "types": [
      "creators",
      "4"
    ]
  }
}