{
  "header": {
    "description": "Karaoke Mugen Tag File",
    "version": 1
  },
  "tag": {
    "i18n": {
      "eng": "I Ragazzi dai capelli rossi"
    },
    "name": "I Ragazzi dai capelli rossi",
    "tid": "3843afd4-d614-4002-9e1e-cd79da2583aa",
    "types": [
      "singers",
      "2"
    ],
    "repository": "kara.moe",
    "modified_at": "2020-03-31T19:04:34.907Z"
  }
}