{
  "header": {
    "description": "Karaoke Mugen Tag File",
    "version": 1
  },
  "tag": {
    "i18n": {
      "eng": "iCarly"
    },
    "name": "iCarly",
    "repository": "kara.moe",
    "tid": "e254cf3a-fa4a-4937-b974-9088c9e1e8ac",
    "types": [
      "series",
      "1"
    ]
  }
}