{
  "header": {
    "description": "Karaoke Mugen Tag File",
    "version": 1
  },
  "tag": {
    "i18n": {
      "eng": "Icefeed"
    },
    "name": "Icefeed",
    "repository": "kara.moe",
    "tid": "2a9febcc-f195-4ca2-9912-4f6484e05a00",
    "types": [
      "authors",
      "6"
    ]
  }
}