{
  "header": {
    "description": "Karaoke Mugen Tag File",
    "version": 1
  },
  "tag": {
    "i18n": {
      "eng": "Ichirô Zaitsu"
    },
    "name": "Ichirô Zaitsu",
    "tid": "b6b12d63-cb76-4069-9e8f-5e2061f5431e",
    "types": [
      "singers",
      "2"
    ],
    "repository": "kara.moe",
    "modified_at": "2020-03-31T19:04:34.926Z"
  }
}