{
  "header": {
    "description": "Karaoke Mugen Tag File",
    "version": 1
  },
  "tag": {
    "external_database_ids": {
      "anilist": 110350,
      "myanimelist": 40046,
      "kitsu": 42436
    },
    "i18n": {
      "eng": "ID: Invaded",
      "fre": "ID: INVADED",
      "jpn": "イド:インヴェイデッド",
      "qro": "ID:INVADED"
    },
    "modified_at": "2020-03-31T19:04:31.752Z",
    "name": "ID:INVADED",
    "repository": "kara.moe",
    "tid": "196a1e94-f876-4881-8a10-c29e7f76487a",
    "types": [
      "series",
      "1"
    ]
  }
}