{
  "header": {
    "description": "Karaoke Mugen Tag File",
    "version": 1
  },
  "tag": {
    "aliases": [
      "Idolish Seven"
    ],
    "external_database_ids": {
      "anilist": 87495,
      "myanimelist": 33899,
      "kitsu": 12558
    },
    "i18n": {
      "eng": "Idolish 7",
      "fre": "IDOLiSH7",
      "jpn": "アイドリッシュセブン",
      "kor": "아이돌리쉬 세븐",
      "qro": "IDOLiSH7"
    },
    "modified_at": "2020-03-31T19:04:31.755Z",
    "name": "IDOLiSH7",
    "repository": "kara.moe",
    "tid": "f10b60e8-7eb3-483e-be70-e31721a08c61",
    "types": [
      "series",
      "1"
    ]
  }
}