{
  "header": {
    "description": "Karaoke Mugen Tag File",
    "version": 1
  },
  "tag": {
    "i18n": {
      "eng": "IDOLiSH7"
    },
    "name": "IDOLiSH7",
    "tid": "875ba926-cb94-4b7e-942a-051122feb923",
    "types": [
      "singers",
      "2"
    ],
    "repository": "kara.moe",
    "modified_at": "2020-03-31T19:04:34.934Z"
  }
}