{
  "header": {
    "description": "Karaoke Mugen Tag File",
    "version": 1
  },
  "tag": {
    "aliases": [
      "Idol x Senshi Miracle Tunes!"
    ],
    "i18n": {
      "jpn": "Idol x Warrior Miracle Tunes!",
      "qro": "Idol x Warrior Miracle Tunes!"
    },
    "modified_at": "2020-03-31T19:04:31.755Z",
    "name": "Idol x Warrior Miracle Tunes!",
    "repository": "kara.moe",
    "tid": "2e018eac-6763-4bff-a286-a52ad0be2b79",
    "types": [
      "series",
      "1"
    ]
  }
}