{
  "header": {
    "description": "Karaoke Mugen Tag File",
    "version": 1
  },
  "tag": {
    "external_database_ids": {
      "anilist": 2762,
      "myanimelist": 2762,
      "kitsu": 2522
    },
    "i18n": {
      "ara": "نينجا",
      "bul": "Игано Кабамару",
      "eng": "Igano Kabamaru",
      "fre": "Ninja Boy",
      "gre": "Καμπαμαρού",
      "ita": "Ninja Boy",
      "jpn": "伊賀野カバ丸",
      "qro": "Igano Kabamaru"
    },
    "modified_at": "2020-03-31T19:04:31.758Z",
    "name": "Igano Kabamaru",
    "repository": "kara.moe",
    "tid": "7bc9fe57-e386-4548-9809-188c05c92332",
    "types": [
      "series",
      "1"
    ]
  }
}