{
  "header": {
    "description": "Karaoke Mugen Tag File",
    "version": 1
  },
  "tag": {
    "i18n": {
      "eng": "Igit"
    },
    "name": "Igit",
    "repository": "kara.moe",
    "tid": "c4a5f408-308a-423b-9a67-3383e3e8c66d",
    "types": [
      "songwriters",
      "8"
    ]
  }
}