{
  "header": {
    "description": "Karaoke Mugen Tag File",
    "version": 1
  },
  "tag": {
    "i18n": {},
    "name": "ikoany",
    "repository": "kara.moe",
    "tid": "efacb317-0b94-4e2a-b82a-06fcf237243b",
    "types": [
      "songwriters",
      "8"
    ]
  }
}