{
  "header": {
    "description": "Karaoke Mugen Tag File",
    "version": 1
  },
  "tag": {
    "i18n": {
      "eng": "Ikuko Ebata"
    },
    "name": "Ikuko Ebata",
    "tid": "eae43792-43ca-44cd-871b-5d46e5531c45",
    "types": [
      "songwriters",
      "8"
    ],
    "repository": "kara.moe",
    "modified_at": "2020-03-31T19:04:34.946Z"
  }
}