{
  "header": {
    "description": "Karaoke Mugen Tag File",
    "version": 1
  },
  "tag": {
    "i18n": {
      "eng": "IMAGICA DIGITALSCAPE"
    },
    "name": "IMAGICA DIGITALSCAPE",
    "repository": "kara.moe",
    "tid": "6511c8c4-2dd8-426b-94d8-874787026dea",
    "types": [
      "creators",
      "4"
    ]
  }
}