{
  "header": {
    "description": "Karaoke Mugen Tag File",
    "version": 1
  },
  "tag": {
    "i18n": {
      "eng": "Insert Song"
    },
    "karafile_tag": "IN",
    "modified_at": "2021-02-14T15:58:33.907Z",
    "name": "IN",
    "priority": 15,
    "repository": "kara.moe",
    "tid": "5e5250d9-351a-4a82-98eb-55db50ad8962",
    "types": [
      "songtypes",
      "3"
    ]
  }
}