{
  "header": {
    "description": "Karaoke Mugen Tag File",
    "version": 1
  },
  "tag": {
    "aliases": [
      "Innocence: Enzai Bengoshi",
      "bengoushi"
    ],
    "i18n": {
      "eng": "Innocence: Enzai Bengôshi",
      "jpn": "イノセンス～冤罪弁護士～",
      "qro": "Innocence: Enzai Bengôshi"
    },
    "modified_at": "2020-03-31T19:04:31.781Z",
    "name": "Innocence: Enzai Bengôshi",
    "repository": "kara.moe",
    "tid": "625c4de0-9722-476c-9bb5-ea692c9a0843",
    "types": [
      "series",
      "1"
    ]
  }
}