{
  "header": {
    "description": "Karaoke Mugen Tag File",
    "version": 1
  },
  "tag": {
    "i18n": {
      "eng": "Intel"
    },
    "name": "Intel",
    "tid": "61dfd6da-1980-4286-b9df-0ef6859b230a",
    "types": [
      "creators",
      "4"
    ],
    "repository": "kara.moe",
    "modified_at": "2020-03-31T19:04:34.970Z"
  }
}