{
  "header": {
    "description": "Karaoke Mugen Tag File",
    "version": 1
  },
  "tag": {
    "i18n": {
      "eng": "Iron Maiden"
    },
    "name": "Iron Maiden",
    "repository": "kara.moe",
    "tid": "22ff7bf3-f4f9-4adf-86f3-daa126bb3b6a",
    "types": [
      "singers",
      "2"
    ]
  }
}