{
  "header": {
    "description": "Karaoke Mugen Tag File",
    "version": 1
  },
  "tag": {
    "i18n": {
      "eng": "Iron King",
      "jpn": "アイアンキング",
      "qro": "Iron King"
    },
    "modified_at": "2020-12-31T17:08:30.190Z",
    "name": "Iron King",
    "repository": "kara.moe",
    "tid": "5ddfe422-e49d-4b79-9126-24cd66999179",
    "types": [
      "series",
      "1"
    ]
  }
}