{
  "header": {
    "description": "Karaoke Mugen Tag File",
    "version": 1
  },
  "tag": {
    "aliases": [
      "Colorful World",
      "Iroseka",
      "Want To Spread My Wings and Fly Into The Sky"
    ],
    "i18n": {
      "eng": "Irotoridori no Sekai",
      "jpn": "いろとりどりのセカイ",
      "qro": "Irotoridori no Sekai"
    },
    "modified_at": "2020-03-31T19:04:31.789Z",
    "name": "Irotoridori no Sekai",
    "repository": "kara.moe",
    "tid": "e9506580-e499-4eca-af19-942b32d2ca8a",
    "types": [
      "series",
      "1"
    ]
  }
}