{
  "header": {
    "description": "Karaoke Mugen Tag File",
    "version": 1
  },
  "tag": {
    "i18n": {
      "eng": "Isseifûbi SEPIA"
    },
    "name": "Isseifûbi SEPIA",
    "tid": "21c01519-ca10-411e-a347-2e7e46983a18",
    "types": [
      "singers",
      "2",
      "songwriters",
      "8"
    ],
    "repository": "kara.moe",
    "modified_at": "2020-03-31T19:04:34.996Z"
  }
}