{
  "header": {
    "description": "Karaoke Mugen Tag File",
    "version": 1
  },
  "tag": {
    "aliases": [
      "ItsuTen"
    ],
    "external_database_ids": {
      "anilist": 9750,
      "myanimelist": 9750,
      "kitsu": 5850
    },
    "i18n": {
      "eng": "A Dark Rabbit has Seven Lives",
      "fre": "Dark Rabbit",
      "jpn": "いつか天魔の黒ウサギ",
      "qro": "Itsuka Tenma no Kuro Usagi"
    },
    "modified_at": "2020-03-31T19:04:31.801Z",
    "name": "Itsuka Tenma no Kuro Usagi",
    "repository": "kara.moe",
    "tid": "e73b34bc-5595-48cd-8195-95b5219a78a4",
    "types": [
      "series",
      "1"
    ]
  }
}