{
  "header": {
    "description": "Karaoke Mugen Tag File",
    "version": 1
  },
  "tag": {
    "i18n": {
      "eng": "J.A. Seazer"
    },
    "name": "J.A. Seazer",
    "tid": "775fbb22-042e-4ce8-bde4-a10cc7fc7d82",
    "types": [
      "songwriters",
      "8"
    ],
    "repository": "kara.moe",
    "modified_at": "2020-03-31T19:04:35.012Z"
  }
}