{
  "header": {
    "description": "Karaoke Mugen Tag File",
    "version": 1
  },
  "tag": {
    "aliases": [
      "Jennifer Batten"
    ],
    "i18n": {
      "eng": "J.BATTEN"
    },
    "name": "J.BATTEN",
    "repository": "kara.moe",
    "tid": "2353a12f-7a26-4dd6-a9fc-342b1ea50eca",
    "types": [
      "songwriters",
      "8"
    ],
    "modified_at": "2020-03-31T19:04:35.013Z"
  }
}