{
  "header": {
    "description": "Karaoke Mugen Tag File",
    "version": 1
  },
  "tag": {
    "i18n": {
      "eng": "Jacques Siatem"
    },
    "name": "Jacques Siatem",
    "tid": "c691f372-ef5c-4327-b91d-038099be0159",
    "types": [
      "songwriters",
      "8"
    ],
    "repository": "kara.moe",
    "modified_at": "2020-03-31T19:04:35.024Z"
  }
}