{
  "header": {
    "description": "Karaoke Mugen Tag File",
    "version": 1
  },
  "tag": {
    "i18n": {
      "eng": "Jacques Cardona"
    },
    "name": "Jacques Cardona",
    "repository": "kara.moe",
    "tid": "0db109f6-3725-4fb3-8719-9d7c8303cb67",
    "types": [
      "singers",
      "2",
      "songwriters",
      "8"
    ]
  }
}