{
  "header": {
    "description": "Karaoke Mugen Tag File",
    "version": 1
  },
  "tag": {
    "i18n": {
      "eng": "Jaejoong"
    },
    "modified_at": "2020-09-11T13:37:56.746Z",
    "name": "Jaejoong",
    "repository": "kara.moe",
    "tid": "66c68de6-a591-4840-8f84-57601db8e733",
    "types": [
      "singers",
      "2"
    ]
  }
}