{
  "header": {
    "description": "Karaoke Mugen Tag File",
    "version": 1
  },
  "tag": {
    "i18n": {
      "eng": "JAMIL"
    },
    "name": "JAMIL",
    "tid": "39c85c9f-51ae-413f-bbf0-eee52071758e",
    "types": [
      "singers",
      "2",
      "songwriters",
      "8"
    ],
    "repository": "kara.moe",
    "modified_at": "2020-03-31T19:04:35.030Z"
  }
}