{
  "header": {
    "description": "Karaoke Mugen Tag File",
    "version": 1
  },
  "tag": {
    "aliases": [
      "One Piece: Nejimakijima no Bouken"
    ],
    "i18n": {
      "eng": "Jango's Dance Carnival"
    },
    "modified_at": "2020-08-28T19:48:01.866Z",
    "name": "Jango's Dance Carnival",
    "repository": "kara.moe",
    "tid": "e661aac8-7cf1-4572-b0c8-e44cf7027d11",
    "types": [
      "series",
      "1"
    ]
  }
}