{
  "header": {
    "description": "Karaoke Mugen Tag File",
    "version": 1
  },
  "tag": {
    "i18n": {
      "eng": "Japanese children"
    },
    "name": "Japanese children",
    "tid": "0c30d5fa-8f3e-4539-87cc-41a1900c709f",
    "types": [
      "singers",
      "2"
    ],
    "repository": "kara.moe",
    "modified_at": "2020-03-31T19:04:35.034Z"
  }
}