{
  "header": {
    "description": "Karaoke Mugen Tag File",
    "version": 1
  },
  "tag": {
    "i18n": {
      "eng": "Jason Joel Desrouleaux"
    },
    "name": "Jason Joel Desrouleaux",
    "repository": "kara.moe",
    "tid": "5c1afc9e-1f41-4ad4-b19c-b0144b48917a",
    "types": [
      "songwriters",
      "8"
    ]
  }
}