{
  "header": {
    "description": "Karaoke Mugen Tag File",
    "version": 1
  },
  "tag": {
    "i18n": {
      "eng": "Jay Fernel"
    },
    "name": "Jay Fernel",
    "tid": "84a2f136-b9e1-4fe9-9a83-3f36a0386882",
    "types": [
      "songwriters",
      "8"
    ],
    "repository": "kara.moe",
    "modified_at": "2020-03-31T19:04:35.041Z"
  }
}