{
  "header": {
    "description": "Karaoke Mugen Tag File",
    "version": 1
  },
  "tag": {
    "i18n": {
      "eng": "Jean Luc Roudaut"
    },
    "name": "Jean Luc Roudaut",
    "tid": "69652d51-8127-4ab8-a568-c84931ea2c71",
    "types": [
      "singers",
      "2"
    ],
    "repository": "kara.moe",
    "modified_at": "2020-03-31T19:04:35.046Z"
  }
}