{
  "header": {
    "description": "Karaoke Mugen Tag File",
    "version": 1
  },
  "tag": {
    "i18n": {
      "eng": "Jean Kluger"
    },
    "name": "Jean Kluger",
    "repository": "kara.moe",
    "tid": "0106349a-1d82-44f5-9a6a-a4bece66e0d4",
    "types": [
      "songwriters",
      "8"
    ]
  }
}