{
  "header": {
    "description": "Karaoke Mugen Tag File",
    "version": 1
  },
  "tag": {
    "i18n": {
      "eng": "Jean-Marc Chastel"
    },
    "name": "Jean-Marc Chastel",
    "repository": "kara.moe",
    "tid": "ca055190-0130-4dba-b024-66147fb9932c",
    "types": [
      "singers",
      "2"
    ]
  }
}