{
  "header": {
    "description": "Karaoke Mugen Tag File",
    "version": 1
  },
  "tag": {
    "i18n": {
      "eng": "Jean Renard"
    },
    "name": "Jean Renard",
    "tid": "ab695150-8bf4-4611-a2b6-b750e2780fda",
    "types": [
      "songwriters",
      "8"
    ],
    "repository": "kara.moe",
    "modified_at": "2020-03-31T19:04:35.048Z"
  }
}