{
  "header": {
    "description": "Karaoke Mugen Tag File",
    "version": 1
  },
  "tag": {
    "i18n": {
      "eng": "Jean Chalopin"
    },
    "name": "Jean Chalopin",
    "tid": "0bd2c054-3dcd-4ff6-9fc3-011d72a82391",
    "types": [
      "singers",
      "2",
      "songwriters",
      "8"
    ],
    "repository": "kara.moe",
    "modified_at": "2020-03-31T19:04:35.044Z"
  }
}