{
  "header": {
    "description": "Karaoke Mugen Tag File",
    "version": 1
  },
  "tag": {
    "i18n": {
      "eng": "Jean-Pierre Savelli"
    },
    "name": "Jean-Pierre Savelli",
    "tid": "6a1720a7-d034-42b5-8a01-cc9302bf737d",
    "types": [
      "singers",
      "2"
    ],
    "repository": "kara.moe",
    "modified_at": "2020-03-31T19:04:35.061Z"
  }
}