{
  "header": {
    "description": "Karaoke Mugen Tag File",
    "version": 1
  },
  "tag": {
    "i18n": {
      "eng": "JeetSingh"
    },
    "name": "JeetSingh",
    "tid": "cc912a36-ced7-4b33-8b3d-ec12848ba0b8",
    "types": [
      "songwriters",
      "8"
    ],
    "repository": "kara.moe",
    "modified_at": "2020-03-31T19:04:35.064Z"
  }
}