{
  "header": {
    "description": "Karaoke Mugen Tag File",
    "version": 1
  },
  "tag": {
    "i18n": {
      "eng": "Jeff Lau"
    },
    "name": "Jeff Lau",
    "repository": "kara.moe",
    "tid": "667e29fa-1dce-4b21-9b1c-8b8865c4406b",
    "types": [
      "creators",
      "4"
    ]
  }
}