{
  "header": {
    "description": "Karaoke Mugen Tag File",
    "version": 1
  },
  "tag": {
    "i18n": {
      "eng": "Jeremy Soule"
    },
    "name": "Jeremy Soule",
    "repository": "kara.moe",
    "tid": "25157b72-ac81-473d-8b4b-c4aa86000b84",
    "types": [
      "songwriters",
      "8"
    ]
  }
}