{
  "header": {
    "description": "Karaoke Mugen Tag File",
    "version": 1
  },
  "tag": {
    "i18n": {
      "eng": "Jermaine Jackson"
    },
    "name": "Jermaine Jackson",
    "repository": "kara.moe",
    "tid": "7104d24e-27d2-4324-b9ea-72beb92d802f",
    "types": [
      "singers",
      "2"
    ]
  }
}