{
  "header": {
    "description": "Karaoke Mugen Tag File",
    "version": 1
  },
  "tag": {
    "i18n": {
      "eng": "Jim Sweeney"
    },
    "modified_at": "2021-01-13T18:12:32.062Z",
    "name": "Jim Sweeney",
    "repository": "kara.moe",
    "tid": "c76260e4-3d58-4dd4-8eb7-8b6e6ed6b865",
    "types": [
      "creators",
      "4"
    ]
  }
}