{
  "header": {
    "description": "Karaoke Mugen Tag File",
    "version": 1
  },
  "tag": {
    "i18n": {
      "eng": "Jimmy Wilcox"
    },
    "name": "Jimmy Wilcox",
    "repository": "kara.moe",
    "tid": "7bb67bf5-67e3-4ac2-8a58-106b9c556ab6",
    "types": [
      "singers",
      "2"
    ],
    "modified_at": "2020-03-31T19:04:35.085Z"
  }
}