{
  "header": {
    "description": "Karaoke Mugen Tag File",
    "version": 1
  },
  "tag": {
    "i18n": {
      "eng": "Jisoo"
    },
    "name": "Jisoo",
    "repository": "kara.moe",
    "tid": "7b9f8c73-2567-4e43-85b6-6e8d31253f07",
    "types": [
      "songwriters",
      "8"
    ]
  }
}