{
  "header": {
    "description": "Karaoke Mugen Tag File",
    "version": 1
  },
  "tag": {
    "i18n": {
      "eng": "Joël Cartigny"
    },
    "name": "Joël Cartigny",
    "tid": "b157e4c0-7201-4d4d-933c-5e4fe8281a53",
    "types": [
      "singers",
      "2"
    ],
    "repository": "kara.moe",
    "modified_at": "2020-03-31T19:04:35.106Z"
  }
}