{
  "header": {
    "description": "Karaoke Mugen Tag File",
    "version": 1
  },
  "tag": {
    "i18n": {
      "eng": "Johnny's WEST"
    },
    "name": "Johnny's WEST",
    "tid": "c956be20-ca0f-4fc3-b52e-067d0aaf331c",
    "types": [
      "singers",
      "2"
    ],
    "repository": "kara.moe",
    "modified_at": "2020-03-31T19:04:35.116Z"
  }
}