{
  "header": {
    "description": "Karaoke Mugen Tag File",
    "version": 1
  },
  "tag": {
    "i18n": {
      "eng": "Johnny"
    },
    "name": "Johnny",
    "repository": "kara.moe",
    "tid": "b97dba5b-390e-487f-b24c-f37ab5492ac4",
    "types": [
      "songwriters",
      "8"
    ]
  }
}