{
  "header": {
    "description": "Karaoke Mugen Tag File",
    "version": 1
  },
  "tag": {
    "i18n": {
      "eng": "Jolly"
    },
    "name": "Jolly",
    "repository": "kara.moe",
    "tid": "0ca7350f-6821-49e2-bb51-657122ae21b0",
    "types": [
      "singers",
      "2"
    ]
  }
}