{
  "header": {
    "description": "Karaoke Mugen Tag File",
    "version": 1
  },
  "tag": {
    "i18n": {
      "eng": "Jon Anderson"
    },
    "name": "Jon Anderson",
    "tid": "dc1670e4-9db0-4443-bbaf-c2f3ed6b7fd2",
    "types": [
      "songwriters",
      "8"
    ],
    "repository": "kara.moe",
    "modified_at": "2020-03-31T19:04:35.117Z"
  }
}