{
  "header": {
    "description": "Karaoke Mugen Tag File",
    "version": 1
  },
  "tag": {
    "i18n": {
      "eng": "Jordan Kyle"
    },
    "name": "Jordan Kyle",
    "tid": "98392ff6-a730-46dd-a534-fb13de471c0d",
    "types": [
      "songwriters",
      "8"
    ],
    "repository": "kara.moe",
    "modified_at": "2020-03-31T19:04:35.124Z"
  }
}