{
  "header": {
    "description": "Karaoke Mugen Tag File",
    "version": 1
  },
  "tag": {
    "i18n": {
      "eng": "joru"
    },
    "name": "joru",
    "repository": "kara.moe",
    "tid": "218cce1b-2990-4737-9f0d-60fd008ebd54",
    "types": [
      "songwriters",
      "8"
    ]
  }
}