{
  "header": {
    "description": "Karaoke Mugen Tag File",
    "version": 1
  },
  "tag": {
    "i18n": {
      "eng": "Joy Deb"
    },
    "name": "Joy Deb",
    "repository": "kara.moe",
    "tid": "e40aad98-e200-4c8e-ac70-3ef50656e158",
    "types": [
      "songwriters",
      "8"
    ]
  }
}