{
  "header": {
    "description": "Karaoke Mugen Tag File",
    "version": 1
  },
  "tag": {
    "i18n": {
      "eng": "Joystick"
    },
    "name": "Joystick",
    "tid": "aedc2bf8-a9a7-46f2-a0fc-2614752b8385",
    "types": [
      "creators",
      "4"
    ],
    "repository": "kara.moe",
    "modified_at": "2020-03-31T19:04:35.130Z"
  }
}