{
  "header": {
    "description": "Karaoke Mugen Tag File",
    "version": 1
  },
  "tag": {
    "i18n": {
      "eng": "juhuu"
    },
    "name": "juhuu",
    "repository": "kara.moe",
    "tid": "9adc5187-3f19-4183-a00f-97e96e1476c5",
    "types": [
      "authors",
      "6"
    ]
  }
}