{
  "header": {
    "description": "Karaoke Mugen Tag File",
    "version": 1
  },
  "tag": {
    "i18n": {
      "eng": "Julien Lamassonne"
    },
    "name": "Julien Lamassonne",
    "tid": "5d623909-4b1a-4432-a686-073f064014bd",
    "types": [
      "singers",
      "2"
    ],
    "repository": "kara.moe",
    "modified_at": "2020-03-31T19:04:35.140Z"
  }
}