{
  "header": {
    "description": "Karaoke Mugen Tag File",
    "version": 1
  },
  "tag": {
    "i18n": {
      "eng": "Jun'ya Maesako"
    },
    "modified_at": "2020-08-19T21:33:38.380Z",
    "name": "Jun'ya Maesako",
    "repository": "kara.moe",
    "tid": "4323212f-95b8-4092-940b-2337bf063c26",
    "types": [
      "songwriters",
      "8"
    ]
  }
}