{
  "header": {
    "description": "Karaoke Mugen Tag File",
    "version": 1
  },
  "tag": {
    "aliases": [
      "Jungkook"
    ],
    "i18n": {
      "eng": "Jung Kook Jeon",
      "qro": "Jeon Jung Kook",
      "kor": "전정국"
    },
    "name": "Jungkook",
    "repository": "kara.moe",
    "tid": "f38f2fe5-9f54-4a8e-b3cf-d4f6c8f3ca98",
    "types": [
      "singers",
      "2",
      "songwriters",
      "8"
    ]
  }
}