{
  "header": {
    "description": "Karaoke Mugen Tag File",
    "version": 1
  },
  "tag": {
    "aliases": [
      "Jungle wa Itsumo Hale Nochi Guu FINAL",
      "guf",
      "guu"
    ],
    "external_database_ids": {
      "anilist": 255,
      "myanimelist": 255,
      "kitsu": 230
    },
    "i18n": {
      "eng": "Hare+Guu Final",
      "fre": "Haré+Guu Final",
      "jpn": "ジャングルはいつもハレのちグゥ FINAL",
      "kor": "정글은 언제나 맑은뒤 흐림 파이널",
      "qro": "Jungle wa Itsumo Hare Nochi Gû Final"
    },
    "modified_at": "2020-03-31T19:04:31.827Z",
    "name": "Jungle wa Itsumo Hare Nochi Gû Final",
    "repository": "kara.moe",
    "tid": "8504af3f-d186-4a85-a556-bdf67593743b",
    "types": [
      "series",
      "1"
    ]
  }
}