{
  "header": {
    "description": "Karaoke Mugen Tag File",
    "version": 1
  },
  "tag": {
    "i18n": {
      "eng": "Jungle Crew"
    },
    "name": "Jungle Crew",
    "repository": "kara.moe",
    "tid": "0388de5f-2c34-4f8c-a722-0b263ea309a9",
    "types": [
      "singers",
      "2"
    ]
  }
}