{
  "header": {
    "description": "Karaoke Mugen Tag File",
    "version": 1
  },
  "tag": {
    "i18n": {
      "eng": "Junky"
    },
    "name": "Junky",
    "tid": "c4df274a-7835-4484-99ea-00a1f7f2bfbd",
    "types": [
      "songwriters",
      "8"
    ],
    "repository": "kara.moe",
    "modified_at": "2020-03-31T19:04:35.198Z"
  }
}