{
  "header": {
    "description": "Karaoke Mugen Tag File",
    "version": 1
  },
  "tag": {
    "i18n": {
      "eng": "JUSME"
    },
    "name": "JUSME",
    "tid": "4f595d9c-c06d-4140-a46e-5183f04f3522",
    "types": [
      "songwriters",
      "8"
    ],
    "repository": "kara.moe",
    "modified_at": "2020-03-31T19:04:35.208Z"
  }
}