{
  "header": {
    "description": "Karaoke Mugen Tag File",
    "version": 1
  },
  "tag": {
    "i18n": {
      "eng": "Justin Gray"
    },
    "name": "Justin Gray",
    "repository": "kara.moe",
    "tid": "8130103f-94c8-45c5-b561-2bed20954ddc",
    "types": [
      "songwriters",
      "8"
    ],
    "modified_at": "2020-03-31T19:04:35.209Z"
  }
}