{
  "header": {
    "description": "Karaoke Mugen Tag File",
    "version": 1
  },
  "tag": {
    "aliases": [
      "Hayvan Kral'ın Gezegeni",
      "Ju Oh Sei",
      "Jyu Oh Sei",
      "Ο Πλανήτης του Βασιλιά των Θηρίων",
      "Планета короля зверей",
      "Планетата на Краля на Зверовете",
      "كوكب ملك الوحوش",
      "兽王星"
    ],
    "external_database_ids": {
      "anilist": 953,
      "myanimelist": 953,
      "kitsu": 845
    },
    "i18n": {
      "eng": "Jyu-Oh-Sei: Planet of the Beast King",
      "fre": "Jyu-Oh-Sei",
      "ger": "Planet of the Beast King",
      "jpn": "獣王星",
      "qro": "Jyu-Oh-Sei"
    },
    "modified_at": "2020-06-21T23:45:31.966Z",
    "name": "Jyu-Oh-Sei",
    "repository": "kara.moe",
    "tid": "64091541-db5f-4f3e-a536-715c13a1b948",
    "types": [
      "series",
      "1"
    ]
  }
}