{
  "header": {
    "description": "Karaoke Mugen Tag File",
    "version": 1
  },
  "tag": {
    "i18n": {
      "eng": "Kabedondere"
    },
    "name": "Kabedondere",
    "repository": "kara.moe",
    "tid": "2340cef3-f529-419d-8abd-a84aeefde2fd",
    "types": [
      "singers",
      "2",
      "songwriters",
      "8"
    ]
  }
}