{
  "header": {
    "description": "Karaoke Mugen Tag File",
    "version": 1
  },
  "tag": {
    "i18n": {
      "eng": "Kad et Olivier"
    },
    "name": "Kad et Olivier",
    "tid": "c5a1fc92-888f-47df-b930-490cc0de8fbb",
    "types": [
      "singers",
      "2",
      "songwriters",
      "8"
    ],
    "repository": "kara.moe",
    "modified_at": "2020-03-31T19:04:35.223Z"
  }
}