{
  "header": {
    "description": "Karaoke Mugen Tag File",
    "version": 1
  },
  "tag": {
    "aliases": [
      "Kagerou Project",
      "メカクシティリロード",
      "メカクシティレコーズ"
    ],
    "i18n": {
      "jpn": "カゲロウプロジェクト",
      "qro": "Kagerô Project"
    },
    "name": "Kagerô Project",
    "repository": "kara.moe",
    "tid": "ec030aa0-8814-4194-9be4-1409e62b4eb8",
    "types": [
      "franchises",
      "18"
    ]
  }
}