{
  "header": {
    "description": "Karaoke Mugen Tag File",
    "version": 1
  },
  "tag": {
    "i18n": {
      "eng": "kahimi"
    },
    "name": "kahimi",
    "repository": "kara.moe",
    "tid": "a6e07c63-729b-45d4-9273-9a7d17fffb7c",
    "types": [
      "songwriters",
      "8"
    ]
  }
}