{
  "header": {
    "description": "Karaoke Mugen Tag File",
    "version": 1
  },
  "tag": {
    "i18n": {
      "jpn": "八木 海莉",
      "qro": "Kairi Yagi"
    },
    "name": "Kairi Yagi",
    "repository": "kara.moe",
    "tid": "424371fb-324f-45c0-9105-d57a77b16a2e",
    "types": [
      "singers",
      "2"
    ]
  }
}