{
  "header": {
    "description": "Karaoke Mugen Tag File",
    "version": 1
  },
  "tag": {
    "aliases": [
      "Kaitou Saint Tail",
      "Mysterious Thief Saint Tail",
      "Таинственная грабительница Сент-Тэйл",
      "圣少女",
      "kaitou"
    ],
    "external_database_ids": {
      "anilist": 1567,
      "myanimelist": 1567,
      "kitsu": 1407
    },
    "i18n": {
      "eng": "Saint Tail",
      "jpn": "怪盗 セイント・テール",
      "por": "A Ladra Meimi",
      "ita": "Lisa e Seya un solo cuore per lo stesso segreto",
      "kor": "천사소녀 네티",
      "qro": "Kaitô Saint Tail"
    },
    "modified_at": "2021-03-08T21:24:01.944Z",
    "name": "Kaitô Saint Tail",
    "repository": "kara.moe",
    "tid": "cc402129-a164-4547-8764-ffcef0d8c143",
    "types": [
      "series",
      "1"
    ]
  }
}