{
  "header": {
    "description": "Karaoke Mugen Tag File",
    "version": 1
  },
  "tag": {
    "i18n": {
      "eng": "Kaito Okachimachi"
    },
    "name": "Kaito Okachimachi",
    "repository": "kara.moe",
    "tid": "3c936dcb-2fc4-491d-a2b3-125314d596bc",
    "types": [
      "songwriters",
      "8"
    ],
    "modified_at": "2020-03-31T19:04:35.233Z"
  }
}