{
  "header": {
    "description": "Karaoke Mugen Tag File",
    "version": 1
  },
  "tag": {
    "aliases": [
      "狂賭之淵××",
      "かけぐるい XX",
      "賭ケグルイ××"
    ],
    "external_database_ids": {
      "anilist": 100876,
      "myanimelist": 37086,
      "kitsu": 14172
    },
    "i18n": {
      "chi": "狂赌之渊 ××",
      "eng": "Kakegurui XX",
      "heb": "xx קאקגורוי",
      "jpn": "賭ケグルイXX",
      "kor": "카케구루이 XX",
      "fre": "Gambling School XX",
      "qro": "Kakegurui XX"
    },
    "modified_at": "2021-02-08T21:35:23.579Z",
    "name": "Kakegurui XX",
    "repository": "kara.moe",
    "tid": "f7e4b40c-4e93-489a-9d32-8ec646aa17a0",
    "types": [
      "series",
      "1"
    ]
  }
}