{
  "header": {
    "description": "Karaoke Mugen Tag File",
    "version": 1
  },
  "tag": {
    "aliases": [
      "Kakuchou Shoujo Kei Trinary",
      "kakutora",
      "kakuchou",
      "shoujo"
    ],
    "external_database_ids": {
      "anilist": 98595,
      "myanimelist": 34006,
      "kitsu": 12592
    },
    "i18n": {
      "eng": "Augmented Reality Girls Trinary",
      "jpn": "拡張少女系トライナリー",
      "qro": "Kakuchô Shôjo Kei Trinary"
    },
    "modified_at": "2020-04-29T10:22:58.679Z",
    "name": "Kakuchô Shôjo Kei Trinary",
    "repository": "kara.moe",
    "tid": "c1115691-acc3-49e7-acde-e67410235d13",
    "types": [
      "series",
      "1"
    ]
  }
}