{
  "header": {
    "description": "Karaoke Mugen Tag File",
    "version": 1
  },
  "tag": {
    "i18n": {
      "eng": "KALMA"
    },
    "modified_at": "2021-09-17T11:44:07.897Z",
    "name": "KALMA",
    "repository": "kara.moe",
    "tid": "a66ae9fc-94e6-4a61-b4ca-917bc163fdf4",
    "types": [
      "songwriters",
      "8",
      "singers",
      "2"
    ]
  }
}