{
  "header": {
    "description": "Karaoke Mugen Tag File",
    "version": 1
  },
  "tag": {
    "i18n": {
      "eng": "Kamen Rider J",
      "jpn": "仮面ライダーJ",
      "qro": "Kamen Rider J"
    },
    "modified_at": "2020-03-31T19:04:31.872Z",
    "name": "Kamen Rider J",
    "repository": "kara.moe",
    "tid": "84c45fb9-3d34-43b3-91a2-90e1ccd7e7d3",
    "types": [
      "series",
      "1"
    ]
  }
}