{
  "header": {
    "description": "Karaoke Mugen Tag File",
    "version": 1
  },
  "tag": {
    "i18n": {
      "eng": "Kamen Rider Super-1",
      "jpn": "仮面ライダースーパー1",
      "qro": "Kamen Rider Super One"
    },
    "modified_at": "2020-06-21T23:45:31.966Z",
    "name": "Kamen Rider Super One",
    "repository": "kara.moe",
    "tid": "f7ddb961-b0a3-4530-a782-0f59c095c215",
    "types": [
      "series",
      "1"
    ]
  }
}