{
  "header": {
    "description": "Karaoke Mugen Tag File",
    "version": 1
  },
  "tag": {
    "i18n": {
      "eng": "Kanade Yoisaki"
    },
    "name": "Kanade Yoisaki",
    "repository": "kara.moe",
    "tid": "3c75aac3-b48b-49a2-8a4c-9882ac2f6a7a",
    "types": [
      "singers",
      "2"
    ]
  }
}