{
  "header": {
    "description": "Karaoke Mugen Tag File",
    "version": 1
  },
  "tag": {
    "i18n": {
      "eng": "KANAN"
    },
    "name": "KANAN",
    "tid": "c31af98e-7084-4c79-9c4c-1b0a33e99646",
    "types": [
      "singers",
      "2",
      "songwriters",
      "8"
    ],
    "repository": "kara.moe",
    "modified_at": "2020-03-31T19:04:35.270Z"
  }
}