{
  "header": {
    "description": "Karaoke Mugen Tag File",
    "version": 1
  },
  "tag": {
    "i18n": {
      "eng": "Kana Motomiya"
    },
    "name": "Kana Motomiya",
    "tid": "d22efb7a-969a-4ba8-937e-d1bac2b1ae99",
    "types": [
      "singers",
      "2"
    ],
    "repository": "kara.moe",
    "modified_at": "2020-03-31T19:04:35.252Z"
  }
}