{
  "header": {
    "description": "Karaoke Mugen Tag File",
    "version": 1
  },
  "tag": {
    "i18n": {
      "eng": "Kanata"
    },
    "name": "Kanata",
    "repository": "kara.moe",
    "tid": "932615d2-260b-4809-8d79-a8f6dfc76a3d",
    "types": [
      "creators",
      "4"
    ]
  }
}