{
  "header": {
    "description": "Karaoke Mugen Tag File",
    "version": 1
  },
  "tag": {
    "i18n": {
      "eng": "Kanata Aikawa"
    },
    "modified_at": "2021-03-11T20:45:04.544Z",
    "name": "Kanata Aikawa",
    "repository": "kara.moe",
    "tid": "033cb53f-a1b6-49bf-9d72-084679542d51",
    "types": [
      "singers",
      "2"
    ]
  }
}