{
  "header": {
    "description": "Karaoke Mugen Tag File",
    "version": 1
  },
  "tag": {
    "i18n": {
      "eng": "Kaname production"
    },
    "name": "Kaname production",
    "tid": "cb4e3f41-ad88-4cb1-860b-72b6882434de",
    "types": [
      "creators",
      "4"
    ],
    "repository": "kara.moe",
    "modified_at": "2020-03-31T19:04:35.269Z"
  }
}