{
  "header": {
    "description": "Karaoke Mugen Tag File",
    "version": 1
  },
  "tag": {
    "i18n": {
      "eng": "Kanako Harayama"
    },
    "name": "Kanako Harayama",
    "tid": "6b6ef87e-6b8c-415b-9dd1-6112277c494b",
    "types": [
      "songwriters",
      "8"
    ],
    "repository": "kara.moe",
    "modified_at": "2020-03-31T19:04:35.263Z"
  }
}