{
  "header": {
    "description": "Karaoke Mugen Tag File",
    "version": 1
  },
  "tag": {
    "i18n": {
      "eng": "Kankaku Piero"
    },
    "name": "Kankaku Piero",
    "tid": "d3876b0f-497a-4f44-bc40-6f12b38e84c5",
    "types": [
      "singers",
      "2"
    ],
    "repository": "kara.moe",
    "modified_at": "2020-03-31T19:04:35.278Z"
  }
}