{
  "header": {
    "description": "Karaoke Mugen Tag File",
    "version": 1
  },
  "tag": {
    "aliases": [
      "Kannaduki no Miko",
      "Kannadzuki no Miko",
      "Priestesses of a Godless Month",
      "Priestesses of a Godless Moon",
      "kannamiko",
      "knm",
      "Жрица Луны жрица Солнца",
      "神无月的巫女"
    ],
    "external_database_ids": {
      "anilist": 143,
      "myanimelist": 143,
      "kitsu": 121
    },
    "i18n": {
      "eng": "Destiny of the Shrine Maiden",
      "fre": "Kannazuki no Miko",
      "jpn": "神無月の巫女",
      "pol": "Kapłanki przeklętych dni",
      "qro": "Kannazuki no Miko",
      "tha": "มิโกะ คนทรงหุ่นเทวะ"
    },
    "name": "Kannazuki no Miko",
    "repository": "kara.moe",
    "tid": "6024b7d1-a9ff-4d08-ab14-ed62b1bb6653",
    "types": [
      "series",
      "1"
    ]
  }
}