{
  "header": {
    "description": "Karaoke Mugen Tag File",
    "version": 1
  },
  "tag": {
    "i18n": {
      "jpn": "七木 奏音",
      "qro": "Kanon Nanaki"
    },
    "name": "Kanon Nanaki",
    "repository": "kara.moe",
    "tid": "22f9467c-6430-4f7c-94e6-ef553123f962",
    "types": [
      "singers",
      "2"
    ]
  }
}