{
  "header": {
    "description": "Karaoke Mugen Tag File",
    "version": 1
  },
  "tag": {
    "aliases": [
      "Kanon '06",
      "Kanon 06",
      "Kanon Remake",
      "Kanon(新)",
      "Канон (2006)",
      "كانون 2006",
      "カノン (2006)",
      "雪之少女"
    ],
    "external_database_ids": {
      "anilist": 1530,
      "myanimelist": 1530,
      "kitsu": 122
    },
    "i18n": {
      "eng": "Kanon (2006)",
      "jpn": "カノン (2006)",
      "qro": "Kanon (2006)"
    },
    "modified_at": "2020-03-31T19:04:31.901Z",
    "name": "Kanon (2006)",
    "repository": "kara.moe",
    "tid": "d9474be2-77aa-41d6-bfd2-a36e9fd6dcd8",
    "types": [
      "series",
      "1"
    ]
  }
}