{
  "header": {
    "description": "Karaoke Mugen Tag File",
    "version": 1
  },
  "tag": {
    "aliases": [
      "GG",
      "KmK"
    ],
    "external_database_ids": {
      "anilist": 126192,
      "myanimelist": 43969,
      "kitsu": 44165
    },
    "i18n": {
      "eng": "Girlfriend, Girlfriend",
      "jpn": "カノジョも彼女",
      "qro": "Kanojo mo Kanojo"
    },
    "modified_at": "2021-09-08T00:39:50.590Z",
    "name": "Kanojo mo Kanojo",
    "repository": "kara.moe",
    "tid": "b6fbc0da-06a1-4f60-ade9-d1cc364762dc",
    "types": [
      "series",
      "1"
    ]
  }
}