{
  "header": {
    "description": "Karaoke Mugen Tag File",
    "version": 1
  },
  "tag": {
    "i18n": {
      "eng": "Kanshi Matsuyama"
    },
    "name": "Kanshi Matsuyama",
    "tid": "9c21d8bd-f227-4f0f-880f-2bdf40d90ee0",
    "types": [
      "songwriters",
      "8"
    ],
    "repository": "kara.moe",
    "modified_at": "2020-03-31T19:04:35.285Z"
  }
}