{
  "header": {
    "description": "Karaoke Mugen Tag File",
    "version": 1
  },
  "tag": {
    "aliases": [
      "Karakai Jouzu no Takagi-san"
    ],
    "external_database_ids": {
      "anilist": 138424,
      "myanimelist": 49721,
      "kitsu": 45022
    },
    "i18n": {
      "eng": "Teasing Master Takagi-san (3rd season)",
      "fre": "Karakai Jôzu no Takagi-san (saison 3)",
      "jpn": "からかい上手の高木さん3"
    },
    "name": "Karakai Jôzu no Takagi-san 3",
    "repository": "kara.moe",
    "tid": "f13a11d9-766b-4baa-937c-788641e55600",
    "types": [
      "series",
      "1"
    ]
  }
}