{
  "header": {
    "description": "Karaoke Mugen Tag File",
    "version": 1
  },
  "tag": {
    "i18n": {
      "eng": "Karen Girl's"
    },
    "name": "Karen Girl's",
    "tid": "12db702f-6454-4454-aea8-bd10980d0b51",
    "types": [
      "singers",
      "2"
    ],
    "repository": "kara.moe",
    "modified_at": "2020-03-31T19:04:35.306Z"
  }
}