{
  "header": {
    "description": "Karaoke Mugen Tag File",
    "version": 1
  },
  "tag": {
    "i18n": {
      "eng": "Kashitarô Itô"
    },
    "modified_at": "2020-08-07T22:00:08.519Z",
    "name": "Kashitarô Itô",
    "repository": "kara.moe",
    "tid": "ca01c4ad-05f2-4ca3-8dad-6132f42f1f49",
    "types": [
      "songwriters",
      "8",
      "singers",
      "2"
    ]
  }
}