{
  "header": {
    "description": "Karaoke Mugen Tag File",
    "version": 1
  },
  "tag": {
    "i18n": {
      "eng": "Kashii Moimi"
    },
    "name": "Kashii Moimi",
    "repository": "kara.moe",
    "tid": "57500c19-f9de-4f12-b5bb-04bfacbddd70",
    "types": [
      "songwriters",
      "8"
    ]
  }
}