{
  "header": {
    "description": "Karaoke Mugen Tag File",
    "version": 1
  },
  "tag": {
    "aliases": [
      "CooliSushi"
    ],
    "i18n": {
      "eng": "Kavil Collins"
    },
    "name": "Kavil Collins",
    "tid": "fdda551d-421a-4a8c-bedd-26e10ccc51bf",
    "types": [
      "creators",
      "4"
    ],
    "repository": "kara.moe",
    "modified_at": "2020-03-31T19:04:35.335Z"
  }
}