{
  "header": {
    "description": "Karaoke Mugen Tag File",
    "version": 1
  },
  "tag": {
    "aliases": [
      "Kazami Gakuen Koushiki Douga-bu"
    ],
    "i18n": {
      "eng": "Kazami Gakuen Kôshiki Dôga-bu"
    },
    "modified_at": "2020-08-19T20:23:08.693Z",
    "name": "Kazami Gakuen Kôshiki Dôga-bu",
    "repository": "kara.moe",
    "tid": "68cfb05a-986b-4bde-b01a-92f62ace5a20",
    "types": [
      "creators",
      "4"
    ]
  }
}