{
  "header": {
    "description": "Karaoke Mugen Tag File",
    "version": 1
  },
  "tag": {
    "i18n": {
      "eng": "Kazumi Totaka"
    },
    "name": "Kazumi Totaka",
    "tid": "210ad400-81fa-418a-8048-44700b538340",
    "types": [
      "songwriters",
      "8"
    ],
    "repository": "kara.moe",
    "modified_at": "2020-03-31T19:04:35.368Z"
  }
}