{
  "header": {
    "description": "Karaoke Mugen Tag File",
    "version": 1
  },
  "tag": {
    "i18n": {
      "eng": "Kazuro Satô"
    },
    "modified_at": "2020-04-17T21:05:40.113Z",
    "name": "Kazuro Satô",
    "repository": "kara.moe",
    "tid": "02b29b85-6481-4bbb-a56a-d5bb34c57631",
    "types": [
      "songwriters",
      "8"
    ]
  }
}