{
  "header": {
    "description": "Karaoke Mugen Tag File",
    "version": 1
  },
  "tag": {
    "i18n": {
      "eng": "KAZUYA"
    },
    "name": "KAZUYA",
    "tid": "9f7eee86-fde6-4a39-9b7a-43849f60bbaf",
    "types": [
      "songwriters",
      "8"
    ],
    "repository": "kara.moe",
    "modified_at": "2020-03-31T19:04:35.388Z"
  }
}