{
  "header": {
    "description": "Karaoke Mugen Tag File",
    "version": 1
  },
  "tag": {
    "i18n": {
      "eng": "Kazushige Nojima"
    },
    "name": "Kazushige Nojima",
    "tid": "e4b6653b-d0a6-46d3-a24f-dad5c8dec4b8",
    "types": [
      "songwriters",
      "8"
    ],
    "repository": "kara.moe",
    "modified_at": "2020-03-31T19:04:35.378Z"
  }
}