{
  "header": {
    "description": "Karaoke Mugen Tag File",
    "version": 1
  },
  "tag": {
    "i18n": {
      "eng": "Kei Ogura"
    },
    "name": "Kei Ogura",
    "tid": "67be8cd8-902f-42c3-a1ff-55a2c875d44c",
    "types": [
      "singers",
      "2",
      "songwriters",
      "8"
    ],
    "repository": "kara.moe",
    "modified_at": "2020-03-31T19:04:35.396Z"
  }
}