{
  "header": {
    "description": "Karaoke Mugen Tag File",
    "version": 1
  },
  "tag": {
    "i18n": {
      "eng": "Keigo Hoashi"
    },
    "name": "Keigo Hoashi",
    "tid": "a0a834a6-eaff-4a95-bdf2-6c606633a8cb",
    "types": [
      "songwriters",
      "8"
    ],
    "repository": "kara.moe",
    "modified_at": "2020-03-31T19:04:35.400Z"
  }
}