{
  "header": {
    "description": "Karaoke Mugen Tag File",
    "version": 1
  },
  "tag": {
    "i18n": {
      "eng": "Keiichi Hashimoto"
    },
    "modified_at": "1982-04-06",
    "name": "Keiichi Hashimoto",
    "repository": "kara.moe",
    "tid": "9f3e1bed-be7b-4aa5-bfa7-b5d69882b8dc",
    "types": [
      "songwriters",
      "8"
    ]
  }
}