{
  "header": {
    "description": "Karaoke Mugen Tag File",
    "version": 1
  },
  "tag": {
    "i18n": {
      "eng": "Keiji Fujiwara"
    },
    "name": "Keiji Fujiwara",
    "tid": "f8c3a734-558e-4d35-a86e-363c150d5e28",
    "types": [
      "singers",
      "2"
    ],
    "repository": "kara.moe",
    "modified_at": "2020-03-31T19:04:35.410Z"
  }
}