{
  "header": {
    "description": "Karaoke Mugen Tag File",
    "version": 1
  },
  "tag": {
    "i18n": {
      "eng": "Keisuke Hama"
    },
    "name": "Keisuke Hama",
    "tid": "ec0cd47c-103f-4066-9f9a-d5662bcdb0d1",
    "types": [
      "songwriters",
      "8"
    ],
    "repository": "kara.moe",
    "modified_at": "2020-03-31T19:04:35.423Z"
  }
}