{
  "header": {
    "description": "Karaoke Mugen Tag File",
    "version": 1
  },
  "tag": {
    "i18n": {
      "eng": "Keisuke Kikuchi"
    },
    "name": "Keisuke Kikuchi",
    "tid": "02bf5b33-53b2-4c84-8ad4-ece234c9eda4",
    "types": [
      "songwriters",
      "8"
    ],
    "repository": "kara.moe",
    "modified_at": "2020-03-31T19:04:35.423Z"
  }
}