{
  "header": {
    "description": "Karaoke Mugen Tag File",
    "version": 1
  },
  "tag": {
    "i18n": {
      "eng": "Keisuke Yamasaki"
    },
    "name": "Keisuke Yamasaki",
    "tid": "15e75495-70f0-4086-8a6c-6b8d522c872e",
    "types": [
      "songwriters",
      "8"
    ],
    "repository": "kara.moe",
    "modified_at": "2020-03-31T19:04:35.425Z"
  }
}