{
  "header": {
    "description": "Karaoke Mugen Tag File",
    "version": 1
  },
  "tag": {
    "i18n": {
      "eng": "Keisei Dentetsu"
    },
    "name": "Keisei Dentetsu",
    "repository": "kara.moe",
    "tid": "cef00939-840d-48e0-b086-7322337ed4f5",
    "types": [
      "series",
      "1"
    ]
  }
}