{
  "header": {
    "description": "Karaoke Mugen Tag File",
    "version": 1
  },
  "tag": {
    "i18n": {
      "eng": "Keita Kawaguchi"
    },
    "modified_at": "2021-01-09T02:03:03.590Z",
    "name": "Keita Kawaguchi",
    "repository": "kara.moe",
    "tid": "79add4fa-86de-4d98-a4ad-03ccc7e69342",
    "types": [
      "songwriters",
      "8"
    ]
  }
}