{
  "header": {
    "description": "Karaoke Mugen Tag File",
    "version": 1
  },
  "tag": {
    "i18n": {
      "eng": "KEITA"
    },
    "name": "KEITA",
    "tid": "4d4a1bd8-92ea-4eb9-88ea-5b6e69acc3d5",
    "types": [
      "songwriters",
      "8"
    ],
    "repository": "kara.moe",
    "modified_at": "2020-03-31T19:04:35.429Z"
  }
}