{
  "header": {
    "description": "Karaoke Mugen Tag File",
    "version": 1
  },
  "tag": {
    "i18n": {
      "eng": "Kelly Gordon"
    },
    "modified_at": "2020-11-12T14:58:04.076Z",
    "name": "Kelly Gordon",
    "repository": "kara.moe",
    "tid": "7e246e19-8d0c-4f49-8f8e-52b3c80db0ec",
    "types": [
      "songwriters",
      "8"
    ]
  }
}