{
  "header": {
    "description": "Karaoke Mugen Tag File",
    "version": 1
  },
  "tag": {
    "i18n": {
      "eng": "Ken Fujii"
    },
    "name": "Ken Fujii",
    "tid": "ea69b3e3-5cff-4597-9936-880bf39dde40",
    "types": [
      "singers",
      "2"
    ],
    "repository": "kara.moe",
    "modified_at": "2020-03-31T19:04:35.442Z"
  }
}