{
  "header": {
    "description": "Karaoke Mugen Tag File",
    "version": 1
  },
  "tag": {
    "i18n": {
      "eng": "Ken Muramatsu"
    },
    "modified_at": "2021-04-19T16:07:49.792Z",
    "name": "Ken Muramatsu",
    "repository": "kara.moe",
    "tid": "adf96145-e604-4ae0-8dea-b7bb543e79eb",
    "types": [
      "songwriters",
      "8"
    ]
  }
}