{
  "header": {
    "description": "Karaoke Mugen Tag File",
    "version": 1
  },
  "tag": {
    "i18n": {
      "eng": "Ken Nishikiori"
    },
    "name": "Ken Nishikiori",
    "tid": "acc26456-2453-4377-9512-d74dd6c3bbb7",
    "types": [
      "singers",
      "2"
    ],
    "repository": "kara.moe",
    "modified_at": "2020-03-31T19:04:35.446Z"
  }
}