{
  "header": {
    "description": "Karaoke Mugen Tag File",
    "version": 1
  },
  "tag": {
    "i18n": {
      "eng": "Ken Masutani"
    },
    "name": "Ken Masutani",
    "tid": "63f4c593-f1a2-4181-9c58-51506ebcab51",
    "types": [
      "songwriters",
      "8"
    ],
    "repository": "kara.moe",
    "modified_at": "2020-03-31T19:04:35.444Z"
  }
}