{
  "header": {
    "description": "Karaoke Mugen Tag File",
    "version": 1
  },
  "tag": {
    "i18n": {
      "eng": "Ken'ichi Kitagawa"
    },
    "name": "Ken'ichi Kitagawa",
    "tid": "bf4e828b-fef3-4e04-b335-e8b388451a57",
    "types": [
      "songwriters",
      "8"
    ],
    "repository": "kara.moe",
    "modified_at": "2020-03-31T19:04:35.449Z"
  }
}