{
  "header": {
    "description": "Karaoke Mugen Tag File",
    "version": 1
  },
  "tag": {
    "i18n": {
      "eng": "Kenichi Nagahashi"
    },
    "name": "Kenichi Nagahashi",
    "tid": "e52d9cf9-763e-443d-b67c-ba22af49390f",
    "types": [
      "songwriters",
      "8"
    ],
    "repository": "kara.moe",
    "modified_at": "2020-03-31T19:04:35.461Z"
  }
}