{
  "header": {
    "description": "Karaoke Mugen Tag File",
    "version": 1
  },
  "tag": {
    "i18n": {
      "eng": "Kenji Yamamoto"
    },
    "name": "Kenji Yamamoto",
    "tid": "aaea4d26-7009-43ff-a138-be2511b0c65d",
    "types": [
      "songwriters",
      "8"
    ],
    "repository": "kara.moe",
    "modified_at": "2020-03-31T19:04:35.477Z"
  }
}