{
  "header": {
    "description": "Karaoke Mugen Tag File",
    "version": 1
  },
  "tag": {
    "i18n": {
      "eng": "Kenji Ootsuki"
    },
    "name": "Kenji Ootsuki",
    "tid": "3dbbd34c-41e4-41e7-ac89-fdd98e2917bf",
    "types": [
      "singers",
      "2",
      "songwriters",
      "8"
    ],
    "repository": "kara.moe",
    "modified_at": "2020-03-31T19:04:35.472Z"
  }
}