{
  "header": {
    "description": "Karaoke Mugen Tag File",
    "version": 1
  },
  "tag": {
    "i18n": {
      "eng": "Kenji Kawasaki"
    },
    "modified_at": "2021-08-05T22:05:39.728Z",
    "name": "Kenji Kawasaki",
    "repository": "kara.moe",
    "tid": "9b9785d4-cf75-4064-b82f-ac15788edad3",
    "types": [
      "creators",
      "4"
    ]
  }
}