{
  "header": {
    "description": "Karaoke Mugen Tag File",
    "version": 1
  },
  "tag": {
    "i18n": {
      "eng": "Kenji Akabane"
    },
    "modified_at": "2020-10-31T15:51:16.470Z",
    "name": "Kenji Akabane",
    "repository": "kara.moe",
    "tid": "0416d7a4-021f-42e3-b1a4-0c09d60839d6",
    "types": [
      "singers",
      "2"
    ]
  }
}