{
  "header": {
    "description": "Karaoke Mugen Tag File",
    "version": 1
  },
  "tag": {
    "i18n": {
      "eng": "Kensuke Inage"
    },
    "name": "Kensuke Inage",
    "tid": "6fa5c3f6-ab9c-4e46-9567-a39adbfe121f",
    "types": [
      "songwriters",
      "8"
    ],
    "repository": "kara.moe",
    "modified_at": "2020-03-31T19:04:35.485Z"
  }
}