{
  "header": {
    "description": "Karaoke Mugen Tag File",
    "version": 1
  },
  "tag": {
    "external_database_ids": {
      "anilist": 20588,
      "myanimelist": 21809,
      "kitsu": 8163
    },
    "i18n": {
      "eng": "Daimidaler: Prince vs. Penguin Empire",
      "jpn": "健全ロボ ダイミダラー DAIMIDALER THE SOUND ROBOT",
      "qro": "Kenzen Robo Daimidaler"
    },
    "modified_at": "2020-03-31T19:04:31.929Z",
    "name": "Kenzen Robo Daimidaler",
    "repository": "kara.moe",
    "tid": "ea7e6e98-d8f7-48c8-81e6-657e5a356ca4",
    "types": [
      "series",
      "1"
    ]
  }
}