{
  "header": {
    "description": "Karaoke Mugen Tag File",
    "version": 1
  },
  "tag": {
    "aliases": [
      "Kichiku Megane R Kichiku Megane Fan Disc"
    ],
    "i18n": {
      "eng": "Kichiku Megane R",
      "jpn": "鬼畜眼鏡R 鬼畜眼鏡ファンディス",
      "qro": "Kichiku Megane R"
    },
    "modified_at": "2020-03-31T19:04:31.933Z",
    "name": "Kichiku Megane R",
    "repository": "kara.moe",
    "tid": "2470caf3-0180-4bfc-bb63-90e7df1787f2",
    "types": [
      "series",
      "1"
    ]
  }
}