{
  "header": {
    "description": "Karaoke Mugen Tag File",
    "version": 1
  },
  "tag": {
    "aliases": [
      "Gundam 0079 Movie Trilogy III",
      "Kidou Senshi Gundam III: Meguriai Sora",
      "Mobile Suit Gundam - The Movie Trilogy Part III",
      "kidou"
    ],
    "external_database_ids": {
      "anilist": 1092,
      "myanimelist": 1092,
      "kitsu": 977
    },
    "i18n": {
      "eng": "Mobile Suit Gundam III: Encounters in Space",
      "fre": "Mobile Suit Gundam - Film III",
      "jpn": "機動戦士ガンダムⅢ　めぐりあい宇宙編",
      "qro": "Kidô Senshi Gundam III: Meguriai sora-hen"
    },
    "modified_at": "2020-03-31T19:04:31.951Z",
    "name": "Kidô Senshi Gundam III: Meguriai sora-hen",
    "repository": "kara.moe",
    "tid": "37886644-6c83-4a16-b2ac-f8911bd5d339",
    "types": [
      "series",
      "1"
    ]
  }
}