{
  "header": {
    "description": "Karaoke Mugen Tag File",
    "version": 1
  },
  "tag": {
    "aliases": [
      "Gundam the Origin TV",
      "Kidô Senshi Gundam: The Origin Zenya - Akai Suisei"
    ],
    "external_database_ids": {
      "anilist": 108039,
      "myanimelist": 39592,
      "kitsu": 42242
    },
    "i18n": {
      "eng": "Mobile Suit Gundam: The Origin ‒ Advent of the Red Comet",
      "jpn": "動戦士ガンダム THE ORIGIN 前夜 赤い彗星",
      "qro": "Kidou Senshi Gundam: The Origin Zenya - Akai Suisei"
    },
    "modified_at": "2020-03-31T19:04:31.956Z",
    "name": "Kidou Senshi Gundam: The Origin Zenya - Akai Suisei",
    "repository": "kara.moe",
    "tid": "21d26e04-df76-411e-9217-4159141406e0",
    "types": [
      "series",
      "1"
    ]
  }
}