{
  "header": {
    "description": "Karaoke Mugen Tag File",
    "version": 1
  },
  "tag": {
    "aliases": [
      "Gundam 0083: Stardust Memories",
      "Kidou Senshi Gundam 0083: Stardust Memory",
      "MSG 0083",
      "机动战士高达0083: 星尘的回忆",
      "kidou"
    ],
    "external_database_ids": {
      "anilist": 84,
      "myanimelist": 84,
      "kitsu": 63
    },
    "i18n": {
      "eng": "Mobile Suit Gundam 0083: Stardust Memory",
      "jpn": "機動戦士ガンダム 0083 スターダストメモリー",
      "kor": "기동전사 건담 0083: 스타더스트 메모리",
      "tha": "โมบิลสูทกันดั้ม 0083 สตาร์ดัสท์ เมมโมรี่",
      "qro": "Kidô Senshi Gundam 0083: Stardust Memory"
    },
    "modified_at": "2020-03-31T19:04:31.945Z",
    "name": "Kidô Senshi Gundam 0083: Stardust Memory",
    "repository": "kara.moe",
    "tid": "00c20d11-eaee-4150-a502-f83f669f91bc",
    "types": [
      "series",
      "1"
    ]
  }
}