{
  "header": {
    "description": "Karaoke Mugen Tag File",
    "version": 1
  },
  "tag": {
    "external_database_ids": {
      "anilist": 105595,
      "myanimelist": 37765,
      "kitsu": 41224
    },
    "i18n": {
      "eng": "Mobile Suit Gundam Hathaway",
      "fre": "Mobile Suit Gundam: L'éclat de Hathaway",
      "jpn": "機動戦士ガンダム 閃光のハサウェイ",
      "qro": "Kidou Senshi Gundam - Senkou no Hathway"
    },
    "name": "Kidou Senshi Gundam - Senkou no Hathway",
    "repository": "kara.moe",
    "tid": "75443005-f3fc-4273-a658-4019678751cb",
    "types": [
      "series",
      "1"
    ]
  }
}