{
  "header": {
    "description": "Karaoke Mugen Tag File",
    "version": 1
  },
  "tag": {
    "aliases": [
      "Z Gundam Movies",
      "Zeta Gundam Movies",
      "kidou"
    ],
    "external_database_ids": {
      "anilist": 1967,
      "myanimelist": 1967,
      "kitsu": 1772
    },
    "i18n": {
      "eng": "Mobile Suit Zeta Gundam: A New Translation",
      "jpn": "機動戦士Ζガンダム A New Translation",
      "qro": "Kidô Senshi Zeta Gundam: A New Translation"
    },
    "modified_at": "2020-03-31T19:04:31.958Z",
    "name": "Kidô Senshi Zeta Gundam: A New Translation",
    "repository": "kara.moe",
    "tid": "f0b95a12-f8e0-4404-9215-18a4b2982b69",
    "types": [
      "series",
      "1"
    ]
  }
}