{
  "header": {
    "description": "Karaoke Mugen Tag File",
    "version": 1
  },
  "tag": {
    "i18n": {
      "eng": "Kikai Sentai Zenkaiger"
    },
    "modified_at": "2021-04-06T11:25:57.472Z",
    "name": "Kikai Sentai Zenkaiger",
    "repository": "kara.moe",
    "tid": "3bef4fe0-2cf5-4ebe-99e6-aa418209c6cc",
    "types": [
      "series",
      "1"
    ]
  }
}