{
  "header": {
    "description": "Karaoke Mugen Tag File",
    "version": 1
  },
  "tag": {
    "i18n": {
      "eng": "KIKU (camino)"
    },
    "name": "KIKU (camino)",
    "tid": "cdd95365-cdcb-42ce-aef7-835cee68d5ee",
    "types": [
      "songwriters",
      "8"
    ],
    "repository": "kara.moe",
    "modified_at": "2020-03-31T19:04:35.519Z"
  }
}