{
  "header": {
    "description": "Karaoke Mugen Tag File",
    "version": 1
  },
  "tag": {
    "i18n": {
      "eng": "Kim Yeon Seo"
    },
    "name": "Kim Yeon Seo",
    "repository": "kara.moe",
    "tid": "9ba6e0fa-4966-47aa-9b99-22ec88bfa125",
    "types": [
      "songwriters",
      "8"
    ]
  }
}