{
  "header": {
    "description": "Karaoke Mugen Tag File",
    "version": 1
  },
  "tag": {
    "i18n": {
      "eng": "Kingyo Kusa Contest Shinsa-in-kai"
    },
    "name": "Kingyo Kusa Contest Shinsa-in-kai",
    "tid": "3bb1033b-2859-44bc-97d1-b5e911c97b17",
    "types": [
      "songwriters",
      "8"
    ],
    "repository": "kara.moe",
    "modified_at": "2020-03-31T19:04:35.538Z"
  }
}