{
  "header": {
    "description": "Karaoke Mugen Tag File",
    "version": 1
  },
  "tag": {
    "i18n": {
      "eng": "Kino Sakai"
    },
    "name": "Kino Sakai",
    "tid": "231e8cee-f1cb-47cb-b052-afbbf2c7f319",
    "types": [
      "songwriters",
      "8"
    ],
    "repository": "kara.moe",
    "modified_at": "2020-03-31T19:04:35.539Z"
  }
}