{
  "header": {
    "description": "Karaoke Mugen Tag File",
    "version": 1
  },
  "tag": {
    "i18n": {
      "eng": "Kira Pika"
    },
    "name": "Kira Pika",
    "repository": "kara.moe",
    "tid": "d7de1f1f-d2eb-4dce-912a-a07f386e972a",
    "types": [
      "singergroups",
      "17"
    ]
  }
}