{
  "header": {
    "description": "Karaoke Mugen Tag File",
    "version": 1
  },
  "tag": {
    "i18n": {
      "eng": "Kiro"
    },
    "name": "Kiro",
    "repository": "kara.moe",
    "tid": "7ffc773c-3ccf-4505-af04-20205fc5058e",
    "types": [
      "singers",
      "2"
    ]
  }
}