{
  "header": {
    "description": "Karaoke Mugen Tag File",
    "version": 1
  },
  "tag": {
    "i18n": {
      "eng": "Kisaki Sakaguchi"
    },
    "name": "Kisaki Sakaguchi",
    "tid": "2f78596b-2a26-49b9-82db-90b386659cbe",
    "types": [
      "songwriters",
      "8"
    ],
    "repository": "kara.moe",
    "modified_at": "2020-03-31T19:04:35.550Z"
  }
}