{
  "header": {
    "description": "Karaoke Mugen Tag File",
    "version": 1
  },
  "tag": {
    "i18n": {
      "eng": "KISSME QUICK"
    },
    "name": "KISSME QUICK",
    "tid": "9816950c-689e-43e9-8179-fd99ba0d07fc",
    "types": [
      "singers",
      "2"
    ],
    "repository": "kara.moe",
    "modified_at": "2020-03-31T19:04:35.556Z"
  }
}