{
  "header": {
    "description": "Karaoke Mugen Tag File",
    "version": 1
  },
  "tag": {
    "aliases": [
      "Kiteretsu the Smartest Cousin of Nobita"
    ],
    "external_database_ids": {
      "anilist": 6509,
      "myanimelist": 6509,
      "kitsu": 4586
    },
    "i18n": {
      "ara": "المخترع الصغير",
      "eng": "Kiteretsu Encyclopedia",
      "glg": "Kiteretsu, o primo listo de Nobita",
      "jpn": "キテレツ大百科",
      "por": "Kiteretsu",
      "qro": "Kiteretsu Daihyakka"
    },
    "modified_at": "2020-03-31T19:04:32.002Z",
    "name": "Kiteretsu Daihyakka",
    "repository": "kara.moe",
    "tid": "6cb9c328-5d53-4a88-ad7b-17c497f6caad",
    "types": [
      "series",
      "1"
    ]
  }
}