{
  "header": {
    "description": "Karaoke Mugen Tag File",
    "version": 1
  },
  "tag": {
    "i18n": {
      "eng": "Kitty film"
    },
    "name": "Kitty film",
    "tid": "a590547a-0ccc-4ec7-953d-59c9ee48df87",
    "types": [
      "creators",
      "4"
    ],
    "repository": "kara.moe",
    "modified_at": "2020-03-31T19:04:35.560Z"
  }
}