{
  "header": {
    "description": "Karaoke Mugen Tag File",
    "version": 1
  },
  "tag": {
    "i18n": {
      "eng": "Kiwako Ashimine"
    },
    "modified_at": "2020-05-02T16:43:21.998Z",
    "name": "Kiwako Ashimine",
    "repository": "kara.moe",
    "tid": "b52fe237-99b0-4045-974c-4d014716ab3f",
    "types": [
      "singers",
      "2"
    ]
  }
}