{
  "header": {
    "description": "Karaoke Mugen Tag File",
    "version": 1
  },
  "tag": {
    "i18n": {
      "eng": "KIYO"
    },
    "name": "KIYO",
    "tid": "ac8bb6ce-cbe3-4d8a-bfca-6dc027381a41",
    "types": [
      "singers",
      "2"
    ],
    "repository": "kara.moe",
    "modified_at": "2020-03-31T19:04:35.561Z"
  }
}