{
  "header": {
    "description": "Karaoke Mugen Tag File",
    "version": 1
  },
  "tag": {
    "i18n": {
      "eng": "Kiyoshi Hikawa"
    },
    "name": "Kiyoshi Hikawa",
    "tid": "5b8ac844-69d5-4c3f-8b07-1b504dc7eb78",
    "types": [
      "singers",
      "2"
    ],
    "repository": "kara.moe",
    "modified_at": "2020-03-31T19:04:35.565Z"
  }
}