{
  "header": {
    "description": "Karaoke Mugen Tag File",
    "version": 1
  },
  "tag": {
    "i18n": {
      "eng": "Kiyomi Noguchi"
    },
    "name": "Kiyomi Noguchi",
    "tid": "0096bbcc-b6b5-4c34-8233-1e01c858c06f",
    "types": [
      "singers",
      "2"
    ],
    "repository": "kara.moe",
    "modified_at": "2020-03-31T19:04:35.563Z"
  }
}