{
  "header": {
    "description": "Karaoke Mugen Tag File",
    "version": 1
  },
  "tag": {
    "i18n": {
      "eng": "KKOMDA"
    },
    "name": "KKOMDA",
    "repository": "kara.moe",
    "tid": "a835669c-2dc1-43b9-a345-9aa1b971a392",
    "types": [
      "creators",
      "4"
    ]
  }
}