{
  "header": {
    "description": "Karaoke Mugen Tag File",
    "version": 1
  },
  "tag": {
    "i18n": {
      "eng": "Kmeuh"
    },
    "name": "Kmeuh",
    "tid": "1df04771-a378-4f14-a5e1-1455187d681a",
    "types": [
      "authors",
      "6",
      "creators",
      "4"
    ],
    "repository": "kara.moe",
    "modified_at": "2020-03-31T19:04:35.572Z"
  }
}