{
  "header": {
    "description": "Karaoke Mugen Tag File",
    "version": 1
  },
  "tag": {
    "i18n": {
      "eng": "KNIFE OF DAY"
    },
    "name": "KNIFE OF DAY",
    "repository": "kara.moe",
    "tid": "21cb2a4b-ee70-4fd6-bc4f-caf82d691523",
    "types": [
      "singers",
      "2",
      "songwriters",
      "8"
    ]
  }
}