{
  "header": {
    "description": "Karaoke Mugen Tag File",
    "version": 1
  },
  "tag": {
    "i18n": {
      "eng": "Knights of the Light Table"
    },
    "modified_at": "2021-06-29T01:00:25.581Z",
    "name": "Knights of the Light Table",
    "repository": "kara.moe",
    "tid": "a38e6e8e-6d52-46c1-976c-b9045699a18d",
    "types": [
      "creators",
      "4"
    ]
  }
}