{
  "header": {
    "description": "Karaoke Mugen Tag File",
    "version": 1
  },
  "tag": {
    "i18n": {
      "eng": "KODOMO BAND"
    },
    "name": "KODOMO BAND",
    "tid": "56c3f022-5d59-4071-ad0b-2abac4b1b8c7",
    "types": [
      "singers",
      "2"
    ],
    "repository": "kara.moe",
    "modified_at": "2020-03-31T19:04:35.582Z"
  }
}