{
  "header": {
    "description": "Karaoke Mugen Tag File",
    "version": 1
  },
  "tag": {
    "aliases": [
      "Koi wa Amaagari no You ni",
      "koiame",
      "Любовта е като изсипал се дъжд",
      "恋如雨止",
      "you"
    ],
    "external_database_ids": {
      "anilist": 98385,
      "myanimelist": 34984,
      "kitsu": 13277
    },
    "i18n": {
      "eng": "After the Rain",
      "fre": "Après la pluie",
      "jpn": "恋は雨上がりのように",
      "kor": "사랑은 비가 갠 뒤처럼",
      "qro": "Koi wa Ameagari no Yô ni"
    },
    "modified_at": "2020-03-31T19:04:32.012Z",
    "name": "Koi wa Ameagari no Yô ni",
    "repository": "kara.moe",
    "tid": "0655f85b-a7cf-48c4-a0f8-93ec05d9ff4f",
    "types": [
      "series",
      "1"
    ]
  }
}