{
  "header": {
    "description": "Karaoke Mugen Tag File",
    "version": 1
  },
  "tag": {
    "i18n": {
      "eng": "Kokusai Eigasha"
    },
    "name": "Kokusai Eigasha",
    "tid": "7b335c4f-289c-40c3-b140-1d1af7e0013e",
    "types": [
      "creators",
      "4"
    ],
    "repository": "kara.moe",
    "modified_at": "2020-03-31T19:04:35.601Z"
  }
}