{
  "header": {
    "description": "Karaoke Mugen Tag File",
    "version": 1
  },
  "tag": {
    "i18n": {
      "eng": "Komegatze"
    },
    "name": "Komegatze",
    "repository": "kara.moe",
    "tid": "77b25c58-dcea-4928-98af-cdd427c20d75",
    "types": [
      "creators",
      "4"
    ]
  }
}