{
  "header": {
    "description": "Karaoke Mugen Tag File",
    "version": 1
  },
  "tag": {
    "i18n": {
      "eng": "Komugi Nishida"
    },
    "name": "Komugi Nishida",
    "repository": "kara.moe",
    "tid": "0aeefb94-ec1e-4324-bcda-0f36d15409fe",
    "types": [
      "singers",
      "2"
    ],
    "modified_at": "2020-03-31T19:04:35.606Z"
  }
}