{
  "header": {
    "description": "Karaoke Mugen Tag File",
    "version": 1
  },
  "tag": {
    "i18n": {
      "afr": "Kongo",
      "amh": "Kongo",
      "ara": "كونغو",
      "aze": "Konqo",
      "bak": "Конго",
      "bel": "Конга",
      "bul": "Конго",
      "ben": "Kongo",
      "bos": "Kongo",
      "cat": "Kongo",
      "cze": "Kongo",
      "wel": "Kongo",
      "dan": "Kongo",
      "ger": "Kongo",
      "gre": "Kongo",
      "eng": "Kongo",
      "epo": "Kongo",
      "spa": "Kongo",
      "est": "Kongo",
      "baq": "Kikongoa",
      "per": "Kongo",
      "fin": "Kongo",
      "fre": "Kongo",
      "gle": "Kongo",
      "gla": "Kurdî",
      "glg": "Kongo",
      "guj": "કોંગો",
      "heb": "Kongo",
      "hin": "कोंगो",
      "hrv": "Kongo",
      "hat": "Kongo",
      "hun": "Kongo",
      "arm": "Կոնգո",
      "ind": "Kongo",
      "ice": "Kongó",
      "ita": "Kongo",
      "jpn": "金剛",
      "jav": "Kongo",
      "geo": "Kongo",
      "kaz": "Конго",
      "kan": "Kongo",
      "kor": "Kongo",
      "kir": "Конго",
      "lat": "Kongo",
      "lit": "Kongas",
      "lav": "Kongo",
      "mlg": "Kinga",
      "mao": "Kongo",
      "mac": "Kongo",
      "mal": "Kongo",
      "mon": "Холси",
      "mar": "काँगो",
      "may": "Kongo",
      "mlt": "Kongo",
      "nep": "कोंगो",
      "dut": "Kongo",
      "nor": "Kongo",
      "pan": "Kongo",
      "pol": "Kongo",
      "por": "Kongo",
      "rum": "Kongo",
      "rus": "Конго",
      "sin": "කොංගෝ",
      "slo": "Kongo",
      "slv": "Kongo",
      "alb": "Kongo",
      "srp": "Конго",
      "sun": "Kongo",
      "swe": "Kongo",
      "swa": "Congo",
      "tam": "Kongo",
      "tel": "కాంగో",
      "tgk": "Конго",
      "tha": "Kongo",
      "tgl": "Kongo",
      "tur": "Kongo",
      "tat": "Конго",
      "ukr": "Конго",
      "urd": "Kongo",
      "uzb": "Kongo",
      "vie": "Congo",
      "xho": "Kongo",
      "yid": "קאָנגאָ",
      "chi": "金刚"
    },
    "name": "kon",
    "tid": "5af22479-a96e-4f62-b525-39953c20af67",
    "types": [
      "langs",
      "5"
    ],
    "repository": "kara.moe",
    "modified_at": "2020-03-31T19:04:35.606Z"
  }
}