{
  "header": {
    "description": "Karaoke Mugen Tag File",
    "version": 1
  },
  "tag": {
    "external_database_ids": {
      "anilist": 105156,
      "myanimelist": 38659,
      "kitsu": 42079
    },
    "i18n": {
      "eng": "Cautious Hero: The Hero Is Overpowered But Overly Cautious",
      "jpn": "この勇者が俺TUEEEくせに慎重すぎる",
      "qro": "Kono Yuusha ga Ore TUEEE Kuse ni Shinchou Sugiru"
    },
    "modified_at": "2020-06-21T23:45:31.966Z",
    "name": "Kono Yuusha ga Ore TUEEE Kuse ni Shinchou Sugiru",
    "repository": "kara.moe",
    "tid": "46d3803b-4b10-4d5b-afd2-fc84a001a3ee",
    "types": [
      "series",
      "1"
    ]
  }
}