{
  "header": {
    "description": "Karaoke Mugen Tag File",
    "version": 1
  },
  "tag": {
    "i18n": {
      "eng": "KONTA"
    },
    "name": "KONTA",
    "tid": "686807d7-1f23-4a38-97c9-5d50efcc0405",
    "types": [
      "singers",
      "2",
      "songwriters",
      "8"
    ],
    "repository": "kara.moe",
    "modified_at": "2020-03-31T19:04:35.611Z"
  }
}