{
  "header": {
    "description": "Karaoke Mugen Tag File",
    "version": 1
  },
  "tag": {
    "i18n": {
      "eng": "Koorogi '73"
    },
    "name": "Koorogi '73",
    "tid": "e19c7217-c778-4fdb-868e-7ae532883d55",
    "types": [
      "singers",
      "2"
    ],
    "repository": "kara.moe",
    "modified_at": "2020-03-31T19:04:35.613Z"
  }
}