{
  "header": {
    "description": "Karaoke Mugen Tag File",
    "version": 1
  },
  "tag": {
    "i18n": {
      "eng": "Kotone Tenjin"
    },
    "modified_at": "2021-01-29T01:02:29.520Z",
    "name": "Kotone Tenjin",
    "repository": "kara.moe",
    "tid": "64b32978-7486-4d8b-895f-f0a7d61d00f3",
    "types": [
      "singers",
      "2"
    ]
  }
}