{
  "header": {
    "description": "Karaoke Mugen Tag File",
    "version": 1
  },
  "tag": {
    "i18n": {
      "eng": "Kôgo Hotomi"
    },
    "name": "Kôgo Hotomi",
    "tid": "fddca248-2dbc-4a19-be73-cb0ed6c1cce4",
    "types": [
      "songwriters",
      "8"
    ],
    "repository": "kara.moe",
    "modified_at": "2020-03-31T19:04:35.630Z"
  }
}