{
  "header": {
    "description": "Karaoke Mugen Tag File",
    "version": 1
  },
  "tag": {
    "i18n": {
      "eng": "Kôhei Tsunami"
    },
    "name": "Kôhei Tsunami",
    "tid": "e6d94fa3-1e15-4995-8539-c4946de82bca",
    "types": [
      "songwriters",
      "8"
    ],
    "repository": "kara.moe",
    "modified_at": "2020-03-31T19:04:35.637Z"
  }
}