{
  "header": {
    "description": "Karaoke Mugen Tag File",
    "version": 1
  },
  "tag": {
    "aliases": [
      "Kouhei Fukunaga"
    ],
    "i18n": {
      "eng": "Kôhei Fukunaga"
    },
    "modified_at": "2020-04-18T20:39:04.396Z",
    "name": "Kôhei Fukunaga",
    "repository": "kara.moe",
    "tid": "2c64b6aa-239d-48b4-88d8-f80389a8a2b5",
    "types": [
      "songwriters",
      "8"
    ]
  }
}