{
  "header": {
    "description": "Karaoke Mugen Tag File",
    "version": 1
  },
  "tag": {
    "i18n": {
      "eng": "Kôhei Ootomo"
    },
    "name": "Kôhei Ootomo",
    "tid": "dc46ab34-8d11-494c-be03-9eb00bdd01a6",
    "types": [
      "singers",
      "2"
    ],
    "repository": "kara.moe",
    "modified_at": "2020-03-31T19:04:35.635Z"
  }
}