{
  "header": {
    "description": "Karaoke Mugen Tag File",
    "version": 1
  },
  "tag": {
    "i18n": {
      "eng": "Kôichi Sakata"
    },
    "name": "Kôichi Sakata",
    "tid": "47c70f13-89ed-450a-b14e-01cb29ed8256",
    "types": [
      "songwriters",
      "8"
    ],
    "repository": "kara.moe",
    "modified_at": "2020-03-31T19:04:35.644Z"
  }
}