{
  "header": {
    "description": "Karaoke Mugen Tag File",
    "version": 1
  },
  "tag": {
    "i18n": {
      "eng": "Kôichi Hattori"
    },
    "name": "Kôichi Hattori",
    "tid": "dca07c07-9828-43a1-9f6f-2177c17dea1a",
    "types": [
      "songwriters",
      "8"
    ],
    "repository": "kara.moe",
    "modified_at": "2020-03-31T19:04:35.640Z"
  }
}