{
  "header": {
    "description": "Karaoke Mugen Tag File",
    "version": 1
  },
  "tag": {
    "i18n": {
      "eng": "Kôji Miura"
    },
    "name": "Kôji Miura",
    "tid": "18850aca-b883-4280-8814-b1f37d912d94",
    "types": [
      "songwriters",
      "8"
    ],
    "repository": "kara.moe",
    "modified_at": "2020-03-31T19:04:35.657Z"
  }
}