{
  "header": {
    "description": "Karaoke Mugen Tag File",
    "version": 1
  },
  "tag": {
    "i18n": {
      "eng": "Kôki Okamoto"
    },
    "name": "Kôki Okamoto",
    "tid": "08df8f57-e883-4b5b-b1b5-8af2d110d187",
    "types": [
      "songwriters",
      "8"
    ],
    "repository": "kara.moe",
    "modified_at": "2020-03-31T19:04:35.666Z"
  }
}