{
  "header": {
    "description": "Karaoke Mugen Tag File",
    "version": 1
  },
  "tag": {
    "aliases": [
      "Koukyoushihen Eureka Seven Hi-Evolution 1",
      "koukyoushihen"
    ],
    "external_database_ids": {
      "anilist": 98469,
      "myanimelist": 35134,
      "kitsu": 13238
    },
    "i18n": {
      "eng": "Eureka Seven: Hi-Evolution 1",
      "jpn": "交響詩篇エウレカセブン ハイエボリューション 1",
      "qro": "Kôkyôshihen Eureka Seven: Hi-Evolution 1"
    },
    "modified_at": "2020-03-31T19:04:32.034Z",
    "name": "Kôkyôshihen Eureka Seven: Hi-Evolution 1",
    "repository": "kara.moe",
    "tid": "ba1b243a-a3c6-45d4-a2cf-b617bfaf3005",
    "types": [
      "series",
      "1"
    ]
  }
}