{
  "header": {
    "description": "Karaoke Mugen Tag File",
    "version": 1
  },
  "tag": {
    "aliases": [
      "GITS 2",
      "Koukaku Kidoutai 2 Innocence",
      "イノセンス",
      "koukaku",
      "kidoutai"
    ],
    "external_database_ids": {
      "anilist": 468,
      "myanimelist": 468,
      "kitsu": 430
    },
    "i18n": {
      "eng": "Ghost in the Shell 2: Innocence",
      "est": "Hing anumas 2: Süütus",
      "jpn": "Innocence: 攻殻機動隊2",
      "lit": "Dvasia šarvuose 2: Nekaltybė",
      "rus": "Призрак в доспехах 2: Невинность",
      "qro": "Kôkaku Kidôtai 2 Innocence"
    },
    "modified_at": "2020-03-31T19:04:32.030Z",
    "name": "Kôkaku Kidôtai 2 Innocence",
    "repository": "kara.moe",
    "tid": "4015cf89-0f2a-4849-86c9-0645ad10247e",
    "types": [
      "series",
      "1"
    ]
  }
}