{
  "header": {
    "description": "Karaoke Mugen Tag File",
    "version": 1
  },
  "tag": {
    "i18n": {
      "eng": "Koumajo Densetsu II Stranger's Requiem",
      "fre": "Koumajô Densetsu II Stranger's Requiem",
      "jpn": "紅魔城伝説Ⅱ 妖幻の鎮魂歌 (ストレンジャーズ・レクイエム)",
      "qro": "Koumajou Densetsu II Stranger's Requiem"
    },
    "modified_at": "2020-03-31T19:04:32.035Z",
    "name": "Koumajou Densetsu II Stranger's Requiem",
    "repository": "kara.moe",
    "tid": "a59048b9-20bf-443d-88f6-9ffba5960850",
    "types": [
      "series",
      "1"
    ]
  }
}