{
  "header": {
    "description": "Karaoke Mugen Tag File",
    "version": 1
  },
  "tag": {
    "i18n": {
      "eng": "Kôsuke Masaki"
    },
    "name": "Kôsuke Masaki",
    "tid": "df2b7616-569a-41dd-aecf-f8e065c77148",
    "types": [
      "songwriters",
      "8"
    ],
    "repository": "kara.moe",
    "modified_at": "2020-03-31T19:04:35.677Z"
  }
}