{
  "header": {
    "description": "Karaoke Mugen Tag File",
    "version": 1
  },
  "tag": {
    "i18n": {
      "eng": "Kôta Shinzato"
    },
    "name": "Kôta Shinzato",
    "tid": "d6f48d4f-04c3-4870-a7a5-3e3f0d2fe671",
    "types": [
      "singers",
      "2"
    ],
    "repository": "kara.moe",
    "modified_at": "2020-03-31T19:04:35.685Z"
  }
}