{
  "header": {
    "description": "Karaoke Mugen Tag File",
    "version": 1
  },
  "tag": {
    "i18n": {
      "eng": "Kôtarô Kubota"
    },
    "name": "Kôtarô Kubota",
    "tid": "b9ef6b97-4764-4db9-8c53-3622c8fb508f",
    "types": [
      "songwriters",
      "8"
    ],
    "repository": "kara.moe",
    "modified_at": "2020-03-31T19:04:35.687Z"
  }
}