{
  "header": {
    "description": "Karaoke Mugen Tag File",
    "version": 1
  },
  "tag": {
    "aliases": [
      "KouSan",
      "Koutetsu Sangokushi",
      "钢铁三国志",
      "koutetsu"
    ],
    "external_database_ids": {
      "anilist": 2162,
      "myanimelist": 2162,
      "kitsu": 1957
    },
    "i18n": {
      "eng": "Kotetsu Sangokushi",
      "fre": "Kôtetsu Sangokushi",
      "jpn": "鋼鉄三国志",
      "qro": "Kôtetsu Sangokushi"
    },
    "modified_at": "2020-03-31T19:04:32.039Z",
    "name": "Kôtetsu Sangokushi",
    "repository": "kara.moe",
    "tid": "54486083-8515-4640-a923-09d3aa37a8e1",
    "types": [
      "series",
      "1"
    ]
  }
}