{
  "header": {
    "description": "Karaoke Mugen Tag File",
    "version": 1
  },
  "tag": {
    "i18n": {
      "eng": "Kôta Mori"
    },
    "name": "Kôta Mori",
    "tid": "69fc95b1-d354-4e14-a7d7-507f766c2139",
    "types": [
      "songwriters",
      "8"
    ],
    "repository": "kara.moe",
    "modified_at": "2020-03-31T19:04:35.684Z"
  }
}