{
  "header": {
    "description": "Karaoke Mugen Tag File",
    "version": 1
  },
  "tag": {
    "i18n": {
      "eng": "Koyama Hisashi"
    },
    "name": "Koyama Hisashi",
    "tid": "b941b1c2-83d8-4023-9840-56f9cfbca991",
    "types": [
      "songwriters",
      "8"
    ],
    "repository": "kara.moe",
    "modified_at": "2020-03-31T19:04:35.690Z"
  }
}