{
  "header": {
    "description": "Karaoke Mugen Tag File",
    "version": 1
  },
  "tag": {
    "aliases": [
      "Calendar Story",
      "コヨミモノガタリ"
    ],
    "external_database_ids": {
      "anilist": 21520,
      "myanimelist": 32268,
      "kitsu": 11613
    },
    "i18n": {
      "eng": "Koyomimonogatari",
      "jpn": "暦物語",
      "qro": "Koyomimonogatari"
    },
    "modified_at": "2020-03-31T19:04:32.043Z",
    "name": "Koyomimonogatari",
    "repository": "kara.moe",
    "tid": "877aa50a-6c45-4ba1-a21c-931e361735b0",
    "types": [
      "series",
      "1"
    ]
  }
}