{
  "header": {
    "description": "Karaoke Mugen Tag File",
    "version": 1
  },
  "tag": {
    "i18n": {
      "eng": "Kristen Anderson-Lopez"
    },
    "name": "Kristen Anderson-Lopez",
    "tid": "ca012992-eb15-4440-bf41-78072f44238b",
    "types": [
      "songwriters",
      "8"
    ],
    "repository": "kara.moe",
    "modified_at": "2020-03-31T19:04:35.695Z"
  }
}