{
  "header": {
    "description": "Karaoke Mugen Tag File",
    "version": 1
  },
  "tag": {
    "i18n": {
      "eng": "KSKN"
    },
    "name": "KSKN",
    "tid": "6dc0075f-bddc-4152-8647-c894f100c75a",
    "types": [
      "singers",
      "2"
    ],
    "repository": "kara.moe",
    "modified_at": "2020-03-31T19:04:35.698Z"
  }
}