{
  "header": {
    "description": "Karaoke Mugen Tag File",
    "version": 1
  },
  "tag": {
    "aliases": [
      "Kuma Miko",
      "Kumamiko",
      "熊巫女",
      "當女孩遇到熊"
    ],
    "external_database_ids": {
      "anilist": 21423,
      "myanimelist": 31804,
      "kitsu": 11446
    },
    "i18n": {
      "eng": "Kumamiko: Girl Meets Bear",
      "fre": "Kuma Miko: Girl Meets Bear",
      "jpn": "くまみこ Girl meets Bear",
      "qro": "Kumamiko: Girl Meets Bear"
    },
    "modified_at": "2020-03-31T19:04:32.046Z",
    "name": "Kumamiko: Girl Meets Bear",
    "repository": "kara.moe",
    "tid": "53b6ff5d-2602-469c-8a58-fedd92aae7ff",
    "types": [
      "series",
      "1"
    ]
  }
}