{
  "header": {
    "description": "Karaoke Mugen Tag File",
    "version": 1
  },
  "tag": {
    "i18n": {
      "eng": "Kunio Muramatsu"
    },
    "name": "Kunio Muramatsu",
    "repository": "kara.moe",
    "tid": "9eed40c8-286f-4307-96c9-f567440eea8d",
    "types": [
      "songwriters",
      "8"
    ]
  }
}