{
  "header": {
    "description": "Karaoke Mugen Tag File",
    "version": 1
  },
  "tag": {
    "i18n": {
      "eng": "Kurumi Enomoto",
      "jpn": "榎本くるみ",
      "qro": "Kurumi Enomoto"
    },
    "name": "Kurumi Enomoto",
    "repository": "kara.moe",
    "tid": "e1c04813-115e-4c3e-bac8-d655578f855b",
    "types": [
      "singers",
      "2"
    ]
  }
}