{
  "header": {
    "description": "Karaoke Mugen Tag File",
    "version": 1
  },
  "tag": {
    "i18n": {
      "eng": "Kylee"
    },
    "name": "Kylee",
    "tid": "254fcc9a-a76b-4741-a1bb-05135628ecd9",
    "types": [
      "singers",
      "2",
      "songwriters",
      "8"
    ],
    "repository": "kara.moe",
    "modified_at": "2020-03-31T19:04:35.730Z"
  }
}