{
  "header": {
    "description": "Karaoke Mugen Tag File",
    "version": 1
  },
  "tag": {
    "aliases": [
      "Kyokou"
    ],
    "external_database_ids": {
      "anilist": 126529,
      "kitsu": 43755,
      "myanimelist": 44204
    },
    "i18n": {
      "eng": "In/Spectre Season 2",
      "jpn": "虚構推理 Season2",
      "qro": "Kyokô Suiri Season 2"
    },
    "name": "Kyokô Suiri Season 2",
    "repository": "kara.moe",
    "tid": "8bf9d616-8c79-4809-88f1-3ea2eee39398",
    "types": [
      "series",
      "1"
    ]
  }
}