{
  "header": {
    "description": "Karaoke Mugen Tag File",
    "version": 1
  },
  "tag": {
    "i18n": {
      "eng": "Kyôko Ôsako"
    },
    "name": "Kyôko Ôsako",
    "tid": "ace63ea8-7a32-440b-b80b-6136773106a5",
    "types": [
      "songwriters",
      "8"
    ],
    "repository": "kara.moe",
    "modified_at": "2020-03-31T19:04:35.748Z"
  }
}