{
  "header": {
    "description": "Karaoke Mugen Tag File",
    "version": 1
  },
  "tag": {
    "aliases": [
      "Kyouryuu Sentai Zyuranger",
      "kyouryuu"
    ],
    "i18n": {
      "eng": "Kyôryû Sentai Zyuranger",
      "jpn": "恐竜戦隊ジュウレンジャ",
      "qro": "Kyôryû Sentai Zyuranger"
    },
    "modified_at": "2020-03-31T19:04:32.068Z",
    "name": "Kyôryû Sentai Zyuranger",
    "repository": "kara.moe",
    "tid": "712ddf36-8bbf-42a2-9733-1930b7d81cb7",
    "types": [
      "series",
      "1"
    ]
  }
}