{
  "header": {
    "description": "Karaoke Mugen Tag File",
    "version": 1
  },
  "tag": {
    "i18n": {
      "eng": "Kyô Ore Band"
    },
    "name": "Kyô Ore Band",
    "tid": "fcfa03ab-10ee-4f80-9d2b-1d363d7ada52",
    "types": [
      "singers",
      "2"
    ],
    "repository": "kara.moe",
    "modified_at": "2020-03-31T19:04:35.737Z"
  }
}