{
  "header": {
    "description": "Karaoke Mugen Tag File",
    "version": 1
  },
  "tag": {
    "aliases": [
      "Lave Once: Mermaid's Tears",
      "Love Once: Mermaid's Tears",
      "Love at Once",
      "ラブ・アット・ワンス"
    ],
    "i18n": {
      "eng": "L@ve Once: Mermaid's Tears",
      "jpn": "L@ve Once: Mermaid's Tears",
      "qro": "L@ve Once: Mermaid's Tears"
    },
    "modified_at": "2020-03-31T19:04:32.072Z",
    "name": "L@ve Once: Mermaid's Tears",
    "repository": "kara.moe",
    "tid": "344aa97d-a7e8-407f-9f45-5744d305cac9",
    "types": [
      "series",
      "1"
    ]
  }
}