{
  "header": {
    "description": "Karaoke Mugen Tag File",
    "version": 1
  },
  "tag": {
    "i18n": {
      "eng": "La Tawa"
    },
    "modified_at": "2021-05-21T15:40:16.767Z",
    "name": "La Tawa",
    "repository": "kara.moe",
    "tid": "9ed0f2a3-3def-400f-8155-04d4c6102202",
    "types": [
      "creators",
      "4"
    ]
  }
}