{
  "header": {
    "description": "Karaoke Mugen Tag File",
    "version": 1
  },
  "tag": {
    "i18n": {
      "eng": "LambSoars"
    },
    "name": "LambSoars",
    "repository": "kara.moe",
    "tid": "b5aa7c4c-5d4a-497c-bc9a-8183a6cb03a2",
    "types": [
      "singers",
      "2"
    ]
  }
}