{
  "header": {
    "description": "Karaoke Mugen Tag File",
    "version": 1
  },
  "tag": {
    "i18n": {
      "eng": "Laputa"
    },
    "name": "Laputa",
    "repository": "kara.moe",
    "tid": "2a8875f4-e7d3-4804-82e8-80a475226c3a",
    "types": [
      "singers",
      "2",
      "songwriters",
      "8"
    ]
  }
}