{
  "header": {
    "description": "Karaoke Mugen Tag File",
    "version": 1
  },
  "tag": {
    "aliases": [
      "LAST EXILE 銀翼のファム",
      "LASTEXILE -Fam The Silver Wing-",
      "Last Exile: Ginyoku no Fam",
      "last exile 2",
      "le2",
      "Останній Вигнанець: Сріблясті Крила Фам",
      "ラストエグザイル-銀翼のファム-",
      "最终流放 银翼之法姆"
    ],
    "external_database_ids": {
      "anilist": 10336,
      "myanimelist": 10336,
      "kitsu": 6134
    },
    "i18n": {
      "eng": "Last Exile: Fam, the Silver Wing",
      "jpn": "LASTEXILE 銀翼のファム",
      "qro": "Last Exile: Gin'yoku no Fam"
    },
    "modified_at": "2020-03-31T19:04:32.076Z",
    "name": "Last Exile: Gin'yoku no Fam",
    "repository": "kara.moe",
    "tid": "809889bc-c86e-459e-90af-c53f12830289",
    "types": [
      "series",
      "1"
    ]
  }
}