{
  "header": {
    "description": "Karaoke Mugen Tag File",
    "version": 1
  },
  "tag": {
    "i18n": {
      "eng": "Laurance O'Keefe"
    },
    "name": "Laurance O'Keefe",
    "tid": "6eda7021-0253-481f-974e-4b90af935286",
    "types": [
      "singers",
      "2"
    ],
    "repository": "kara.moe",
    "modified_at": "2020-03-31T19:04:35.775Z"
  }
}