{
  "header": {
    "description": "Karaoke Mugen Tag File",
    "version": 1
  },
  "tag": {
    "i18n": {
      "eng": "Lee Ra Eum"
    },
    "name": "Lee Ra Eum",
    "tid": "dd627831-9ae9-4429-bb2a-2b49d0078208",
    "types": [
      "songwriters",
      "8"
    ],
    "repository": "kara.moe",
    "modified_at": "2020-03-31T19:04:35.788Z"
  }
}