{
  "header": {
    "description": "Karaoke Mugen Tag File",
    "version": 1
  },
  "tag": {
    "i18n": {
      "eng": "Les Mini-Star"
    },
    "name": "Les Mini-Star",
    "tid": "18461e6f-5562-49f1-bbd6-b75157585523",
    "types": [
      "singers",
      "2"
    ],
    "repository": "kara.moe",
    "modified_at": "2020-03-31T19:04:35.808Z"
  }
}