{
  "header": {
    "description": "Karaoke Mugen Tag File",
    "version": 1
  },
  "tag": {
    "i18n": {
      "eng": "Li Jinghao"
    },
    "name": "Li Jinghao",
    "repository": "kara.moe",
    "tid": "e7022b3d-dfe5-48a4-b776-3c5657900324",
    "types": [
      "songwriters",
      "8"
    ]
  }
}