{
  "header": {
    "description": "Karaoke Mugen Tag File",
    "version": 1
  },
  "tag": {
    "i18n": {
      "eng": "Li Maoyang"
    },
    "modified_at": "2021-07-14T18:14:17.980Z",
    "name": "Li Maoyang",
    "repository": "kara.moe",
    "tid": "ffedad95-77f3-4327-920f-96e66314b9be",
    "types": [
      "songwriters",
      "8"
    ]
  }
}