{
  "header": {
    "description": "Karaoke Mugen Tag File",
    "version": 1
  },
  "tag": {
    "i18n": {
      "eng": "Lido"
    },
    "name": "Lido",
    "tid": "020ae97d-5726-4be1-8138-4e7ddeaae376",
    "types": [
      "songwriters",
      "8"
    ],
    "repository": "kara.moe",
    "modified_at": "2020-03-31T19:04:35.819Z"
  }
}