{
  "header": {
    "description": "Karaoke Mugen Tag File",
    "version": 1
  },
  "tag": {
    "i18n": {
      "eng": "Lil Nas X"
    },
    "name": "Lil Nas X",
    "repository": "kara.moe",
    "tid": "4cc2cd3b-1db8-4da0-9d66-9eb72447f5b8",
    "types": [
      "singers",
      "2"
    ]
  }
}