{
  "header": {
    "description": "Karaoke Mugen Tag File",
    "version": 1
  },
  "tag": {
    "aliases": [
      "Todd Bryanton"
    ],
    "i18n": {
      "eng": "LilDeuceDeuce"
    },
    "name": "LilDeuceDeuce",
    "tid": "930ea022-783c-42cf-9c34-f65a96cb86a7",
    "types": [
      "songwriters",
      "8"
    ],
    "repository": "kara.moe",
    "modified_at": "2020-03-31T19:04:35.822Z"
  }
}