{
  "header": {
    "description": "Karaoke Mugen Tag File",
    "version": 1
  },
  "tag": {
    "aliases": [
      "Ann-Sophie Lennerfors"
    ],
    "i18n": {
      "eng": "LiLiCo"
    },
    "name": "LiLiCo",
    "repository": "kara.moe",
    "tid": "47afa35b-72a2-4a5a-990d-f909a508e004",
    "types": [
      "singers",
      "2"
    ]
  }
}