{
  "header": {
    "description": "Karaoke Mugen Tag File",
    "version": 1
  },
  "tag": {
    "i18n": {
      "eng": "LilyPichu"
    },
    "name": "LilyPichu",
    "repository": "kara.moe",
    "tid": "0c824c52-0a8b-48a4-9f1a-f6019cb596db",
    "types": [
      "singers",
      "2"
    ]
  }
}