{
  "header": {
    "description": "Karaoke Mugen Tag File",
    "version": 1
  },
  "tag": {
    "i18n": {
      "eng": "Lina Rafn"
    },
    "name": "Lina Rafn",
    "repository": "kara.moe",
    "tid": "850901f1-d0b6-4eba-a4ef-5f5e0ee32dc9",
    "types": [
      "singers",
      "2",
      "songwriters",
      "8"
    ]
  }
}