{
  "header": {
    "description": "Karaoke Mugen Tag File",
    "version": 1
  },
  "tag": {
    "aliases": [
      "Shang Ban Ji",
      "Spirit Cage: Incarnation",
      "Ling Cage"
    ],
    "external_database_ids": {
      "anilist": 110459,
      "myanimelist": 39675,
      "kitsu": 42431
    },
    "i18n": {
      "eng": "Ling Long: Incarnation",
      "jpn": "灵笼: INCARNATION",
      "qro": "Ling Long: Incarnation"
    },
    "modified_at": "2021-06-19T21:21:23.653Z",
    "name": "Ling Long: Incarnation",
    "repository": "kara.moe",
    "tid": "32f39c5f-a29a-4174-9f42-0995143940eb",
    "types": [
      "series",
      "1"
    ]
  }
}