{
  "header": {
    "description": "Karaoke Mugen Tag File",
    "version": 1
  },
  "tag": {
    "i18n": {
      "eng": "Lisbet Guldbaek"
    },
    "name": "Lisbet Guldbaek",
    "tid": "50ecd86b-3842-4abf-a819-7166151036ff",
    "types": [
      "singers",
      "2"
    ],
    "repository": "kara.moe",
    "modified_at": "2020-03-31T19:04:35.841Z"
  }
}