{
  "header": {
    "description": "Karaoke Mugen Tag File",
    "version": 1
  },
  "tag": {
    "i18n": {
      "eng": "Little Voice"
    },
    "name": "Little Voice",
    "tid": "e827dd80-08c5-487a-a489-19e7656af0d6",
    "types": [
      "singers",
      "2",
      "songwriters",
      "8"
    ],
    "repository": "kara.moe",
    "modified_at": "2020-03-31T19:04:35.855Z"
  }
}