{
  "header": {
    "description": "Karaoke Mugen Tag File",
    "version": 1
  },
  "tag": {
    "i18n": {
      "eng": "LizNoir"
    },
    "name": "LizNoir",
    "repository": "kara.moe",
    "tid": "7b92da2f-807c-48f2-bdf8-e5958401859c",
    "types": [
      "singergroups",
      "17"
    ]
  }
}