{
  "header": {
    "description": "Karaoke Mugen Tag File",
    "version": 1
  },
  "tag": {
    "i18n": {
      "eng": "Lon"
    },
    "modified_at": "2020-05-01T18:27:32.573Z",
    "name": "Lon",
    "repository": "kara.moe",
    "tid": "2c3923c9-07d3-4c23-8f8c-588dda373625",
    "types": [
      "singers",
      "2"
    ]
  }
}