{
  "header": {
    "description": "Karaoke Mugen Tag File",
    "version": 1
  },
  "tag": {
    "aliases": [
      "London Boots 1 Gou 2 Gou"
    ],
    "i18n": {
      "eng": "London Boots 1 Gô 2 Gô"
    },
    "modified_at": "2020-08-28T21:50:13.301Z",
    "name": "London Boots 1 Gô 2 Gô",
    "repository": "kara.moe",
    "tid": "b2623ad8-a987-4305-9272-1ad875fa3bf5",
    "types": [
      "singers",
      "2"
    ]
  }
}