{
  "header": {
    "description": "Karaoke Mugen Tag File",
    "version": 1
  },
  "tag": {
    "i18n": {
      "eng": "Lorea Ferris Dandoy"
    },
    "name": "Lorea Ferris Dandoy",
    "repository": "kara.moe",
    "tid": "55fd8463-3f5b-4986-a84c-83265300894d",
    "types": [
      "singers",
      "2"
    ]
  }
}