{
  "header": {
    "description": "Karaoke Mugen Tag File",
    "version": 1
  },
  "tag": {
    "external_database_ids": {
      "anilist": 21772,
      "myanimelist": 33197,
      "kitsu": 12065
    },
    "i18n": {
      "eng": "Lostorage Incited Wixoss",
      "jpn": "Lostorage incited WIXOSS",
      "chi": "失忆煽动WIXOSS",
      "qro": "Lostorage Incited WIXOSS"
    },
    "modified_at": "2021-05-21T13:37:51.266Z",
    "name": "Lostorage Incited WIXOSS",
    "repository": "kara.moe",
    "tid": "da8130c1-82d1-44a9-a218-0355f258578c",
    "types": [
      "series",
      "1"
    ]
  }
}