{
  "header": {
    "description": "Karaoke Mugen Tag File",
    "version": 1
  },
  "tag": {
    "aliases": [
      "LH Again",
      "LHA",
      "Снова c любовью Хина",
      "Снова любовь и Хина"
    ],
    "external_database_ids": {
      "anilist": 190,
      "myanimelist": 190,
      "kitsu": 167
    },
    "i18n": {
      "eng": "Love Hina Again",
      "ger": "Love Hina Again",
      "jpn": "ラブひな Again",
      "qro": "Love Hina Again"
    },
    "modified_at": "2020-03-31T19:04:32.102Z",
    "name": "Love Hina Again",
    "repository": "kara.moe",
    "tid": "afe4459d-1446-4e39-ab4b-bea03ce616f6",
    "types": [
      "series",
      "1"
    ]
  }
}