{
  "header": {
    "description": "Karaoke Mugen Tag File",
    "version": 1
  },
  "tag": {
    "i18n": {
      "eng": "Love Scenery",
      "qro": "Liang Chen Mei Jing Hao Shi Guang",
      "chi": "良辰美景好时光"
    },
    "name": "Love Scenery",
    "repository": "kara.moe",
    "tid": "349282a4-257e-441d-a15f-1709715c8520",
    "types": [
      "series",
      "1"
    ]
  }
}