{
  "header": {
    "description": "Karaoke Mugen Tag File",
    "version": 1
  },
  "tag": {
    "i18n": {
      "eng": "Low"
    },
    "name": "Low",
    "repository": "kara.moe",
    "tid": "a49a851d-dfb9-49a8-98c5-ca0a9e385a77",
    "types": [
      "songwriters",
      "8"
    ]
  }
}