{
  "header": {
    "description": "Karaoke Mugen Tag File",
    "version": 1
  },
  "tag": {
    "i18n": {
      "eng": "Luchia"
    },
    "name": "Luchia",
    "repository": "kara.moe",
    "tid": "96288f85-e1fe-4b30-8003-999b98707e59",
    "types": [
      "authors",
      "6"
    ]
  }
}