{
  "header": {
    "description": "Karaoke Mugen Tag File",
    "version": 1
  },
  "tag": {
    "i18n": {
      "eng": "Luminous Witches"
    },
    "name": "Luminous Witches",
    "repository": "kara.moe",
    "tid": "d5754ca1-db5a-4c2d-9e78-0558164b78a3",
    "types": [
      "singers",
      "2"
    ]
  }
}