{
  "header": {
    "description": "Karaoke Mugen Tag File",
    "version": 1
  },
  "tag": {
    "i18n": {
      "eng": "Løren"
    },
    "name": "Løren",
    "repository": "kara.moe",
    "tid": "0499c06d-5d5a-44ad-9452-efbfc1559e5b",
    "types": [
      "songwriters",
      "8"
    ]
  }
}