{
  "header": {
    "description": "Karaoke Mugen Tag File",
    "version": 1
  },
  "tag": {
    "aliases": [
      "Lupin 3",
      "Edgar de la cambiole",
      "Edgar le détective cambrioleur"
    ],
    "external_database_ids": {
      "anilist": 107313,
      "myanimelist": 39487,
      "kitsu": 42186
    },
    "i18n": {
      "eng": "Lupin the Third: Fujiko Mine's Lie",
      "jpn": "LUPIN THE IIIRD 峰不二子の嘘",
      "fre": "Lupin III : Le mensonge de Fujiko Mine",
      "qro": "Lupin the IIIrd: Mine Fujiko no Uso"
    },
    "modified_at": "2020-07-19T18:46:48.849Z",
    "name": "Lupin the IIIrd: Mine Fujiko no Uso",
    "repository": "kara.moe",
    "tid": "a2f4c9bc-ef4a-4a0b-8a24-ababbd260810",
    "types": [
      "series",
      "1"
    ]
  }
}