{
  "header": {
    "description": "Karaoke Mugen Tag File",
    "version": 1
  },
  "tag": {
    "i18n": {
      "eng": "Lynne Hobday"
    },
    "name": "Lynne Hobday",
    "tid": "4b1f5490-7149-45e5-812b-cdfe4f930198",
    "types": [
      "songwriters",
      "8"
    ],
    "repository": "kara.moe",
    "modified_at": "2020-03-31T19:04:35.896Z"
  }
}