{
  "header": {
    "description": "Karaoke Mugen Tag File",
    "version": 1
  },
  "tag": {
    "i18n": {
      "eng": "M★TWO -MinaMiru-"
    },
    "name": "M★TWO -MinaMiru-",
    "tid": "9f0755e1-c8c5-44a5-ab78-f8918adbe410",
    "types": [
      "singers",
      "2"
    ],
    "repository": "kara.moe",
    "modified_at": "2020-03-31T19:04:35.899Z"
  }
}