{
  "header": {
    "description": "Karaoke Mugen Tag File",
    "version": 1
  },
  "tag": {
    "i18n": {
      "eng": "M!LK"
    },
    "name": "M!LK",
    "tid": "428e916b-9c31-4698-9b52-dcc6732ab7e7",
    "types": [
      "singers",
      "2"
    ],
    "repository": "kara.moe",
    "modified_at": "2020-03-31T19:04:35.899Z"
  }
}