{
  "header": {
    "description": "Karaoke Mugen Tag File",
    "version": 1
  },
  "tag": {
    "aliases": [
      "M3 - Sono Kuroki Hagane",
      "M3 Sono Kuroki Tetsu",
      "M3 The Dark Metal",
      "Mortal Metal Memories"
    ],
    "external_database_ids": {
      "anilist": 20647,
      "myanimelist": 23133,
      "kitsu": 8335
    },
    "i18n": {
      "chi": "M3~黑色钢铁~",
      "fre": "M3 The Dark Metal",
      "jpn": "M3 ~ソノ黒キ鋼~",
      "per": "ام 3: فلز تیره",
      "qro": "M3: Sono Kuroki Hagane"
    },
    "modified_at": "2020-03-31T19:04:32.122Z",
    "name": "M3: Sono Kuroki Hagane",
    "repository": "kara.moe",
    "tid": "f6141dbe-5e75-42e1-9890-236b8abc2497",
    "types": [
      "series",
      "1"
    ]
  }
}