{
  "header": {
    "description": "Karaoke Mugen Tag File",
    "version": 1
  },
  "tag": {
    "i18n": {
      "eng": "M6"
    },
    "modified_at": "2020-06-21T20:59:02.963Z",
    "name": "M6",
    "repository": "kara.moe",
    "tid": "0b4a7069-6896-424f-b9bb-7ad0eb7cf416",
    "types": [
      "creators",
      "4"
    ]
  }
}