{
  "header": {
    "description": "Karaoke Mugen Tag File",
    "version": 1
  },
  "tag": {
    "aliases": [
      "Choume",
      "街角魔族 第二季",
      "Machima2"
    ],
    "external_database_ids": {
      "anilist": 123330,
      "kitsu": 43547,
      "myanimelist": 42745
    },
    "i18n": {
      "eng": "The Demon Girl Next Door 2",
      "jpn": "まちカドまぞく 2丁目",
      "qro": "Machikado Mazoku 2-Chôme",
      "chi": "街角魔族 2丁目"
    },
    "name": "Machikado Mazoku 2-Chôme",
    "repository": "kara.moe",
    "tid": "01026ab0-3629-4833-9db9-bc0ecba554fc",
    "types": [
      "series",
      "1"
    ]
  }
}