{
  "header": {
    "description": "Karaoke Mugen Tag File",
    "version": 1
  },
  "tag": {
    "aliases": [
      "Macross 0",
      "Макрос Зеро",
      "마크로스 Zero"
    ],
    "external_database_ids": {
      "anilist": 194,
      "myanimelist": 194,
      "kitsu": 171
    },
    "i18n": {
      "eng": "Macross Zero",
      "jpn": "マクロス ゼロ",
      "kor": "마크로스 제로",
      "qro": "Macross Zero"
    },
    "modified_at": "2021-03-08T19:47:21.734Z",
    "name": "Macross Zero",
    "repository": "kara.moe",
    "tid": "aeba45fb-eeb6-4d46-bf17-3aa3ba1c738c",
    "types": [
      "series",
      "1"
    ]
  }
}