{
  "header": {
    "description": "Karaoke Mugen Tag File",
    "version": 1
  },
  "tag": {
    "i18n": {
      "eng": "MAD TRIGGER CREW"
    },
    "name": "MAD TRIGGER CREW",
    "repository": "kara.moe",
    "tid": "3038a30c-d18d-49bb-a54c-fe01c7288689",
    "types": [
      "singergroups",
      "17"
    ]
  }
}