{
  "header": {
    "description": "Karaoke Mugen Tag File",
    "version": 1
  },
  "tag": {
    "i18n": {
      "eng": "Madison McFerrin"
    },
    "name": "Madison McFerrin",
    "repository": "kara.moe",
    "tid": "1b30834c-d5ad-4d71-867a-598d20003718",
    "types": [
      "singers",
      "2"
    ],
    "modified_at": "2020-03-31T19:04:35.915Z"
  }
}