{
  "header": {
    "description": "Karaoke Mugen Tag File",
    "version": 1
  },
  "tag": {
    "i18n": {
      "eng": "Maekawa"
    },
    "name": "Maekawa",
    "tid": "8fb54b25-1866-4a98-a45c-e8e6b774012e",
    "types": [
      "songwriters",
      "8"
    ],
    "repository": "kara.moe",
    "modified_at": "2020-03-31T19:04:35.920Z"
  }
}