{
  "header": {
    "description": "Karaoke Mugen Tag File",
    "version": 1
  },
  "tag": {
    "i18n": {
      "eng": "Magical Battle",
      "jpn": "マジカルバトル"
    },
    "name": "Magical Battle",
    "repository": "kara.moe",
    "tid": "0fcb5b48-5b83-4b81-a675-e6a1e418054f",
    "types": [
      "franchises",
      "18"
    ]
  }
}