{
  "header": {
    "description": "Karaoke Mugen Tag File",
    "version": 1
  },
  "tag": {
    "i18n": {
      "eng": "Magumi Hasegawa"
    },
    "name": "Magumi Hasegawa",
    "tid": "6bc55452-68fa-42a3-8a01-09f132872ade",
    "types": [
      "singers",
      "2"
    ],
    "repository": "kara.moe",
    "modified_at": "2020-03-31T19:04:35.927Z"
  }
}