{
  "header": {
    "description": "Karaoke Mugen Tag File",
    "version": 1
  },
  "tag": {
    "aliases": [
      "Mahou Tsukai no Yome",
      "Mahoutsukai no Yome",
      "Mahoyome",
      "Жената на магьосника",
      "mahoutsukai"
    ],
    "external_database_ids": {
      "anilist": 98436,
      "myanimelist": 35062,
      "kitsu": 13228
    },
    "i18n": {
      "ara": "عروس المشعوذ القديم",
      "chi": "魔法使的新娘",
      "eng": "The Ancient Magus' Bride",
      "fre": "The Ancient Magus' Bride",
      "ger": "Die Braut des Magiers",
      "jpn": "魔法使いの嫁",
      "kor": "마법사의 신부",
      "qro": "Mahôtsukai no Yome"
    },
    "modified_at": "2020-03-31T19:04:32.165Z",
    "name": "Mahôtsukai no Yome",
    "repository": "kara.moe",
    "tid": "d8263482-acdf-411f-ac59-30607ab15fd8",
    "types": [
      "series",
      "1",
      "franchises",
      "18"
    ]
  }
}