{
  "header": {
    "description": "Karaoke Mugen Tag File",
    "version": 1
  },
  "tag": {
    "aliases": [
      "Magical Angel Sweet Mint",
      "Mahou no Angel Sweet Mint",
      "mahou"
    ],
    "external_database_ids": {
      "anilist": 2040,
      "myanimelist": 2040,
      "kitsu": 1839
    },
    "i18n": {
      "eng": "Magical Angel Sweet Mint",
      "ita": "Dolceluna",
      "jpn": "魔法のエンジェル スイートミント",
      "qro": "Mahô no Angel Sweet Mint"
    },
    "modified_at": "2020-06-21T23:45:31.966Z",
    "name": "Mahô no Angel Sweet Mint",
    "repository": "kara.moe",
    "tid": "e3bf3eee-87fe-453d-8d1b-27ad74835aaf",
    "types": [
      "series",
      "1"
    ]
  }
}