{
  "header": {
    "description": "Karaoke Mugen Tag File",
    "version": 1
  },
  "tag": {
    "aliases": [
      "Chappy the Magic User",
      "El hada Chappy",
      "Mahou Tsukai Chappy",
      "mahou"
    ],
    "external_database_ids": {
      "anilist": 3845,
      "myanimelist": 3845,
      "kitsu": 3297
    },
    "i18n": {
      "eng": "Mahô Tsukai Chappy",
      "fre": "Chappy",
      "ita": "La maga Chappy",
      "jpn": "魔法使いチャッピー",
      "spa": "Chappy",
      "qro": "Mahô Tsukai Chappy"
    },
    "modified_at": "2020-03-31T19:04:32.159Z",
    "name": "Mahô Tsukai Chappy",
    "repository": "kara.moe",
    "tid": "b25ffee8-646a-4961-817c-89e3681e7354",
    "types": [
      "series",
      "1"
    ]
  }
}