{
  "header": {
    "description": "Karaoke Mugen Tag File",
    "version": 1
  },
  "tag": {
    "aliases": [
      "Mahoromatic: Back home once again",
      "Mahoromatic: Tadaima Okaeri",
      "Махороматик: С возвращением",
      "tadaima okaeri"
    ],
    "external_database_ids": {
      "anilist": 7066,
      "myanimelist": 7066,
      "kitsu": 4857
    },
    "i18n": {
      "eng": "Mahoromatic: I'm Home!",
      "jpn": "まほろまてぃっく ただいま◇おかえり",
      "qro": "Mahoromatic: Tadaima◇Okaeri"
    },
    "modified_at": "2020-03-31T19:04:32.138Z",
    "name": "Mahoromatic: Tadaima◇Okaeri",
    "repository": "kara.moe",
    "tid": "6aa3503c-61e8-435f-8fa1-2f6c96011123",
    "types": [
      "series",
      "1"
    ]
  }
}