{
  "header": {
    "description": "Karaoke Mugen Tag File",
    "version": 1
  },
  "tag": {
    "aliases": [
      "Garota Mágica Lírica Nanoha StrikerS",
      "Magical Girl Lyrical Nanoha StrikerS",
      "Mahou Shoujo Lyrical Nanoha StrikerS",
      "NanohaSS",
      "mglnss",
      "mslns",
      "mslnss",
      "nanoha3",
      "魔法少女奈叶SS",
      "mahou",
      "shoujo"
    ],
    "external_database_ids": {
      "anilist": 1915,
      "myanimelist": 1915,
      "kitsu": 1725
    },
    "i18n": {
      "chi": "魔法少女奈叶StrikerS",
      "eng": "Magical Girl Lyrical Nanoha StrikerS",
      "jpn": "魔法少女リリカルなのはStrikerS",
      "qro": "Mahô Shôjo Lyrical Nanoha StrikerS"
    },
    "modified_at": "2020-06-21T23:45:31.966Z",
    "name": "Mahô Shôjo Lyrical Nanoha StrikerS",
    "repository": "kara.moe",
    "tid": "8cbf78b2-5557-4910-a6f7-aa1ef3f77da2",
    "types": [
      "series",
      "1"
    ]
  }
}