{
  "header": {
    "description": "Karaoke Mugen Tag File",
    "version": 1
  },
  "tag": {
    "i18n": {
      "eng": "Mai Gotô"
    },
    "name": "Mai Gotô",
    "tid": "5350e9ad-a646-4ec6-b790-97caca663637",
    "types": [
      "singers",
      "2"
    ],
    "repository": "kara.moe",
    "modified_at": "2020-03-31T19:04:35.937Z"
  }
}