{
  "header": {
    "description": "Karaoke Mugen Tag File",
    "version": 1
  },
  "tag": {
    "i18n": {
      "eng": "Mai Kuraki"
    },
    "name": "Mai Kuraki",
    "tid": "76436798-5200-4469-9be5-79db5b532d04",
    "types": [
      "singers",
      "2",
      "songwriters",
      "8"
    ],
    "repository": "kara.moe",
    "modified_at": "2020-03-31T19:04:35.941Z"
  }
}