{
  "header": {
    "description": "Karaoke Mugen Tag File",
    "version": 1
  },
  "tag": {
    "i18n": {
      "eng": "Mai Akizuki"
    },
    "name": "Mai Akizuki",
    "tid": "5531057b-d05b-4c00-8760-355e2871b59b",
    "types": [
      "singers",
      "2"
    ],
    "repository": "kara.moe",
    "modified_at": "2020-03-31T19:04:35.935Z"
  }
}