{
  "header": {
    "description": "Karaoke Mugen Tag File",
    "version": 1
  },
  "tag": {
    "i18n": {
      "eng": "Maitrize"
    },
    "name": "Maitrize",
    "repository": "kara.moe",
    "tid": "d66bd840-4bbe-4a85-abbd-c50f05c0a63e",
    "types": [
      "creators",
      "4"
    ]
  }
}