{
  "header": {
    "description": "Karaoke Mugen Tag File",
    "version": 1
  },
  "tag": {
    "aliases": [
      "Majocco Classical"
    ],
    "external_database_ids": {
      "anilist": 15813,
      "myanimelist": 15813,
      "kitsu": 7316
    },
    "i18n": {
      "eng": "Magical Sisters Yoyo & Nene",
      "ger": "Yoyo & Nene - Die magischen Schwestern",
      "jpn": "魔女っこ姉妹のヨヨとネネ",
      "qro": "Majokko Shimai no Yoyo to Nene"
    },
    "modified_at": "2020-03-31T19:04:32.175Z",
    "name": "Majokko Shimai no Yoyo to Nene",
    "repository": "kara.moe",
    "tid": "dbce1dce-54b2-4461-b08c-24ade0607a6b",
    "types": [
      "series",
      "1"
    ]
  }
}