{
  "header": {
    "description": "Karaoke Mugen Tag File",
    "version": 1
  },
  "tag": {
    "aliases": [
      "Major 1st Season",
      "Major S1",
      "Мейжър С1",
      "ميجر"
    ],
    "external_database_ids": {
      "anilist": 627,
      "myanimelist": 627,
      "kitsu": 582
    },
    "i18n": {
      "eng": "Major (1st serie)",
      "jpn": "メジャー （第1シリーズ）",
      "kor": "메이저 1기",
      "qro": "Major"
    },
    "modified_at": "2020-03-31T19:04:32.179Z",
    "name": "Major",
    "repository": "kara.moe",
    "tid": "4df4d550-15ee-4380-86e6-e51b1a8160ac",
    "types": [
      "series",
      "1"
    ]
  }
}