{
  "header": {
    "description": "Karaoke Mugen Tag File",
    "version": 1
  },
  "tag": {
    "aliases": [
      "Major 4th Season",
      "major4",
      "Мейжър С4",
      "メジャー 第4シリーズ",
      "棒球大联盟第四季"
    ],
    "external_database_ids": {
      "anilist": 3226,
      "myanimelist": 3226,
      "kitsu": 2869
    },
    "i18n": {
      "eng": "Major (4th serie)",
      "jpn": "メジャー　（第4シリーズ)",
      "qro": "Major (2008)"
    },
    "modified_at": "2020-03-31T19:04:32.177Z",
    "name": "Major (2008)",
    "repository": "kara.moe",
    "tid": "631ea8b5-6579-45c4-b1c2-b8840aaef108",
    "types": [
      "series",
      "1"
    ]
  }
}