{
  "header": {
    "description": "Karaoke Mugen Tag File",
    "version": 1
  },
  "tag": {
    "aliases": [
      "Maken-Ki! Second Season",
      "Maken-Ki! 2nd Season"
    ],
    "external_database_ids": {
      "anilist": 15565,
      "myanimelist": 15565,
      "kitsu": 7275
    },
    "i18n": {
      "eng": "Maken-ki! Two",
      "jpn": "マケン姫っ! 通",
      "chi": "魔具少女！通",
      "qro": "Maken-ki! Two"
    },
    "modified_at": "2021-03-07T15:38:00.024Z",
    "name": "Maken-ki! Two",
    "repository": "kara.moe",
    "tid": "e73fc699-15a3-4196-9b6f-658989c4c0f0",
    "types": [
      "series",
      "1"
    ]
  }
}