{
  "header": {
    "description": "Karaoke Mugen Tag File",
    "version": 1
  },
  "tag": {
    "i18n": {
      "eng": "Maki Ootsuki"
    },
    "modified_at": "2020-08-23T22:07:26.864Z",
    "name": "Maki Ootsuki",
    "repository": "kara.moe",
    "tid": "7f7608ea-5e50-40a6-8870-1ab57bd884d7",
    "types": [
      "singers",
      "2",
      "songwriters",
      "8"
    ]
  }
}