{
  "header": {
    "description": "Karaoke Mugen Tag File",
    "version": 1
  },
  "tag": {
    "i18n": {
      "eng": "Mami Yamase"
    },
    "name": "Mami Yamase",
    "tid": "7346a76b-62af-49ea-bc16-9041dc41da51",
    "types": [
      "singers",
      "2"
    ],
    "repository": "kara.moe",
    "modified_at": "2020-03-31T19:04:35.990Z"
  }
}