{
  "header": {
    "description": "Karaoke Mugen Tag File",
    "version": 1
  },
  "tag": {
    "i18n": {
      "eng": "Mami Fujita"
    },
    "name": "Mami Fujita",
    "tid": "574b2a23-64e3-4235-af11-ab6f8483b0a0",
    "types": [
      "singers",
      "2"
    ],
    "repository": "kara.moe",
    "modified_at": "2020-03-31T19:04:35.984Z"
  }
}