{
  "header": {
    "description": "Karaoke Mugen Tag File",
    "version": 1
  },
  "tag": {
    "i18n": {
      "eng": "MAN WITH A MISSION"
    },
    "name": "MAN WITH A MISSION",
    "tid": "814943f5-30aa-4229-b2ed-120f25825b27",
    "types": [
      "singers",
      "2"
    ],
    "repository": "kara.moe",
    "modified_at": "2020-03-31T19:04:35.997Z"
  }
}