{
  "header": {
    "description": "Karaoke Mugen Tag File",
    "version": 1
  },
  "tag": {
    "i18n": {
      "eng": "Manpuku Jinja"
    },
    "name": "Manpuku Jinja",
    "tid": "c8511993-c6df-4250-8f38-5bb8abc6b942",
    "types": [
      "creators",
      "4"
    ],
    "repository": "kara.moe",
    "modified_at": "2020-03-31T19:04:36.013Z"
  }
}