{
  "header": {
    "description": "Karaoke Mugen Tag File",
    "version": 1
  },
  "tag": {
    "i18n": {
      "eng": "mao"
    },
    "name": "mao",
    "tid": "ceaeb7e6-e0e5-4e91-b658-568a78bbc7a3",
    "types": [
      "singers",
      "2"
    ],
    "repository": "kara.moe",
    "modified_at": "2020-03-31T19:04:36.023Z"
  }
}