{
  "header": {
    "description": "Karaoke Mugen Tag File",
    "version": 1
  },
  "tag": {
    "i18n": {
      "eng": "Maozon"
    },
    "name": "Maozon",
    "tid": "97ea5694-b6c4-494c-bc05-9bcc9da062ef",
    "types": [
      "songwriters",
      "8"
    ],
    "repository": "kara.moe",
    "modified_at": "2020-03-31T19:04:36.025Z"
  }
}