{
  "header": {
    "description": "Karaoke Mugen Tag File",
    "version": 1
  },
  "tag": {
    "i18n": {
      "eng": "Marcos da Silva"
    },
    "name": "Marcos da Silva",
    "repository": "kara.moe",
    "tid": "aa09fab1-56c2-4eb5-8314-9e95b2389b8d",
    "types": [
      "songwriters",
      "8"
    ]
  }
}