{
  "header": {
    "description": "Karaoke Mugen Tag File",
    "version": 1
  },
  "tag": {
    "aliases": [
      "La Vierge Marie Vous Regarde - 4th season",
      "MariMite 4",
      "maria4",
      "marimite4",
      "圣母在上 第四季"
    ],
    "external_database_ids": {
      "anilist": 3750,
      "myanimelist": 3750,
      "kitsu": 3228
    },
    "i18n": {
      "eng": "Maria Watches Over Us 4th Season",
      "fre": "Maria-sama ga Miteru 4th Season",
      "jpn": "マリア様がみてる 4thシーズン",
      "qro": "Maria-sama ga Miteru 4th"
    },
    "modified_at": "2020-03-31T19:04:32.195Z",
    "name": "Maria-sama ga Miteru 4th",
    "repository": "kara.moe",
    "tid": "7c98eff7-707d-46fa-b7c7-8a9fac169759",
    "types": [
      "series",
      "1"
    ]
  }
}