{
  "header": {
    "description": "Karaoke Mugen Tag File",
    "version": 1
  },
  "tag": {
    "i18n": {
      "eng": "Marina Diamandis"
    },
    "name": "Marina Diamandis",
    "tid": "4c2775f2-0776-46a3-9d17-ce26adaee851",
    "types": [
      "songwriters",
      "8"
    ],
    "repository": "kara.moe",
    "modified_at": "2020-03-31T19:04:36.062Z"
  }
}