{
  "header": {
    "description": "Karaoke Mugen Tag File",
    "version": 1
  },
  "tag": {
    "i18n": {
      "eng": "Maria Jyôgasaki"
    },
    "name": "Maria Jyôgasaki",
    "tid": "15e94722-196c-4c35-99f1-c28306ffc3fa",
    "types": [
      "songwriters",
      "8"
    ],
    "repository": "kara.moe",
    "modified_at": "2020-03-31T19:04:36.039Z"
  }
}