{
  "header": {
    "description": "Karaoke Mugen Tag File",
    "version": 1
  },
  "tag": {
    "i18n": {
      "eng": "Marina Kumamoto "
    },
    "name": "Marina Kumamoto ",
    "repository": "kara.moe",
    "tid": "1fd85c26-4f43-4a32-b4a2-24231c1d3bf8",
    "types": [
      "singers",
      "2"
    ]
  }
}