{
  "header": {
    "description": "Karaoke Mugen Tag File",
    "version": 1
  },
  "tag": {
    "aliases": [
      "SMB"
    ],
    "i18n": {
      "eng": "Mario",
      "jpn": "マリオ"
    },
    "name": "Mario",
    "repository": "kara.moe",
    "tid": "0913e8ce-920d-47e7-83c9-9fe44eb632f5",
    "types": [
      "franchises",
      "18"
    ]
  }
}