{
  "header": {
    "description": "Karaoke Mugen Tag File",
    "version": 1
  },
  "tag": {
    "i18n": {
      "eng": "Mariko Nakatsu"
    },
    "name": "Mariko Nakatsu",
    "tid": "e7457d87-928a-4c39-a8a5-6b3f1b44ceee",
    "types": [
      "singers",
      "2"
    ],
    "repository": "kara.moe",
    "modified_at": "2020-03-31T19:04:36.057Z"
  }
}