{
  "header": {
    "description": "Karaoke Mugen Tag File",
    "version": 1
  },
  "tag": {
    "i18n": {
      "eng": "Mariyasu"
    },
    "modified_at": "2021-06-19T17:41:06.885Z",
    "name": "Mariyasu",
    "repository": "kara.moe",
    "tid": "8079371f-75f9-42da-b54e-d3c3afd9963a",
    "types": [
      "creators",
      "4"
    ]
  }
}