{
  "header": {
    "description": "Karaoke Mugen Tag File",
    "version": 1
  },
  "tag": {
    "i18n": {
      "eng": "Mariano Detto"
    },
    "name": "Mariano Detto",
    "tid": "6ec88bc0-307a-4164-93cf-958da5ae6f43",
    "types": [
      "songwriters",
      "8"
    ],
    "repository": "kara.moe",
    "modified_at": "2020-03-31T19:04:36.044Z"
  }
}