{
  "header": {
    "description": "Karaoke Mugen Tag File",
    "version": 1
  },
  "tag": {
    "i18n": {
      "eng": "Mark Mancini"
    },
    "modified_at": "2021-06-13T21:51:39.760Z",
    "name": "Mark Mancini",
    "repository": "kara.moe",
    "tid": "ea36a461-3a9e-4f67-98fb-095530c4dce2",
    "types": [
      "songwriters",
      "8"
    ]
  }
}