{
  "header": {
    "description": "Karaoke Mugen Tag File",
    "version": 1
  },
  "tag": {
    "i18n": {
      "eng": "MARKIE"
    },
    "name": "MARKIE",
    "tid": "2b0a51b8-8b5d-4d6c-b755-97fcdff86ab5",
    "types": [
      "songwriters",
      "8"
    ],
    "repository": "kara.moe",
    "modified_at": "2020-03-31T19:04:36.074Z"
  }
}