{
  "header": {
    "description": "Karaoke Mugen Tag File",
    "version": 1
  },
  "tag": {
    "aliases": [
      "Piccoli problemi di cuore",
      "mb",
      "mbtv",
      "Хлопець-мармелад",
      "果酱男孩"
    ],
    "external_database_ids": {
      "anilist": 334,
      "myanimelist": 334,
      "kitsu": 301
    },
    "i18n": {
      "eng": "Marmalade Boy",
      "jpn": "ママレード・ボーイ",
      "por": "Marmalade Boy",
      "spa": "Marmalade Boy (La Familia Crece)",
      "qro": "Marmalade Boy"
    },
    "modified_at": "2020-03-31T19:04:32.196Z",
    "name": "Marmalade Boy",
    "repository": "kara.moe",
    "tid": "f1c8ad91-9eb1-4b62-a590-a7f9bf0b3f8c",
    "types": [
      "series",
      "1"
    ]
  }
}