{
  "header": {
    "description": "Karaoke Mugen Tag File",
    "version": 1
  },
  "tag": {
    "i18n": {
      "eng": "Marty Friedman"
    },
    "name": "Marty Friedman",
    "repository": "kara.moe",
    "tid": "6b4c787b-53cf-480a-8347-de0a6dfc2e9d",
    "types": [
      "songwriters",
      "8"
    ],
    "modified_at": "2020-03-31T19:04:36.079Z"
  }
}