{
  "header": {
    "description": "Karaoke Mugen Tag File",
    "version": 1
  },
  "tag": {
    "i18n": {
      "eng": "MARU"
    },
    "name": "MARU",
    "tid": "a90f5bd6-b040-4090-a49e-c15369ad42e1",
    "types": [
      "singers",
      "2",
      "songwriters",
      "8"
    ],
    "repository": "kara.moe",
    "modified_at": "2020-03-31T19:04:36.079Z"
  }
}