{
  "header": {
    "description": "Karaoke Mugen Tag File",
    "version": 1
  },
  "tag": {
    "i18n": {
      "eng": "Masaya Miyashita"
    },
    "name": "Masaya Miyashita",
    "tid": "cdbf7d7e-0533-4c4d-b375-39b2c561424a",
    "types": [
      "songwriters",
      "8"
    ],
    "repository": "kara.moe",
    "modified_at": "2020-03-31T19:04:36.153Z"
  }
}