{
  "header": {
    "description": "Karaoke Mugen Tag File",
    "version": 1
  },
  "tag": {
    "i18n": {
      "eng": "Masahiro Aoki"
    },
    "name": "Masahiro Aoki",
    "tid": "e5fb77a3-abdb-4c38-aeb4-14f8e48937d1",
    "types": [
      "songwriters",
      "8"
    ],
    "repository": "kara.moe",
    "modified_at": "2020-03-31T19:04:36.098Z"
  }
}