{
  "header": {
    "description": "Karaoke Mugen Tag File",
    "version": 1
  },
  "tag": {
    "i18n": {
      "eng": "Masahiro Kataoka"
    },
    "name": "Masahiro Kataoka",
    "tid": "e402b776-d267-4276-acb3-3ee67b7d35a3",
    "types": [
      "songwriters",
      "8"
    ],
    "repository": "kara.moe",
    "modified_at": "2020-03-31T19:04:36.098Z"
  }
}