{
  "header": {
    "description": "Karaoke Mugen Tag File",
    "version": 1
  },
  "tag": {
    "i18n": {
      "eng": "Masahiro Tobinai"
    },
    "name": "Masahiro Tobinai",
    "tid": "c4b955ea-a5a1-4554-a8f8-eb4ad5b9c5ac",
    "types": [
      "songwriters",
      "8"
    ],
    "repository": "kara.moe",
    "modified_at": "2020-03-31T19:04:36.102Z"
  }
}