{
  "header": {
    "description": "Karaoke Mugen Tag File",
    "version": 1
  },
  "tag": {
    "i18n": {
      "eng": "Masaya Ozeki"
    },
    "modified_at": "2020-11-22T23:02:17.821Z",
    "name": "Masaya Ozeki",
    "repository": "kara.moe",
    "tid": "178511d9-1e4f-4559-9a83-b2f794cce0c4",
    "types": [
      "songwriters",
      "8"
    ]
  }
}