{
  "header": {
    "description": "Karaoke Mugen Tag File",
    "version": 1
  },
  "tag": {
    "aliases": [
      "Ranma Tekikage Kidan Bungei Bu"
    ],
    "i18n": {
      "eng": "Masato Suga"
    },
    "modified_at": "2020-08-22T21:51:30.961Z",
    "name": "Masato Suga",
    "repository": "kara.moe",
    "tid": "c8693d98-c1a4-4d75-b695-00585b0df34e",
    "types": [
      "songwriters",
      "8"
    ]
  }
}