{
  "header": {
    "description": "Karaoke Mugen Tag File",
    "version": 1
  },
  "tag": {
    "i18n": {
      "eng": "Masato Nagai"
    },
    "name": "Masato Nagai",
    "tid": "299ddbe3-69fb-4945-8d40-07ed5d64e410",
    "types": [
      "singers",
      "2",
      "songwriters",
      "8"
    ],
    "repository": "kara.moe",
    "modified_at": "2020-03-31T19:04:36.141Z"
  }
}