{
  "header": {
    "description": "Karaoke Mugen Tag File",
    "version": 1
  },
  "tag": {
    "i18n": {
      "eng": "Masaaki Honma"
    },
    "name": "Masaaki Honma",
    "tid": "5e62b000-08f1-48fb-831f-d378ad7ac984",
    "types": [
      "songwriters",
      "8"
    ],
    "repository": "kara.moe",
    "modified_at": "2020-03-31T19:04:36.088Z"
  }
}