{
  "header": {
    "description": "Karaoke Mugen Tag File",
    "version": 1
  },
  "tag": {
    "i18n": {
      "eng": "Masayuki Takemori"
    },
    "name": "Masayuki Takemori",
    "tid": "469d6a50-1c51-444b-b67a-bc0c0524f462",
    "types": [
      "songwriters",
      "8"
    ],
    "repository": "kara.moe",
    "modified_at": "2020-03-31T19:04:36.163Z"
  }
}