{
  "header": {
    "description": "Karaoke Mugen Tag File",
    "version": 1
  },
  "tag": {
    "i18n": {
      "eng": "Masao Ani"
    },
    "name": "Masao Ani",
    "repository": "kara.moe",
    "tid": "b2eeec47-f2ac-4ef6-b899-1d5eaa6b49b1",
    "types": [
      "songwriters",
      "8"
    ]
  }
}