{
  "header": {
    "description": "Karaoke Mugen Tag File",
    "version": 1
  },
  "tag": {
    "i18n": {
      "eng": "Masazumi Ozawa"
    },
    "name": "Masazumi Ozawa",
    "tid": "85bdf77e-8f46-4ed7-8225-b3481ff8350d",
    "types": [
      "songwriters",
      "8"
    ],
    "repository": "kara.moe",
    "modified_at": "2020-03-31T19:04:36.165Z"
  }
}