{
  "header": {
    "description": "Karaoke Mugen Tag File",
    "version": 1
  },
  "tag": {
    "i18n": {
      "eng": "Masahiro Nagatomi"
    },
    "name": "Masahiro Nagatomi",
    "repository": "kara.moe",
    "tid": "36b9db3d-57a7-4523-89b2-41974cd99be1",
    "types": [
      "songwriters",
      "8"
    ]
  }
}