{
  "header": {
    "description": "Karaoke Mugen Tag File",
    "version": 1
  },
  "tag": {
    "i18n": {
      "eng": "Masahiko Satô"
    },
    "name": "Masahiko Satô",
    "tid": "69282630-26b3-465e-b67e-637aecfb88d9",
    "types": [
      "songwriters",
      "8"
    ],
    "repository": "kara.moe",
    "modified_at": "2020-03-31T19:04:36.097Z"
  }
}