{
  "header": {
    "description": "Karaoke Mugen Tag File",
    "version": 1
  },
  "tag": {
    "i18n": {
      "eng": "Mashumairesh!!"
    },
    "modified_at": "2020-05-05T20:26:06.306Z",
    "name": "Mashumairesh!!",
    "repository": "kara.moe",
    "tid": "a87c4414-1f60-4610-b80f-59c0f1d48b61",
    "types": [
      "singers",
      "2"
    ]
  }
}