{
  "header": {
    "description": "Karaoke Mugen Tag File",
    "version": 1
  },
  "tag": {
    "i18n": {
      "eng": "Massimo Parretti"
    },
    "name": "Massimo Parretti",
    "tid": "db70d7e2-8381-4ce7-89c3-d026d28d282d",
    "types": [
      "songwriters",
      "8"
    ],
    "repository": "kara.moe",
    "modified_at": "2020-03-31T19:04:36.168Z"
  }
}