{
  "header": {
    "description": "Karaoke Mugen Tag File",
    "version": 1
  },
  "tag": {
    "i18n": {
      "eng": "MastaH"
    },
    "name": "MastaH",
    "repository": "kara.moe",
    "tid": "c948a759-fe13-4b83-a37c-93e998e77fb5",
    "types": [
      "singers",
      "2"
    ]
  }
}