{
  "header": {
    "description": "Karaoke Mugen Tag File",
    "version": 1
  },
  "tag": {
    "aliases": [
      "Matenrou"
    ],
    "i18n": {
      "eng": "Matenrô"
    },
    "name": "Matenrô",
    "repository": "kara.moe",
    "tid": "e92f40ba-fd68-4f04-b44a-c1dced02c6c2",
    "types": [
      "singergroups",
      "17"
    ]
  }
}