{
  "header": {
    "description": "Karaoke Mugen Tag File",
    "version": 1
  },
  "tag": {
    "i18n": {
      "eng": "Mathéo Rabeyrin"
    },
    "name": "Mathéo Rabeyrin",
    "tid": "957506c2-23ae-4633-bb79-a9ff4c413e82",
    "types": [
      "singers",
      "2"
    ],
    "repository": "kara.moe",
    "modified_at": "2020-03-31T19:04:36.177Z"
  }
}