{
  "header": {
    "description": "Karaoke Mugen Tag File",
    "version": 1
  },
  "tag": {
    "i18n": {
      "eng": "Mayo Okamoto"
    },
    "modified_at": "2020-09-25T22:40:44.578Z",
    "name": "Mayo Okamoto",
    "repository": "kara.moe",
    "tid": "281731ee-2304-443e-8738-5b3f0c9668d3",
    "types": [
      "songwriters",
      "8"
    ]
  }
}