{
  "header": {
    "description": "Karaoke Mugen Tag File",
    "version": 1
  },
  "tag": {
    "i18n": {
      "eng": "Mayu Kudô"
    },
    "name": "Mayu Kudô",
    "tid": "ee4db1c8-e4de-4693-be34-feea0adf0a30",
    "types": [
      "singers",
      "2"
    ],
    "repository": "kara.moe",
    "modified_at": "2020-03-31T19:04:36.208Z"
  }
}