{
  "header": {
    "description": "Karaoke Mugen Tag File",
    "version": 1
  },
  "tag": {
    "i18n": {
      "eng": "Mayukiss"
    },
    "name": "Mayukiss",
    "tid": "8661857c-f9db-4571-8439-142516ee56ad",
    "types": [
      "singers",
      "2"
    ],
    "repository": "kara.moe",
    "modified_at": "2020-03-31T19:04:36.211Z"
  }
}