{
  "header": {
    "description": "Karaoke Mugen Tag File",
    "version": 1
  },
  "tag": {
    "aliases": [
      "Mazinger Zeta",
      "TranZor Z"
    ],
    "external_database_ids": {
      "anilist": 2253,
      "myanimelist": 2253,
      "kitsu": 2041
    },
    "i18n": {
      "ara": "مازنجر زد",
      "eng": "Mazinger Z",
      "fre": "Mazinger Z",
      "ita": "Mazinga Z",
      "jpn": "マジンガーZ",
      "spa": "Mazinger Z",
      "qro": "Mazinger Z"
    },
    "modified_at": "2020-06-21T23:45:31.966Z",
    "name": "Mazinger Z",
    "repository": "kara.moe",
    "tid": "b9ff269a-92a0-45a5-a3bc-0869480c2a15",
    "types": [
      "series",
      "1"
    ]
  }
}