{
  "header": {
    "description": "Karaoke Mugen Tag File",
    "version": 1
  },
  "tag": {
    "i18n": {
      "eng": "Mea Kagura"
    },
    "modified_at": "2021-01-29T01:02:29.005Z",
    "name": "Mea Kagura",
    "repository": "kara.moe",
    "tid": "e0439657-32db-420d-8b78-09294bf165c3",
    "types": [
      "singers",
      "2"
    ]
  }
}