{
  "header": {
    "description": "Karaoke Mugen Tag File",
    "version": 1
  },
  "tag": {
    "external_database_ids": {
      "anilist": 11761,
      "myanimelist": 11761,
      "kitsu": 6591
    },
    "i18n": {
      "eng": "Medaka Box",
      "fre": "Médaka Box",
      "jpn": "めだかボックス",
      "qro": "Medaka Box"
    },
    "modified_at": "2020-03-31T19:04:32.214Z",
    "name": "Medaka Box",
    "repository": "kara.moe",
    "tid": "bb935946-2b14-4725-a739-a9ce90c77646",
    "types": [
      "series",
      "1",
      "franchises",
      "18"
    ]
  }
}