{
  "header": {
    "description": "Karaoke Mugen Tag File",
    "version": 1
  },
  "tag": {
    "aliases": [
      "rock man",
      "megaman",
      "wish"
    ],
    "i18n": {
      "eng": "Mega Man: Upon a Star",
      "qro": "Rockman: Hoshi ni Negai wo",
      "jpn": "ロックマン 星に願いを"
    },
    "name": "Mega Man: Upon a Star",
    "repository": "kara.moe",
    "tid": "747ea465-41b0-4894-8804-535b6b7f4207",
    "types": [
      "series",
      "1"
    ]
  }
}