{
  "header": {
    "description": "Karaoke Mugen Tag File",
    "version": 1
  },
  "tag": {
    "i18n": {
      "eng": "Megumi Hinata"
    },
    "name": "Megumi Hinata",
    "tid": "52aebbdd-58a6-4d06-a5bd-9784f19981b7",
    "types": [
      "singers",
      "2",
      "songwriters",
      "8"
    ],
    "repository": "kara.moe",
    "modified_at": "2020-03-31T19:04:36.233Z"
  }
}