{
  "header": {
    "description": "Karaoke Mugen Tag File",
    "version": 1
  },
  "tag": {
    "i18n": {
      "eng": "Meramipop",
      "jpn": "めらみぽっぷ",
      "qro": "Meramipop"
    },
    "name": "Meramipop",
    "repository": "kara.moe",
    "tid": "d08d5ec3-0d71-4d8d-97de-0a2432b331bd",
    "types": [
      "singers",
      "2"
    ]
  }
}