{
  "header": {
    "description": "Karaoke Mugen Tag File",
    "version": 1
  },
  "tag": {
    "i18n": {
      "eng": "Metal"
    },
    "modified_at": "2021-01-07T09:46:27.687Z",
    "name": "Metal",
    "repository": "kara.moe",
    "tid": "188a5c46-63ff-4e9f-89e4-763468b6ea4a",
    "types": [
      "versions",
      "14"
    ]
  }
}