{
  "header": {
    "description": "Karaoke Mugen Tag File",
    "version": 1
  },
  "tag": {
    "aliases": [
      "MGS PW",
      "MGSPW"
    ],
    "i18n": {
      "eng": "Metal Gear Solid: Peace Walker",
      "jpn": "メタルギアソリッド ピースウォーカー",
      "qro": "Metal Gear Solid: Peace Walker"
    },
    "modified_at": "2020-03-31T19:04:32.233Z",
    "name": "Metal Gear Solid: Peace Walker",
    "repository": "kara.moe",
    "tid": "67157828-0860-44cb-8a95-452d88464b6b",
    "types": [
      "series",
      "1"
    ]
  }
}