{
  "header": {
    "description": "Karaoke Mugen Tag File",
    "version": 1
  },
  "tag": {
    "i18n": {
      "eng": "Mi-Ko"
    },
    "name": "Mi-Ko",
    "repository": "kara.moe",
    "tid": "a60b770e-435f-4077-bd0c-28dcb1c41c32",
    "types": [
      "singers",
      "2"
    ]
  }
}