{
  "header": {
    "description": "Karaoke Mugen Tag File",
    "version": 1
  },
  "tag": {
    "i18n": {
      "eng": "Mi"
    },
    "name": "Mi",
    "tid": "f74026cd-b005-48c9-bdf3-67474e066200",
    "types": [
      "singers",
      "2"
    ],
    "repository": "kara.moe",
    "modified_at": "2020-03-31T19:04:36.271Z"
  }
}