{
  "header": {
    "description": "Karaoke Mugen Tag File",
    "version": 1
  },
  "tag": {
    "i18n": {
      "eng": "Michael Winter"
    },
    "name": "Michael Winter",
    "tid": "085311c1-70e8-4211-af9e-33879f3952a8",
    "types": [
      "singers",
      "2"
    ],
    "repository": "kara.moe",
    "modified_at": "2020-03-31T19:04:36.280Z"
  }
}