{
  "header": {
    "description": "Karaoke Mugen Tag File",
    "version": 1
  },
  "tag": {
    "i18n": {
      "eng": "Michio Yanase"
    },
    "name": "Michio Yanase",
    "tid": "6f8a7611-4225-4604-a360-bf7863f17c4e",
    "types": [
      "songwriters",
      "8"
    ],
    "repository": "kara.moe",
    "modified_at": "2020-03-31T19:04:36.297Z"
  }
}