{
  "header": {
    "description": "Karaoke Mugen Tag File",
    "version": 1
  },
  "tag": {
    "i18n": {
      "eng": "Michel Sardouille"
    },
    "name": "Michel Sardouille",
    "repository": "kara.moe",
    "tid": "730f5fde-c1c1-47cc-b2a9-ddef4b45bb3e",
    "types": [
      "singers",
      "2"
    ]
  }
}