{
  "header": {
    "description": "Karaoke Mugen Tag File",
    "version": 1
  },
  "tag": {
    "i18n": {
      "eng": "Michaël Miro"
    },
    "name": "Michaël Miro",
    "repository": "kara.moe",
    "tid": "1f06567d-0e24-4ddf-b9a7-517154b2e924",
    "types": [
      "singers",
      "2",
      "songwriters",
      "8"
    ]
  }
}