{
  "header": {
    "description": "Karaoke Mugen Tag File",
    "version": 1
  },
  "tag": {
    "i18n": {
      "eng": "Michiko Kawai"
    },
    "name": "Michiko Kawai",
    "tid": "2326e479-d060-4c0c-b876-d133ae75a4ac",
    "types": [
      "singers",
      "2"
    ],
    "repository": "kara.moe",
    "modified_at": "2020-03-31T19:04:36.292Z"
  }
}