{
  "header": {
    "description": "Karaoke Mugen Tag File",
    "version": 1
  },
  "tag": {
    "i18n": {
      "eng": "Michel Jouveaux"
    },
    "name": "Michel Jouveaux",
    "repository": "kara.moe",
    "tid": "68e1a162-a0a3-4389-8fb3-528a735aa4ab",
    "types": [
      "songwriters",
      "8"
    ]
  }
}