{
  "header": {
    "description": "Karaoke Mugen Tag File",
    "version": 1
  },
  "tag": {
    "external_database_ids": {
      "anilist": 3846,
      "myanimelist": 3846,
      "kitsu": 3298
    },
    "i18n": {
      "eng": "Microid S",
      "ita": "Microsuperman",
      "jpn": "ミクロイドS",
      "qro": "Microid S"
    },
    "modified_at": "2020-03-31T19:04:32.235Z",
    "name": "Microid S",
    "repository": "kara.moe",
    "tid": "2c7173d9-0ea7-4adb-bbb0-1c8390e6019f",
    "types": [
      "series",
      "1"
    ]
  }
}