{
  "header": {
    "description": "Karaoke Mugen Tag File",
    "version": 1
  },
  "tag": {
    "i18n": {
      "eng": "Midori Fukuhara"
    },
    "name": "Midori Fukuhara",
    "tid": "d088289b-66a0-4ae7-92d5-ea0af5845657",
    "types": [
      "singers",
      "2"
    ],
    "repository": "kara.moe",
    "modified_at": "2020-03-31T19:04:36.304Z"
  }
}