{
  "header": {
    "description": "Karaoke Mugen Tag File",
    "version": 1
  },
  "tag": {
    "i18n": {
      "eng": "Mienohito"
    },
    "name": "Mienohito",
    "tid": "e420fb57-577e-46d8-86c4-f697b026e9a5",
    "types": [
      "creators",
      "4"
    ],
    "repository": "kara.moe",
    "modified_at": "2020-03-31T19:04:36.308Z"
  }
}