{
  "header": {
    "description": "Karaoke Mugen Tag File",
    "version": 1
  },
  "tag": {
    "aliases": [
      "MMPR"
    ],
    "i18n": {
      "eng": "Mighty Morphin Power Rangers"
    },
    "modified_at": "2020-03-31T19:04:32.237Z",
    "name": "Mighty Morphin Power Rangers",
    "repository": "kara.moe",
    "tid": "b5c61a3b-a263-4f0f-932d-72cbb1eb80fe",
    "types": [
      "series",
      "1"
    ]
  }
}