{
  "header": {
    "description": "Karaoke Mugen Tag File",
    "version": 1
  },
  "tag": {
    "i18n": {
      "eng": "Miho Nemoto"
    },
    "modified_at": "2020-09-03T21:11:14.533Z",
    "name": "Miho Nemoto",
    "repository": "kara.moe",
    "tid": "ab687ede-a692-4a7e-851b-ec4f97a1919c",
    "types": [
      "songwriters",
      "8",
      "singers",
      "2"
    ]
  }
}