{
  "header": {
    "description": "Karaoke Mugen Tag File",
    "version": 1
  },
  "tag": {
    "i18n": {
      "eng": "Mika Arisaki"
    },
    "name": "Mika Arisaki",
    "tid": "21ad0b47-2da8-4b65-8e99-efe410028d3b",
    "types": [
      "singers",
      "2"
    ],
    "repository": "kara.moe",
    "modified_at": "2020-03-31T19:04:36.319Z"
  }
}