{
  "header": {
    "description": "Karaoke Mugen Tag File",
    "version": 1
  },
  "tag": {
    "i18n": {
      "eng": "Mikakuning!"
    },
    "name": "Mikakuning!",
    "tid": "1d2df810-1f51-4563-a742-22b64a00a328",
    "types": [
      "singers",
      "2"
    ],
    "repository": "kara.moe",
    "modified_at": "2020-03-31T19:04:36.327Z"
  }
}