{
  "header": {
    "description": "Karaoke Mugen Tag File",
    "version": 1
  },
  "tag": {
    "i18n": {
      "eng": "Mika"
    },
    "name": "Mika",
    "tid": "36625be5-356a-4c7a-bd56-9d6209bc44fd",
    "types": [
      "songwriters",
      "8"
    ],
    "repository": "kara.moe",
    "modified_at": "2020-03-31T19:04:36.323Z"
  }
}