{
  "header": {
    "description": "Karaoke Mugen Tag File",
    "version": 1
  },
  "tag": {
    "i18n": {
      "eng": "MIKI (Mix Speaker's Inc.)"
    },
    "name": "MIKI (Mix Speaker's Inc.)",
    "tid": "1a757a33-4b9e-4f7f-8034-78f34046c9d7",
    "types": [
      "songwriters",
      "8"
    ],
    "repository": "kara.moe",
    "modified_at": "2020-03-31T19:04:36.332Z"
  }
}