{
  "header": {
    "description": "Karaoke Mugen Tag File",
    "version": 1
  },
  "tag": {
    "i18n": {
      "eng": "Miki Higashino"
    },
    "name": "Miki Higashino",
    "tid": "f2f65f85-759c-4deb-b24f-38f950c886d9",
    "types": [
      "songwriters",
      "8"
    ],
    "repository": "kara.moe",
    "modified_at": "2020-03-31T19:04:36.334Z"
  }
}