{
  "header": {
    "description": "Karaoke Mugen Tag File",
    "version": 1
  },
  "tag": {
    "i18n": {
      "eng": "Miki"
    },
    "name": "Miki",
    "tid": "7ffe5b14-310c-4496-b3a5-2dc10d87f4e5",
    "types": [
      "singers",
      "2",
      "songwriters",
      "8"
    ],
    "repository": "kara.moe",
    "modified_at": "2020-03-31T19:04:36.340Z"
  }
}