{
  "header": {
    "description": "Karaoke Mugen Tag File",
    "version": 1
  },
  "tag": {
    "i18n": {
      "eng": "Mikio Sakai"
    },
    "name": "Mikio Sakai",
    "tid": "ae48ad0e-7f43-474d-a388-2c6bb13fab6c",
    "types": [
      "songwriters",
      "8",
      "singers",
      "2"
    ],
    "repository": "kara.moe",
    "modified_at": "2020-03-31T19:04:36.341Z"
  }
}