{
  "header": {
    "description": "Karaoke Mugen Tag File",
    "version": 1
  },
  "tag": {
    "i18n": {
      "eng": "Miki Matsuhashi"
    },
    "modified_at": "2020-08-25T22:00:45.826Z",
    "name": "Miki Matsuhashi",
    "repository": "kara.moe",
    "tid": "40622a99-7f64-48db-addf-c6e338da562f",
    "types": [
      "singers",
      "2"
    ]
  }
}