{
  "header": {
    "description": "Karaoke Mugen Tag File",
    "version": 1
  },
  "tag": {
    "i18n": {
      "eng": "Mila Ortiz"
    },
    "name": "Mila Ortiz",
    "tid": "16d2c34a-e3ec-427e-ab8c-5d80db8baf49",
    "types": [
      "songwriters",
      "8"
    ],
    "repository": "kara.moe",
    "modified_at": "2020-03-31T19:04:36.351Z"
  }
}