{
  "header": {
    "description": "Karaoke Mugen Tag File",
    "version": 1
  },
  "tag": {
    "aliases": [
      "밀키웨이"
    ],
    "external_database_ids": {
      "anilist": 4638,
      "myanimelist": 4638,
      "kitsu": 3717
    },
    "i18n": {
      "eng": "Milkyway"
    },
    "modified_at": "2021-02-28T21:57:20.019Z",
    "name": "Milkyway",
    "repository": "kara.moe",
    "tid": "4425663d-d722-4b35-b237-66dd4d152a0e",
    "types": [
      "series",
      "1",
      "franchises",
      "18"
    ]
  }
}