{
  "header": {
    "description": "Karaoke Mugen Tag File",
    "version": 1
  },
  "tag": {
    "i18n": {
      "eng": "Minako Yamaguchi"
    },
    "name": "Minako Yamaguchi",
    "tid": "694e566f-280e-407a-b75d-d7a1599630aa",
    "types": [
      "songwriters",
      "8"
    ],
    "repository": "kara.moe",
    "modified_at": "2020-03-31T19:04:36.365Z"
  }
}