{
  "header": {
    "description": "Karaoke Mugen Tag File",
    "version": 1
  },
  "tag": {
    "i18n": {
      "eng": "Minea Line"
    },
    "name": "Minea Line",
    "repository": "kara.moe",
    "tid": "edafdfa1-15ce-4155-a61e-01a23038224a",
    "types": [
      "creators",
      "4"
    ]
  }
}