{
  "header": {
    "description": "Karaoke Mugen Tag File",
    "version": 1
  },
  "tag": {
    "i18n": {
      "eng": "Minecraft",
      "jpn": "マインクラフト",
      "qro": "Minecraft"
    },
    "modified_at": "2021-06-25T20:44:08.218Z",
    "name": "Minecraft",
    "repository": "kara.moe",
    "tid": "86d480c9-0ff1-4c71-8a6f-eb57cd139129",
    "types": [
      "series",
      "1"
    ]
  }
}