{
  "header": {
    "description": "Karaoke Mugen Tag File",
    "version": 1
  },
  "tag": {
    "i18n": {
      "eng": "Minoru Kurihara"
    },
    "name": "Minoru Kurihara",
    "tid": "ae7a1e27-0997-4ace-ba4c-024aa52dfd33",
    "types": [
      "songwriters",
      "8"
    ],
    "repository": "kara.moe",
    "modified_at": "2020-03-31T19:04:36.386Z"
  }
}