{
  "header": {
    "description": "Karaoke Mugen Tag File",
    "version": 1
  },
  "tag": {
    "external_database_ids": {
      "kitsu": 11572
    },
    "i18n": {
      "eng": "Miraculous: Tales of Ladybug & Cat Noir",
      "fre": "Miraculous : Les Aventures de Ladybug et Chat Noir",
      "jpn": "ミラキュラス レディバグ&シャノワール",
      "qro": "Miraculous Ladybug"
    },
    "modified_at": "2020-05-23T23:26:01.134Z",
    "name": "Miraculous Ladybug",
    "repository": "kara.moe",
    "tid": "dccf2fe6-d1b7-4d8c-bb39-2add3450c58c",
    "types": [
      "series",
      "1"
    ]
  }
}