{
  "header": {
    "description": "Karaoke Mugen Tag File",
    "version": 1
  },
  "tag": {
    "i18n": {
      "eng": "Miranda Cosgrove"
    },
    "name": "Miranda Cosgrove",
    "repository": "kara.moe",
    "tid": "8f307c02-1011-4b0d-9b46-912c171a809f",
    "types": [
      "singers",
      "2"
    ]
  }
}