{
  "header": {
    "description": "Karaoke Mugen Tag File",
    "version": 1
  },
  "tag": {
    "aliases": [
      "MN"
    ],
    "i18n": {
      "eng": "The Future Diary",
      "jpn": "未來日記",
      "qro": "Mirai Nikki"
    },
    "name": "Mirai Nikki",
    "repository": "kara.moe",
    "tid": "bf581c35-9160-4ead-9544-28ced7dc752c",
    "types": [
      "franchises",
      "18"
    ]
  }
}