{
  "header": {
    "description": "Karaoke Mugen Tag File",
    "version": 1
  },
  "tag": {
    "i18n": {
      "eng": "Mitchie M"
    },
    "name": "Mitchie M",
    "tid": "cd1744e6-3151-4619-8782-1bfe15cb3f0b",
    "types": [
      "songwriters",
      "8",
      "creators",
      "4"
    ],
    "repository": "kara.moe",
    "modified_at": "2020-03-31T19:04:36.410Z"
  }
}