{
  "header": {
    "description": "Karaoke Mugen Tag File",
    "version": 1
  },
  "tag": {
    "i18n": {
      "eng": "Mitsuhiro Hidaka"
    },
    "modified_at": "2021-12-09T18:04:51.182Z",
    "name": "Mitsuhiro Hidaka",
    "repository": "kara.moe",
    "tid": "8a9c6942-05fc-48dd-b84e-9d7d30d9337c",
    "types": [
      "songwriters",
      "8",
      "singers",
      "2"
    ]
  }
}