{
  "header": {
    "description": "Karaoke Mugen Tag File",
    "version": 1
  },
  "tag": {
    "i18n": {
      "eng": "Mitsuyuki Miyake"
    },
    "name": "Mitsuyuki Miyake",
    "tid": "f461dca9-d025-49eb-b211-435ca67dc681",
    "types": [
      "songwriters",
      "8"
    ],
    "repository": "kara.moe",
    "modified_at": "2020-03-31T19:04:36.424Z"
  }
}