{
  "header": {
    "description": "Karaoke Mugen Tag File",
    "version": 1
  },
  "tag": {
    "i18n": {
      "eng": "Mitsuko Shiramine"
    },
    "name": "Mitsuko Shiramine",
    "tid": "16929bd0-b035-4c54-b8e1-d04051afd267",
    "types": [
      "songwriters",
      "8"
    ],
    "repository": "kara.moe",
    "modified_at": "2020-03-31T19:04:36.420Z"
  }
}