{
  "header": {
    "description": "Karaoke Mugen Tag File",
    "version": 1
  },
  "tag": {
    "i18n": {
      "eng": "Mixakissa"
    },
    "modified_at": "2020-08-21T12:59:11.893Z",
    "name": "Mixakissa",
    "repository": "kara.moe",
    "tid": "bf336f42-5d49-4b74-a468-ccaf7adb7326",
    "types": [
      "songwriters",
      "8"
    ]
  }
}