{
  "header": {
    "description": "Karaoke Mugen Tag File",
    "version": 1
  },
  "tag": {
    "i18n": {
      "eng": "Miyuki Takahashi"
    },
    "name": "Miyuki Takahashi",
    "tid": "c0bf7601-bbce-4e76-be44-21b240be4a48",
    "types": [
      "singers",
      "2"
    ],
    "repository": "kara.moe",
    "modified_at": "2020-03-31T19:04:36.444Z"
  }
}