{
  "header": {
    "description": "Karaoke Mugen Tag File",
    "version": 1
  },
  "tag": {
    "i18n": {
      "eng": "Mizki"
    },
    "name": "Mizki",
    "tid": "3bda931b-bf77-4842-babc-1894d07d2501",
    "types": [
      "songwriters",
      "8"
    ],
    "repository": "kara.moe",
    "modified_at": "2020-03-31T19:04:36.446Z"
  }
}