{
  "header": {
    "description": "Karaoke Mugen Tag File",
    "version": 1
  },
  "tag": {
    "i18n": {
      "eng": "Mizukara wo Enshutsu Suru Otome no Kai"
    },
    "name": "Mizukara wo Enshutsu Suru Otome no Kai",
    "tid": "15a7e99b-0f6f-488b-b5be-3228d0cd7088",
    "types": [
      "singers",
      "2"
    ],
    "repository": "kara.moe",
    "modified_at": "2020-03-31T19:04:36.449Z"
  }
}