{
  "header": {
    "description": "Karaoke Mugen Tag File",
    "version": 1
  },
  "tag": {
    "aliases": [
      "MP100 3"
    ],
    "i18n": {
      "eng": "Mob Psycho 100 III",
      "jpn": "モブサイコ100 Ⅲ"
    },
    "name": "Mob Psycho 100 III",
    "repository": "kara.moe",
    "tid": "0635278b-a356-429a-88f9-cac61dec0ad2",
    "types": [
      "series",
      "1"
    ]
  }
}