{
  "header": {
    "description": "Karaoke Mugen Tag File",
    "version": 1
  },
  "tag": {
    "i18n": {
      "eng": "Mochizuki Nozomi"
    },
    "modified_at": "1982-04-06",
    "name": "Mochizuki Nozomi",
    "repository": "kara.moe",
    "tid": "648cfa52-ad69-46ab-9002-a2a2f9671a78",
    "types": [
      "singers",
      "2"
    ]
  }
}