{
  "header": {
    "description": "Karaoke Mugen Tag File",
    "version": 1
  },
  "tag": {
    "i18n": {
      "eng": "Moeka Koizumi"
    },
    "name": "Moeka Koizumi",
    "tid": "cd997481-e2ff-4d88-ab77-152bedb5041a",
    "types": [
      "singers",
      "2"
    ],
    "repository": "kara.moe",
    "modified_at": "2020-03-31T19:04:36.462Z"
  }
}