{
  "header": {
    "description": "Karaoke Mugen Tag File",
    "version": 1
  },
  "tag": {
    "i18n": {
      "eng": "MOKA"
    },
    "name": "MOKA",
    "repository": "kara.moe",
    "tid": "bbac5d5b-276c-4615-91fc-6cabb0953408",
    "types": [
      "songwriters",
      "8"
    ],
    "modified_at": "2020-03-31T19:04:36.466Z"
  }
}