{
  "header": {
    "description": "Karaoke Mugen Tag File",
    "version": 1
  },
  "tag": {
    "i18n": {
      "eng": "Mone Kamishiraishi"
    },
    "name": "Mone Kamishiraishi",
    "tid": "23f1c67b-42c2-4c32-ba39-f6955733363c",
    "types": [
      "singers",
      "2"
    ],
    "repository": "kara.moe",
    "modified_at": "2020-03-31T19:04:36.481Z"
  }
}