{
  "header": {
    "description": "Karaoke Mugen Tag File",
    "version": 1
  },
  "tag": {
    "i18n": {
      "eng": "Monstar",
      "kor": "몬스타"
    },
    "modified_at": "2020-03-31T19:04:32.270Z",
    "name": "Monstar",
    "repository": "kara.moe",
    "tid": "9970db32-b965-4e69-a4d7-6ed6839d08a8",
    "types": [
      "series",
      "1"
    ]
  }
}