{
  "header": {
    "description": "Karaoke Mugen Tag File",
    "version": 1
  },
  "tag": {
    "i18n": {
      "eng": "MOSAIC.WAV"
    },
    "name": "MOSAIC.WAV",
    "repository": "kara.moe",
    "tid": "5ddadbbd-62df-4d0d-b345-26df2190c5b3",
    "types": [
      "singergroups",
      "17"
    ]
  }
}