{
  "header": {
    "description": "Karaoke Mugen Tag File",
    "version": 1
  },
  "tag": {
    "i18n": {
      "eng": "Motoki Matsuda"
    },
    "name": "Motoki Matsuda",
    "tid": "321725db-e111-46a5-9934-23d7872c2b1c",
    "types": [
      "songwriters",
      "8"
    ],
    "repository": "kara.moe",
    "modified_at": "2020-03-31T19:04:36.503Z"
  }
}