{
  "header": {
    "description": "Karaoke Mugen Tag File",
    "version": 1
  },
  "tag": {
    "i18n": {
      "eng": "Motohiro Tomita"
    },
    "name": "Motohiro Tomita",
    "tid": "2a98d41d-7d05-46a3-9425-91e5099079b1",
    "types": [
      "songwriters",
      "8"
    ],
    "repository": "kara.moe",
    "modified_at": "2020-03-31T19:04:36.501Z"
  }
}