{
  "header": {
    "description": "Karaoke Mugen Tag File",
    "version": 1
  },
  "tag": {
    "i18n": {
      "eng": "Motoi Okuda"
    },
    "name": "Motoi Okuda",
    "tid": "26a279e6-c05a-43f7-bb18-887829ede998",
    "types": [
      "songwriters",
      "8"
    ],
    "repository": "kara.moe",
    "modified_at": "2020-03-31T19:04:36.502Z"
  }
}