{
  "header": {
    "description": "Karaoke Mugen Tag File",
    "version": 1
  },
  "tag": {
    "i18n": {
      "eng": "Motoyoshi Iwasaki"
    },
    "name": "Motoyoshi Iwasaki",
    "tid": "d1881ff5-d72a-437a-9da6-c32c4a79fbaf",
    "types": [
      "songwriters",
      "8"
    ],
    "repository": "kara.moe",
    "modified_at": "2020-03-31T19:04:36.507Z"
  }
}