{
  "header": {
    "description": "Karaoke Mugen Tag File",
    "version": 1
  },
  "tag": {
    "i18n": {
      "eng": "Mune Kyun! Heart de Koi Shi-te-ru ~Onii-chan Motto Daisuki~",
      "jpn": "胸キュン！はぁとde恋シ・テ・ル～お兄ちゃんもっと大好き～",
      "qro": "Mune Kyun! Heart de Koi Shi-te-ru ~Onii-chan Motto Daisuki~"
    },
    "modified_at": "2021-06-13T22:23:31.012Z",
    "name": "Mune Kyun! Heart de Koi Shi-te-ru ~Onii-chan Motto Daisuki~",
    "repository": "kara.moe",
    "tid": "5c8cc942-5dd7-48d4-a750-5daffebb1657",
    "types": [
      "series",
      "1"
    ]
  }
}