{
  "header": {
    "description": "Karaoke Mugen Tag File",
    "version": 1
  },
  "tag": {
    "i18n": {
      "eng": "Musoh"
    },
    "name": "Musoh",
    "repository": "kara.moe",
    "tid": "4c46e698-0f38-4e13-a77c-8eb2a037ad54",
    "types": [
      "songwriters",
      "8"
    ]
  }
}