{
  "header": {
    "description": "Karaoke Mugen Tag File",
    "version": 1
  },
  "tag": {
    "i18n": {
      "eng": "Myui",
      "jpn": "みゅい"
    },
    "name": "Myui",
    "repository": "kara.moe",
    "tid": "832445d7-4bc0-4c33-ab22-ecca31746885",
    "types": [
      "songwriters",
      "8"
    ]
  }
}