{
  "header": {
    "description": "Karaoke Mugen Tag File",
    "version": 1
  },
  "tag": {
    "aliases": [
      "Nabari no Ô",
      "The King of Nabari",
      "nno",
      "Владыка скрытого мира",
      "Володар потаємного світу",
      "ملك ناباري",
      "隐王"
    ],
    "external_database_ids": {
      "anilist": 3655,
      "myanimelist": 3655,
      "kitsu": 3173
    },
    "i18n": {
      "eng": "Nabari no O",
      "fre": "Nabari",
      "ita": "Nabari",
      "jpn": "隠の王",
      "qro": "Nabari no Ou"
    },
    "modified_at": "2020-06-21T23:45:31.966Z",
    "name": "Nabari no Ou",
    "repository": "kara.moe",
    "tid": "2afd2aac-8f06-4519-abd9-52410419fc61",
    "types": [
      "series",
      "1"
    ]
  }
}