{
  "header": {
    "description": "Karaoke Mugen Tag File",
    "version": 1
  },
  "tag": {
    "aliases": [
      "Earth color of a calm",
      "Nagi-Asu: A Lull in the Sea",
      "NagiAsu",
      "nagiasu"
    ],
    "external_database_ids": {
      "anilist": 16067,
      "myanimelist": 16067,
      "kitsu": 7370
    },
    "i18n": {
      "chi": "来自风平浪静的明天",
      "eng": "A Lull in the Sea",
      "fre": "Nagi no Asukara",
      "jpn": "凪のあすから",
      "qro": "Nagi no Asukara"
    },
    "modified_at": "2020-03-31T19:04:32.301Z",
    "name": "Nagi no Asukara",
    "repository": "kara.moe",
    "tid": "0388a665-4bb8-4313-ae3f-bf1ba260d9b2",
    "types": [
      "series",
      "1"
    ]
  }
}