{
  "header": {
    "description": "Karaoke Mugen Tag File",
    "version": 1
  },
  "tag": {
    "i18n": {
      "eng": "NAGI☆"
    },
    "name": "NAGI☆",
    "tid": "36ef5afc-edd0-424c-88fa-65e13575f3dd",
    "types": [
      "songwriters",
      "8"
    ],
    "repository": "kara.moe",
    "modified_at": "2020-03-31T19:04:36.540Z"
  }
}