{
  "header": {
    "description": "Karaoke Mugen Tag File",
    "version": 1
  },
  "tag": {
    "i18n": {
      "eng": "Nairu"
    },
    "name": "Nairu",
    "repository": "kara.moe",
    "tid": "7d2aeec2-34d5-490d-9819-66b1b349dd00",
    "types": [
      "singers",
      "2"
    ]
  }
}