{
  "header": {
    "description": "Karaoke Mugen Tag File",
    "version": 1
  },
  "tag": {
    "i18n": {
      "eng": "Naive"
    },
    "name": "Naive",
    "tid": "4e831af5-373e-4e0e-90b3-cc07a9946c96",
    "types": [
      "singers",
      "2"
    ],
    "repository": "kara.moe",
    "modified_at": "2020-03-31T19:04:36.545Z"
  }
}