{
  "header": {
    "description": "Karaoke Mugen Tag File",
    "version": 1
  },
  "tag": {
    "i18n": {
      "eng": "Nako Misaki"
    },
    "modified_at": "2021-05-10T21:32:18.285Z",
    "name": "Nako Misaki",
    "repository": "kara.moe",
    "tid": "8b1d7f16-0b3e-4c63-82c1-bd60518b86a8",
    "types": [
      "singers",
      "2"
    ]
  }
}