{
  "header": {
    "description": "Karaoke Mugen Tag File",
    "version": 1
  },
  "tag": {
    "i18n": {
      "eng": "Nanamorichû Goraku-bu"
    },
    "name": "Nanamorichû Goraku-bu",
    "tid": "166b7a82-ff70-4f21-ab41-e565755694bb",
    "types": [
      "singers",
      "2"
    ],
    "repository": "kara.moe",
    "modified_at": "2020-03-31T19:04:36.564Z"
  }
}