{
  "header": {
    "description": "Karaoke Mugen Tag File",
    "version": 1
  },
  "tag": {
    "i18n": {
      "eng": "NANA"
    },
    "name": "NANA",
    "tid": "59627981-d6fe-473f-bdbf-f5d82d31667c",
    "types": [
      "singers",
      "2"
    ],
    "repository": "kara.moe",
    "modified_at": "2020-03-31T19:04:36.560Z"
  }
}