{
  "header": {
    "description": "Karaoke Mugen Tag File",
    "version": 1
  },
  "tag": {
    "i18n": {
      "eng": "Nana Kagura"
    },
    "modified_at": "2021-05-01T13:39:35.369Z",
    "name": "Nana Kagura",
    "repository": "kara.moe",
    "tid": "616e42d2-ae92-4f3d-a961-03caf7ab7092",
    "types": [
      "singers",
      "2",
      "creators",
      "4"
    ]
  }
}