{
  "header": {
    "description": "Karaoke Mugen Tag File",
    "version": 1
  },
  "tag": {
    "i18n": {
      "eng": "Nanka-P"
    },
    "name": "Nanka-P",
    "tid": "1775446e-54bb-4a49-a870-034257304c75",
    "types": [
      "songwriters",
      "8"
    ],
    "repository": "kara.moe",
    "modified_at": "2020-03-31T19:04:36.567Z"
  }
}