{
  "header": {
    "description": "Karaoke Mugen Tag File",
    "version": 1
  },
  "tag": {
    "i18n": {
      "eng": "NanosizeMir"
    },
    "name": "NanosizeMir",
    "tid": "4c722302-d507-4545-b476-53656b098c9f",
    "types": [
      "songwriters",
      "8"
    ],
    "repository": "kara.moe",
    "modified_at": "2020-03-31T19:04:36.569Z"
  }
}