{
  "header": {
    "description": "Karaoke Mugen Tag File",
    "version": 1
  },
  "tag": {
    "i18n": {
      "eng": "Nao Hiyama"
    },
    "name": "Nao Hiyama",
    "tid": "0138472f-7ec9-4617-b674-41b398d661b4",
    "types": [
      "songwriters",
      "8"
    ],
    "repository": "kara.moe",
    "modified_at": "2020-03-31T19:04:36.572Z"
  }
}