{
  "header": {
    "description": "Karaoke Mugen Tag File",
    "version": 1
  },
  "tag": {
    "i18n": {
      "eng": "Naoaki Iwami"
    },
    "name": "Naoaki Iwami",
    "tid": "4a6c04a7-be2e-4cc8-b010-65a3acce82a2",
    "types": [
      "songwriters",
      "8"
    ],
    "repository": "kara.moe",
    "modified_at": "2020-03-31T19:04:36.577Z"
  }
}