{
  "header": {
    "description": "Karaoke Mugen Tag File",
    "version": 1
  },
  "tag": {
    "i18n": {
      "eng": "Naoki Itô"
    },
    "name": "Naoki Itô",
    "tid": "2d776fef-6722-44a4-a235-ec53ce1a467a",
    "types": [
      "songwriters",
      "8"
    ],
    "repository": "kara.moe",
    "modified_at": "2020-03-31T19:04:36.581Z"
  }
}