{
  "header": {
    "description": "Karaoke Mugen Tag File",
    "version": 1
  },
  "tag": {
    "i18n": {
      "eng": "Naoki Kubo"
    },
    "modified_at": "2021-02-13T20:07:43.126Z",
    "name": "Naoki Kubo",
    "repository": "kara.moe",
    "tid": "091cb511-336a-48d8-b856-ac8406e19521",
    "types": [
      "songwriters",
      "8"
    ]
  }
}