{
  "header": {
    "description": "Karaoke Mugen Tag File",
    "version": 1
  },
  "tag": {
    "i18n": {
      "eng": "Naomi Inoue"
    },
    "name": "Naomi Inoue",
    "repository": "kara.moe",
    "tid": "9eb121a9-52bf-4fb1-88b4-796398d17129",
    "types": [
      "singers",
      "2"
    ]
  }
}