{
  "header": {
    "description": "Karaoke Mugen Tag File",
    "version": 1
  },
  "tag": {
    "i18n": {
      "eng": "Naomi Scott"
    },
    "name": "Naomi Scott",
    "repository": "kara.moe",
    "tid": "87e00245-68f4-432d-8f0c-a378d05a01bf",
    "types": [
      "singers",
      "2"
    ]
  }
}