{
  "header": {
    "description": "Karaoke Mugen Tag File",
    "version": 1
  },
  "tag": {
    "i18n": {
      "eng": "Natsu Iwasugi",
      "jpn": "岩杉夏"
    },
    "name": "Natsu Iwasugi",
    "repository": "kara.moe",
    "tid": "5d048562-347d-4258-b50a-a7b3b41e92cb",
    "types": [
      "singers",
      "2"
    ]
  }
}