{
  "header": {
    "description": "Karaoke Mugen Tag File",
    "version": 1
  },
  "tag": {
    "i18n": {
      "eng": "nauce"
    },
    "name": "nauce",
    "repository": "kara.moe",
    "tid": "26c1d109-e825-4b9b-9531-50648f2ef847",
    "types": [
      "authors",
      "6"
    ]
  }
}