{
  "header": {
    "description": "Karaoke Mugen Tag File",
    "version": 1
  },
  "tag": {
    "i18n": {
      "eng": "Nayeli Forest"
    },
    "name": "Nayeli Forest",
    "repository": "kara.moe",
    "tid": "580f0289-7b46-4f58-af53-5f585c307e4b",
    "types": [
      "singers",
      "2"
    ]
  }
}