{
  "header": {
    "description": "Karaoke Mugen Tag File",
    "version": 1
  },
  "tag": {
    "i18n": {
      "eng": "Nazuna Kaga"
    },
    "modified_at": "2021-01-29T01:02:28.746Z",
    "name": "Nazuna Kaga",
    "repository": "kara.moe",
    "tid": "a8c4a94c-17db-44e4-a472-8c9bdb47cd97",
    "types": [
      "singers",
      "2"
    ]
  }
}