{
  "header": {
    "description": "Karaoke Mugen Tag File",
    "version": 1
  },
  "tag": {
    "i18n": {
      "eng": "Negoto"
    },
    "name": "Negoto",
    "tid": "1d0b3151-9393-48ae-9a1e-32fc3f1e78fe",
    "types": [
      "singers",
      "2",
      "songwriters",
      "8"
    ],
    "repository": "kara.moe",
    "modified_at": "2020-03-31T19:04:36.649Z"
  }
}