{
  "header": {
    "description": "Karaoke Mugen Tag File",
    "version": 1
  },
  "tag": {
    "i18n": {
      "eng": "Nek"
    },
    "name": "Nek",
    "repository": "kara.moe",
    "tid": "fdfd8050-81c7-474e-8721-1e25d4e49659",
    "types": [
      "songwriters",
      "8",
      "singers",
      "2"
    ]
  }
}