{
  "header": {
    "description": "Karaoke Mugen Tag File",
    "version": 1
  },
  "tag": {
    "i18n": {
      "eng": "Nessyum Guetat"
    },
    "name": "Nessyum Guetat",
    "tid": "90b53fd4-297f-4e4a-98a5-eb767b8ecc4f",
    "types": [
      "singers",
      "2"
    ],
    "repository": "kara.moe",
    "modified_at": "2020-03-31T19:04:36.663Z"
  }
}