{
  "header": {
    "description": "Karaoke Mugen Tag File",
    "version": 1
  },
  "tag": {
    "i18n": {
      "eng": "nezunobaka"
    },
    "modified_at": "2020-08-23T20:14:08.851Z",
    "name": "nezunobaka",
    "repository": "kara.moe",
    "tid": "f0d76209-c33c-4ac7-ba15-e90051895e45",
    "types": [
      "authors",
      "6"
    ]
  }
}