{
  "header": {
    "description": "Karaoke Mugen Tag File",
    "version": 1
  },
  "tag": {
    "i18n": {
      "eng": "NHK"
    },
    "name": "NHK",
    "tid": "2825452c-f305-4f7a-a24f-4c9065a8f4fd",
    "types": [
      "creators",
      "4"
    ],
    "repository": "kara.moe",
    "modified_at": "2020-03-31T19:04:36.669Z"
  }
}