{
  "header": {
    "description": "Karaoke Mugen Tag File",
    "version": 1
  },
  "tag": {
    "i18n": {
      "eng": "NICE GIRLμ"
    },
    "name": "NICE GIRLμ",
    "tid": "6878f586-638f-416d-a34f-95a5a1ca96fa",
    "types": [
      "singers",
      "2"
    ],
    "repository": "kara.moe",
    "modified_at": "2020-03-31T19:04:36.672Z"
  }
}