{
  "header": {
    "description": "Karaoke Mugen Tag File",
    "version": 1
  },
  "tag": {
    "i18n": {
      "eng": "Nice Girl Trainees"
    },
    "name": "Nice Girl Trainees",
    "tid": "ce456e04-6967-45ec-aedc-a03cabc9c3f2",
    "types": [
      "singers",
      "2"
    ],
    "repository": "kara.moe",
    "modified_at": "2020-03-31T19:04:36.672Z"
  }
}