{
  "header": {
    "description": "Karaoke Mugen Tag File",
    "version": 1
  },
  "tag": {
    "i18n": {
      "eng": "Nicola Sirkis"
    },
    "modified_at": "2020-06-30T08:55:51.668Z",
    "name": "Nicola Sirkis",
    "repository": "kara.moe",
    "tid": "4addcb7b-f975-4db9-a3a1-9cf1f39b87c6",
    "types": [
      "songwriters",
      "8",
      "creators",
      "4"
    ]
  }
}