{
  "header": {
    "description": "Karaoke Mugen Tag File",
    "version": 1
  },
  "tag": {
    "i18n": {
      "eng": "Nicolas Charlet"
    },
    "name": "Nicolas Charlet",
    "tid": "ffcc2c8c-4447-457f-9807-ac920e1f3e2c",
    "types": [
      "songwriters",
      "8"
    ],
    "repository": "kara.moe",
    "modified_at": "2020-03-31T19:04:36.677Z"
  }
}