{
  "header": {
    "description": "Karaoke Mugen Tag File",
    "version": 1
  },
  "tag": {
    "aliases": [
      "سحرّة الليل",
      "暗夜魔法使"
    ],
    "external_database_ids": {
      "anilist": 2970,
      "myanimelist": 2970,
      "kitsu": 2687
    },
    "i18n": {
      "eng": "Night Wizard",
      "jpn": "ナイトウィザード The ANIMATION",
      "qro": "Night Wizard The Animation"
    },
    "modified_at": "2020-06-21T23:45:31.966Z",
    "name": "Night Wizard The Animation",
    "repository": "kara.moe",
    "tid": "4eb6cab5-32b0-4f27-ae17-8f2553b667ef",
    "types": [
      "series",
      "1"
    ]
  }
}