{
  "header": {
    "description": "Karaoke Mugen Tag File",
    "version": 1
  },
  "tag": {
    "i18n": {
      "eng": "NILFRUITS",
      "jpn": "煮ル果実",
      "qro": "Niru Kajitsu"
    },
    "name": "NILFRUITS",
    "repository": "kara.moe",
    "tid": "f24e60a8-f634-4057-ade3-5cd9c4b007a3",
    "types": [
      "songwriters",
      "8"
    ]
  }
}