{
  "header": {
    "description": "Karaoke Mugen Tag File",
    "version": 1
  },
  "tag": {
    "external_database_ids": {
      "anilist": 20772,
      "myanimelist": 23605,
      "kitsu": 8642
    },
    "i18n": {
      "eng": "Ninja Slayer from Animation",
      "jpn": "ニンジャスレイヤー フロムアニメイシヨン",
      "qro": "Ninja Slayer From Animation"
    },
    "modified_at": "2020-06-21T23:45:31.966Z",
    "name": "Ninja Slayer From Animation",
    "repository": "kara.moe",
    "tid": "3ec8ce76-f5cd-4c1f-8fcf-505de32ab1c0",
    "types": [
      "series",
      "1"
    ]
  }
}