{
  "header": {
    "description": "Karaoke Mugen Tag File",
    "version": 1
  },
  "tag": {
    "i18n": {
      "eng": "Nishio Saeko"
    },
    "name": "Nishio Saeko",
    "tid": "a6e569a8-52a7-4951-94b9-a1bfa86a0b45",
    "types": [
      "songwriters",
      "8"
    ],
    "repository": "kara.moe",
    "modified_at": "2020-03-31T19:04:36.704Z"
  }
}