{
  "header": {
    "description": "Karaoke Mugen Tag File",
    "version": 1
  },
  "tag": {
    "i18n": {
      "eng": "noa"
    },
    "modified_at": "2020-11-03T20:51:16.928Z",
    "name": "noa",
    "repository": "kara.moe",
    "tid": "63d193aa-c3b3-4858-a7c9-d505d478dc3d",
    "types": [
      "authors",
      "6"
    ]
  }
}