{
  "header": {
    "description": "Karaoke Mugen Tag File",
    "version": 1
  },
  "tag": {
    "aliases": [
      "ノブレス",
      "Дворянство"
    ],
    "external_database_ids": {
      "anilist": 116005,
      "myanimelist": 41345,
      "kitsu": 43019
    },
    "i18n": {
      "eng": "Noblesse",
      "jpn": "NOBLESSE",
      "kor": "노블레스",
      "ara": "نوبلس",
      "qro": "NOBLESSE"
    },
    "modified_at": "2020-10-25T01:30:13.531Z",
    "name": "NOBLESSE",
    "repository": "kara.moe",
    "tid": "033edee7-9e5e-4f91-8041-ab73554a3d3b",
    "types": [
      "series",
      "1"
    ]
  }
}