{
  "header": {
    "description": "Karaoke Mugen Tag File",
    "version": 1
  },
  "tag": {
    "i18n": {
      "eng": "nobodyknows+"
    },
    "name": "nobodyknows+",
    "tid": "69947b25-a0cd-470c-b90a-4bc09cba6ef3",
    "types": [
      "singers",
      "2",
      "songwriters",
      "8"
    ],
    "repository": "kara.moe",
    "modified_at": "2020-03-31T19:04:36.717Z"
  }
}