{
  "header": {
    "description": "Karaoke Mugen Tag File",
    "version": 1
  },
  "tag": {
    "i18n": {
      "eng": "Noboyuki Shimizu"
    },
    "name": "Noboyuki Shimizu",
    "tid": "4a5af54f-4c7e-4e3e-ab43-41ccfe91555d",
    "types": [
      "songwriters",
      "8"
    ],
    "repository": "kara.moe",
    "modified_at": "2020-03-31T19:04:36.719Z"
  }
}