{
  "header": {
    "description": "Karaoke Mugen Tag File",
    "version": 1
  },
  "tag": {
    "i18n": {
      "eng": "Nobunaga Shimazaki"
    },
    "name": "Nobunaga Shimazaki",
    "tid": "7ada34b4-5a43-4af5-9339-1770f321a83f",
    "types": [
      "singers",
      "2"
    ],
    "repository": "kara.moe",
    "modified_at": "2020-03-31T19:04:36.726Z"
  }
}