{
  "header": {
    "description": "Karaoke Mugen Tag File",
    "version": 1
  },
  "tag": {
    "i18n": {
      "eng": "Nobuteru Maeda"
    },
    "modified_at": "2020-04-25T22:15:05.780Z",
    "name": "Nobuteru Maeda",
    "repository": "kara.moe",
    "tid": "28039ace-8039-4e49-9efc-82ddd2bb00a7",
    "types": [
      "songwriters",
      "8"
    ]
  }
}