{
  "header": {
    "description": "Karaoke Mugen Tag File",
    "version": 1
  },
  "tag": {
    "i18n": {
      "eng": "Nobuyoshi Koshibe"
    },
    "name": "Nobuyoshi Koshibe",
    "tid": "a1312111-2cb5-443a-aaaf-52ffdd45b13b",
    "types": [
      "songwriters",
      "8"
    ],
    "repository": "kara.moe",
    "modified_at": "2020-03-31T19:04:36.731Z"
  }
}