{
  "header": {
    "description": "Karaoke Mugen Tag File",
    "version": 1
  },
  "tag": {
    "aliases": [
      "Ninja Girl & Samurai Master 2nd"
    ],
    "external_database_ids": {
      "anilist": 98420,
      "myanimelist": 34978,
      "kitsu": 13303
    },
    "i18n": {
      "eng": "Ninja Girl & Samurai Master: Ise and Kanegasaki Arc",
      "fre": "Nobunaga no Shinobi: Ise Kanegasaki-hen",
      "jpn": "信長の忍び~伊勢・金ヶ崎篇~",
      "kor": "노부나가의 닌자: 이세 카네가사키편",
      "qro": "Nobunaga no Shinobi Ise Kanegasaki-hen"
    },
    "modified_at": "2020-03-31T19:04:32.349Z",
    "name": "Nobunaga no Shinobi Ise Kanegasaki-hen",
    "repository": "kara.moe",
    "tid": "bbd186f9-6455-47bf-9351-d99bab8a9c89",
    "types": [
      "series",
      "1"
    ]
  }
}