{
  "header": {
    "description": "Karaoke Mugen Tag File",
    "version": 1
  },
  "tag": {
    "i18n": {
      "eng": "Nogizaka46"
    },
    "name": "Nogizaka46",
    "tid": "8de07a19-0724-46f7-9cd0-ffd38255a65b",
    "types": [
      "singers",
      "2"
    ],
    "repository": "kara.moe",
    "modified_at": "2020-03-31T19:04:36.738Z"
  }
}