{
  "header": {
    "description": "Karaoke Mugen Tag File",
    "version": 1
  },
  "tag": {
    "i18n": {
      "eng": "Nohzy"
    },
    "name": "Nohzy",
    "tid": "04a94064-8b54-46b1-85ae-5855e9f57079",
    "types": [
      "songwriters",
      "8"
    ],
    "repository": "kara.moe",
    "modified_at": "2020-03-31T19:04:36.740Z"
  }
}