{
  "header": {
    "description": "Karaoke Mugen Tag File",
    "version": 1
  },
  "tag": {
    "aliases": [
      "Non Non Biyori 3rd season",
      "Non Non Biyori S3",
      "NNB"
    ],
    "external_database_ids": {
      "anilist": 109403,
      "myanimelist": 39808,
      "kitsu": 42349
    },
    "i18n": {
      "eng": "Non Non Biyori Nonstop",
      "jpn": "のんのんびより のんすとっぷ",
      "qro": "Non Non Biyori Nonstop"
    },
    "modified_at": "2021-01-21T23:56:27.697Z",
    "name": "Non Non Biyori Nonstop",
    "repository": "kara.moe",
    "tid": "29d71110-9794-4a0a-bc12-82b68987f175",
    "types": [
      "series",
      "1"
    ]
  }
}