{
  "header": {
    "description": "Karaoke Mugen Tag File",
    "version": 1
  },
  "tag": {
    "i18n": {
      "eng": "Non"
    },
    "name": "Non",
    "tid": "8b014f2f-a0b4-4a79-aa42-512beaac4571",
    "types": [
      "creators",
      "4"
    ],
    "repository": "kara.moe",
    "modified_at": "2020-03-31T19:04:36.745Z"
  }
}