{
  "header": {
    "description": "Karaoke Mugen Tag File",
    "version": 1
  },
  "tag": {
    "i18n": {
      "eng": "Nóngsuō Páigǔ",
      "chi": "浓缩排骨"
    },
    "modified_at": "2021-03-13T13:31:01.952Z",
    "name": "Nóngsuō Páigǔ",
    "repository": "kara.moe",
    "tid": "c913d4da-bc7c-4b5a-97f3-8592985042b6",
    "types": [
      "songwriters",
      "8"
    ]
  }
}