{
  "header": {
    "description": "Karaoke Mugen Tag File",
    "version": 1
  },
  "tag": {
    "i18n": {
      "eng": "Noriko Hidaka"
    },
    "name": "Noriko Hidaka",
    "tid": "9eba9b17-ad7f-4b5b-876c-3e5c0254c9d4",
    "types": [
      "singers",
      "2"
    ],
    "repository": "kara.moe",
    "modified_at": "2020-03-31T19:04:36.758Z"
  }
}