{
  "header": {
    "description": "Karaoke Mugen Tag File",
    "version": 1
  },
  "tag": {
    "i18n": {
      "eng": "NoverMaC"
    },
    "name": "NoverMaC",
    "repository": "kara.moe",
    "tid": "af46fa57-30b5-4241-a30a-2abaeb058a1e",
    "types": [
      "authors",
      "6"
    ]
  }
}