{
  "tag": {
    "external_database_ids": {
      "anilist": 2052,
      "myanimelist": 2052,
      "kitsu": 1851
    },
    "i18n": {
      "eng": "Nozomi Witches"
    },
    "name": "Nozomi Witches",
    "repository": "kara.moe",
    "tid": "31a58e19-4c49-4775-990d-42f5d4b7a388",
    "types": [
      "series",
      "1"
    ]
  },
  "header": {
    "version": 1,
    "description": "Karaoke Mugen Tag File"
  }
}