{
  "header": {
    "description": "Karaoke Mugen Tag File",
    "version": 1
  },
  "tag": {
    "i18n": {
      "eng": "nozomi"
    },
    "name": "nozomi",
    "tid": "7d9900c8-2b78-420d-8139-dca2cfe629b8",
    "types": [
      "songwriters",
      "8"
    ],
    "repository": "kara.moe",
    "modified_at": "2020-03-31T19:04:36.780Z"
  }
}