{
  "header": {
    "description": "Karaoke Mugen Tag File",
    "version": 1
  },
  "tag": {
    "i18n": {
      "eng": "Nozomi Aoki"
    },
    "name": "Nozomi Aoki",
    "tid": "ff8190eb-f785-4ef3-938a-3a833a591e7e",
    "types": [
      "songwriters",
      "8"
    ],
    "repository": "kara.moe",
    "modified_at": "2020-03-31T19:04:36.773Z"
  }
}