{
  "header": {
    "description": "Karaoke Mugen Tag File",
    "version": 1
  },
  "tag": {
    "i18n": {
      "eng": "Nozomi Maezawa"
    },
    "name": "Nozomi Maezawa",
    "tid": "cedf3ed7-b004-4c3c-8f30-42995aa57211",
    "types": [
      "songwriters",
      "8"
    ],
    "repository": "kara.moe",
    "modified_at": "2020-03-31T19:04:36.775Z"
  }
}