{
  "header": {
    "description": "Karaoke Mugen Tag File",
    "version": 1
  },
  "tag": {
    "i18n": {
      "eng": "nukunuku ni girimeshi"
    },
    "modified_at": "2021-03-11T15:05:23.061Z",
    "name": "nukunuku ni girimeshi",
    "repository": "kara.moe",
    "tid": "00f66915-b160-438b-a26d-bf7e39eaf9fd",
    "types": [
      "creators",
      "4"
    ]
  }
}