{
  "header": {
    "description": "Karaoke Mugen Tag File",
    "version": 1
  },
  "tag": {
    "i18n": {
      "eng": "Numa"
    },
    "name": "Numa",
    "tid": "7d97bcee-9037-4264-8c64-95809c5d385f",
    "types": [
      "songwriters",
      "8"
    ],
    "repository": "kara.moe",
    "modified_at": "2020-03-31T19:04:36.784Z"
  }
}