{
  "header": {
    "description": "Karaoke Mugen Tag File",
    "version": 1
  },
  "tag": {
    "i18n": {
      "eng": "Nyohonoko."
    },
    "name": "Nyohonoko.",
    "repository": "kara.moe",
    "tid": "587e70fd-5da2-4009-aa3f-0a3fc5100bb4",
    "types": [
      "creators",
      "4"
    ]
  }
}