{
  "header": {
    "description": "Karaoke Mugen Tag File",
    "version": 1
  },
  "tag": {
    "i18n": {
      "eng": "O ato to-san",
      "jpn": "おあとと さん",
      "qro": "O ato to-san"
    },
    "name": "O ato to-san",
    "repository": "kara.moe",
    "tid": "9786f240-ae8d-4a5a-a42e-efa95a422be3",
    "types": [
      "creators",
      "4"
    ]
  }
}