{
  "header": {
    "description": "Karaoke Mugen Tag File",
    "version": 1
  },
  "tag": {
    "i18n": {
      "eng": "Φ"
    },
    "name": "Φ",
    "repository": "kara.moe",
    "tid": "2e686578-8eea-4827-9586-1d1512708de4",
    "types": [
      "singers",
      "2"
    ],
    "modified_at": "2020-03-31T19:04:36.789Z"
  }
}