{
  "header": {
    "description": "Karaoke Mugen Tag File",
    "version": 1
  },
  "tag": {
    "aliases": [
      "O9",
      "O;9",
      "O;N",
      "Оккультная;Девятка",
      "Окултна;Деветка",
      "オカルティック・ナイン",
      "超自然9人组",
      "occultic nine"
    ],
    "external_database_ids": {
      "anilist": 21708,
      "myanimelist": 32962,
      "kitsu": 11949
    },
    "i18n": {
      "eng": "Occultic;Nine",
      "jpn": "Occultic;Nine －オカルティック・ナイン－",
      "qro": "Occultic;Nine"
    },
    "modified_at": "2020-03-31T19:04:32.368Z",
    "name": "Occultic;Nine",
    "repository": "kara.moe",
    "tid": "e6a50eef-2a0a-4dd6-b343-15baf0d47dba",
    "types": [
      "series",
      "1"
    ]
  }
}