{
  "header": {
    "description": "Karaoke Mugen Tag File",
    "version": 1
  },
  "tag": {
    "i18n": {
      "eng": "officeAO"
    },
    "name": "officeAO",
    "tid": "5a2eaa50-e48b-4a3a-a592-872217580e43",
    "types": [
      "creators",
      "4"
    ],
    "repository": "kara.moe",
    "modified_at": "2020-03-31T19:04:36.795Z"
  }
}