{
  "header": {
    "description": "Karaoke Mugen Tag File",
    "version": 1
  },
  "tag": {
    "aliases": [
      "Dorémi Magique Sharp",
      "Ojamajo Doremi Sharp",
      "Useless Witch Doremi Sharp"
    ],
    "external_database_ids": {
      "anilist": 351,
      "myanimelist": 351,
      "kitsu": 318
    },
    "i18n": {
      "eng": "Magical DoReMi (2nd season)",
      "fre": "Magical DoReMi (saison 2)",
      "jpn": "おジャ魔女どれみ#",
      "qro": "Ojamajo Doremi #"
    },
    "modified_at": "2020-03-31T19:04:32.373Z",
    "name": "Ojamajo Doremi #",
    "repository": "kara.moe",
    "tid": "ecd2992a-6d50-46ae-b290-b28396ceb8f1",
    "types": [
      "series",
      "1"
    ]
  }
}