{
  "header": {
    "description": "Karaoke Mugen Tag File",
    "version": 1
  },
  "tag": {
    "i18n": {
      "eng": "Olivier Ghnassia"
    },
    "name": "Olivier Ghnassia",
    "tid": "e33589a7-4637-42de-97f5-71937cad4bc5",
    "types": [
      "singers",
      "2"
    ],
    "repository": "kara.moe",
    "modified_at": "2020-03-31T19:04:36.807Z"
  }
}