{
  "header": {
    "description": "Karaoke Mugen Tag File",
    "version": 1
  },
  "tag": {
    "i18n": {
      "eng": "Olivia Newton-John"
    },
    "name": "Olivia Newton-John",
    "tid": "4eb81f50-3047-4a96-b6cb-fb30da32f5ce",
    "types": [
      "singers",
      "2"
    ],
    "repository": "kara.moe",
    "modified_at": "2020-03-31T19:04:36.805Z"
  }
}