{
  "header": {
    "description": "Karaoke Mugen Tag File",
    "version": 1
  },
  "tag": {
    "i18n": {
      "eng": "ONE III NOTES"
    },
    "name": "ONE III NOTES",
    "tid": "562223de-9765-489d-b6ef-32cc1707f7b7",
    "types": [
      "singers",
      "2"
    ],
    "repository": "kara.moe",
    "modified_at": "2020-03-31T19:04:36.814Z"
  }
}