{
  "header": {
    "description": "Karaoke Mugen Tag File",
    "version": 1
  },
  "tag": {
    "aliases": [
      "OneRoom",
      "ワンルーム"
    ],
    "external_database_ids": {
      "anilist": 97857,
      "myanimelist": 34392,
      "kitsu": 12758
    },
    "i18n": {
      "eng": "One Room",
      "jpn": "One Room",
      "qro": "One Room"
    },
    "modified_at": "2020-03-31T19:04:32.382Z",
    "name": "One Room",
    "repository": "kara.moe",
    "tid": "a2dafad3-4f25-4a51-9259-17ed2658845e",
    "types": [
      "series",
      "1",
      "franchises",
      "18"
    ]
  }
}