{
  "header": {
    "description": "Karaoke Mugen Tag File",
    "version": 1
  },
  "tag": {
    "external_database_ids": {
      "anilist": 2489,
      "myanimelist": 2489,
      "kitsu": 2259
    },
    "i18n": {
      "eng": "Onegai My Melody",
      "jpn": "おねがいマイメロディ",
      "por": "My Melody",
      "qro": "Onegai My Melody"
    },
    "modified_at": "2020-03-31T19:04:32.384Z",
    "name": "Onegai My Melody",
    "repository": "kara.moe",
    "tid": "644c14bc-daa7-4754-9fa1-0279fe077ec5",
    "types": [
      "series",
      "1"
    ]
  }
}