{
  "header": {
    "description": "Karaoke Mugen Tag File",
    "version": 1
  },
  "tag": {
    "i18n": {
      "eng": "Onyu"
    },
    "name": "Onyu",
    "repository": "kara.moe",
    "tid": "3aee12fd-07eb-4889-a20e-ff776188e08c",
    "types": [
      "songwriters",
      "8",
      "singers",
      "2"
    ]
  }
}