{
  "header": {
    "description": "Karaoke Mugen Tag File",
    "version": 1
  },
  "tag": {
    "aliases": [
      "Aurélien Cotentin"
    ],
    "i18n": {
      "eng": "Orelsan"
    },
    "modified_at": "2020-07-12T13:29:15.209Z",
    "name": "orelsan",
    "repository": "kara.moe",
    "tid": "b38fa8ad-8882-436d-a86b-b006b5e032c7",
    "types": [
      "singers",
      "2",
      "songwriters",
      "8"
    ]
  }
}