{
  "header": {
    "description": "Karaoke Mugen Tag File",
    "version": 1
  },
  "tag": {
    "i18n": {
      "eng": "Oreskaband"
    },
    "name": "Oreskaband",
    "tid": "fbf52422-1f22-470f-859b-a1ec595bd0ff",
    "types": [
      "singers",
      "2"
    ],
    "repository": "kara.moe",
    "modified_at": "2020-03-31T19:04:36.827Z"
  }
}