{
  "header": {
    "description": "Karaoke Mugen Tag File",
    "version": 1
  },
  "tag": {
    "i18n": {
      "eng": "Orianne Collins"
    },
    "name": "Orianne Collins",
    "tid": "93f125d5-8c42-41ee-9cb4-5633c38e8817",
    "types": [
      "songwriters",
      "8"
    ],
    "repository": "kara.moe",
    "modified_at": "2020-03-31T19:04:36.829Z"
  }
}