{
  "header": {
    "description": "Karaoke Mugen Tag File",
    "version": 1
  },
  "tag": {
    "i18n": {
      "eng": "Orphée"
    },
    "name": "Orphée",
    "repository": "kara.moe",
    "tid": "810872f4-c8c1-41fc-9239-a99588b48bbd",
    "types": [
      "singergroups",
      "17"
    ]
  }
}