{
  "header": {
    "description": "Karaoke Mugen Tag File",
    "version": 1
  },
  "tag": {
    "i18n": {
      "eng": "Osamu Takeuchi"
    },
    "name": "Osamu Takeuchi",
    "tid": "db6573b2-3b0c-4c12-9db1-e22b0c8b09be",
    "types": [
      "songwriters",
      "8"
    ],
    "repository": "kara.moe",
    "modified_at": "2020-03-31T19:04:36.837Z"
  }
}