{
  "header": {
    "description": "Karaoke Mugen Tag File",
    "version": 1
  },
  "tag": {
    "i18n": {
      "eng": "Osamu Yoshioka"
    },
    "name": "Osamu Yoshioka",
    "tid": "b36bcfb3-7b1b-442e-ba0b-7412443141a6",
    "types": [
      "songwriters",
      "8"
    ],
    "repository": "kara.moe",
    "modified_at": "2020-03-31T19:04:36.840Z"
  }
}