{
  "header": {
    "description": "Karaoke Mugen Tag File",
    "version": 1
  },
  "tag": {
    "aliases": [
      "otowa"
    ],
    "i18n": {
      "jpn": "音羽",
      "qro": "Otoha"
    },
    "name": "Otoha",
    "repository": "kara.moe",
    "tid": "b669d632-54c8-4aed-a58a-fa4550aed2c3",
    "types": [
      "songwriters",
      "8"
    ]
  }
}