{
  "header": {
    "description": "Karaoke Mugen Tag File",
    "version": 1
  },
  "tag": {
    "i18n": {
      "eng": "Otomate"
    },
    "name": "Otomate",
    "tid": "98ab71c6-8066-4d59-84a2-9833a27ec461",
    "types": [
      "creators",
      "4"
    ],
    "repository": "kara.moe",
    "modified_at": "2020-03-31T19:04:36.847Z"
  }
}