{
  "header": {
    "description": "Karaoke Mugen Tag File",
    "version": 1
  },
  "tag": {
    "aliases": [
      "Bakarina",
      "Destruction Flag Otome",
      "I Reincarnated into an Otome Game as a Villainess With Only Destruction Flags...",
      "Otome Game no Hametsu Flag shika Nai Akuyaku Reijou ni Tensei Shiteshimatta...",
      "hamefura",
      "reijou"
    ],
    "external_database_ids": {
      "anilist": 104647,
      "kitsu": 42277,
      "myanimelist": 38555
    },
    "i18n": {
      "ara": "حياتي التالية كشريرة: كل الطرق تؤدي إلى الهلاك",
      "chi": "转生成为了只有乙女游戏破灭Flag的邪恶大小姐",
      "eng": "My Next Life as a Villainess: All Routes Lead to Doom!",
      "jpn": "乙女ゲームの破滅フラグしかない悪役令嬢に転生してしまった...",
      "kor": "여성향 게임의 파멸 플래그밖에 없는 악역 영애로 환생해버렸다...",
      "rus": "Моя реинкарнация в отомэ-игре в качестве главной злодейки",
      "qro": "Otome Game no Hametsu Flag shika Nai Akuyaku Reijô ni Tensei Shiteshimatta..."
    },
    "name": "Otome Game no Hametsu Flag shika Nai Akuyaku Reijô ni Tensei Shiteshimatta…",
    "repository": "kara.moe",
    "tid": "1a710169-6808-4171-a5f3-beb1ce914d9f",
    "types": [
      "series",
      "1",
      "franchises",
      "18"
    ]
  }
}