{
  "header": {
    "description": "Karaoke Mugen Tag File",
    "version": 1
  },
  "tag": {
    "aliases": [
      "Umineko no Naku Koro ni",
      "Ôgon Musô Kyoku"
    ],
    "i18n": {
      "eng": "Ougon Musou Kyoku X",
      "jpn": "黄金夢想曲X",
      "qro": "Ougon Musou Kyoku X"
    },
    "modified_at": "2020-03-31T19:04:32.412Z",
    "name": "Ougon Musou Kyoku X",
    "repository": "kara.moe",
    "tid": "c8495955-7de0-4695-b09a-ea5c2d8de7dc",
    "types": [
      "series",
      "1"
    ]
  }
}