{
  "header": {
    "description": "Karaoke Mugen Tag File",
    "version": 1
  },
  "tag": {
    "aliases": [
      "Host Club del Instituto Ouran",
      "OHSHC",
      "Ouran",
      "Ouran Host Club",
      "Ouran Koukou Host Bu",
      "Ouran Koukou Host Club",
      "Ouran Lisesi Host Kulübü",
      "okhc",
      "Хост-клуб Оранской школы",
      "מועדון האירוח של תיכון אורן",
      "نادي مدرسة أوران الثانوية للضيافة",
      "کلوپ میزبانی دبیرستان اوران",
      "樱兰",
      "樱兰高校男公关部",
      "ouran",
      "koukou"
    ],
    "external_database_ids": {
      "anilist": 853,
      "myanimelist": 853,
      "kitsu": 755
    },
    "i18n": {
      "bul": "Развлекателен клуб Оуран",
      "eng": "Oran High School Host Club",
      "fre": "Host Club ‒ Le lycée de la séduction",
      "ger": "Ouran High School Host Club",
      "jpn": "桜蘭高校ホスト部[クラブ]",
      "pol": "Ouran High School Host Club",
      "tha": "ชมรมรัก คลับมหาสนุก",
      "qro": "Ôran Kôkô Host Club"
    },
    "modified_at": "2020-03-31T19:04:32.417Z",
    "name": "Ôran Kôkô Host Club",
    "repository": "kara.moe",
    "tid": "f875f6ef-b42e-44e9-b40a-9f193aad347a",
    "types": [
      "series",
      "1"
    ]
  }
}