{
  "header": {
    "description": "Karaoke Mugen Tag File",
    "version": 1
  },
  "tag": {
    "i18n": {
      "eng": "Ourson"
    },
    "name": "Ourson",
    "tid": "4eaf6aba-0451-4119-947c-8ba404679b19",
    "types": [
      "authors",
      "6"
    ],
    "repository": "kara.moe",
    "modified_at": "2020-03-31T19:04:36.850Z"
  }
}