{
  "header": {
    "description": "Karaoke Mugen Tag File",
    "version": 1
  },
  "tag": {
    "i18n": {
      "eng": "OxT"
    },
    "name": "OxT",
    "tid": "1c58b1b6-d8b6-4b66-a3f9-3267d7bc3e4f",
    "types": [
      "singers",
      "2"
    ],
    "repository": "kara.moe",
    "modified_at": "2020-03-31T19:04:36.854Z"
  }
}