{
  "header": {
    "description": "Karaoke Mugen Tag File",
    "version": 1
  },
  "tag": {
    "aliases": [
      "PA Works"
    ],
    "i18n": {
      "eng": "P.A.Works"
    },
    "name": "P.A.Works",
    "repository": "kara.moe",
    "tid": "54259fe3-ce0c-4eca-855e-383f2c5be3a9",
    "types": [
      "creators",
      "4"
    ]
  }
}