{
  "header": {
    "description": "Karaoke Mugen Tag File",
    "version": 1
  },
  "tag": {
    "i18n": {
      "eng": "Paloma Mellado"
    },
    "name": "Paloma Mellado",
    "tid": "52339009-b63f-4faf-a627-acf69a6af619",
    "types": [
      "songwriters",
      "8"
    ],
    "repository": "kara.moe",
    "modified_at": "2020-03-31T19:04:36.862Z"
  }
}