{
  "header": {
    "description": "Karaoke Mugen Tag File",
    "version": 1
  },
  "tag": {
    "i18n": {
      "eng": "papiyon"
    },
    "name": "papiyon",
    "tid": "77892cf7-4396-41ad-ac17-5d5e8eab7aea",
    "types": [
      "songwriters",
      "8"
    ],
    "repository": "kara.moe",
    "modified_at": "2020-03-31T19:04:36.869Z"
  }
}