{
  "header": {
    "description": "Karaoke Mugen Tag File",
    "version": 1
  },
  "tag": {
    "i18n": {
      "eng": "Paradise Lunch"
    },
    "name": "Paradise Lunch",
    "tid": "7f12cb91-7c14-42df-b9a9-e15a6d54f1ce",
    "types": [
      "singers",
      "2"
    ],
    "repository": "kara.moe",
    "modified_at": "2020-03-31T19:04:36.870Z"
  }
}