{
  "header": {
    "description": "Karaoke Mugen Tag File",
    "version": 1
  },
  "tag": {
    "i18n": {
      "eng": "Park Jai-Sang"
    },
    "name": "Park Jai-Sang",
    "tid": "aea49184-0d9f-4af0-a9c4-0cfc8b3cf305",
    "types": [
      "songwriters",
      "8"
    ],
    "repository": "kara.moe",
    "modified_at": "2020-03-31T19:04:36.872Z"
  }
}