{
  "header": {
    "description": "Karaoke Mugen Tag File",
    "version": 1
  },
  "tag": {
    "aliases": [
      "Passi Balende"
    ],
    "i18n": {
      "eng": "Passi"
    },
    "modified_at": "2021-06-05T20:13:43.457Z",
    "name": "Passi",
    "repository": "kara.moe",
    "tid": "c0e4b4db-22a5-43cc-ad3e-cf79aba56a5b",
    "types": [
      "songwriters",
      "8",
      "singers",
      "2"
    ]
  }
}