{
  "header": {
    "description": "Karaoke Mugen Tag File",
    "version": 1
  },
  "tag": {
    "aliases": [
      "Pasumemo",
      "ぱすメモ"
    ],
    "external_database_ids": {
      "anilist": 101379,
      "myanimelist": 37374,
      "kitsu": 41430
    },
    "i18n": {
      "eng": "Pastel Memories",
      "jpn": "ぱすてるメモリーズ",
      "qro": "Pastel Memories"
    },
    "modified_at": "2020-03-31T19:04:32.436Z",
    "name": "Pastel Memories",
    "repository": "kara.moe",
    "tid": "e7ab7cfd-960a-411d-89fa-92ac2ed3d1d8",
    "types": [
      "series",
      "1"
    ]
  }
}