{
  "header": {
    "description": "Karaoke Mugen Tag File",
    "version": 1
  },
  "tag": {
    "i18n": {
      "eng": "Patrick Benzner"
    },
    "modified_at": "2021-07-18T18:02:46.586Z",
    "name": "Patrick Benzner",
    "repository": "kara.moe",
    "tid": "1583bcb0-1af1-4a91-8d01-8ea0de0f46b5",
    "types": [
      "songwriters",
      "8"
    ]
  }
}