{
  "header": {
    "description": "Karaoke Mugen Tag File",
    "version": 1
  },
  "tag": {
    "i18n": {
      "eng": "Patricia de Roubaix"
    },
    "name": "Patricia de Roubaix",
    "tid": "17829306-be28-411c-95f9-49f954a89029",
    "types": [
      "singers",
      "2"
    ],
    "repository": "kara.moe",
    "modified_at": "2020-03-31T19:04:36.882Z"
  }
}