{
  "header": {
    "description": "Karaoke Mugen Tag File",
    "version": 1
  },
  "tag": {
    "i18n": {
      "eng": "Paul Carter"
    },
    "name": "Paul Carter",
    "tid": "d27ec107-b919-4282-a760-aae03fc2eb02",
    "types": [
      "songwriters",
      "8"
    ],
    "repository": "kara.moe",
    "modified_at": "2020-03-31T19:04:36.887Z"
  }
}