{
  "header": {
    "description": "Karaoke Mugen Tag File",
    "version": 1
  },
  "tag": {
    "i18n": {
      "eng": "Paul Gordon"
    },
    "name": "Paul Gordon",
    "tid": "ca15f5ec-0a2b-4c96-b890-6bfcb32b5ac8",
    "types": [
      "songwriters",
      "8",
      "singers",
      "2"
    ],
    "repository": "kara.moe",
    "modified_at": "2020-03-31T19:04:36.889Z"
  }
}