{
  "header": {
    "description": "Karaoke Mugen Tag File",
    "version": 1
  },
  "tag": {
    "i18n": {
      "eng": "Paw Lagermann"
    },
    "name": "Paw Lagermann",
    "repository": "kara.moe",
    "tid": "0b36700b-983c-4d97-bb9e-0ba007a18ff1",
    "types": [
      "songwriters",
      "8"
    ]
  }
}