{
  "header": {
    "description": "Karaoke Mugen Tag File",
    "version": 1
  },
  "tag": {
    "i18n": {
      "eng": "Pb Animation Co. Ltd."
    },
    "modified_at": "2021-03-13T17:46:52.571Z",
    "name": "Pb Animation Co. Ltd.",
    "repository": "kara.moe",
    "tid": "4465bfb4-d2f7-46c0-9b6f-eeb840a1905a",
    "types": [
      "creators",
      "4"
    ]
  }
}