{
  "header": {
    "description": "Karaoke Mugen Tag File",
    "version": 1
  },
  "tag": {
    "i18n": {
      "eng": "PENGUINS PROJECT"
    },
    "name": "PENGUINS PROJECT",
    "tid": "fd056091-dde3-43f7-838e-dbe8f3b090b6",
    "types": [
      "songwriters",
      "8"
    ],
    "repository": "kara.moe",
    "modified_at": "2020-03-31T19:04:36.899Z"
  }
}