{
  "header": {
    "description": "Karaoke Mugen Tag File",
    "version": 1
  },
  "tag": {
    "i18n": {
      "eng": "Persona 5 × PS4",
      "jpn": "ペルソナ5 × PS4",
      "qro": "Persona 5 × PS4"
    },
    "modified_at": "2020-03-31T19:04:32.450Z",
    "name": "Persona 5 × PS4",
    "repository": "kara.moe",
    "tid": "c9d68abf-4b4a-4641-8cb3-ef7d81502a71",
    "types": [
      "series",
      "1"
    ]
  }
}