{
  "header": {
    "description": "Karaoke Mugen Tag File",
    "version": 1
  },
  "tag": {
    "external_database_ids": {
      "anilist": 3366,
      "myanimelist": 3366,
      "kitsu": 2959
    },
    "i18n": {
      "eng": "Persona: Trinity Soul",
      "jpn": "ペルソナ トリニティ・ソウル",
      "qro": "Persona ~Trinity Soul~"
    },
    "modified_at": "2020-03-31T19:04:32.451Z",
    "name": "Persona ~Trinity Soul~",
    "repository": "kara.moe",
    "tid": "706217a6-fb0d-4f78-802b-3f63ec0e126f",
    "types": [
      "series",
      "1"
    ]
  }
}