{
  "header": {
    "description": "Karaoke Mugen Tag File",
    "version": 1
  },
  "tag": {
    "aliases": [
      "P4U"
    ],
    "i18n": {
      "eng": "Persona 4: Arena",
      "jpn": "ペルソナ4 ジ・アルティメット イン マヨナカアリーナ",
      "qro": "Persona 4 The Ultimate in Mayonaka Arena"
    },
    "modified_at": "2020-03-31T19:04:32.447Z",
    "name": "Persona 4 The Ultimate in Mayonaka Arena",
    "repository": "kara.moe",
    "tid": "389ed312-4754-4185-8f82-7801217c9ea0",
    "types": [
      "series",
      "1"
    ]
  }
}