{
  "header": {
    "description": "Karaoke Mugen Tag File",
    "version": 1
  },
  "tag": {
    "i18n": {
      "eng": "Persona 3: Dancing in Moonlight",
      "jpn": "ペルソナ3 ダンシング・ムーンナイト",
      "qro": "Persona 3: Dancing Moon Night"
    },
    "modified_at": "2020-03-31T19:04:32.442Z",
    "name": "Persona 3: Dancing Moon Night",
    "repository": "kara.moe",
    "tid": "0899ff2c-9293-4bf7-8cda-8014f214a7f1",
    "types": [
      "series",
      "1"
    ]
  }
}