{
  "header": {
    "description": "Karaoke Mugen Tag File",
    "version": 1
  },
  "tag": {
    "i18n": {
      "eng": "Peter Barakan"
    },
    "name": "Peter Barakan",
    "repository": "kara.moe",
    "tid": "c86c2297-4c98-4f98-9759-9afdf8ca02ed",
    "types": [
      "songwriters",
      "8"
    ],
    "modified_at": "2020-03-31T19:04:36.908Z"
  }
}