{
  "header": {
    "description": "Karaoke Mugen Tag File",
    "version": 1
  },
  "tag": {
    "i18n": {
      "eng": "Peter James"
    },
    "name": "Peter James",
    "repository": "kara.moe",
    "tid": "957c31c1-bb1f-4552-9082-a89dbf8a668a",
    "types": [
      "songwriters",
      "8"
    ]
  }
}