{
  "header": {
    "description": "Karaoke Mugen Tag File",
    "version": 1
  },
  "tag": {
    "i18n": {
      "eng": "Petit Milady"
    },
    "name": "Petit Milady",
    "tid": "a2f7f6e2-3343-446a-8572-215124e912d9",
    "types": [
      "singers",
      "2"
    ],
    "repository": "kara.moe",
    "modified_at": "2020-03-31T19:04:36.911Z"
  }
}