{
  "header": {
    "description": "Karaoke Mugen Tag File",
    "version": 1
  },
  "tag": {
    "i18n": {
      "eng": "Pierre Billion"
    },
    "name": "Pierre Billion",
    "tid": "6f0be5d7-bedd-4490-beae-d829ea239574",
    "types": [
      "songwriters",
      "8"
    ],
    "repository": "kara.moe",
    "modified_at": "2020-03-31T19:04:36.921Z"
  }
}