{
  "header": {
    "description": "Karaoke Mugen Tag File",
    "version": 1
  },
  "tag": {
    "i18n": {
      "eng": "Pierre Delanoë"
    },
    "name": "Pierre Delanoë",
    "tid": "1157ab42-7e23-4db6-ba76-63d8d8f22604",
    "types": [
      "songwriters",
      "8"
    ],
    "repository": "kara.moe",
    "modified_at": "2020-03-31T19:04:36.924Z"
  }
}