{
  "header": {
    "description": "Karaoke Mugen Tag File",
    "version": 1
  },
  "tag": {
    "i18n": {
      "eng": "Pipeline Project"
    },
    "name": "Pipeline Project",
    "tid": "a70d9ad2-7269-4e60-ac0e-6ba07d9093a2",
    "types": [
      "songwriters",
      "8"
    ],
    "repository": "kara.moe",
    "modified_at": "2020-03-31T19:04:36.936Z"
  }
}