{
  "header": {
    "description": "Karaoke Mugen Tag File",
    "version": 1
  },
  "tag": {
    "aliases": [
      "Clinging Angel",
      "P10",
      "PitaTen",
      "Pitari Tenshi",
      "Пита-Тен",
      "Пита-Тэн"
    ],
    "external_database_ids": {
      "anilist": 162,
      "myanimelist": 162,
      "kitsu": 140
    },
    "i18n": {
      "eng": "Pita-Ten",
      "fre": "Pita-Ten",
      "jpn": "ぴたテン",
      "por": "Pita-Ten",
      "spa": "Pita-Ten",
      "qro": "Pita Ten"
    },
    "modified_at": "2020-03-31T19:04:32.462Z",
    "name": "Pita Ten",
    "repository": "kara.moe",
    "tid": "37a1db6b-695e-485c-9e86-47b27b6ee5dd",
    "types": [
      "series",
      "1"
    ]
  }
}