{
  "header": {
    "description": "Karaoke Mugen Tag File",
    "version": 1
  },
  "tag": {
    "external_database_ids": {
      "anilist": 1873,
      "myanimelist": 1873,
      "kitsu": 1688
    },
    "i18n": {
      "eng": "Plastic Model Wrestling Sanshiro",
      "fre": "Plawres Sanshirô",
      "jpn": "プラレス3四郎",
      "qro": "Plawres Sanshiro"
    },
    "modified_at": "2020-03-31T19:04:32.464Z",
    "name": "Plawres Sanshiro",
    "repository": "kara.moe",
    "tid": "ea23d498-9a3d-486e-bb60-93fcf4413651",
    "types": [
      "series",
      "1"
    ]
  }
}