{
  "header": {
    "description": "Karaoke Mugen Tag File",
    "version": 1
  },
  "tag": {
    "i18n": {
      "eng": "PlayStation Portable"
    },
    "karafile_tag": "PSP",
    "name": "Playstation Portable",
    "tid": "6b101aff-4b7b-4b0d-b35e-0f1b67e38c9b",
    "types": [
      "platforms",
      "13"
    ],
    "short": "PSP",
    "repository": "kara.moe",
    "modified_at": "2020-03-31T19:04:36.947Z"
  }
}