{
  "header": {
    "description": "Karaoke Mugen Tag File",
    "version": 1
  },
  "tag": {
    "i18n": {
      "afr": "Pāli",
      "amh": "Pāli",
      "ara": "منطقة بالي",
      "aze": "Düşdü",
      "bak": "Пали",
      "bel": "Загінулі",
      "bul": "Пали",
      "ben": "Pāli",
      "bos": "Pāli",
      "cat": "Pāli",
      "cze": "Pāli",
      "wel": "Pāli",
      "dan": "Pāli",
      "ger": "Pāli",
      "gre": "Pāli",
      "eng": "Pāli",
      "epo": "Pāli",
      "spa": "El pāli",
      "est": "Pāli",
      "baq": "Pāli",
      "per": "پالی",
      "fin": "Pāli",
      "fre": "Pali venir",
      "gle": "Pāli",
      "gla": "Pāli",
      "glg": "Pāli",
      "guj": "Pāli",
      "heb": "Pāli",
      "hin": "पाली",
      "hrv": "Pali",
      "hat": "Pāli",
      "hun": "Pāli",
      "arm": "Ընկան",
      "ind": "Pali",
      "ice": "Pāli",
      "ita": "Pāli",
      "jpn": "Pāli",
      "jav": "Pāli",
      "geo": "Pāli",
      "kaz": "Пали",
      "kan": "Pāli",
      "kor": "팔리",
      "kir": "Пали",
      "lat": "Pāli",
      "lit": "Pāli",
      "lav": "Pāli",
      "mlg": "Pāli",
      "mao": "Pāli",
      "mac": "Pāli",
      "mal": "Pāli",
      "mon": "Pāli",
      "mar": "Pāli",
      "may": "Pāli",
      "mlt": "Pāli",
      "nep": "Pāli",
      "dut": "Pali",
      "nor": "Pāli",
      "pan": "Pāli",
      "pol": "Pali",
      "por": "Pāli",
      "rum": "Pali",
      "rus": "Пали",
      "sin": "පාලි ධර්ම",
      "slo": "Pāli",
      "slv": "Pāli",
      "alb": "Pāli",
      "srp": "Пао",
      "sun": "Pāli",
      "swe": "Pāli",
      "swa": "Pāli",
      "tam": "Pāli",
      "tel": "Pāli",
      "tgk": "Албатта",
      "tha": "Pāli",
      "tgl": "Pāli",
      "tur": "Pāli",
      "tat": "Пали",
      "ukr": "Пали",
      "urd": "Pāli",
      "uzb": "Pāli",
      "vie": "Pāli",
      "xho": "Pāli",
      "yid": "Pāli",
      "chi": "Pāli"
    },
    "name": "pli",
    "tid": "80410e14-35d5-4584-9c42-49d78baba4f7",
    "types": [
      "langs",
      "5"
    ],
    "repository": "kara.moe",
    "modified_at": "2020-03-31T19:04:36.949Z"
  }
}