{
  "header": {
    "description": "Karaoke Mugen Tag File",
    "version": 1
  },
  "tag": {
    "aliases": [
      "Pkmn"
    ],
    "external_database_ids": {
      "anilist": 19291,
      "myanimelist": 19291,
      "kitsu": 7850
    },
    "i18n": {
      "eng": "Pokémon the Series: XY",
      "fre": "Pokémon, la série : XY",
      "jpn": "ポケットモンスターＸＹ",
      "qro": "Pocket Monsters XY"
    },
    "modified_at": "2020-06-21T23:45:31.966Z",
    "name": "Pocket Monsters XY",
    "repository": "kara.moe",
    "tid": "7ca3a0e6-96d3-4967-b00a-75b0bbf5854e",
    "types": [
      "series",
      "1"
    ]
  }
}