{
  "header": {
    "description": "Karaoke Mugen Tag File",
    "version": 1
  },
  "tag": {
    "i18n": {
      "eng": "POCYOMKIN"
    },
    "name": "POCYOMKIN",
    "tid": "44e9d308-7855-40d4-a08f-bceaaea39227",
    "types": [
      "songwriters",
      "8"
    ],
    "repository": "kara.moe",
    "modified_at": "2020-03-31T19:04:36.955Z"
  }
}