{
  "header": {
    "description": "Karaoke Mugen Tag File",
    "version": 1
  },
  "tag": {
    "i18n": {
      "eng": "Pokemon Kids"
    },
    "name": "Pokemon Kids",
    "tid": "e7994a96-6c93-49f0-979c-433050834164",
    "types": [
      "singers",
      "2"
    ],
    "repository": "kara.moe",
    "modified_at": "2020-03-31T19:04:36.957Z"
  }
}