{
  "header": {
    "description": "Karaoke Mugen Tag File",
    "version": 1
  },
  "tag": {
    "aliases": [
      "Or et Argent",
      "Pkmn",
      "Pocket Monsters GS",
      "Pocket Monsters Gold and Silver",
      "Pocket Monsters: Episode Gold & Silver",
      "Pokemon GS",
      "Pokemon Gold and Silver",
      "pokemon"
    ],
    "external_database_ids": {
      "anilist": 527,
      "myanimelist": 527,
      "kitsu": 486
    },
    "i18n": {
      "eng": "Pokémon: Johto League Champions",
      "fre": "Pokémon : Les Champions de Johto",
      "jpn": "ポケットモンスター 金銀編",
      "qro": "Pokémon: Johto League Champions"
    },
    "modified_at": "2020-03-31T19:04:32.481Z",
    "name": "Pokémon: Johto League Champions",
    "repository": "kara.moe",
    "tid": "31858de5-a42c-4c9a-84fd-b71d8133a788",
    "types": [
      "series",
      "1"
    ]
  }
}