{
  "header": {
    "description": "Karaoke Mugen Tag File",
    "version": 1
  },
  "tag": {
    "aliases": [
      "Pkmn",
      "Pocket Monsters",
      "Pokémon : Diamond and Pearl Sinnoh Ligue Victoire",
      "Pokémon: Diamond and Pearl Sinnoh League Victors",
      "pokemon"
    ],
    "external_database_ids": {
      "anilist": 1565,
      "myanimelist": 1565,
      "kitsu": 1405
    },
    "i18n": {
      "eng": "Pokémon DP: Sinnoh League Victors",
      "fre": "Pokémon DP : Les Vainqueurs de la Ligue de Sinnoh",
      "jpn": "ポケットモンスター ダイヤモンド&パール",
      "qro": "Pokémon DP: Sinnoh League Victors"
    },
    "modified_at": "2020-03-31T19:04:32.481Z",
    "name": "Pokémon DP: Sinnoh League Victors",
    "repository": "kara.moe",
    "tid": "a59ca1cd-947e-4234-b510-5663df81ecfc",
    "types": [
      "series",
      "1"
    ]
  }
}