{
  "header": {
    "description": "Karaoke Mugen Tag File",
    "version": 1
  },
  "tag": {
    "i18n": {
      "eng": "Pomu Rainpuff"
    },
    "modified_at": "2021-09-29T23:24:31.047Z",
    "name": "Pomu Rainpuff",
    "repository": "kara.moe",
    "tid": "f2ad7f44-1f56-44ad-b4f4-4e1ee5a6be82",
    "types": [
      "singers",
      "2"
    ]
  }
}