{
  "header": {
    "description": "Karaoke Mugen Tag File",
    "version": 1
  },
  "tag": {
    "i18n": {
      "eng": "Pony Pony Run Run"
    },
    "name": "Pony Pony Run Run",
    "repository": "kara.moe",
    "tid": "2cbb7454-ee25-48df-8d24-353451786515",
    "types": [
      "singers",
      "2",
      "songwriters",
      "8"
    ]
  }
}