{
  "header": {
    "description": "Karaoke Mugen Tag File",
    "version": 1
  },
  "tag": {
    "i18n": {
      "jpn": "Pop'n Music 15 ADVENTURE",
      "qro": "Pop'n Music 15 ADVENTURE"
    },
    "modified_at": "2020-03-31T19:04:32.493Z",
    "name": "Pop'n Music 15 ADVENTURE",
    "repository": "kara.moe",
    "tid": "78594a1a-3b02-4cf3-b2d5-546200ca014a",
    "types": [
      "series",
      "1"
    ]
  }
}