{
  "header": {
    "description": "Karaoke Mugen Tag File",
    "version": 1
  },
  "tag": {
    "i18n": {
      "eng": "Portal"
    },
    "modified_at": "2020-03-31T19:04:32.493Z",
    "name": "Portal",
    "repository": "kara.moe",
    "tid": "03d467ae-802a-4279-ad0c-ae95976662a7",
    "types": [
      "series",
      "1",
      "franchises",
      "18"
    ]
  }
}