{
  "header": {
    "description": "Karaoke Mugen Tag File",
    "version": 1
  },
  "tag": {
    "aliases": [
      "PRISM ARK ~PRISM HEART II~",
      "paa",
      "プリズム·アーク",
      "プリズム・アーク ～プリズム・ハート エピソード2～"
    ],
    "external_database_ids": {
      "anilist": 1807,
      "myanimelist": 1807,
      "kitsu": 1626
    },
    "i18n": {
      "eng": "Prism Ark",
      "jpn": "PRISM ARK",
      "qro": "Prism Ark"
    },
    "modified_at": "2020-03-31T19:04:32.510Z",
    "name": "Prism Ark",
    "repository": "kara.moe",
    "tid": "ab4bec75-a2ae-4710-a6b5-414fdc5abfd5",
    "types": [
      "series",
      "1",
      "franchises",
      "18"
    ]
  }
}