{
  "header": {
    "description": "Karaoke Mugen Tag File",
    "version": 1
  },
  "tag": {
    "i18n": {
      "eng": "Project Mons"
    },
    "name": "Project Mons",
    "repository": "kara.moe",
    "tid": "7230261c-8f7c-493b-a95b-99ad511a952a",
    "types": [
      "creators",
      "4"
    ]
  }
}