{
  "header": {
    "description": "Karaoke Mugen Tag File",
    "version": 1
  },
  "tag": {
    "i18n": {
      "eng": "Project Lights"
    },
    "name": "Project Lights",
    "tid": "5d91de42-93e8-486a-8683-c7aaec92f1b8",
    "types": [
      "songwriters",
      "8"
    ],
    "repository": "kara.moe",
    "modified_at": "2020-03-31T19:04:36.980Z"
  }
}