{
  "header": {
    "description": "Karaoke Mugen Tag File",
    "version": 1
  },
  "tag": {
    "i18n": {
      "eng": "PROTOTYPE"
    },
    "name": "PROTOTYPE",
    "repository": "kara.moe",
    "tid": "c874d6e0-de47-4625-814f-06d84cad23c4",
    "types": [
      "creators",
      "4"
    ]
  }
}