{
  "header": {
    "description": "Karaoke Mugen Tag File",
    "version": 1
  },
  "tag": {
    "aliases": [
      "Psychoarmor Gobarian",
      "サイコアーマーゴーバリアン",
      "サイコアーマー・ゴーバリアン"
    ],
    "external_database_ids": {
      "anilist": 6428,
      "myanimelist": 6428,
      "kitsu": 4558
    },
    "i18n": {
      "eng": "Psycho Armor Govarian",
      "jpn": "サイコアーマー ゴーバリアン",
      "qro": "Psycho Armor Govarian"
    },
    "modified_at": "2020-03-31T19:04:32.516Z",
    "name": "Psycho Armor Govarian",
    "repository": "kara.moe",
    "tid": "553d38f2-60c4-47f8-98a3-51b6302a54bf",
    "types": [
      "series",
      "1"
    ]
  }
}