{
  "header": {
    "description": "Karaoke Mugen Tag File",
    "version": 1
  },
  "tag": {
    "i18n": {
      "eng": "Puchipurizu"
    },
    "name": "Puchipurizu",
    "tid": "8f328619-be74-4f3f-b647-993a88d729f8",
    "types": [
      "singers",
      "2"
    ],
    "repository": "kara.moe",
    "modified_at": "2020-03-31T19:04:36.986Z"
  }
}