{
  "header": {
    "description": "Karaoke Mugen Tag File",
    "version": 1
  },
  "tag": {
    "aliases": [
      "Какавида"
    ],
    "external_database_ids": {
      "anilist": 19315,
      "myanimelist": 19315,
      "kitsu": 7845
    },
    "i18n": {
      "eng": "Pupa",
      "jpn": "Pupa (ピューパ)",
      "qro": "Pupa"
    },
    "modified_at": "2020-03-31T19:04:32.523Z",
    "name": "Pupa",
    "repository": "kara.moe",
    "tid": "25d0cde1-c64b-48ae-842d-d085682c4573",
    "types": [
      "series",
      "1"
    ]
  }
}