{
  "header": {
    "description": "Karaoke Mugen Tag File",
    "version": 1
  },
  "tag": {
    "i18n": {
      "eng": "purgatorio"
    },
    "modified_at": "2021-07-23T23:35:18.417Z",
    "name": "purgatorio",
    "repository": "kara.moe",
    "tid": "d3f469b0-2a3c-436f-95f6-a50aae3c0045",
    "types": [
      "authors",
      "6"
    ]
  }
}