{
  "header": {
    "description": "Karaoke Mugen Tag File",
    "version": 1
  },
  "tag": {
    "aliases": [
      "Full-Time Expert",
      "Master of Skills ",
      "Quan Zhi Gao Shou",
      "quanzhi",
      "gaoshou"
    ],
    "external_database_ids": {
      "anilist": 98861,
      "myanimelist": 33926,
      "kitsu": 12611
    },
    "i18n": {
      "chi": "全职高手",
      "eng": "The King's Avatar",
      "jpn": "全职高手",
      "qro": "Quánzhí Gāoshǒu"
    },
    "modified_at": "2021-03-11T19:33:50.676Z",
    "name": "Quánzhí Gāoshǒu",
    "repository": "kara.moe",
    "tid": "2c6dbe23-78a0-47cb-98f7-f56e6d1ec41b",
    "types": [
      "series",
      "1",
      "franchises",
      "18"
    ]
  }
}