{
  "header": {
    "description": "Karaoke Mugen Tag File",
    "version": 1
  },
  "tag": {
    "i18n": {
      "eng": "quim"
    },
    "name": "quim",
    "repository": "kara.moe",
    "tid": "0349bfe3-d608-448e-8cc5-476107e0f08a",
    "types": [
      "singers",
      "2"
    ]
  }
}