{
  "header": {
    "description": "Karaoke Mugen Tag File",
    "version": 1
  },
  "tag": {
    "i18n": {
      "eng": "R!N"
    },
    "modified_at": "2020-10-25T15:07:59.991Z",
    "name": "R!N",
    "repository": "kara.moe",
    "tid": "91201891-6e81-426c-9a31-a69ae59eb534",
    "types": [
      "songwriters",
      "8"
    ]
  }
}