{
  "header": {
    "description": "Karaoke Mugen Tag File",
    "version": 1
  },
  "tag": {
    "i18n": {
      "eng": "R.O.N"
    },
    "modified_at": "2020-07-25T01:31:46.803Z",
    "name": "R.O.N",
    "repository": "kara.moe",
    "tid": "ed388426-40c8-4900-afe5-2d816cc67541",
    "types": [
      "songwriters",
      "8"
    ]
  }
}