{
  "header": {
    "description": "Karaoke Mugen Tag File",
    "version": 1
  },
  "tag": {
    "i18n": {
      "eng": "Rainbow"
    },
    "name": "Rainbow",
    "tid": "34a52464-6cf0-4a8a-b649-07e3d2d97b4d",
    "types": [
      "creators",
      "4"
    ],
    "repository": "kara.moe",
    "modified_at": "2020-03-31T19:04:37.010Z"
  }
}