{
  "header": {
    "description": "Karaoke Mugen Tag File",
    "version": 1
  },
  "tag": {
    "aliases": [
      "Rhee Woo Seok",
      "이우석"
    ],
    "i18n": {
      "eng": "Rainstone"
    },
    "name": "Rainstone",
    "repository": "kara.moe",
    "tid": "bff74281-41f5-4eee-8373-d816854055cc",
    "types": [
      "songwriters",
      "8"
    ]
  }
}