{
  "header": {
    "description": "Karaoke Mugen Tag File",
    "version": 1
  },
  "tag": {
    "i18n": {
      "eng": "Ralph Siegel"
    },
    "name": "Ralph Siegel",
    "tid": "0dbca0b1-fa4c-48a3-a197-e74351686410",
    "types": [
      "songwriters",
      "8"
    ],
    "repository": "kara.moe",
    "modified_at": "2020-03-31T19:04:37.015Z"
  }
}