{
  "header": {
    "description": "Karaoke Mugen Tag File",
    "version": 1
  },
  "tag": {
    "i18n": {
      "eng": "Raton-Laveur"
    },
    "modified_at": "2020-08-19T10:26:41.600Z",
    "name": "Raton-Laveur",
    "repository": "kara.moe",
    "tid": "0450c33c-a066-4b90-b9f3-df69ead63868",
    "types": [
      "authors",
      "6"
    ]
  }
}