{
  "header": {
    "description": "Karaoke Mugen Tag File",
    "version": 1
  },
  "tag": {
    "external_database_ids": {
      "anilist": 132232,
      "myanimelist": 48624,
      "kitsu": 44394
    },
    "i18n": {
      "eng": "RE:cycle of Penguindrum"
    },
    "name": "Re:cycle of Penguindrum",
    "repository": "kara.moe",
    "tid": "95880883-0f80-4d2b-a3c4-3a85a6b1c8fa",
    "types": [
      "series",
      "1"
    ]
  }
}