{
  "header": {
    "description": "Karaoke Mugen Tag File",
    "version": 1
  },
  "tag": {
    "i18n": {
      "eng": "Redwood Humberg Jr."
    },
    "modified_at": "2020-06-15T12:25:07.916Z",
    "name": "Redwood Humberg Jr.",
    "repository": "kara.moe",
    "tid": "f43475f2-3c7a-439a-90b5-39f0d764cc03",
    "types": [
      "songwriters",
      "8"
    ]
  }
}