{
  "header": {
    "description": "Karaoke Mugen Tag File",
    "version": 1
  },
  "tag": {
    "i18n": {
      "eng": "Regal Lily"
    },
    "name": "Regal Lily",
    "repository": "kara.moe",
    "tid": "2e12022a-67f0-43a9-aca4-2124483e3d97",
    "types": [
      "singers",
      "2"
    ]
  }
}