{
  "header": {
    "description": "Karaoke Mugen Tag File",
    "version": 1
  },
  "tag": {
    "i18n": {
      "eng": "rei kato"
    },
    "name": "rei kato",
    "repository": "kara.moe",
    "tid": "963aa842-d980-445a-8674-2222d119dc55",
    "types": [
      "creators",
      "4"
    ]
  }
}