{
  "header": {
    "description": "Karaoke Mugen Tag File",
    "version": 1
  },
  "tag": {
    "i18n": {
      "eng": "rei sirose"
    },
    "name": "rei sirose",
    "repository": "kara.moe",
    "tid": "0f1727c5-ae30-4237-bc07-3f0601e87167",
    "types": [
      "singers",
      "2"
    ]
  }
}