{
  "header": {
    "description": "Karaoke Mugen Tag File",
    "version": 1
  },
  "tag": {
    "i18n": {
      "eng": "Rei Kobayashi"
    },
    "name": "Rei Kobayashi",
    "repository": "kara.moe",
    "tid": "a33c3f1b-c95f-48e3-a9dc-d5a85a03089a",
    "types": [
      "singers",
      "2"
    ]
  }
}