{
  "header": {
    "description": "Karaoke Mugen Tag File",
    "version": 1
  },
  "tag": {
    "i18n": {
      "eng": "Reichi Nakaido"
    },
    "modified_at": "2020-05-02T13:55:08.391Z",
    "name": "Reichi Nakaido",
    "repository": "kara.moe",
    "tid": "eed1afe3-5132-4bed-bfcd-5f0563db4672",
    "types": [
      "songwriters",
      "8",
      "singers",
      "2"
    ]
  }
}