{
  "header": {
    "description": "Karaoke Mugen Tag File",
    "version": 1
  },
  "tag": {
    "i18n": {
      "eng": "Reiko Tanaka"
    },
    "name": "Reiko Tanaka",
    "tid": "10d8314d-6441-4ed1-9ae5-44a0f0516c73",
    "types": [
      "songwriters",
      "8"
    ],
    "repository": "kara.moe",
    "modified_at": "2020-03-31T19:04:37.050Z"
  }
}