{
  "header": {
    "description": "Karaoke Mugen Tag File",
    "version": 1
  },
  "tag": {
    "i18n": {
      "eng": "ReiRei"
    },
    "name": "ReiRei",
    "tid": "4e475bc3-bab5-4c29-828c-edeec03107cf",
    "types": [
      "singers",
      "2"
    ],
    "repository": "kara.moe",
    "modified_at": "2020-03-31T19:04:37.053Z"
  }
}