{
  "header": {
    "description": "Karaoke Mugen Tag File",
    "version": 1
  },
  "tag": {
    "i18n": {
      "eng": "Renaud Marx"
    },
    "name": "Renaud Marx",
    "repository": "kara.moe",
    "tid": "e3a43668-4055-45e7-955f-c2867c6d104d",
    "types": [
      "singers",
      "2"
    ],
    "modified_at": "2020-03-31T19:04:37.063Z"
  }
}