{
  "header": {
    "description": "Karaoke Mugen Tag File",
    "version": 1
  },
  "tag": {
    "i18n": {
      "eng": "Renen"
    },
    "name": "Renen",
    "repository": "kara.moe",
    "tid": "3719081c-3360-4322-b19f-4e34589077aa",
    "types": [
      "creators",
      "4"
    ]
  }
}