{
  "header": {
    "description": "Karaoke Mugen Tag File",
    "version": 1
  },
  "tag": {
    "i18n": {
      "eng": "Rey"
    },
    "name": "Rey",
    "tid": "6b928e92-0bbd-45e2-adf2-bf46155aa2f2",
    "types": [
      "singers",
      "2",
      "songwriters",
      "8"
    ],
    "repository": "kara.moe",
    "modified_at": "2020-03-31T19:04:37.074Z"
  }
}