{
  "header": {
    "description": "Karaoke Mugen Tag File",
    "version": 1
  },
  "tag": {
    "i18n": {
      "eng": "Rezyon"
    },
    "name": "Rezyon",
    "repository": "kara.moe",
    "tid": "ea2ea72e-014c-4907-923b-1eb2b50876b7",
    "types": [
      "songwriters",
      "8"
    ]
  }
}