{
  "header": {
    "description": "Karaoke Mugen Tag File",
    "version": 1
  },
  "tag": {
    "i18n": {
      "eng": "RHODES"
    },
    "name": "RHODES",
    "tid": "7e71888d-100a-490d-bba1-95c9c556caa4",
    "types": [
      "singers",
      "2"
    ],
    "repository": "kara.moe",
    "modified_at": "2020-03-31T19:04:37.076Z"
  }
}