{
  "header": {
    "description": "Karaoke Mugen Tag File",
    "version": 1
  },
  "tag": {
    "i18n": {
      "eng": "Richard Cocciante"
    },
    "modified_at": "2020-07-03T23:54:55.747Z",
    "name": "Richard Cocciante",
    "repository": "kara.moe",
    "tid": "46ad9def-46d5-413a-b17b-91fe76f8aa4e",
    "types": [
      "songwriters",
      "8"
    ]
  }
}