{
  "header": {
    "description": "Karaoke Mugen Tag File",
    "version": 1
  },
  "tag": {
    "i18n": {
      "eng": "Richard Gotainer"
    },
    "name": "Richard Gotainer",
    "tid": "78bdec25-f16c-4488-abf5-3b40bcd5b85c",
    "types": [
      "songwriters",
      "8"
    ],
    "repository": "kara.moe",
    "modified_at": "2020-03-31T19:04:37.082Z"
  }
}