{
  "header": {
    "description": "Karaoke Mugen Tag File",
    "version": 1
  },
  "tag": {
    "i18n": {
      "eng": "Richie Sambora"
    },
    "modified_at": "2021-05-23T23:39:38.034Z",
    "name": "Richie Sambora",
    "repository": "kara.moe",
    "tid": "3bb12f7e-950a-43b3-8169-f0988ea3ab2c",
    "types": [
      "songwriters",
      "8"
    ]
  }
}