{
  "header": {
    "description": "Karaoke Mugen Tag File",
    "version": 1
  },
  "tag": {
    "i18n": {
      "eng": "Rie Hamada"
    },
    "name": "Rie Hamada",
    "tid": "fd97443d-3322-480a-9a62-cf965daeb144",
    "types": [
      "songwriters",
      "8",
      "singers",
      "2"
    ],
    "repository": "kara.moe",
    "modified_at": "2020-03-31T19:04:37.090Z"
  }
}