{
  "header": {
    "description": "Karaoke Mugen Tag File",
    "version": 1
  },
  "tag": {
    "i18n": {
      "eng": "Riho Iida"
    },
    "name": "Riho Iida",
    "tid": "5c779d94-5ed1-4326-9dee-41b3d9f7331c",
    "types": [
      "singers",
      "2"
    ],
    "repository": "kara.moe",
    "modified_at": "2020-03-31T19:04:37.100Z"
  }
}