{
  "header": {
    "description": "Karaoke Mugen Tag File",
    "version": 1
  },
  "tag": {
    "i18n": {
      "eng": "Riku Ono"
    },
    "name": "Riku Ono",
    "tid": "97102398-8888-4d4c-a9ca-a7927c588767",
    "types": [
      "songwriters",
      "8"
    ],
    "repository": "kara.moe",
    "modified_at": "2020-03-31T19:04:37.114Z"
  }
}