{
  "header": {
    "description": "Karaoke Mugen Tag File",
    "version": 1
  },
  "tag": {
    "i18n": {
      "eng": "Rina Satô"
    },
    "name": "Rina Satô",
    "tid": "c4bfcd03-d02d-48d2-bc55-da6a1ab92f7b",
    "types": [
      "singers",
      "2"
    ],
    "repository": "kara.moe",
    "modified_at": "2020-03-31T19:04:37.123Z"
  }
}