{
  "header": {
    "description": "Karaoke Mugen Tag File",
    "version": 1
  },
  "tag": {
    "i18n": {
      "eng": "Risa Tsumugi"
    },
    "modified_at": "2021-11-08T00:41:41.024Z",
    "name": "Risa Tsumugi",
    "repository": "kara.moe",
    "tid": "557ea46d-03d6-421b-8452-2703fd558562",
    "types": [
      "singers",
      "2"
    ]
  }
}