{
  "header": {
    "description": "Karaoke Mugen Tag File",
    "version": 1
  },
  "tag": {
    "i18n": {
      "eng": "Rising Force"
    },
    "name": "Rising Force",
    "tid": "9ba35ac2-914c-4c14-abee-e3352cbd1384",
    "types": [
      "creators",
      "4"
    ],
    "repository": "kara.moe",
    "modified_at": "2020-03-31T19:04:37.142Z"
  }
}