{
  "header": {
    "description": "Karaoke Mugen Tag File",
    "version": 1
  },
  "tag": {
    "i18n": {
      "eng": "Rob Hudnut"
    },
    "name": "Rob Hudnut",
    "tid": "79778ff0-2e57-4f4d-8cef-1e628e21713b",
    "types": [
      "songwriters",
      "8"
    ],
    "repository": "kara.moe",
    "modified_at": "2020-03-31T19:04:37.156Z"
  }
}