{
  "header": {
    "description": "Karaoke Mugen Tag File",
    "version": 1
  },
  "tag": {
    "i18n": {
      "eng": "Robbie van Leeuwen"
    },
    "name": "Robbie van Leeuwen",
    "repository": "kara.moe",
    "tid": "0dc8b33c-7e08-4971-b500-6783d97e3084",
    "types": [
      "songwriters",
      "8"
    ]
  }
}