{
  "header": {
    "description": "Karaoke Mugen Tag File",
    "version": 1
  },
  "tag": {
    "i18n": {
      "eng": "Robert Gall"
    },
    "name": "Robert Gall",
    "tid": "e3c231b7-f7ab-4908-9756-68b97bca980f",
    "types": [
      "songwriters",
      "8"
    ],
    "repository": "kara.moe",
    "modified_at": "2020-03-31T19:04:37.158Z"
  }
}