{
  "header": {
    "description": "Karaoke Mugen Tag File",
    "version": 1
  },
  "tag": {
    "i18n": {
      "eng": "Rockwell"
    },
    "modified_at": "2020-11-08T17:55:28.164Z",
    "name": "Rockwell",
    "repository": "kara.moe",
    "tid": "48c8a778-756b-4ca8-80bc-397fb06ffc7d",
    "types": [
      "songwriters",
      "8"
    ]
  }
}