{
  "header": {
    "description": "Karaoke Mugen Tag File",
    "version": 1
  },
  "tag": {
    "aliases": [
      "RJ",
      "RomeJuli",
      "Romeo x Julia",
      "Romeu e Julieta",
      "RxJ",
      "Rómeó x Júlia",
      "Rómeó és Júlia: Az anime",
      "Ρωμαίος x Ιουλιέτα",
      "Ромео и Джульетта",
      "Ромео та Джульєта",
      "روميو وجوليت",
      "罗密欧与朱丽叶"
    ],
    "external_database_ids": {
      "anilist": 1699,
      "myanimelist": 1699,
      "kitsu": 1526
    },
    "i18n": {
      "eng": "Romeo x Juliet",
      "ger": "Romeo x Juliet",
      "hun": "Rómeó és Júlia",
      "ita": "Romeo x Juliet",
      "jpn": "ロミオ×ジュリエット",
      "qro": "Romeo x Juliet"
    },
    "modified_at": "2020-03-31T19:04:32.569Z",
    "name": "Romeo x Juliet",
    "repository": "kara.moe",
    "tid": "85e817cc-8b63-4857-8533-658ce94bd9a5",
    "types": [
      "series",
      "1"
    ]
  }
}