{
  "header": {
    "description": "Karaoke Mugen Tag File",
    "version": 1
  },
  "tag": {
    "i18n": {
      "eng": "ronare"
    },
    "name": "ronare",
    "repository": "kara.moe",
    "tid": "11ed9e21-413f-4861-9c13-954ad97a10e7",
    "types": [
      "songwriters",
      "8"
    ]
  }
}