{
  "header": {
    "description": "Karaoke Mugen Tag File",
    "version": 1
  },
  "tag": {
    "i18n": {
      "eng": "ronare"
    },
    "name": "ronare",
    "repository": "kara.moe",
    "tid": "625d2d4f-f557-408f-98e4-8a39320c6670",
    "types": [
      "creators",
      "4"
    ]
  }
}