{
  "header": {
    "description": "Karaoke Mugen Tag File",
    "version": 1
  },
  "tag": {
    "i18n": {
      "eng": "Rookies"
    },
    "modified_at": "2021-10-15T22:16:32.647Z",
    "name": "Rookies",
    "repository": "kara.moe",
    "tid": "2a6878f0-6dea-4049-a2c1-1e420f1d10cb",
    "types": [
      "series",
      "1"
    ]
  }
}