{
  "header": {
    "description": "Karaoke Mugen Tag File",
    "version": 1
  },
  "tag": {
    "i18n": {
      "eng": "Rootime"
    },
    "modified_at": "2021-05-11T20:19:23.535Z",
    "name": "Rootime",
    "repository": "kara.moe",
    "tid": "2d38d9e6-fda9-4148-b70e-56762df9d359",
    "types": [
      "songwriters",
      "8"
    ]
  }
}