{
  "header": {
    "description": "Karaoke Mugen Tag File",
    "version": 1
  },
  "tag": {
    "i18n": {
      "eng": "Rori Kakinomoto"
    },
    "name": "Rori Kakinomoto",
    "repository": "kara.moe",
    "tid": "180b2492-5eb6-4f95-92f3-d83672040417",
    "types": [
      "songwriters",
      "8"
    ]
  }
}