{
  "header": {
    "description": "Karaoke Mugen Tag File",
    "version": 1
  },
  "tag": {
    "i18n": {
      "eng": "Rosalie Hamet"
    },
    "name": "Rosalie Hamet",
    "tid": "11546c04-0829-4a57-93cb-99dec324a925",
    "types": [
      "singers",
      "2"
    ],
    "repository": "kara.moe",
    "modified_at": "2020-03-31T19:04:37.179Z"
  }
}