{
  "header": {
    "description": "Karaoke Mugen Tag File",
    "version": 1
  },
  "tag": {
    "i18n": {
      "eng": "Rosie Oomiya"
    },
    "name": "Rosie Oomiya",
    "tid": "1cdd1597-4f43-4826-8585-08a0d697021f",
    "types": [
      "songwriters",
      "8"
    ],
    "repository": "kara.moe",
    "modified_at": "2020-03-31T19:04:37.180Z"
  }
}