{
  "header": {
    "description": "Karaoke Mugen Tag File",
    "version": 1
  },
  "tag": {
    "i18n": {
      "eng": "ROUND TABLE"
    },
    "name": "ROUND TABLE",
    "tid": "d290b6a2-f897-4949-852d-106918258ce7",
    "types": [
      "singers",
      "2",
      "songwriters",
      "8"
    ],
    "repository": "kara.moe",
    "modified_at": "2020-03-31T19:04:37.182Z"
  }
}