{
  "header": {
    "description": "Karaoke Mugen Tag File",
    "version": 1
  },
  "tag": {
    "aliases": [
      "Rozen Maiden 2",
      "Rozen Maiden: Dreaming",
      "rm2",
      "rmt",
      "Діви Розена: Сни",
      "ローゼンメイデン トロイメント",
      "蔷薇少女2~梦见~"
    ],
    "external_database_ids": {
      "anilist": 65,
      "myanimelist": 65,
      "kitsu": 46
    },
    "i18n": {
      "eng": "Rozen Maiden: Träumend",
      "fre": "Rozen Maiden ‒ Träumend",
      "ger": "Rozen Maiden ‒ Träumend",
      "jpn": "Rozen Maiden träumend",
      "qro": "Rozen Maiden Traumend"
    },
    "modified_at": "2020-03-31T19:04:32.573Z",
    "name": "Rozen Maiden Traumend",
    "repository": "kara.moe",
    "tid": "18f569d6-d84d-42ff-aee2-49192b438427",
    "types": [
      "series",
      "1"
    ]
  }
}