{
  "header": {
    "description": "Karaoke Mugen Tag File",
    "version": 1
  },
  "tag": {
    "i18n": {
      "eng": "rui (fade)"
    },
    "name": "rui (fade)",
    "tid": "f4ae10cb-7ce3-4873-8561-9446b4fa6412",
    "types": [
      "songwriters",
      "8"
    ],
    "repository": "kara.moe",
    "modified_at": "2020-03-31T19:04:37.188Z"
  }
}