{
  "header": {
    "description": "Karaoke Mugen Tag File",
    "version": 1
  },
  "tag": {
    "i18n": {
      "afr": "Roemeens",
      "amh": "ሮማኒያን",
      "ara": "الرومانية",
      "aze": "Rumıniya",
      "bak": "Румыния теле",
      "bel": "Румынская",
      "bul": "Румънски",
      "ben": "রোমানিয়ান",
      "bos": "Rumunska",
      "cat": "Romanès",
      "cze": "Rumunština",
      "wel": "Rwmania",
      "dan": "Rumænsk",
      "ger": "Rumänisch",
      "gre": "Ρουμανικά",
      "eng": "Romanian",
      "epo": "La rumana",
      "spa": "Rumano",
      "est": "Rumeenia",
      "baq": "Errumaniera",
      "per": "رومانیایی",
      "fin": "Romanian",
      "fre": "Roumain",
      "gle": "Rómáinis",
      "gla": "Romàinis",
      "glg": "Romanés",
      "guj": "રોમાનિયન",
      "heb": "רומני.",
      "hin": "रोमानियाई",
      "hrv": "Rumunjski",
      "hat": "Romanyen",
      "hun": "Román",
      "arm": "Ռումիներեն",
      "ind": "Rumania",
      "ice": "Rúmeníu",
      "ita": "Rumeno",
      "jpn": "ルーマニア",
      "jav": "Romania",
      "geo": "რუმინული",
      "kaz": "Румын",
      "kan": "ರೊಮೇನಿಯನ್",
      "kor": "루마니아어",
      "kir": "Румын",
      "lat": "Romanian",
      "lit": "Rumunų",
      "lav": "Rumāņu",
      "mlg": "Anarana",
      "mao": "Romanian",
      "mac": "Романски",
      "mal": "റൊമാനിയന്",
      "mon": "Румын",
      "mar": "रोमानियन",
      "may": "Romania",
      "mlt": "Rumen",
      "nep": "रोमानियाई",
      "dut": "Roemeense",
      "nor": "Rumensk",
      "pan": "ਰੋਮਾਨੀ",
      "pol": "Rumuński",
      "por": "Romeno",
      "rum": "Română",
      "rus": "Румынский",
      "sin": "රුමේනියානු",
      "slo": "Rumunský",
      "slv": "Romunski",
      "alb": "Rumune",
      "srp": "Румунски",
      "sun": "Romania",
      "swe": "Rumänska",
      "swa": "Kiromania",
      "tam": "ரோமேனியன்",
      "tel": "రోమేనియన్",
      "tgk": "Руминия",
      "tha": "นายกแห่งโรมาเนีย",
      "tgl": "Romanian",
      "tur": "Romen",
      "tat": "Румын теле",
      "ukr": "Румунська",
      "urd": "رومنی",
      "uzb": "Arabcha",
      "vie": "Rumani",
      "xho": "Isiromania",
      "yid": "רומעניש",
      "chi": "罗马尼亚"
    },
    "name": "rum",
    "tid": "f47f3a40-732c-49de-b4b9-abdc33d10d7d",
    "types": [
      "langs",
      "5"
    ],
    "repository": "kara.moe",
    "modified_at": "2020-03-31T19:04:37.195Z"
  }
}