{
  "header": {
    "description": "Karaoke Mugen Tag File",
    "version": 1
  },
  "tag": {
    "i18n": {
      "eng": "Runo Fin"
    },
    "name": "Runo Fin",
    "repository": "kara.moe",
    "tid": "6da65d19-6301-4708-b573-dd30e5a48873",
    "types": [
      "creators",
      "4"
    ]
  }
}