{
  "header": {
    "description": "Karaoke Mugen Tag File",
    "version": 1
  },
  "tag": {
    "aliases": [
      "Rurouni Kenshin: Meiji Kenkaku Romantan - Ishinshishi e no Requiem",
      "Rurouni Kenshin - Requiem for the Restoration Royalists",
      "rurouni"
    ],
    "external_database_ids": {
      "anilist": 46,
      "myanimelist": 46,
      "kitsu": 28
    },
    "i18n": {
      "eng": "Samurai X: The Motion Picture",
      "jpn": "るろうに剣心 -明治剣客浪漫譚- 維新志士への鎮魂歌",
      "fre": "Kenshin le Vagabond - Requiem pour les Ishin Shishi",
      "spa": "Kenshin: El Guerrero Samurái - La Película",
      "qro": "Rurôni Kenshin: Meiji Kenkaku Romantan - Ishinshishi e no Requiem"
    },
    "modified_at": "2020-08-18T16:41:15.135Z",
    "name": "Rurôni Kenshin: Meiji Kenkaku Romantan - Ishinshishi e no Requiem",
    "repository": "kara.moe",
    "tid": "f490514b-6448-4a89-bf42-70bf5b380baf",
    "types": [
      "series",
      "1"
    ]
  }
}