{
  "header": {
    "description": "Karaoke Mugen Tag File",
    "version": 1
  },
  "tag": {
    "i18n": {
      "eng": "Russell Shaw"
    },
    "name": "Russell Shaw",
    "tid": "5dc45b80-6e4e-49bb-bf36-581d2bc230a3",
    "types": [
      "songwriters",
      "8"
    ],
    "repository": "kara.moe",
    "modified_at": "2020-03-31T19:04:37.204Z"
  }
}