{
  "header": {
    "description": "Karaoke Mugen Tag File",
    "version": 1
  },
  "tag": {
    "aliases": [
      "Hyousetsu",
      "冰雪帝国",
      "Ледяная империя",
      "Красный",
      "белый",
      "жёлтый: Ледяная империя"
    ],
    "external_database_ids": {
      "anilist": 146668,
      "myanimelist": 51381,
      "kitsu": 45997
    },
    "i18n": {
      "eng": "RWBY: Ice Queendom",
      "jpn": "RWBY 氷雪帝国",
      "qro": "RWBY: Hyôsetsu Teikoku",
      "rus": "RWBY Ледяное королевство"
    },
    "name": "RWBY: Hyôsetsu Teikoku",
    "repository": "kara.moe",
    "tid": "8aa317a8-207e-46f0-9525-37bf1edbab94",
    "types": [
      "series",
      "1"
    ]
  }
}