{
  "header": {
    "description": "Karaoke Mugen Tag File",
    "version": 1
  },
  "tag": {
    "i18n": {
      "eng": "Ryan Merchant"
    },
    "modified_at": "2020-10-25T13:59:40.266Z",
    "name": "Ryan Merchant",
    "repository": "kara.moe",
    "tid": "e504a9e8-6cbd-488e-bf51-23fa6ce6934f",
    "types": [
      "songwriters",
      "8"
    ]
  }
}