{
  "header": {
    "description": "Karaoke Mugen Tag File",
    "version": 1
  },
  "tag": {
    "i18n": {
      "eng": "Ryan S. Jhun"
    },
    "name": "Ryan S. Jhun",
    "repository": "kara.moe",
    "tid": "821f61e6-86ae-46ba-82ea-da9800e34be3",
    "types": [
      "songwriters",
      "8"
    ]
  }
}