{
  "header": {
    "description": "Karaoke Mugen Tag File",
    "version": 1
  },
  "tag": {
    "i18n": {
      "eng": "RYO:SUKE"
    },
    "name": "RYO:SUKE",
    "repository": "kara.moe",
    "tid": "30e0934f-c66b-470e-a294-907f8a5c345a",
    "types": [
      "songwriters",
      "8"
    ]
  }
}