{
  "header": {
    "description": "Karaoke Mugen Tag File",
    "version": 1
  },
  "tag": {
    "i18n": {
      "eng": "Ryoko"
    },
    "name": "Ryoko",
    "tid": "ea25b4b0-357d-469d-a674-2f838e0d74e5",
    "types": [
      "songwriters",
      "8"
    ],
    "repository": "kara.moe",
    "modified_at": "2020-03-31T19:04:37.213Z"
  }
}