{
  "header": {
    "description": "Karaoke Mugen Tag File",
    "version": 1
  },
  "tag": {
    "i18n": {
      "eng": "Ryota Katayose"
    },
    "name": "Ryota Katayose",
    "tid": "aa1ec4a0-2fe2-4992-8e79-884ef85d5177",
    "types": [
      "singers",
      "2"
    ],
    "repository": "kara.moe",
    "modified_at": "2020-03-31T19:04:37.217Z"
  }
}