{
  "header": {
    "description": "Karaoke Mugen Tag File",
    "version": 1
  },
  "tag": {
    "i18n": {
      "eng": "Ryota Fujii"
    },
    "name": "Ryota Fujii",
    "tid": "f8f2cfc6-0d0f-448e-936f-2f6228d4233b",
    "types": [
      "songwriters",
      "8"
    ],
    "repository": "kara.moe",
    "modified_at": "2020-03-31T19:04:37.216Z"
  }
}