{
  "header": {
    "description": "Karaoke Mugen Tag File",
    "version": 1
  },
  "tag": {
    "i18n": {
      "eng": "Ryouma Inoue"
    },
    "modified_at": "2020-04-14T10:47:13.948Z",
    "name": "Ryouma Inoue",
    "repository": "kara.moe",
    "tid": "17e540e7-8b93-4876-b4ee-7fa982037475",
    "types": [
      "songwriters",
      "8"
    ]
  }
}