{
  "header": {
    "description": "Karaoke Mugen Tag File",
    "version": 1
  },
  "tag": {
    "i18n": {
      "eng": "Ryôta Suemasu"
    },
    "name": "Ryôta Suemasu",
    "tid": "e5bda48e-b854-4ea6-9d07-e0f80eb8923a",
    "types": [
      "songwriters",
      "8"
    ],
    "repository": "kara.moe",
    "modified_at": "2020-03-31T19:04:37.239Z"
  }
}