{
  "header": {
    "description": "Karaoke Mugen Tag File",
    "version": 1
  },
  "tag": {
    "i18n": {
      "eng": "Ryou Matsuda"
    },
    "name": "Ryou Matsuda",
    "repository": "kara.moe",
    "tid": "94abd2c6-0205-406b-a87d-feae69196434",
    "types": [
      "songwriters",
      "8"
    ]
  }
}