{
  "header": {
    "description": "Karaoke Mugen Tag File",
    "version": 1
  },
  "tag": {
    "i18n": {
      "eng": "Ryôsuke Nakanishi"
    },
    "name": "Ryôsuke Nakanishi",
    "tid": "e6861551-530e-4f20-aa42-01006b280e6a",
    "types": [
      "songwriters",
      "8"
    ],
    "repository": "kara.moe",
    "modified_at": "2020-03-31T19:04:37.234Z"
  }
}