{
  "header": {
    "description": "Karaoke Mugen Tag File",
    "version": 1
  },
  "tag": {
    "i18n": {
      "eng": "Ryô Eguchi"
    },
    "name": "Ryô Eguchi",
    "tid": "ae6a7812-73b3-4a19-ba13-e5011785b01d",
    "types": [
      "songwriters",
      "8"
    ],
    "repository": "kara.moe",
    "modified_at": "2020-03-31T19:04:37.220Z"
  }
}