{
  "header": {
    "description": "Karaoke Mugen Tag File",
    "version": 1
  },
  "tag": {
    "i18n": {
      "eng": "Ryôko Fukuyama"
    },
    "name": "Ryôko Fukuyama",
    "tid": "55cac378-12c2-4755-81d8-cf6c93f34bb9",
    "types": [
      "songwriters",
      "8"
    ],
    "repository": "kara.moe",
    "modified_at": "2020-03-31T19:04:37.231Z"
  }
}