{
  "header": {
    "description": "Karaoke Mugen Tag File",
    "version": 1
  },
  "tag": {
    "i18n": {
      "eng": "RYTHEM"
    },
    "name": "RYTHEM",
    "tid": "f1e35ba4-d026-4575-b696-4e7db9dd7e74",
    "types": [
      "singers",
      "2",
      "songwriters",
      "8"
    ],
    "repository": "kara.moe",
    "modified_at": "2020-03-31T19:04:37.241Z"
  }
}