{
  "header": {
    "description": "Karaoke Mugen Tag File",
    "version": 1
  },
  "tag": {
    "i18n": {
      "eng": "Ryudai Abe"
    },
    "name": "Ryudai Abe",
    "tid": "13cf5197-34be-4828-9518-2b052c679f55",
    "types": [
      "songwriters",
      "8"
    ],
    "repository": "kara.moe",
    "modified_at": "2020-03-31T19:04:37.243Z"
  }
}