{
  "header": {
    "description": "Karaoke Mugen Tag File",
    "version": 1
  },
  "tag": {
    "i18n": {
      "eng": "Ryuichi Katsumata"
    },
    "modified_at": "2020-05-27T11:15:06.109Z",
    "name": "Ryuichi Katsumata",
    "repository": "kara.moe",
    "tid": "593a9f80-b5ff-4194-ab17-5b5381f763e9",
    "types": [
      "songwriters",
      "8"
    ]
  }
}