{
  "header": {
    "description": "Karaoke Mugen Tag File",
    "version": 1
  },
  "tag": {
    "i18n": {
      "eng": "Ryuji Aoki"
    },
    "name": "Ryuji Aoki",
    "tid": "5bb62998-29f2-4eb3-9425-31caeebe57d0",
    "types": [
      "singers",
      "2"
    ],
    "repository": "kara.moe",
    "modified_at": "2020-03-31T19:04:37.244Z"
  }
}