{
  "header": {
    "description": "Karaoke Mugen Tag File",
    "version": 1
  },
  "tag": {
    "aliases": [
      "Ryu ga Gotoku 6",
      "Ryuu ga Gotoku 6",
      "ryuu"
    ],
    "i18n": {
      "eng": "Yakuza 6: The Song of Life",
      "jpn": "龍が如く6 命の詩。",
      "qro": "Ryû ga Gotoku 6"
    },
    "modified_at": "2020-03-31T19:04:32.577Z",
    "name": "Ryû ga Gotoku 6",
    "repository": "kara.moe",
    "tid": "d07a9f53-8840-4b54-a6dc-8d2ee1ad9fc8",
    "types": [
      "series",
      "1"
    ]
  }
}