{
  "header": {
    "description": "Karaoke Mugen Tag File",
    "version": 1
  },
  "tag": {
    "i18n": {
      "eng": "Ryûichi Kimura"
    },
    "name": "Ryûichi Kimura",
    "tid": "9f9ec9b5-2e74-45a1-a18c-1bcb889a7643",
    "types": [
      "songwriters",
      "8"
    ],
    "repository": "kara.moe",
    "modified_at": "2020-03-31T19:04:37.249Z"
  }
}