{
  "header": {
    "description": "Karaoke Mugen Tag File",
    "version": 1
  },
  "tag": {
    "i18n": {
      "eng": "Ryûzô Ishino"
    },
    "modified_at": "2020-07-15T22:24:34.069Z",
    "name": "Ryûzô Ishino",
    "repository": "kara.moe",
    "tid": "4da643e9-9075-4e1f-9fec-c357353df4ca",
    "types": [
      "singers",
      "2"
    ]
  }
}