{
  "header": {
    "description": "Karaoke Mugen Tag File",
    "version": 1
  },
  "tag": {
    "aliases": [
      "Ryuuichi Sakamoto"
    ],
    "i18n": {
      "jpn": "坂本 龍一",
      "qro": "Ryûichi Sakamoto"
    },
    "name": "Ryûichi Sakamoto",
    "repository": "kara.moe",
    "tid": "98aa4803-56d6-4ef9-a220-09c0d0f72a37",
    "types": [
      "songwriters",
      "8"
    ]
  }
}