{
  "header": {
    "description": "Karaoke Mugen Tag File",
    "version": 1
  },
  "tag": {
    "i18n": {
      "eng": "S-Tribe"
    },
    "modified_at": "2020-05-01T21:00:34.909Z",
    "name": "S-Tribe",
    "repository": "kara.moe",
    "tid": "2b9dfedf-abff-401d-9dce-a58d7bb7e74c",
    "types": [
      "creators",
      "4"
    ]
  }
}