{
  "header": {
    "description": "Karaoke Mugen Tag File",
    "version": 1
  },
  "tag": {
    "i18n": {
      "eng": "Saban International"
    },
    "name": "Saban International",
    "tid": "b97b8a97-50fd-43e7-8ec6-544c56e25411",
    "types": [
      "creators",
      "4"
    ],
    "repository": "kara.moe",
    "modified_at": "2020-03-31T19:04:37.257Z"
  }
}