{
  "header": {
    "description": "Karaoke Mugen Tag File",
    "version": 1
  },
  "tag": {
    "i18n": {
      "eng": "SABO"
    },
    "name": "SABO",
    "repository": "kara.moe",
    "tid": "bd13b213-28d0-4c97-990f-fecfcfaac3cd",
    "types": [
      "creators",
      "4"
    ]
  }
}