{
  "header": {
    "description": "Karaoke Mugen Tag File",
    "version": 1
  },
  "tag": {
    "i18n": {
      "eng": "Saburô Yatsude"
    },
    "name": "Saburô Yatsude",
    "tid": "c8cc27d8-1322-4346-9fce-8f69001f0445",
    "types": [
      "songwriters",
      "8"
    ],
    "repository": "kara.moe",
    "modified_at": "2020-03-31T19:04:37.261Z"
  }
}