{
  "header": {
    "description": "Karaoke Mugen Tag File",
    "version": 1
  },
  "tag": {
    "i18n": {
      "eng": "SaGa"
    },
    "name": "SaGa",
    "tid": "5fd18863-52ee-40dd-acee-f30850a85713",
    "types": [
      "singers",
      "2"
    ],
    "repository": "kara.moe",
    "modified_at": "2020-03-31T19:04:37.273Z"
  }
}