{
  "header": {
    "description": "Karaoke Mugen Tag File",
    "version": 1
  },
  "tag": {
    "aliases": [
      "Saiki Kusuo no Ψ-nan"
    ],
    "external_database_ids": {
      "anilist": 21804,
      "myanimelist": 33255,
      "kitsu": 12127
    },
    "i18n": {
      "chi": "齐木楠雄的灾难",
      "eng": "The Disastrous Life of Saiki K.",
      "jpn": "斉木楠雄のΨ難",
      "kor": "사이키 쿠스오의 재난",
      "qro": "Saiki Kusuo no Psi-nan"
    },
    "modified_at": "2020-03-31T19:04:32.588Z",
    "name": "Saiki Kusuo no Psi-nan",
    "repository": "kara.moe",
    "tid": "ba19cc45-0d9d-4ae6-b1d0-f62cefb394c5",
    "types": [
      "series",
      "1",
      "franchises",
      "18"
    ]
  }
}