{
  "header": {
    "description": "Karaoke Mugen Tag File",
    "version": 1
  },
  "tag": {
    "aliases": [
      "CcP",
      "Colorcloud Palace",
      "Kokumono",
      "Saiun",
      "Story of the Land of Many-Colored Clouds",
      "Tale of Saiunkoku",
      "The Tale of Saiun Country",
      "The Tale of the Luminous Cloud Palace",
      "ToS",
      "saimono",
      "Приказка за страната на многоцветните облаци",
      "彩云国物语"
    ],
    "external_database_ids": {
      "anilist": 957,
      "myanimelist": 957,
      "kitsu": 847
    },
    "i18n": {
      "eng": "The Story of Saiunkoku",
      "jpn": "彩雲国物語",
      "pol": "Colourcloud Palace",
      "qro": "Saiunkoku Monogatari"
    },
    "modified_at": "2020-03-31T19:04:32.597Z",
    "name": "Saiunkoku Monogatari",
    "repository": "kara.moe",
    "tid": "2e02b1c7-7478-48d8-8b81-2a8b69e5e8a1",
    "types": [
      "series",
      "1"
    ]
  }
}