{
  "header": {
    "description": "Karaoke Mugen Tag File",
    "version": 1
  },
  "tag": {
    "aliases": [
      "Saiyuuki Reload: Burial",
      "saiyuuki"
    ],
    "external_database_ids": {
      "anilist": 2143,
      "myanimelist": 2143,
      "kitsu": 1940
    },
    "i18n": {
      "eng": "Saiyûki Reload: Burial",
      "jpn": "最遊記RELOAD -burial-",
      "qro": "Saiyûki Reload: Burial"
    },
    "modified_at": "2020-08-21T19:45:49.070Z",
    "name": "Saiyûki Reload: Burial",
    "repository": "kara.moe",
    "tid": "cb99888e-7b22-4913-92ae-bb8c5440d52d",
    "types": [
      "series",
      "1"
    ]
  }
}