{
  "header": {
    "description": "Karaoke Mugen Tag File",
    "version": 1
  },
  "tag": {
    "external_database_ids": {
      "anilist": 21595,
      "myanimelist": 32542,
      "kitsu": 11751
    },
    "i18n": {
      "eng": "Haven't You Heard? I'm Sakamoto",
      "fre": "Sakamoto, pour vous servir !",
      "jpn": "坂本ですが?",
      "qro": "Sakamoto Desu ga"
    },
    "modified_at": "2020-03-31T19:04:32.601Z",
    "name": "Sakamoto Desu ga",
    "repository": "kara.moe",
    "tid": "2512c003-495b-4e90-b496-506f176c9622",
    "types": [
      "series",
      "1"
    ]
  }
}