{
  "header": {
    "description": "Karaoke Mugen Tag File",
    "version": 1
  },
  "tag": {
    "i18n": {
      "eng": "Saki Minami"
    },
    "modified_at": "2020-07-25T01:31:46.724Z",
    "name": "Saki Minami",
    "repository": "kara.moe",
    "tid": "d9cad1b8-35dc-449c-a2a9-66be5c0ddbd4",
    "types": [
      "singers",
      "2"
    ]
  }
}