{
  "header": {
    "description": "Karaoke Mugen Tag File",
    "version": 1
  },
  "tag": {
    "i18n": {
      "eng": "Sakowski Studios"
    },
    "modified_at": "2021-03-11T17:03:46.813Z",
    "name": "Sakowski Studios",
    "repository": "kara.moe",
    "tid": "29f6d8d2-cc4e-43ba-b126-73cede1b1d7c",
    "types": [
      "creators",
      "4"
    ]
  }
}