{
  "header": {
    "description": "Karaoke Mugen Tag File",
    "version": 1
  },
  "tag": {
    "aliases": [
      "ST",
      "SW"
    ],
    "i18n": {
      "eng": "Sakura Wars: In Hot Blood",
      "jpn": "サクラ大戦 〜熱き血潮に〜",
      "qro": "Sakura Taisen ~Atsuki Chishio Ni~"
    },
    "modified_at": "2020-06-12T18:56:11.548Z",
    "name": "Sakura Taisen ~Atsuki Chishio Ni~",
    "repository": "kara.moe",
    "tid": "666f76f3-72b2-4b9c-acc3-c1b75b3e3268",
    "types": [
      "series",
      "1"
    ]
  }
}