{
  "header": {
    "description": "Karaoke Mugen Tag File",
    "version": 1
  },
  "tag": {
    "i18n": {
      "eng": "Sakurakô 2-1"
    },
    "name": "Sakurakô 2-1",
    "tid": "12f6ded8-5d6b-4842-b8e0-18f64691f953",
    "types": [
      "singers",
      "2"
    ],
    "repository": "kara.moe",
    "modified_at": "2020-03-31T19:04:37.293Z"
  }
}