{
  "header": {
    "description": "Karaoke Mugen Tag File",
    "version": 1
  },
  "tag": {
    "aliases": [
      "Project B.L.A.C.K.",
      "SW",
      "ST",
      "SakTai",
      "Sakura Wars",
      "Sakura Taisen"
    ],
    "i18n": {
      "eng": "Sakura Revolution",
      "jpn": "サクラ革命 ～華咲く乙女たち～",
      "qro": "Sakura Kakumei ~Hanasaku Otome-tachi~"
    },
    "modified_at": "2021-01-06T18:25:18.286Z",
    "name": "Sakura Kakumei ~Hanasaku Otome-tachi~",
    "repository": "kara.moe",
    "tid": "67f66146-68f0-4cc9-b796-8ea29edb281b",
    "types": [
      "series",
      "1"
    ]
  }
}