{
  "header": {
    "description": "Karaoke Mugen Tag File",
    "version": 1
  },
  "tag": {
    "i18n": {
      "eng": "Salley"
    },
    "name": "Salley",
    "tid": "1c5402f8-2e41-42d8-a7a3-616b10253207",
    "types": [
      "singers",
      "2"
    ],
    "repository": "kara.moe",
    "modified_at": "2020-03-31T19:04:37.298Z"
  }
}