{
  "header": {
    "description": "Karaoke Mugen Tag File",
    "version": 1
  },
  "tag": {
    "i18n": {
      "eng": "Samouraï"
    },
    "name": "Samouraï",
    "tid": "a25607fb-dbc6-4be0-9315-04150d4174c2",
    "types": [
      "singers",
      "2"
    ],
    "repository": "kara.moe",
    "modified_at": "2020-03-31T19:04:37.302Z"
  }
}