{
  "header": {
    "description": "Karaoke Mugen Tag File",
    "version": 1
  },
  "tag": {
    "i18n": {
      "eng": "Sandrine Vanoni"
    },
    "name": "Sandrine Vanoni",
    "repository": "kara.moe",
    "tid": "c675b62f-433a-4ac7-9e6e-bd204005bd0f",
    "types": [
      "singers",
      "2"
    ]
  }
}