{
  "header": {
    "description": "Karaoke Mugen Tag File",
    "version": 1
  },
  "tag": {
    "i18n": {
      "eng": "Sandra Kim"
    },
    "name": "Sandra Kim",
    "tid": "0aacf490-5613-47b0-ac67-961d2eb45c4e",
    "types": [
      "singers",
      "2"
    ],
    "repository": "kara.moe",
    "modified_at": "2020-03-31T19:04:37.309Z"
  }
}