{
  "header": {
    "description": "Karaoke Mugen Tag File",
    "version": 1
  },
  "tag": {
    "aliases": [
      "Violette"
    ],
    "i18n": {
      "eng": "Saori Hayami"
    },
    "modified_at": "2021-07-16T13:07:39.232Z",
    "name": "Saori Hayami",
    "repository": "kara.moe",
    "tid": "1e2a522f-776f-491a-882a-6892d061b4a2",
    "types": [
      "singers",
      "2",
      "songwriters",
      "8"
    ]
  }
}