{
  "header": {
    "description": "Karaoke Mugen Tag File",
    "version": 1
  },
  "tag": {
    "i18n": {
      "eng": "Sario Kijima"
    },
    "name": "Sario Kijima",
    "tid": "317494cc-1a21-4f01-8264-b9a2654a83c4",
    "types": [
      "singers",
      "2",
      "songwriters",
      "8"
    ],
    "repository": "kara.moe",
    "modified_at": "2020-03-31T19:04:37.328Z"
  }
}