{
  "header": {
    "description": "Karaoke Mugen Tag File",
    "version": 1
  },
  "tag": {
    "i18n": {
      "eng": "Satoru Nishizono"
    },
    "name": "Satoru Nishizono",
    "tid": "b36e2472-02e5-4bac-b1fb-7e896397871a",
    "types": [
      "songwriters",
      "8"
    ],
    "repository": "kara.moe",
    "modified_at": "2020-03-31T19:04:37.344Z"
  }
}