{
  "header": {
    "description": "Karaoke Mugen Tag File",
    "version": 1
  },
  "tag": {
    "i18n": {
      "eng": "Satoshi Yamamoto"
    },
    "modified_at": "2020-08-20T13:19:03.374Z",
    "name": "Satoshi Yamamoto",
    "repository": "kara.moe",
    "tid": "9e3db2be-fa88-4ea5-a09a-194329669f2a",
    "types": [
      "songwriters",
      "8"
    ]
  }
}