{
  "header": {
    "description": "Karaoke Mugen Tag File",
    "version": 1
  },
  "tag": {
    "i18n": {
      "eng": "Satomi Takada"
    },
    "name": "Satomi Takada",
    "tid": "3b9aff74-33dd-43bd-ac21-2f956d1564a0",
    "types": [
      "singers",
      "2"
    ],
    "repository": "kara.moe",
    "modified_at": "2020-03-31T19:04:37.340Z"
  }
}