{
  "header": {
    "description": "Karaoke Mugen Tag File",
    "version": 1
  },
  "tag": {
    "i18n": {
      "eng": "Satoshi Takebe"
    },
    "name": "Satoshi Takebe",
    "tid": "4fffbd0d-4dc7-46b7-942e-f6255df5e261",
    "types": [
      "songwriters",
      "8"
    ],
    "repository": "kara.moe",
    "modified_at": "2020-03-31T19:04:37.351Z"
  }
}