{
  "header": {
    "description": "Karaoke Mugen Tag File",
    "version": 1
  },
  "tag": {
    "i18n": {
      "eng": "Satomi Kawasaki"
    },
    "name": "Satomi Kawasaki",
    "tid": "b66af498-e868-40b0-984e-b6d8cfc5a91b",
    "types": [
      "songwriters",
      "8",
      "singers",
      "2"
    ],
    "repository": "kara.moe",
    "modified_at": "2020-03-31T19:04:37.339Z"
  }
}