{
  "header": {
    "description": "Karaoke Mugen Tag File",
    "version": 1
  },
  "tag": {
    "i18n": {
      "eng": "Satoru Inohara"
    },
    "modified_at": "2021-07-23T23:00:12.327Z",
    "name": "Satoru Inohara",
    "repository": "kara.moe",
    "tid": "3cbb1043-b579-440e-96e0-148b5feab205",
    "types": [
      "songwriters",
      "8"
    ]
  }
}