{
  "header": {
    "description": "Karaoke Mugen Tag File",
    "version": 1
  },
  "tag": {
    "i18n": {
      "eng": "Satoshi Kadokura"
    },
    "name": "Satoshi Kadokura",
    "tid": "5c14c9dd-f1ae-4ac2-8b89-23a43c84d23b",
    "types": [
      "songwriters",
      "8"
    ],
    "repository": "kara.moe",
    "modified_at": "2020-03-31T19:04:37.348Z"
  }
}