{
  "header": {
    "description": "Karaoke Mugen Tag File",
    "version": 1
  },
  "tag": {
    "i18n": {
      "eng": "Satsuki Yukino"
    },
    "name": "Satsuki Yukino",
    "tid": "b1e3fce0-848c-42cf-8d7e-866da12a343c",
    "types": [
      "singers",
      "2"
    ],
    "repository": "kara.moe",
    "modified_at": "2020-03-31T19:04:37.355Z"
  }
}