{
  "header": {
    "description": "Karaoke Mugen Tag File",
    "version": 1
  },
  "tag": {
    "i18n": {
      "eng": "SAVI"
    },
    "name": "SAVI",
    "repository": "kara.moe",
    "tid": "28fedacd-5dee-45e9-849d-a67a1d9ebd53",
    "types": [
      "creators",
      "4"
    ]
  }
}