{
  "header": {
    "description": "Karaoke Mugen Tag File",
    "version": 1
  },
  "tag": {
    "i18n": {
      "eng": "Sawada Kan"
    },
    "modified_at": "2021-10-26T13:14:48.125Z",
    "name": "Sawada Kan",
    "repository": "kara.moe",
    "tid": "9f3d0a0a-6ed6-4684-be15-e05212f30b02",
    "types": [
      "songwriters",
      "8"
    ]
  }
}