{
  "header": {
    "description": "Karaoke Mugen Tag File",
    "version": 1
  },
  "tag": {
    "i18n": {
      "eng": "Sayuri Ishikawa"
    },
    "name": "Sayuri Ishikawa",
    "tid": "66dbeeb8-30f1-4d3d-8f6c-5c6d2783a416",
    "types": [
      "singers",
      "2"
    ],
    "repository": "kara.moe",
    "modified_at": "2020-03-31T19:04:37.371Z"
  }
}