{
  "header": {
    "description": "Karaoke Mugen Tag File",
    "version": 1
  },
  "tag": {
    "i18n": {
      "eng": "SCA-ji"
    },
    "name": "SCA-ji",
    "tid": "e38b59d7-3577-421a-be48-932dd10f6145",
    "types": [
      "songwriters",
      "8"
    ],
    "repository": "kara.moe",
    "modified_at": "2020-03-31T19:04:37.373Z"
  }
}