{
  "header": {
    "description": "Karaoke Mugen Tag File",
    "version": 1
  },
  "tag": {
    "i18n": {
      "eng": "Scotti Brothers Records"
    },
    "name": "Scotti Brothers Records",
    "repository": "kara.moe",
    "tid": "094c217b-c8ba-4d8f-a4c2-21e448233e71",
    "types": [
      "creators",
      "4"
    ]
  }
}