{
  "header": {
    "description": "Karaoke Mugen Tag File",
    "version": 1
  },
  "tag": {
    "i18n": {
      "eng": "scoutd6"
    },
    "name": "scoutd6",
    "repository": "kara.moe",
    "tid": "4d8ffc93-98bc-4c89-a8aa-ed9038dcba6c",
    "types": [
      "creators",
      "4"
    ]
  }
}