{
  "header": {
    "description": "Karaoke Mugen Tag File",
    "version": 1
  },
  "tag": {
    "i18n": {
      "eng": "Scribble Netty"
    },
    "modified_at": "2021-01-13T18:12:32.661Z",
    "name": "Scribble Netty",
    "repository": "kara.moe",
    "tid": "84d072b0-9828-4838-92ee-da41f44883cb",
    "types": [
      "creators",
      "4"
    ]
  }
}