{
  "header": {
    "description": "Karaoke Mugen Tag File",
    "version": 1
  },
  "tag": {
    "i18n": {
      "eng": "Se-ma-for"
    },
    "name": "Se-ma-for",
    "repository": "kara.moe",
    "tid": "a4190092-a03a-4c1c-8b6f-806874a67a03",
    "types": [
      "creators",
      "4"
    ]
  }
}