{
  "header": {
    "description": "Karaoke Mugen Tag File",
    "version": 1
  },
  "tag": {
    "i18n": {
      "eng": "Sean Mackin"
    },
    "name": "Sean Mackin",
    "repository": "kara.moe",
    "tid": "dccefe37-12cc-445f-ae68-2b1edf594942",
    "types": [
      "songwriters",
      "8"
    ]
  }
}