{
  "header": {
    "description": "Karaoke Mugen Tag File",
    "version": 1
  },
  "tag": {
    "i18n": {
      "eng": "Sean Small"
    },
    "name": "Sean Small",
    "repository": "kara.moe",
    "tid": "5fc81e48-f40d-4929-b234-d5305658a776",
    "types": [
      "songwriters",
      "8"
    ]
  }
}