{
  "header": {
    "description": "Karaoke Mugen Tag File",
    "version": 1
  },
  "tag": {
    "i18n": {
      "eng": "Sébastien Desjours"
    },
    "name": "Sébastien Desjours",
    "repository": "kara.moe",
    "tid": "bf4defa3-7902-4e26-8c7c-181f6a03f76a",
    "types": [
      "singers",
      "2"
    ]
  }
}