{
  "header": {
    "description": "Karaoke Mugen Tag File",
    "version": 1
  },
  "tag": {
    "i18n": {
      "eng": "Sedeto"
    },
    "modified_at": "2021-07-23T23:11:53.064Z",
    "name": "Sedeto",
    "repository": "kara.moe",
    "tid": "ba237226-a5bf-4192-a598-ca6494779b03",
    "types": [
      "singers",
      "2",
      "creators",
      "4"
    ]
  }
}