{
  "header": {
    "description": "Karaoke Mugen Tag File",
    "version": 1
  },
  "tag": {
    "i18n": {
      "eng": "Seffyna"
    },
    "name": "Seffyna",
    "repository": "kara.moe",
    "tid": "0ee8c6ee-882a-4a0f-a246-5bc1db2b5fe8",
    "types": [
      "singers",
      "2"
    ]
  }
}