{
  "header": {
    "description": "Karaoke Mugen Tag File",
    "version": 1
  },
  "tag": {
    "i18n": {
      "eng": "Seiichi Kyoda"
    },
    "name": "Seiichi Kyoda",
    "repository": "kara.moe",
    "tid": "4e9a2c23-79c5-4f60-a2de-e7dd30900848",
    "types": [
      "songwriters",
      "8"
    ],
    "modified_at": "2020-03-31T19:04:37.390Z"
  }
}