{
  "header": {
    "description": "Karaoke Mugen Tag File",
    "version": 1
  },
  "tag": {
    "aliases": [
      "Seijuu Sentai Gingaman",
      "seijuu"
    ],
    "i18n": {
      "eng": "Seijû Sentai Gingaman",
      "jpn": "星獣戦隊ギンガマン",
      "qro": "Seijû Sentai Gingaman"
    },
    "modified_at": "2020-03-31T19:04:32.640Z",
    "name": "Seijû Sentai Gingaman",
    "repository": "kara.moe",
    "tid": "62e817ca-30d5-4cf9-84ed-6da42c6c32a4",
    "types": [
      "series",
      "1"
    ]
  }
}