{
  "header": {
    "description": "Karaoke Mugen Tag File",
    "version": 1
  },
  "tag": {
    "i18n": {
      "eng": "Seiya Yamasaki"
    },
    "modified_at": "2021-02-20T01:05:35.872Z",
    "name": "Seiya Yamasaki",
    "repository": "kara.moe",
    "tid": "379defe2-a947-4230-97b6-5311349bd4e3",
    "types": [
      "singers",
      "2"
    ]
  }
}