{
  "header": {
    "description": "Karaoke Mugen Tag File",
    "version": 1
  },
  "tag": {
    "aliases": [
      "wagtail",
      "Перышко",
      "Сэкирэй",
      "鹡鴒计划",
      "鹦鹉"
    ],
    "external_database_ids": {
      "anilist": 4063,
      "myanimelist": 4063,
      "kitsu": 3441
    },
    "i18n": {
      "eng": "Sekirei",
      "ger": "Sekirei",
      "jpn": "セキレイ",
      "qro": "Sekirei"
    },
    "modified_at": "2020-03-31T19:04:32.657Z",
    "name": "Sekirei",
    "repository": "kara.moe",
    "tid": "f638608b-4b89-4644-9ace-a29a26bbbd0d",
    "types": [
      "series",
      "1",
      "franchises",
      "18"
    ]
  }
}