{
  "header": {
    "description": "Karaoke Mugen Tag File",
    "version": 1
  },
  "tag": {
    "aliases": [
      "Hatou",
      "Qian zhi Rentao, Taohuaran zhi Huangji"
    ],
    "i18n": {
      "jpn": "千の刃濤、桃花染の皇姫",
      "qro": "Sen no Hatô, Tsukisome no Kouki",
      "chi": "千之刃涛，桃花染之皇姬"
    },
    "name": "Sen no Hatô, Tsukisome no Kouki",
    "repository": "kara.moe",
    "tid": "5bb15387-7196-4316-a1ee-f289db8e01f5",
    "types": [
      "series",
      "1"
    ]
  }
}