{
  "header": {
    "description": "Karaoke Mugen Tag File",
    "version": 1
  },
  "tag": {
    "aliases": [
      "Senyuu.",
      "sen'yuu"
    ],
    "external_database_ids": {
      "anilist": 15751,
      "myanimelist": 15751,
      "kitsu": 7303
    },
    "i18n": {
      "eng": "Senyu.",
      "fre": "Senyû.",
      "jpn": "戦勇.",
      "qro": "Sen'yû."
    },
    "modified_at": "2020-03-31T19:04:32.660Z",
    "name": "Sen'yû.",
    "repository": "kara.moe",
    "tid": "6d61cd42-f00a-466e-9b46-207f0c6989b5",
    "types": [
      "series",
      "1"
    ]
  }
}