{
  "header": {
    "description": "Karaoke Mugen Tag File",
    "version": 1
  },
  "tag": {
    "aliases": [
      "zesshoushinai"
    ],
    "external_database_ids": {
      "anilist": 101104,
      "kitsu": 40594,
      "myanimelist": 36692
    },
    "i18n": {
      "eng": "Symphogear AXZ Omake",
      "qro": "Senki Zesshôshinai Symphogear",
      "jpn": "戦姫絶唱しないシンフォギアAXZ"
    },
    "name": "Senki Zesshôshinai Symphogear AXZ",
    "repository": "kara.moe",
    "tid": "5a162238-dc4c-4576-b6a5-d72dd9ae1420",
    "types": [
      "series",
      "1"
    ]
  }
}