{
  "header": {
    "description": "Karaoke Mugen Tag File",
    "version": 1
  },
  "tag": {
    "aliases": [
      "Senpai ga Uzai Kouhai no Hanashi"
    ],
    "external_database_ids": {
      "anilist": 120646,
      "myanimelist": 42351,
      "kitsu": 43313
    },
    "i18n": {
      "eng": "My Senpai is Annoying",
      "jpn": "先輩がうざい後輩の話"
    },
    "modified_at": "2021-10-10T22:07:27.772Z",
    "name": "Senpai ga Uzai Kôhai no Hanashi",
    "repository": "kara.moe",
    "tid": "c5f3bb6b-5306-43cd-83b2-a15f635cc9ca",
    "types": [
      "series",
      "1"
    ]
  }
}