{
  "header": {
    "description": "Karaoke Mugen Tag File",
    "version": 1
  },
  "tag": {
    "aliases": [
      "Senryuu Shoujo",
      "senryuu",
      "shoujo"
    ],
    "external_database_ids": {
      "anilist": 106051,
      "myanimelist": 38787,
      "kitsu": 42070
    },
    "i18n": {
      "eng": "Senryu Girl",
      "fre": "Senryû Girl",
      "jpn": "川柳少女",
      "qro": "Senryû Shôjo"
    },
    "modified_at": "2020-03-31T19:04:32.675Z",
    "name": "Senryû Shôjo",
    "repository": "kara.moe",
    "tid": "578ec035-3660-49c2-8d0b-9d39d9640a8b",
    "types": [
      "series",
      "1"
    ]
  }
}