{
  "header": {
    "description": "Karaoke Mugen Tag File",
    "version": 1
  },
  "tag": {
    "external_database_ids": {
      "anilist": 1182,
      "myanimelist": 1182,
      "kitsu": 1062
    },
    "i18n": {
      "eng": "Shamanic Princess",
      "fre": "Shamanic Princess",
      "ger": "Shamanic Princess",
      "jpn": "シャーマニックプリンセス",
      "kor": "샤머닉 프린세스",
      "qro": "Shamanic Princess"
    },
    "modified_at": "2020-08-30T16:34:56.909Z",
    "name": "Shamanic Princess",
    "repository": "kara.moe",
    "tid": "95af8c82-ffbb-4888-b87e-3fc9d6c3ca0f",
    "types": [
      "series",
      "1"
    ]
  }
}