{
  "header": {
    "description": "Karaoke Mugen Tag File",
    "version": 1
  },
  "tag": {
    "i18n": {
      "eng": "Shane Guenego"
    },
    "name": "Shane Guenego",
    "tid": "948267d3-d28f-4e79-b587-4b784a435e2b",
    "types": [
      "songwriters",
      "8"
    ],
    "repository": "kara.moe",
    "modified_at": "2020-03-31T19:04:37.428Z"
  }
}