{
  "header": {
    "description": "Karaoke Mugen Tag File",
    "version": 1
  },
  "tag": {
    "i18n": {
      "eng": "shela"
    },
    "name": "shela",
    "tid": "152455e8-27b9-4df7-ae97-c522214a9e5f",
    "types": [
      "singers",
      "2"
    ],
    "repository": "kara.moe",
    "modified_at": "2020-03-31T19:04:37.431Z"
  }
}