{
  "header": {
    "description": "Karaoke Mugen Tag File",
    "version": 1
  },
  "tag": {
    "i18n": {
      "eng": "Shigeru Mizuki"
    },
    "name": "Shigeru Mizuki",
    "tid": "621bb443-5111-4845-8153-2164899b474c",
    "types": [
      "songwriters",
      "8"
    ],
    "repository": "kara.moe",
    "modified_at": "2020-03-31T19:04:37.441Z"
  }
}