{
  "header": {
    "description": "Karaoke Mugen Tag File",
    "version": 1
  },
  "tag": {
    "i18n": {
      "eng": "Shiina Natsukawa"
    },
    "name": "Shiina Natsukawa",
    "tid": "cdf462a4-d0ff-4a2c-8c79-a9028cc6395a",
    "types": [
      "singers",
      "2"
    ],
    "repository": "kara.moe",
    "modified_at": "2020-03-31T19:04:37.447Z"
  }
}