{
  "header": {
    "description": "Karaoke Mugen Tag File",
    "version": 1
  },
  "tag": {
    "i18n": {
      "eng": "Shikata"
    },
    "name": "Shikata",
    "tid": "feb05f1c-84de-42e4-b66b-6048eb3c84cc",
    "types": [
      "songwriters",
      "8"
    ],
    "repository": "kara.moe",
    "modified_at": "2020-03-31T19:04:37.449Z"
  }
}