{
  "header": {
    "description": "Karaoke Mugen Tag File",
    "version": 1
  },
  "tag": {
    "i18n": {
      "jpn": "屍姫",
      "qro": "Shikabane Hime",
      "eng": "Corpse Princess"
    },
    "name": "Shikabane Hime",
    "repository": "kara.moe",
    "short": "SH",
    "tid": "147b6f5c-9c94-4972-8631-ad7eaa19436b",
    "types": [
      "franchises",
      "18"
    ]
  }
}