{
  "header": {
    "description": "Karaoke Mugen Tag File",
    "version": 1
  },
  "tag": {
    "i18n": {
      "eng": "Shimaguchi Nike"
    },
    "modified_at": "1982-04-06",
    "name": "Shimaguchi Nike",
    "repository": "kara.moe",
    "tid": "2b4085a1-6e50-4c6f-8d80-62cfe9576294",
    "types": [
      "creators",
      "4"
    ]
  }
}