{
  "header": {
    "description": "Karaoke Mugen Tag File",
    "version": 1
  },
  "tag": {
    "aliases": [
      "A Boring World Where the Concept of Dirty Jokes Doesn't Exist",
      "ShimoSeka",
      "Скучный мир в котором не существует самой концепции похабных шуток",
      "下流梗不存在的灰暗世界",
      "不存在下流梗的无聊世界",
      "不存在黄段子的无聊世界"
    ],
    "external_database_ids": {
      "anilist": 20910,
      "myanimelist": 29786,
      "kitsu": 10352
    },
    "i18n": {
      "chi": "没有黄段子存在的无聊世界",
      "eng": "Shimoneta: A Boring World Where the Concept of Dirty Jokes Doesn't Exist",
      "fre": "Shimoseka",
      "jpn": "下ネタという概念が存在しない退屈な世界",
      "kor": "야한 이야기라는 개념이 존재하지 않는 지루한 세계",
      "qro": "Shimoneta to Iu Gainen ga Sonzai Shinai Taikutsu na Sekai"
    },
    "modified_at": "2020-03-31T19:04:32.694Z",
    "name": "Shimoneta to Iu Gainen ga Sonzai Shinai Taikutsu na Sekai",
    "repository": "kara.moe",
    "tid": "959f581c-68ab-4bac-bad8-443e6ca3a48f",
    "types": [
      "series",
      "1"
    ]
  }
}