{
  "header": {
    "description": "Karaoke Mugen Tag File",
    "version": 1
  },
  "tag": {
    "i18n": {
      "eng": "SHIMI"
    },
    "name": "SHIMI",
    "repository": "kara.moe",
    "tid": "cd8a293e-0b9d-444e-a6a7-9d65237fe6fd",
    "types": [
      "songwriters",
      "8"
    ]
  }
}