{
  "header": {
    "description": "Karaoke Mugen Tag File",
    "version": 1
  },
  "tag": {
    "i18n": {
      "eng": "Shingo Yamazaki"
    },
    "name": "Shingo Yamazaki",
    "tid": "e502eb56-56ce-4fd6-b196-26d65084a4a1",
    "types": [
      "songwriters",
      "8"
    ],
    "repository": "kara.moe",
    "modified_at": "2020-03-31T19:04:37.485Z"
  }
}