{
  "header": {
    "description": "Karaoke Mugen Tag File",
    "version": 1
  },
  "tag": {
    "i18n": {
      "eng": "Shin'ichi Mitsui",
      "jpn": "三井真一",
      "qro": "Shin'ichi Mitsui"
    },
    "name": "Shin'ichi Mitsui",
    "repository": "kara.moe",
    "tid": "cd131960-bd83-41c5-bc76-2ce0579296ed",
    "types": [
      "songwriters",
      "8"
    ]
  }
}