{
  "header": {
    "description": "Karaoke Mugen Tag File",
    "version": 1
  },
  "tag": {
    "i18n": {
      "eng": "Shining Force NEO",
      "jpn": "シャイニング・フォース ネオ",
      "qro": "Shining Force NEO"
    },
    "modified_at": "2020-03-31T19:04:32.720Z",
    "name": "Shining Force NEO",
    "repository": "kara.moe",
    "tid": "7e3b68a8-42eb-4a44-bee8-3ec6a97c5e53",
    "types": [
      "series",
      "1"
    ]
  }
}