{
  "header": {
    "description": "Karaoke Mugen Tag File",
    "version": 1
  },
  "tag": {
    "external_database_ids": {
      "anilist": 100620,
      "myanimelist": 36531,
      "kitsu": 14143
    },
    "i18n": {
      "eng": "Transformable Shinkansen Robot Shinkalion",
      "jpn": "新幹線変形ロボ シンカリオン",
      "qro": "Shinkalion Henkei Robo"
    },
    "modified_at": "2020-03-31T19:04:32.724Z",
    "name": "Shinkalion Henkei Robo",
    "repository": "kara.moe",
    "tid": "ee358f09-66bb-4d31-9867-2ebe1325c576",
    "types": [
      "series",
      "1"
    ]
  }
}