{
  "header": {
    "description": "Karaoke Mugen Tag File",
    "version": 1
  },
  "tag": {
    "aliases": [
      "ST",
      "SW"
    ],
    "external_database_ids": {
      "anilist": 111500,
      "myanimelist": 40403,
      "kitsu": 42966
    },
    "i18n": {
      "eng": "Sakura Wars the Animation",
      "jpn": "新サクラ大戦 the Animation",
      "qro": "Shin Sakura Taisen the Animation"
    },
    "modified_at": "2020-03-31T19:04:32.703Z",
    "name": "Shin Sakura Taisen the Animation",
    "repository": "kara.moe",
    "tid": "5867c37f-0366-491e-94e9-2db592c3020e",
    "types": [
      "series",
      "1"
    ]
  }
}