{
  "header": {
    "description": "Karaoke Mugen Tag File",
    "version": 1
  },
  "tag": {
    "i18n": {
      "eng": "Shinano Railway"
    },
    "name": "Shinano Railway",
    "repository": "kara.moe",
    "tid": "3948d3c1-faee-4642-8fa0-313d0f83b6c2",
    "types": [
      "series",
      "1"
    ]
  }
}