{
  "header": {
    "description": "Karaoke Mugen Tag File",
    "version": 1
  },
  "tag": {
    "i18n": {
      "eng": "Shintarô Mori"
    },
    "name": "Shintarô Mori",
    "tid": "e7b1d7e6-c1da-42bb-90bc-8769438c6a91",
    "types": [
      "songwriters",
      "8"
    ],
    "repository": "kara.moe",
    "modified_at": "2020-03-31T19:04:37.508Z"
  }
}