{
  "header": {
    "description": "Karaoke Mugen Tag File",
    "version": 1
  },
  "tag": {
    "i18n": {
      "eng": "Shinobi, Koi Utsutsu -Kanmitsu Hana Emaki-",
      "jpn": "忍び、恋うつつ ― 甘蜜花絵巻 ―",
      "qro": "Shinobi Koi Utsutsu -Kanmitsu Hana Emaki-"
    },
    "modified_at": "2020-03-31T19:04:32.728Z",
    "name": "Shinobi Koi Utsutsu -Kanmitsu Hana Emaki-",
    "repository": "kara.moe",
    "tid": "4180c1c0-29a7-4ffd-9a89-98831edaffaa",
    "types": [
      "series",
      "1"
    ]
  }
}