{
  "header": {
    "description": "Karaoke Mugen Tag File",
    "version": 1
  },
  "tag": {
    "i18n": {
      "eng": "Shin Kôno"
    },
    "name": "Shin Kôno",
    "tid": "f8c3211d-8aec-4c0b-8d84-4f452bd55af9",
    "types": [
      "songwriters",
      "8"
    ],
    "repository": "kara.moe",
    "modified_at": "2020-03-31T19:04:37.456Z"
  }
}