{
  "header": {
    "description": "Karaoke Mugen Tag File",
    "version": 1
  },
  "tag": {
    "i18n": {
      "eng": "SHINPEI"
    },
    "modified_at": "2020-08-17T23:22:54.664Z",
    "name": "SHINPEI",
    "repository": "kara.moe",
    "tid": "3357347f-5b75-4caf-b3ef-e189d196189a",
    "types": [
      "songwriters",
      "8"
    ]
  }
}