{
  "header": {
    "description": "Karaoke Mugen Tag File",
    "version": 1
  },
  "tag": {
    "aliases": [
      "Future GPX Cyber Formula ZERO",
      "Shinseiki GPX Cyber Formula Zero"
    ],
    "external_database_ids": {
      "anilist": 1393,
      "myanimelist": 1393,
      "kitsu": 1246
    },
    "i18n": {
      "eng": "Future GPX Cyber Formula Zero",
      "jpn": "新世紀GPXサイバーフォーミュラZERO",
      "qro": "Shin Seiki GPX Cyber Formula Zero"
    },
    "modified_at": "2020-06-21T23:45:31.966Z",
    "name": "Shin Seiki GPX Cyber Formula Zero",
    "repository": "kara.moe",
    "tid": "71ffea65-9096-497c-8d05-217302a8a138",
    "types": [
      "series",
      "1"
    ]
  }
}