{
  "header": {
    "description": "Karaoke Mugen Tag File",
    "version": 1
  },
  "tag": {
    "i18n": {
      "eng": "shin sakiura"
    },
    "name": "shin sakiura",
    "repository": "kara.moe",
    "tid": "2a311350-3876-47de-9993-b561589a780e",
    "types": [
      "songwriters",
      "8"
    ],
    "modified_at": "2020-03-31T19:04:37.458Z"
  }
}