{
  "header": {
    "description": "Karaoke Mugen Tag File",
    "version": 1
  },
  "tag": {
    "i18n": {
      "eng": "SHiNNOSUKE (ROOKiEZ is PUNK'D)"
    },
    "name": "SHiNNOSUKE (ROOKiEZ is PUNK'D)",
    "tid": "dffcef53-13ed-4b12-8e15-5c58c7ede869",
    "types": [
      "songwriters",
      "8"
    ],
    "repository": "kara.moe",
    "modified_at": "2020-03-31T19:04:37.496Z"
  }
}