{
  "header": {
    "description": "Karaoke Mugen Tag File",
    "version": 1
  },
  "tag": {
    "i18n": {
      "eng": "ShinYMG"
    },
    "name": "ShinYMG",
    "tid": "6034e282-c2e0-4e9f-ad98-544dcac75b8d",
    "types": [
      "songwriters",
      "8"
    ],
    "repository": "kara.moe",
    "modified_at": "2020-03-31T19:04:37.511Z"
  }
}