{
  "header": {
    "description": "Karaoke Mugen Tag File",
    "version": 1
  },
  "tag": {
    "aliases": [
      "Shingakkou -Noli me tangere-",
      "Theological Seminary",
      "shingakkou"
    ],
    "i18n": {
      "eng": "Shingakkô -Noli me tangere-",
      "jpn": "神学校-Noli me tangere-",
      "qro": "Shingakkô -Noli me tangere-"
    },
    "modified_at": "2020-03-31T19:04:32.713Z",
    "name": "Shingakkô -Noli me tangere-",
    "repository": "kara.moe",
    "tid": "74819028-def5-4b9f-a2d4-9b4aa374b6a1",
    "types": [
      "series",
      "1"
    ]
  }
}