{
  "header": {
    "description": "Karaoke Mugen Tag File",
    "version": 1
  },
  "tag": {
    "i18n": {
      "eng": "Shin'ichi Asada"
    },
    "name": "Shin'ichi Asada",
    "tid": "1184a373-e6d7-4cc6-9101-9cf06e6f2056",
    "types": [
      "songwriters",
      "8"
    ],
    "repository": "kara.moe",
    "modified_at": "2020-03-31T19:04:37.463Z"
  }
}