{
  "header": {
    "description": "Karaoke Mugen Tag File",
    "version": 1
  },
  "tag": {
    "i18n": {
      "eng": "shinoda"
    },
    "name": "shinoda",
    "tid": "aa4108b3-914c-4ad6-8c72-2d13457e3ed3",
    "types": [
      "songwriters",
      "8"
    ],
    "repository": "kara.moe",
    "modified_at": "2020-03-31T19:04:37.501Z"
  }
}