{
  "header": {
    "description": "Karaoke Mugen Tag File",
    "version": 1
  },
  "tag": {
    "i18n": {
      "eng": "SHINGO"
    },
    "modified_at": "2020-04-02T22:39:58.759Z",
    "name": "SHINGO",
    "repository": "kara.moe",
    "tid": "e082e2ed-dbfe-4d3a-beb6-92c8a13ad149",
    "types": [
      "songwriters",
      "8"
    ]
  }
}