{
  "header": {
    "description": "Karaoke Mugen Tag File",
    "version": 1
  },
  "tag": {
    "i18n": {
      "eng": "Shirasaki Maguru"
    },
    "name": "Shirasaki Maguru",
    "repository": "kara.moe",
    "tid": "2554dcee-977d-4e48-9873-749608b77090",
    "types": [
      "creators",
      "4"
    ]
  }
}