{
  "header": {
    "description": "Karaoke Mugen Tag File",
    "version": 1
  },
  "tag": {
    "aliases": [
      "Berubara Private Academy ~The Rose of Versailles Re*imagination~",
      "VerRose Private Academy ~The Rose of Versailles Re*imagination~",
      "re imagination~"
    ],
    "i18n": {
      "eng": "Shiritsu Berubara Gakuen ~Versailles no Bara Re*imagination~",
      "jpn": "私立ベルばら学園 ～ベルサイユのばらRe*imagination～",
      "qro": "Shiritsu Berubara Gakuen ~Versailles no Bara Re*imagination~"
    },
    "modified_at": "2020-03-31T19:04:32.737Z",
    "name": "Shiritsu Berubara Gakuen ~Versailles no Bara Re*imagination~",
    "repository": "kara.moe",
    "tid": "7298a3da-f7db-4cf0-b043-e7f21d870da7",
    "types": [
      "series",
      "1"
    ]
  }
}