{
  "header": {
    "description": "Karaoke Mugen Tag File",
    "version": 1
  },
  "tag": {
    "i18n": {
      "eng": "Shiten Cho"
    },
    "modified_at": "2020-04-03T09:41:50.923Z",
    "name": "Shiten Cho",
    "repository": "kara.moe",
    "tid": "3442ebdc-2a61-44d8-a971-6a2bbc44050a",
    "types": [
      "creators",
      "4"
    ]
  }
}