{
  "header": {
    "description": "Karaoke Mugen Tag File",
    "version": 1
  },
  "tag": {
    "i18n": {
      "eng": "Shohei Ito"
    },
    "name": "Shohei Ito",
    "tid": "286490cc-5d73-430a-a9ae-062a7b68837d",
    "types": [
      "singers",
      "2",
      "songwriters",
      "8"
    ],
    "repository": "kara.moe",
    "modified_at": "2020-03-31T19:04:37.528Z"
  }
}