{
  "header": {
    "description": "Karaoke Mugen Tag File",
    "version": 1
  },
  "tag": {
    "aliases": [
      "Shokugeki no Souma 2",
      "Shokugeki no Souma 2nd Season",
      "Shokugeki no Souma S2",
      "Shokugeki no Souma: Ni no Sara",
      "Shokugeki no Sôma 2",
      "Shokugeki no Sôma 2nd Season",
      "Shokugeki no Sôma S2",
      "souma"
    ],
    "external_database_ids": {
      "anilist": 21518,
      "myanimelist": 32282,
      "kitsu": 11612
    },
    "i18n": {
      "eng": "Food Wars! The Second Plate",
      "fre": "Food Wars! Second Service",
      "jpn": "食戟のソーマ 弐ノ皿",
      "qro": "Shokugeki no Sôma: Ni no Sara"
    },
    "modified_at": "2020-03-31T19:04:32.740Z",
    "name": "Shokugeki no Sôma: Ni no Sara",
    "repository": "kara.moe",
    "tid": "34ea0292-d56d-49da-b21f-4d326a4ccf75",
    "types": [
      "series",
      "1"
    ]
  }
}