{
  "header": {
    "description": "Karaoke Mugen Tag File",
    "version": 1
  },
  "tag": {
    "i18n": {
      "fre": "Courte"
    },
    "modified_at": "2021-02-14T16:47:00.491Z",
    "name": "Short",
    "priority": 3,
    "repository": "kara.moe",
    "tid": "d125c80a-86c1-4321-88e9-07b7800679b6",
    "types": [
      "versions",
      "14"
    ]
  }
}