{
  "header": {
    "description": "Karaoke Mugen Tag File",
    "version": 1
  },
  "tag": {
    "i18n": {
      "eng": "Shôji Osamu"
    },
    "name": "Shôji Osamu",
    "tid": "e1637977-ad70-4962-9207-a9153f9b5c2d",
    "types": [
      "songwriters",
      "8"
    ],
    "repository": "kara.moe",
    "modified_at": "2020-03-31T19:04:37.544Z"
  }
}