{
  "header": {
    "description": "Karaoke Mugen Tag File",
    "version": 1
  },
  "tag": {
    "i18n": {
      "eng": "Shôko Suzuki"
    },
    "name": "Shôko Suzuki",
    "tid": "d83221c2-fa5c-4858-b67e-7d59d1a77bf8",
    "types": [
      "songwriters",
      "8"
    ],
    "repository": "kara.moe",
    "modified_at": "2020-03-31T19:04:37.550Z"
  }
}