{
  "header": {
    "description": "Karaoke Mugen Tag File",
    "version": 1
  },
  "tag": {
    "i18n": {
      "eng": "Shônen"
    },
    "name": "Shounen",
    "repository": "kara.moe",
    "short": "SHOUNEN",
    "tid": "a0aeef4a-6428-45ff-a6e1-468b595930c2",
    "types": [
      "genres",
      "12"
    ]
  }
}