{
  "header": {
    "description": "Karaoke Mugen Tag File",
    "version": 1
  },
  "tag": {
    "i18n": {
      "eng": "Shônen Shôjo Gasshô Dan Mizûmi"
    },
    "name": "Shônen Shôjo Gasshô Dan Mizûmi",
    "tid": "69275c8a-1a2e-436d-a0ca-1c0ce056f0f9",
    "types": [
      "singers",
      "2"
    ],
    "repository": "kara.moe",
    "modified_at": "2020-03-31T19:04:37.553Z"
  }
}