{
  "header": {
    "description": "Karaoke Mugen Tag File",
    "version": 1
  },
  "tag": {
    "i18n": {
      "eng": "Shôzô Uehara"
    },
    "name": "Shôzô Uehara",
    "tid": "65dfc88c-84db-4084-8d2d-6ef7a1c4c870",
    "types": [
      "songwriters",
      "8"
    ],
    "repository": "kara.moe",
    "modified_at": "2020-03-31T19:04:37.561Z"
  }
}