{
  "header": {
    "description": "Karaoke Mugen Tag File",
    "version": 1
  },
  "tag": {
    "i18n": {
      "eng": "Shôsuke Sekita"
    },
    "name": "Shôsuke Sekita",
    "tid": "d4c3bdce-78f0-4854-b43b-ccaf43e4b0d6",
    "types": [
      "singers",
      "2",
      "songwriters",
      "8"
    ],
    "repository": "kara.moe",
    "modified_at": "2020-03-31T19:04:37.555Z"
  }
}