{
  "header": {
    "description": "Karaoke Mugen Tag File",
    "version": 1
  },
  "tag": {
    "i18n": {
      "eng": "Shô Aratame"
    },
    "name": "Shô Aratame",
    "tid": "1d68dbe4-55b5-4745-bc08-404d4df2565b",
    "types": [
      "songwriters",
      "8"
    ],
    "repository": "kara.moe",
    "modified_at": "2020-03-31T19:04:37.532Z"
  }
}