{
  "header": {
    "description": "Karaoke Mugen Tag File",
    "version": 1
  },
  "tag": {
    "aliases": [
      "Shoujo Commando Izumi",
      "shoujo"
    ],
    "i18n": {
      "eng": "Shojo Commando Izumi",
      "fre": "Shôjo Commando Izumi",
      "jpn": "少女コマンドー IZUMI",
      "qro": "Shôjo Commando Izumi"
    },
    "modified_at": "2020-03-31T19:04:32.743Z",
    "name": "Shôjo Commando Izumi",
    "repository": "kara.moe",
    "tid": "afdbbc0a-512a-4c12-af0b-f06e92b874b3",
    "types": [
      "series",
      "1"
    ]
  }
}