{
  "header": {
    "description": "Karaoke Mugen Tag File",
    "version": 1
  },
  "tag": {
    "i18n": {
      "eng": "Shunya Shimizu"
    },
    "name": "Shunya Shimizu",
    "tid": "407240f4-936d-46f8-8cd8-b23a21ed4fea",
    "types": [
      "songwriters",
      "8"
    ],
    "repository": "kara.moe",
    "modified_at": "2020-03-31T19:04:37.589Z"
  }
}