{
  "header": {
    "description": "Karaoke Mugen Tag File",
    "version": 1
  },
  "tag": {
    "aliases": [
      "Shun Itou",
      "Shin'ichi Yuuki",
      "Shin'ichi Yûki",
      "Shinichi Yuuki",
      "Shinichi Yûki"
    ],
    "i18n": {
      "eng": "Shun Itô"
    },
    "modified_at": "2021-03-21T13:29:18.178Z",
    "name": "Shun Itô",
    "repository": "kara.moe",
    "tid": "1bd8292e-87c3-47a2-81a8-6974a9acea1e",
    "types": [
      "songwriters",
      "8"
    ]
  }
}