{
  "header": {
    "description": "Karaoke Mugen Tag File",
    "version": 1
  },
  "tag": {
    "i18n": {
      "eng": "Shunya Hiruma"
    },
    "name": "Shunya Hiruma",
    "repository": "kara.moe",
    "tid": "d7f04196-aa2a-4478-aa3a-ea081d6793f0",
    "types": [
      "singers",
      "2"
    ]
  }
}