{
  "header": {
    "description": "Karaoke Mugen Tag File",
    "version": 1
  },
  "tag": {
    "i18n": {
      "eng": "Shuntarô Tanikawa"
    },
    "name": "Shuntarô Tanikawa",
    "tid": "46bdc17e-d6b6-4e2b-93c5-5cfb0c22954a",
    "types": [
      "songwriters",
      "8"
    ],
    "repository": "kara.moe",
    "modified_at": "2020-03-31T19:04:37.588Z"
  }
}