{
  "header": {
    "description": "Karaoke Mugen Tag File",
    "version": 1
  },
  "tag": {
    "i18n": {
      "eng": "Shun Kusakawa"
    },
    "name": "Shun Kusakawa",
    "tid": "2f6be269-d26e-4f81-b802-73c23815c26d",
    "types": [
      "songwriters",
      "8"
    ],
    "repository": "kara.moe",
    "modified_at": "2020-03-31T19:04:37.572Z"
  }
}