{
  "header": {
    "description": "Karaoke Mugen Tag File",
    "version": 1
  },
  "tag": {
    "i18n": {
      "eng": "Shusui"
    },
    "name": "Shusui",
    "tid": "977c2f94-52c0-4578-9f4c-04f71e1608bc",
    "types": [
      "songwriters",
      "8"
    ],
    "repository": "kara.moe",
    "modified_at": "2020-03-31T19:04:37.589Z"
  }
}