{
  "header": {
    "description": "Karaoke Mugen Tag File",
    "version": 1
  },
  "tag": {
    "aliases": [
      "Silent Moebius",
      "mobius"
    ],
    "external_database_ids": {
      "anilist": 1517,
      "myanimelist": 1517,
      "kitsu": 1362
    },
    "i18n": {
      "eng": "Silent Möbius",
      "jpn": "サイレントメビウス",
      "qro": "Silent Möbius"
    },
    "modified_at": "2020-03-31T19:04:32.767Z",
    "name": "Silent Möbius",
    "repository": "kara.moe",
    "tid": "38c42f48-c238-4686-aa34-181620dada78",
    "types": [
      "series",
      "1"
    ]
  }
}