{
  "header": {
    "description": "Karaoke Mugen Tag File",
    "version": 1
  },
  "tag": {
    "i18n": {
      "eng": "Silky's Plus"
    },
    "name": "Silky's Plus",
    "tid": "052030d9-196f-4fdb-ae9e-c1b76209c5e0",
    "types": [
      "creators",
      "4"
    ],
    "repository": "kara.moe",
    "modified_at": "2020-03-31T19:04:37.607Z"
  }
}