{
  "header": {
    "description": "Karaoke Mugen Tag File",
    "version": 1
  },
  "tag": {
    "i18n": {
      "eng": "SIP Animation"
    },
    "name": "SIP Animation",
    "tid": "ce2ce6d9-c923-4321-8b33-a26cf6b239fe",
    "types": [
      "creators",
      "4"
    ],
    "repository": "kara.moe",
    "modified_at": "2020-03-31T19:04:37.618Z"
  }
}