{
  "header": {
    "description": "Karaoke Mugen Tag File",
    "version": 1
  },
  "tag": {
    "i18n": {
      "eng": "Sister MAYO"
    },
    "name": "Sister MAYO",
    "tid": "8faa9df9-c26a-4cfe-a741-e06641abd8db",
    "types": [
      "singers",
      "2"
    ],
    "repository": "kara.moe",
    "modified_at": "2020-03-31T19:04:37.620Z"
  }
}