{
  "header": {
    "description": "Karaoke Mugen Tag File",
    "version": 1
  },
  "tag": {
    "i18n": {
      "eng": "SiZK"
    },
    "name": "SiZK",
    "tid": "3878ebfb-845c-40a7-8de5-98d08c3e3519",
    "types": [
      "songwriters",
      "8"
    ],
    "repository": "kara.moe",
    "modified_at": "2020-03-31T19:04:37.623Z"
  }
}