{
  "header": {
    "description": "Karaoke Mugen Tag File",
    "version": 1
  },
  "tag": {
    "aliases": [
      "Slayers OAV"
    ],
    "external_database_ids": {
      "anilist": 1170,
      "myanimelist": 1170,
      "kitsu": 1051
    },
    "i18n": {
      "eng": "Slayers: The Book of Spells",
      "jpn": "スレイヤーズすぺしゃる",
      "qro": "Slayers Special"
    },
    "modified_at": "2020-03-31T19:04:32.777Z",
    "name": "Slayers Special",
    "repository": "kara.moe",
    "tid": "18f6a390-3fb6-4f3f-83a8-fc18566f1ddf",
    "types": [
      "series",
      "1"
    ]
  }
}