{
  "header": {
    "description": "Karaoke Mugen Tag File",
    "version": 1
  },
  "tag": {
    "aliases": [
      "Gekijouban Slayers",
      "Gekijôban Slayers"
    ],
    "external_database_ids": {
      "anilist": 536,
      "myanimelist": 536,
      "kitsu": 495
    },
    "i18n": {
      "eng": "Slayers The Movie",
      "fre": "Slayers le Film",
      "jpn": "劇場版スレイヤーズ",
      "qro": "Slayers Movie"
    },
    "modified_at": "2020-03-31T19:04:32.774Z",
    "name": "Slayers Movie",
    "repository": "kara.moe",
    "tid": "1ce1f4b1-4419-4c6c-817a-877fe4e08201",
    "types": [
      "series",
      "1"
    ]
  }
}