{
  "header": {
    "description": "Karaoke Mugen Tag File",
    "version": 1
  },
  "tag": {
    "i18n": {
      "eng": "Slightly Left of Centre"
    },
    "name": "Slightly Left of Centre",
    "tid": "314029aa-e24a-40b8-b8fd-10e4b068f76e",
    "types": [
      "creators",
      "4"
    ],
    "repository": "kara.moe",
    "modified_at": "2020-03-31T19:04:37.637Z"
  }
}