{
  "header": {
    "description": "Karaoke Mugen Tag File",
    "version": 1
  },
  "tag": {
    "i18n": {
      "eng": "Sly"
    },
    "name": "Sly",
    "tid": "c6af037c-cdbd-48cb-984e-59caaed0b22d",
    "types": [
      "authors",
      "6"
    ],
    "repository": "kara.moe",
    "modified_at": "2020-03-31T19:04:37.639Z"
  }
}