{
  "header": {
    "description": "Karaoke Mugen Tag File",
    "version": 1
  },
  "tag": {
    "i18n": {
      "eng": "SnowFox"
    },
    "name": "SnowFox",
    "repository": "kara.moe",
    "tid": "61dbf1a3-66c2-43f2-9557-77ba247cfe5e",
    "types": [
      "authors",
      "6",
      "creators",
      "4"
    ]
  }
}