{
  "header": {
    "description": "Karaoke Mugen Tag File",
    "version": 1
  },
  "tag": {
    "i18n": {
      "eng": "Snow*"
    },
    "name": "Snow*",
    "tid": "41f80cfc-3bcb-4d6f-8157-8149a16026c9",
    "types": [
      "singers",
      "2",
      "songwriters",
      "8"
    ],
    "repository": "kara.moe",
    "modified_at": "2020-03-31T19:04:37.649Z"
  }
}