{
  "header": {
    "description": "Karaoke Mugen Tag File",
    "version": 1
  },
  "tag": {
    "i18n": {
      "eng": "Soichiro Morizumi"
    },
    "name": "Soichiro Morizumi",
    "tid": "1d7a4606-32a6-471a-a8af-569489d8ea78",
    "types": [
      "songwriters",
      "8"
    ],
    "repository": "kara.moe",
    "modified_at": "2020-03-31T19:04:37.652Z"
  }
}