{
  "header": {
    "description": "Karaoke Mugen Tag File",
    "version": 1
  },
  "tag": {
    "i18n": {
      "eng": "Sol/Lull BOB"
    },
    "name": "Sol/Lull BOB",
    "repository": "kara.moe",
    "tid": "2a823cef-e9f6-47b2-b43e-1bc020d385e0",
    "types": [
      "singers",
      "2"
    ]
  }
}