{
  "header": {
    "description": "Karaoke Mugen Tag File",
    "version": 1
  },
  "tag": {
    "i18n": {
      "eng": "Solstate"
    },
    "modified_at": "2021-01-02T16:48:45.456Z",
    "name": "Solstate",
    "repository": "kara.moe",
    "tid": "d8ba0a6f-b664-42e5-b86d-2ec31bbfa705",
    "types": [
      "songwriters",
      "8"
    ]
  }
}