{
  "header": {
    "description": "Karaoke Mugen Tag File",
    "version": 1
  },
  "tag": {
    "i18n": {
      "eng": "Sonic"
    },
    "name": "Sonic",
    "repository": "kara.moe",
    "tid": "d82e04f6-d326-4c77-979c-ac5e3da335f6",
    "types": [
      "franchises",
      "18"
    ]
  }
}