{
  "header": {
    "description": "Karaoke Mugen Tag File",
    "version": 1
  },
  "tag": {
    "i18n": {
      "eng": "Sora Tokui"
    },
    "name": "Sora Tokui",
    "tid": "a1b1a298-ff71-4cda-a407-f1cbdb4f415d",
    "types": [
      "singers",
      "2"
    ],
    "repository": "kara.moe",
    "modified_at": "2020-03-31T19:04:37.668Z"
  }
}