{
  "header": {
    "description": "Karaoke Mugen Tag File",
    "version": 1
  },
  "tag": {
    "aliases": [
      "Lost Property of the Sky",
      "SoraOto",
      "Падшая с Небес: Ангел прихоти",
      "Потерянное небом",
      "Утраченное небесами",
      "天降之物"
    ],
    "external_database_ids": {
      "anilist": 5958,
      "myanimelist": 5958,
      "kitsu": 4363
    },
    "i18n": {
      "eng": "Heaven's Lost Property",
      "fre": "Sora no Otoshimono",
      "jpn": "そらのおとしもの",
      "qro": "Sora no Otoshimono"
    },
    "modified_at": "2020-03-31T19:04:32.790Z",
    "name": "Sora no Otoshimono",
    "repository": "kara.moe",
    "tid": "ac32b677-23ef-4a61-b0d1-95765ad300d0",
    "types": [
      "series",
      "1",
      "franchises",
      "18"
    ]
  }
}