{
  "header": {
    "description": "Karaoke Mugen Tag File",
    "version": 1
  },
  "tag": {
    "aliases": [
      "창궁의 파프너 THE BEYOND",
      "Soukyuu no Fafner: Dead Aggressor - The Beyond",
      "soukyuu"
    ],
    "external_database_ids": {
      "anilist": 98056,
      "myanimelist": 34649,
      "kitsu": 40613
    },
    "i18n": {
      "eng": "Fafner of the Blue Sky: The Beyond",
      "jpn": "蒼穹のファフナー Dead Aggressor THE BEYOND",
      "qro": "Soukyû no Fafner: Dead Aggressor - The Beyond"
    },
    "modified_at": "2021-04-05T15:45:43.465Z",
    "name": "Soukyû no Fafner: Dead Aggressor - The Beyond",
    "repository": "kara.moe",
    "tid": "eb1689e8-6c19-43b2-b750-2431525da2f5",
    "types": [
      "series",
      "1"
    ]
  }
}