{
  "header": {
    "description": "Karaoke Mugen Tag File",
    "version": 1
  },
  "tag": {
    "i18n": {
      "eng": "Soundbreakers"
    },
    "name": "Soundbreakers",
    "tid": "b302c060-31fe-4078-9d26-df27b12b260f",
    "types": [
      "songwriters",
      "8"
    ],
    "repository": "kara.moe",
    "modified_at": "2020-03-31T19:04:37.680Z"
  }
}