{
  "header": {
    "description": "Karaoke Mugen Tag File",
    "version": 1
  },
  "tag": {
    "aliases": [
      "Sounan desu ka",
      "Sounan desuka",
      "sounan"
    ],
    "external_database_ids": {
      "anilist": 108111,
      "myanimelist": 39456,
      "kitsu": 42171
    },
    "i18n": {
      "eng": "Are You Lost?",
      "jpn": "Sônan Desu ka?",
      "qro": "Sônan Desu ka?"
    },
    "modified_at": "2020-03-31T19:04:32.804Z",
    "name": "Sônan Desu ka?",
    "repository": "kara.moe",
    "tid": "e8809dea-8b8c-4131-a088-22329384947e",
    "types": [
      "series",
      "1"
    ]
  }
}