{
  "header": {
    "description": "Karaoke Mugen Tag File",
    "version": 1
  },
  "tag": {
    "i18n": {
      "eng": "Sôtarô Itagaki"
    },
    "name": "Sôtarô Itagaki",
    "tid": "8651cd14-85ae-4abd-a6f0-a32cccb9a503",
    "types": [
      "singers",
      "2"
    ],
    "repository": "kara.moe",
    "modified_at": "2020-03-31T19:04:37.683Z"
  }
}