{
  "header": {
    "description": "Karaoke Mugen Tag File",
    "version": 1
  },
  "tag": {
    "i18n": {
      "eng": "SOX"
    },
    "name": "SOX",
    "tid": "ae9ec323-8758-496d-bf45-5982b91cbb61",
    "types": [
      "singers",
      "2"
    ],
    "repository": "kara.moe",
    "modified_at": "2020-03-31T19:04:37.685Z"
  }
}