{
  "header": {
    "description": "Karaoke Mugen Tag File",
    "version": 1
  },
  "tag": {
    "i18n": {
      "eng": "Soyo Oka"
    },
    "modified_at": "2020-04-29T20:53:06.763Z",
    "name": "Soyo Oka",
    "repository": "kara.moe",
    "tid": "60349366-a084-4c7a-89b5-b501bcccba2c",
    "types": [
      "songwriters",
      "8"
    ]
  }
}