{
  "header": {
    "description": "Karaoke Mugen Tag File",
    "version": 1
  },
  "tag": {
    "aliases": [
      "Космический Денди",
      "Космическото Конте",
      "Космо Денді"
    ],
    "external_database_ids": {
      "anilist": 20057,
      "myanimelist": 20057,
      "kitsu": 7910
    },
    "i18n": {
      "chi": "宇宙浪子",
      "eng": "Space Dandy",
      "fre": "Space Dandy",
      "ger": "Space Dandy",
      "ita": "Space Dandy",
      "jpn": "スペース☆ダンディ",
      "qro": "Space Dandy"
    },
    "modified_at": "2020-03-31T19:04:32.809Z",
    "name": "Space Dandy",
    "repository": "kara.moe",
    "tid": "78f34cf6-00f0-42bd-aae4-4233e6abcaac",
    "types": [
      "series",
      "1"
    ]
  }
}