{
  "header": {
    "description": "Karaoke Mugen Tag File",
    "version": 1
  },
  "tag": {
    "i18n": {
      "eng": "TV Special",
      "fre": "TV Spécial"
    },
    "karafile_tag": "SPECIAL",
    "name": "Special",
    "tid": "65f74288-49a5-47b0-82f5-8cd84d1e3dc0",
    "types": [
      "origins",
      "11"
    ],
    "short": "SPE",
    "repository": "kara.moe",
    "modified_at": "2020-03-31T19:04:37.687Z"
  }
}