{
  "header": {
    "description": "Karaoke Mugen Tag File",
    "version": 1
  },
  "tag": {
    "i18n": {
      "eng": "Spencer Smith"
    },
    "name": "Spencer Smith",
    "repository": "kara.moe",
    "tid": "792c04cd-696b-4788-868a-e21fa6e83b87",
    "types": [
      "songwriters",
      "8"
    ]
  }
}