{
  "header": {
    "description": "Karaoke Mugen Tag File",
    "version": 1
  },
  "tag": {
    "i18n": {
      "eng": "Spinefarm Records"
    },
    "modified_at": "2020-07-05T19:01:07.421Z",
    "name": "Spinefarm Records",
    "repository": "kara.moe",
    "tid": "c1c2e579-aabc-4eae-ad9d-3f319b5de6e3",
    "types": [
      "creators",
      "4"
    ]
  }
}