{
  "header": {
    "description": "Karaoke Mugen Tag File",
    "version": 1
  },
  "tag": {
    "i18n": {
      "eng": "Spotty Len"
    },
    "modified_at": "2021-12-02T12:31:01.669Z",
    "name": "Spotty Len",
    "repository": "kara.moe",
    "tid": "db867b9b-f487-444d-9f24-142c4324a235",
    "types": [
      "authors",
      "6"
    ]
  }
}