{
  "header": {
    "description": "Karaoke Mugen Tag File",
    "version": 1
  },
  "tag": {
    "aliases": [
      "Starry Sky",
      "staska",
      "sutasuka",
      "スタスカ",
      "starry sky"
    ],
    "external_database_ids": {
      "anilist": 7705,
      "myanimelist": 7705,
      "kitsu": 5087
    },
    "i18n": {
      "eng": "Starry☆Sky",
      "jpn": "Starry☆Sky",
      "qro": "Starry☆Sky"
    },
    "modified_at": "2020-03-31T19:04:32.831Z",
    "name": "Starry☆Sky",
    "repository": "kara.moe",
    "tid": "7f516709-a344-4a5c-9dc9-daabaf54a3df",
    "types": [
      "series",
      "1",
      "franchises",
      "18"
    ]
  }
}