{
  "header": {
    "description": "Karaoke Mugen Tag File",
    "version": 1
  },
  "tag": {
    "i18n": {
      "eng": "Star Académie 2009"
    },
    "name": "Star Académie 2009",
    "repository": "kara.moe",
    "tid": "6de5e7a3-f07c-4895-ba7d-93908c2d90bf",
    "types": [
      "singergroups",
      "17"
    ]
  }
}