{
  "header": {
    "description": "Karaoke Mugen Tag File",
    "version": 1
  },
  "tag": {
    "i18n": {
      "eng": "STAR☆PRINCE"
    },
    "name": "STAR☆PRINCE",
    "tid": "cc3ae894-2e8d-4376-ac4b-15e18d43055f",
    "types": [
      "singers",
      "2"
    ],
    "repository": "kara.moe",
    "modified_at": "2020-03-31T19:04:37.706Z"
  }
}