{
  "header": {
    "description": "Karaoke Mugen Tag File",
    "version": 1
  },
  "tag": {
    "i18n": {
      "eng": "Stefano Lucato"
    },
    "name": "Stefano Lucato",
    "tid": "dcb1168b-fa0f-4ab2-9193-9412df757f1e",
    "types": [
      "songwriters",
      "8"
    ],
    "repository": "kara.moe",
    "modified_at": "2020-03-31T19:04:37.713Z"
  }
}