{
  "header": {
    "description": "Karaoke Mugen Tag File",
    "version": 1
  },
  "tag": {
    "i18n": {
      "eng": "Steve Harris"
    },
    "name": "Steve Harris",
    "repository": "kara.moe",
    "tid": "b5a6c7eb-dae6-4695-9693-2c5ac3e59d12",
    "types": [
      "songwriters",
      "8"
    ]
  }
}