{
  "header": {
    "description": "Karaoke Mugen Tag File",
    "version": 1
  },
  "tag": {
    "i18n": {
      "eng": "Stevie Aiello"
    },
    "name": "Stevie Aiello",
    "repository": "kara.moe",
    "tid": "4e0206cd-1311-4e78-bc99-2d8f95e11075",
    "types": [
      "songwriters",
      "8"
    ]
  }
}