{
  "header": {
    "description": "Karaoke Mugen Tag File",
    "version": 1
  },
  "tag": {
    "i18n": {
      "eng": "Still Small Voice"
    },
    "name": "Still Small Voice",
    "tid": "ccf72512-b56b-4ef8-a1b3-3c4161c6ff72",
    "types": [
      "singers",
      "2"
    ],
    "repository": "kara.moe",
    "modified_at": "2020-03-31T19:04:37.726Z"
  }
}