{
  "header": {
    "description": "Karaoke Mugen Tag File",
    "version": 1
  },
  "tag": {
    "i18n": {
      "eng": "StormRedDesert"
    },
    "modified_at": "2020-07-03T22:11:39.152Z",
    "name": "StormRedDesert",
    "repository": "kara.moe",
    "tid": "8bf2411a-30c6-41a8-a831-fbb93f9021cf",
    "types": [
      "creators",
      "4"
    ]
  }
}