{
  "header": {
    "description": "Karaoke Mugen Tag File",
    "version": 1
  },
  "tag": {
    "external_database_ids": {
      "anilist": 3086,
      "myanimelist": 3086,
      "kitsu": 2782
    },
    "i18n": {
      "eng": "Strait Jacket",
      "jpn": "ストレイト・ジャケット",
      "qro": "Strait Jacket"
    },
    "modified_at": "2020-03-31T19:04:32.837Z",
    "name": "Strait Jacket",
    "repository": "kara.moe",
    "tid": "aaba6c76-133f-49ff-90cb-7a805c42c862",
    "types": [
      "series",
      "1"
    ]
  }
}