{
  "header": {
    "description": "Karaoke Mugen Tag File",
    "version": 1
  },
  "tag": {
    "aliases": [
      "Strange +"
    ],
    "external_database_ids": {
      "anilist": 20490,
      "myanimelist": 21067,
      "kitsu": 8099
    },
    "i18n": {
      "eng": "Strange+",
      "jpn": "ストレンジ・プラス",
      "qro": "Strange Plus"
    },
    "modified_at": "2020-06-21T23:45:31.966Z",
    "name": "Strange Plus",
    "repository": "kara.moe",
    "tid": "2fe5162b-dca8-4f4e-8cf3-f95ac0b49645",
    "types": [
      "series",
      "1"
    ]
  }
}