{
  "header": {
    "description": "Karaoke Mugen Tag File",
    "version": 1
  },
  "tag": {
    "i18n": {
      "eng": "Studio e.go!"
    },
    "name": "Studio e.go!",
    "tid": "a6ebe1dc-d0a2-4cfd-b7a0-ae0a92b8110b",
    "types": [
      "creators",
      "4"
    ],
    "repository": "kara.moe",
    "modified_at": "2020-03-31T19:04:37.738Z"
  }
}