{
  "header": {
    "description": "Karaoke Mugen Tag File",
    "version": 1
  },
  "tag": {
    "i18n": {
      "eng": "Studio Miris"
    },
    "name": "Studio Miris",
    "tid": "d2b6d882-7ed9-482d-b7b7-c649d754fc54",
    "types": [
      "creators",
      "4"
    ],
    "repository": "kara.moe",
    "modified_at": "2020-03-31T19:04:37.744Z"
  }
}