{
  "header": {
    "description": "Karaoke Mugen Tag File",
    "version": 1
  },
  "tag": {
    "i18n": {
      "eng": "Studio Matrix"
    },
    "name": "Studio Matrix",
    "tid": "3c8e31d4-ab72-40f9-b143-21200a47577b",
    "types": [
      "creators",
      "4"
    ],
    "repository": "kara.moe",
    "modified_at": "2020-03-31T19:04:37.743Z"
  }
}