{
  "header": {
    "description": "Karaoke Mugen Tag File",
    "version": 1
  },
  "tag": {
    "i18n": {
      "eng": "Studio SEK"
    },
    "name": "Studio SEK",
    "tid": "1390d524-13f1-47d8-bb16-db8bb6f5e01b",
    "types": [
      "creators",
      "4"
    ],
    "repository": "kara.moe",
    "modified_at": "2020-03-31T19:04:37.749Z"
  }
}