{
  "header": {
    "description": "Karaoke Mugen Tag File",
    "version": 1
  },
  "tag": {
    "i18n": {
      "eng": "STY"
    },
    "name": "STY",
    "tid": "12084c48-467c-432b-a10f-a56894e0a9e6",
    "types": [
      "songwriters",
      "8"
    ],
    "repository": "kara.moe",
    "modified_at": "2020-03-31T19:04:37.754Z"
  }
}