{
  "header": {
    "description": "Karaoke Mugen Tag File",
    "version": 1
  },
  "tag": {
    "i18n": {
      "eng": "Su Suzumi",
      "qro": "Su Suzumi",
      "jpn": "涼海 すう"
    },
    "name": "Su Suzumi",
    "repository": "kara.moe",
    "tid": "b66a6b91-4315-435a-8e6b-079e1cbe36c1",
    "types": [
      "singers",
      "2"
    ]
  }
}