{
  "header": {
    "description": "Karaoke Mugen Tag File",
    "version": 1
  },
  "tag": {
    "i18n": {
      "eng": "Sud"
    },
    "name": "Sud",
    "tid": "6b5c5d38-22b9-4aa1-867d-c9ec27326244",
    "types": [
      "authors",
      "6"
    ],
    "repository": "kara.moe",
    "modified_at": "2020-03-31T19:04:37.759Z"
  }
}