{
  "header": {
    "description": "Karaoke Mugen Tag File",
    "version": 1
  },
  "tag": {
    "i18n": {
      "eng": "Sugar Lover"
    },
    "name": "Sugar Lover",
    "tid": "32ba9ad7-cc0b-4348-85ee-af9d5877dc5a",
    "types": [
      "songwriters",
      "8"
    ],
    "repository": "kara.moe",
    "modified_at": "2020-03-31T19:04:37.762Z"
  }
}