{
  "header": {
    "description": "Karaoke Mugen Tag File",
    "version": 1
  },
  "tag": {
    "aliases": [
      "Confess Your Love Committee",
      "HoneyWorks",
      "Suki ni Naru Sono Shunkan wo.: Kokuhaku Jikkou Iinkai",
      "jikkou"
    ],
    "external_database_ids": {
      "anilist": 21757,
      "myanimelist": 33036,
      "kitsu": 12001
    },
    "i18n": {
      "eng": "The Moment You Fall in Love",
      "jpn": "好きになるその瞬間を。～告白実行委員会～",
      "qro": "Suki ni Naru Sono Shunkan wo.: Kokuhaku Jikkô Iinkai"
    },
    "modified_at": "2020-03-31T19:04:32.847Z",
    "name": "Suki ni Naru Sono Shunkan wo.: Kokuhaku Jikkô Iinkai",
    "repository": "kara.moe",
    "tid": "c7c63c39-9ae2-43f6-b6e7-5f528afaa5f3",
    "types": [
      "series",
      "1"
    ]
  }
}