{
  "header": {
    "description": "Karaoke Mugen Tag File",
    "version": 1
  },
  "tag": {
    "i18n": {
      "eng": "sumijun"
    },
    "name": "sumijun",
    "repository": "kara.moe",
    "tid": "c281867c-0bae-4894-9744-d15e16d872c2",
    "types": [
      "songwriters",
      "8"
    ]
  }
}