{
  "header": {
    "description": "Karaoke Mugen Tag File",
    "version": 1
  },
  "tag": {
    "i18n": {
      "eng": "Sumire Shirobara"
    },
    "modified_at": "2020-11-15T20:57:38.719Z",
    "name": "Sumire Shirobara",
    "repository": "kara.moe",
    "tid": "ff647ac5-19fa-4cc0-a5a1-2f5ee6dd721f",
    "types": [
      "songwriters",
      "8"
    ]
  }
}