{
  "header": {
    "description": "Karaoke Mugen Tag File",
    "version": 1
  },
  "tag": {
    "i18n": {
      "eng": "Sumi Tomomi Jiena"
    },
    "modified_at": "2021-05-10T15:35:09.464Z",
    "name": "Sumi Tomomi Jiena",
    "repository": "kara.moe",
    "tid": "e53db9de-5632-41d6-8911-afb2f27545b0",
    "types": [
      "singers",
      "2"
    ]
  }
}