{
  "header": {
    "description": "Karaoke Mugen Tag File",
    "version": 1
  },
  "tag": {
    "i18n": {
      "eng": "Sun & Lunar"
    },
    "name": "Sun & Lunar",
    "tid": "4fd9d1ce-0ec6-41bd-9d8d-357b2f5ad6ca",
    "types": [
      "singers",
      "2"
    ],
    "repository": "kara.moe",
    "modified_at": "2020-03-31T19:04:37.773Z"
  }
}