{
  "header": {
    "description": "Karaoke Mugen Tag File",
    "version": 1
  },
  "tag": {
    "i18n": {
      "eng": "sunny"
    },
    "name": "sunny",
    "tid": "4cb15392-235c-4cc0-bfee-8b790dc8385a",
    "types": [
      "songwriters",
      "8"
    ],
    "repository": "kara.moe",
    "modified_at": "2020-03-31T19:04:37.777Z"
  }
}