{
  "header": {
    "description": "Karaoke Mugen Tag File",
    "version": 1
  },
  "tag": {
    "i18n": {
      "eng": "SunnyHill"
    },
    "name": "SunnyHill",
    "tid": "af677449-7628-46d1-bfed-cf9418fb302a",
    "types": [
      "songwriters",
      "8"
    ],
    "repository": "kara.moe",
    "modified_at": "2020-03-31T19:04:37.778Z"
  }
}