{
  "header": {
    "description": "Karaoke Mugen Tag File",
    "version": 1
  },
  "tag": {
    "aliases": [
      "スーパーラヴァーズ"
    ],
    "external_database_ids": {
      "anilist": 21177,
      "myanimelist": 31680,
      "kitsu": 11485
    },
    "i18n": {
      "eng": "Super Lovers",
      "jpn": "SUPER LOVERS",
      "qro": "Super Lovers"
    },
    "modified_at": "2020-03-31T19:04:32.854Z",
    "name": "Super Lovers",
    "repository": "kara.moe",
    "tid": "012b7980-24b0-4c86-87e1-7c5b82ae25ed",
    "types": [
      "series",
      "1",
      "franchises",
      "18"
    ]
  }
}