{
  "header": {
    "description": "Karaoke Mugen Tag File",
    "version": 1
  },
  "tag": {
    "i18n": {
      "eng": "Super Mario Odyssey",
      "jpn": "スーパーマリオ オデッセイ",
      "qro": "Super Mario Odyssey"
    },
    "modified_at": "2020-03-31T19:04:32.854Z",
    "name": "Super Mario Odyssey",
    "repository": "kara.moe",
    "tid": "1c6f7781-c8c7-40ac-9901-07f910d5c12c",
    "types": [
      "series",
      "1"
    ]
  }
}