{
  "header": {
    "description": "Karaoke Mugen Tag File",
    "version": 1
  },
  "tag": {
    "aliases": [
      "Super Nintendo Entertainment System",
      "SNES"
    ],
    "i18n": {
      "eng": "Super Nintendo",
      "jpn": "スーパーファミコン",
      "qro": "Super Famicom"
    },
    "karafile_tag": "SNES",
    "name": "Super Nintendo",
    "repository": "kara.moe",
    "short": "SNES",
    "tid": "b48e6d3d-232e-47e0-be87-e54a1051a764",
    "types": [
      "platforms",
      "13"
    ]
  }
}