{
  "header": {
    "description": "Karaoke Mugen Tag File",
    "version": 1
  },
  "tag": {
    "i18n": {
      "eng": "Superobots"
    },
    "name": "Superobots",
    "tid": "9ee44338-7b5e-4252-acba-f5d8891d0e2f",
    "types": [
      "singers",
      "2"
    ],
    "repository": "kara.moe",
    "modified_at": "2020-03-31T19:04:37.785Z"
  }
}