{
  "header": {
    "description": "Karaoke Mugen Tag File",
    "version": 1
  },
  "tag": {
    "i18n": {
      "eng": "Susumu Nishikawa",
      "jpn": "西川 進"
    },
    "name": "Susumu Nishikawa",
    "repository": "kara.moe",
    "tid": "f3d45e14-6a3b-491d-9d39-a9ba7b52cd36",
    "types": [
      "songwriters",
      "8"
    ]
  }
}