{
  "header": {
    "description": "Karaoke Mugen Tag File",
    "version": 1
  },
  "tag": {
    "aliases": [
      "A Melancolia de Suzumiya Haruhi-chan",
      "Melancholia Haruhi Suzumiyi-chan",
      "Suzumiya Haruhi-chan no Yuutsu",
      "Suzumiya Haruhi-chan no Yuuutsu",
      "كآبة هاروهي تشان سوزوميا",
      "小凉宫春日的忧郁",
      "yuuutsu"
    ],
    "external_database_ids": {
      "anilist": 5118,
      "myanimelist": 5118,
      "kitsu": 3939
    },
    "i18n": {
      "eng": "The Melancholy of Haruhi-chan Suzumiya",
      "fre": "La Mélancolie de Mini Haruhi",
      "jpn": "涼宮ハルヒちゃんの憂鬱",
      "kor": "스즈미야 하루히짱의 우울",
      "qro": "Suzumiya Haruhi-chan no Yûutsu"
    },
    "modified_at": "2020-06-21T23:45:31.966Z",
    "name": "Suzumiya Haruhi-chan no Yûutsu",
    "repository": "kara.moe",
    "tid": "82482bd4-06d6-4605-85b0-41fe5831a44a",
    "types": [
      "series",
      "1"
    ]
  }
}