{
  "header": {
    "description": "Karaoke Mugen Tag File",
    "version": 1
  },
  "tag": {
    "i18n": {
      "eng": "Nintendo Switch"
    },
    "karafile_tag": "SWITCH",
    "name": "Switch",
    "tid": "0a880bfc-d0e5-448b-98d2-4ba7b3106641",
    "types": [
      "platforms",
      "13"
    ],
    "short": "SWI",
    "repository": "kara.moe",
    "modified_at": "2020-03-31T19:04:37.807Z"
  }
}