{
  "header": {
    "description": "Karaoke Mugen Tag File",
    "version": 1
  },
  "tag": {
    "aliases": [
      "SAO 3 WoU"
    ],
    "external_database_ids": {
      "anilist": 108759,
      "myanimelist": 39597,
      "kitsu": 42213
    },
    "i18n": {
      "chi": "刀劍神域 Alicization War of Underworld",
      "eng": "Sword Art Online: Alicization ‒ War of Underworld",
      "jpn": "ソードアート・オンライン アリシゼーション War of Underworld",
      "qro": "Sword Art Online Alicization - War of Underworld"
    },
    "modified_at": "2020-07-26T15:29:41.642Z",
    "name": "Sword Art Online Alicization - War of Underworld",
    "repository": "kara.moe",
    "tid": "5d2723a2-92e3-428b-b331-13186bbdc65f",
    "types": [
      "series",
      "1"
    ]
  }
}