{
  "header": {
    "description": "Karaoke Mugen Tag File",
    "version": 1
  },
  "tag": {
    "i18n": {
      "eng": "Syotarô Seo"
    },
    "name": "Syotarô Seo",
    "tid": "229f344a-25e5-4ef8-8b83-c45ede27ab7a",
    "types": [
      "singers",
      "2"
    ],
    "repository": "kara.moe",
    "modified_at": "2020-03-31T19:04:37.811Z"
  }
}