{
  "header": {
    "description": "Karaoke Mugen Tag File",
    "version": 1
  },
  "tag": {
    "i18n": {
      "eng": "TABO"
    },
    "name": "TABO",
    "tid": "b2f9b493-0cd8-48df-b381-c65ad6e89c29",
    "types": [
      "songwriters",
      "8"
    ],
    "repository": "kara.moe",
    "modified_at": "2020-03-31T19:04:37.819Z"
  }
}