{
  "header": {
    "description": "Karaoke Mugen Tag File",
    "version": 1
  },
  "tag": {
    "i18n": {
      "eng": "TACHYON"
    },
    "name": "TACHYON",
    "repository": "kara.moe",
    "tid": "82ed2569-0079-4a8a-b442-83ab41101346",
    "types": [
      "authors",
      "6"
    ]
  }
}