{
  "header": {
    "description": "Karaoke Mugen Tag File",
    "version": 1
  },
  "tag": {
    "i18n": {
      "eng": "Tae Urakabe"
    },
    "name": "Tae Urakabe",
    "tid": "89b8bb43-69e7-449f-bc18-94274d84fa75",
    "types": [
      "singers",
      "2"
    ],
    "repository": "kara.moe",
    "modified_at": "2020-03-31T19:04:37.826Z"
  }
}