{
  "header": {
    "description": "Karaoke Mugen Tag File",
    "version": 1
  },
  "tag": {
    "i18n": {
      "eng": "Taeyang"
    },
    "name": "Taeyang",
    "tid": "028c6776-15c0-4e2e-911d-093a7ca2ba20",
    "types": [
      "singers",
      "2"
    ],
    "repository": "kara.moe",
    "modified_at": "2020-03-31T19:04:37.829Z"
  }
}