{
  "header": {
    "description": "Karaoke Mugen Tag File",
    "version": 1
  },
  "tag": {
    "i18n": {
      "eng": "Taiiku Okazaki"
    },
    "name": "Taiiku Okazaki",
    "tid": "1d147b75-1810-451d-add6-7e7eba23a624",
    "types": [
      "singers",
      "2",
      "songwriters",
      "8"
    ],
    "repository": "kara.moe",
    "modified_at": "2020-03-31T19:04:37.834Z"
  }
}