{
  "header": {
    "description": "Karaoke Mugen Tag File",
    "version": 1
  },
  "tag": {
    "aliases": [
      "Taishou",
      "対アリ",
      "TaiAli",
      "TXA"
    ],
    "i18n": {
      "chi": "大正×对称爱丽丝",
      "eng": "TAISHO x ALICE",
      "jpn": "大正×対称アリス",
      "qro": "Taishô x Alice"
    },
    "name": "Taishô x Alice",
    "repository": "kara.moe",
    "tid": "1488db78-b71c-435d-a146-394d95bbae6d",
    "types": [
      "series",
      "1"
    ]
  }
}