{
  "header": {
    "description": "Karaoke Mugen Tag File",
    "version": 1
  },
  "tag": {
    "aliases": [
      "Taishou"
    ],
    "i18n": {
      "chi": "大正×对称爱丽丝",
      "eng": "Taishô x Alice",
      "jpn": "大正×対称アリス",
      "qro": "Taishô x Alice"
    },
    "name": "Taishô x Alice",
    "repository": "kara.moe",
    "tid": "84dac0a7-6eb4-4be8-a779-66e8d6c0ca75",
    "types": [
      "franchises",
      "18"
    ]
  }
}