{
  "header": {
    "description": "Karaoke Mugen Tag File",
    "version": 1
  },
  "tag": {
    "aliases": [
      "Dogram",
      "Taiyou no Kiba Dagram",
      "Taiyô no Kiba Dagram",
      "Tayou no Kiba Dagram",
      "Tayou no Kiba Dougram",
      "taiyou"
    ],
    "external_database_ids": {
      "anilist": 2257,
      "myanimelist": 2257,
      "kitsu": 2045
    },
    "i18n": {
      "eng": "Fang of the Sun Dougram",
      "jpn": "太陽の牙ダグラム",
      "qro": "Taiyô no Kiba Dougram"
    },
    "modified_at": "2020-03-31T19:04:32.880Z",
    "name": "Taiyô no Kiba Dougram",
    "repository": "kara.moe",
    "tid": "338b21cc-25b8-4568-96d1-c9df273edd75",
    "types": [
      "series",
      "1"
    ]
  }
}