{
  "header": {
    "description": "Karaoke Mugen Tag File",
    "version": 1
  },
  "tag": {
    "i18n": {
      "eng": "TAKAROT"
    },
    "name": "TAKAROT",
    "tid": "d4ad9897-5bcb-4474-aa6d-47a902bd2ff0",
    "types": [
      "songwriters",
      "8"
    ],
    "repository": "kara.moe",
    "modified_at": "2020-03-31T19:04:37.884Z"
  }
}