{
  "header": {
    "description": "Karaoke Mugen Tag File",
    "version": 1
  },
  "tag": {
    "i18n": {
      "eng": "Takami Asano"
    },
    "modified_at": "2021-02-08T19:27:59.371Z",
    "name": "Takami Asano",
    "repository": "kara.moe",
    "tid": "f87e9a45-e7c9-4e2e-ab29-9d99b6ea7848",
    "types": [
      "songwriters",
      "8"
    ]
  }
}