{
  "header": {
    "description": "Karaoke Mugen Tag File",
    "version": 1
  },
  "tag": {
    "i18n": {
      "eng": "Takashi Gen'ôzono"
    },
    "name": "Takashi Gen'ôzono",
    "tid": "ab9716b9-bb65-4a34-a9eb-3503c09cd056",
    "types": [
      "songwriters",
      "8"
    ],
    "repository": "kara.moe",
    "modified_at": "2020-03-31T19:04:37.886Z"
  }
}