{
  "header": {
    "description": "Karaoke Mugen Tag File",
    "version": 1
  },
  "tag": {
    "i18n": {
      "eng": "Takao Kawada"
    },
    "name": "Takao Kawada",
    "tid": "e9ecf976-90f3-4139-b85e-6d7d2451df6a",
    "types": [
      "songwriters",
      "8"
    ],
    "repository": "kara.moe",
    "modified_at": "2020-03-31T19:04:37.877Z"
  }
}