{
  "header": {
    "description": "Karaoke Mugen Tag File",
    "version": 1
  },
  "tag": {
    "i18n": {
      "eng": "Takako Noda"
    },
    "name": "Takako Noda",
    "tid": "aa91a799-5c62-4dc1-ae2f-855cc63324d3",
    "types": [
      "singers",
      "2"
    ],
    "repository": "kara.moe",
    "modified_at": "2020-03-31T19:04:37.866Z"
  }
}