{
  "header": {
    "description": "Karaoke Mugen Tag File",
    "version": 1
  },
  "tag": {
    "i18n": {
      "eng": "Takaaki Mukai"
    },
    "name": "Takaaki Mukai",
    "tid": "1c0f9957-b4df-429b-a474-a4ff575bf29a",
    "types": [
      "songwriters",
      "8"
    ],
    "repository": "kara.moe",
    "modified_at": "2020-03-31T19:04:37.843Z"
  }
}