{
  "header": {
    "description": "Karaoke Mugen Tag File",
    "version": 1
  },
  "tag": {
    "i18n": {
      "eng": "Takahiro Yamada",
      "jpn": "山田 高弘",
      "qro": "Takahiro Yamada"
    },
    "name": "Takahiro Yamada",
    "repository": "kara.moe",
    "tid": "1f556f0c-f8a6-43c1-aa60-453b54a074fa",
    "types": [
      "songwriters",
      "8"
    ]
  }
}