{
  "header": {
    "description": "Karaoke Mugen Tag File",
    "version": 1
  },
  "tag": {
    "i18n": {
      "eng": "Takanori Kishikawa"
    },
    "name": "Takanori Kishikawa",
    "tid": "3389617d-eda7-413c-8e04-e36872b26e5c",
    "types": [
      "songwriters",
      "8"
    ],
    "repository": "kara.moe",
    "modified_at": "2020-03-31T19:04:37.875Z"
  }
}