{
  "header": {
    "description": "Karaoke Mugen Tag File",
    "version": 1
  },
  "tag": {
    "i18n": {
      "eng": "Takashi Tsushimi"
    },
    "name": "Takashi Tsushimi",
    "tid": "74b01a85-ff5f-450a-b759-de1c852ae4b8",
    "types": [
      "songwriters",
      "8"
    ],
    "repository": "kara.moe",
    "modified_at": "2020-03-31T19:04:37.896Z"
  }
}