{
  "header": {
    "description": "Karaoke Mugen Tag File",
    "version": 1
  },
  "tag": {
    "i18n": {
      "eng": "Takashi Kondô",
      "jpn": "近藤隆史"
    },
    "name": "Takashi Kondô",
    "repository": "kara.moe",
    "tid": "cd95df4f-fc6c-414a-b9be-d5515d70e08d",
    "types": [
      "songwriters",
      "8"
    ]
  }
}