{
  "header": {
    "description": "Karaoke Mugen Tag File",
    "version": 1
  },
  "tag": {
    "i18n": {
      "eng": "Takahiko Matsumura"
    },
    "name": "Takahiko Matsumura",
    "tid": "8f926a88-8460-4245-a7af-6e093d470466",
    "types": [
      "songwriters",
      "8"
    ],
    "repository": "kara.moe",
    "modified_at": "2020-03-31T19:04:37.853Z"
  }
}