{
  "header": {
    "description": "Karaoke Mugen Tag File",
    "version": 1
  },
  "tag": {
    "i18n": {
      "eng": "Takeshi Hayama",
      "jpn": "葉山たけし"
    },
    "modified_at": "2021-09-13T17:12:39.653Z",
    "name": "Takeshi Hayama",
    "repository": "kara.moe",
    "tid": "4766a18a-c8d7-448b-a209-72e403084c57",
    "types": [
      "songwriters",
      "8"
    ]
  }
}