{
  "header": {
    "description": "Karaoke Mugen Tag File",
    "version": 1
  },
  "tag": {
    "i18n": {
      "eng": "Takeshi Watanabe"
    },
    "name": "Takeshi Watanabe",
    "tid": "9de49496-d5bf-49d2-9648-53d970754dba",
    "types": [
      "songwriters",
      "8"
    ],
    "repository": "kara.moe",
    "modified_at": "2020-03-31T19:04:37.941Z"
  }
}