{
  "header": {
    "description": "Karaoke Mugen Tag File",
    "version": 1
  },
  "tag": {
    "i18n": {
      "eng": "Takehiro Oota"
    },
    "name": "Takehiro Oota",
    "tid": "c919e023-d3f3-45ee-8b4a-66c572c161de",
    "types": [
      "songwriters",
      "8"
    ],
    "repository": "kara.moe",
    "modified_at": "2020-03-31T19:04:37.916Z"
  }
}