{
  "header": {
    "description": "Karaoke Mugen Tag File",
    "version": 1
  },
  "tag": {
    "i18n": {
      "eng": "Takeo Ischi"
    },
    "name": "Takeo Ischi",
    "repository": "kara.moe",
    "tid": "b6f1c262-2d59-45ab-8566-8a8e78e16473",
    "types": [
      "singers",
      "2"
    ],
    "modified_at": "2020-03-31T19:04:37.920Z"
  }
}