{
  "header": {
    "description": "Karaoke Mugen Tag File",
    "version": 1
  },
  "tag": {
    "aliases": [
      "Takeshi Saitou",
      "saitou"
    ],
    "i18n": {
      "eng": "Takeshi Saitô",
      "jpn": "斎藤洸",
      "qro": "Takeshi Saitô"
    },
    "name": "Takeshi Saitô",
    "repository": "kara.moe",
    "tid": "1546dfee-9aa7-43f1-bb4d-99fe1aa4be6b",
    "types": [
      "singers",
      "2",
      "songwriters",
      "8"
    ]
  }
}