{
  "header": {
    "description": "Karaoke Mugen Tag File",
    "version": 1
  },
  "tag": {
    "i18n": {
      "eng": "Taku Iwasaki"
    },
    "name": "Taku Iwasaki",
    "tid": "ed6d2d3d-0f06-49b4-a5b0-16285bb4030b",
    "types": [
      "singers",
      "2",
      "songwriters",
      "8"
    ],
    "repository": "kara.moe",
    "modified_at": "2020-03-31T19:04:37.949Z"
  }
}