{
  "header": {
    "description": "Karaoke Mugen Tag File",
    "version": 1
  },
  "tag": {
    "i18n": {
      "eng": "Takuya Oohata"
    },
    "name": "Takuya Oohata",
    "tid": "088380e6-73eb-48a3-8e12-81d3934029af",
    "types": [
      "songwriters",
      "8"
    ],
    "repository": "kara.moe",
    "modified_at": "2020-03-31T19:04:37.970Z"
  }
}