{
  "header": {
    "description": "Karaoke Mugen Tag File",
    "version": 1
  },
  "tag": {
    "i18n": {
      "eng": "Takuya Yashiro"
    },
    "name": "Takuya Yashiro",
    "repository": "kara.moe",
    "tid": "4a6d1fe0-3652-4749-a6c2-28662c5ed752",
    "types": [
      "singers",
      "2"
    ]
  }
}