{
  "header": {
    "description": "Karaoke Mugen Tag File",
    "version": 1
  },
  "tag": {
    "i18n": {
      "eng": "Takuya Oohashi"
    },
    "name": "Takuya Oohashi",
    "tid": "c47b085b-a7f2-4962-a2bc-af59d4e59ee7",
    "types": [
      "songwriters",
      "8"
    ],
    "repository": "kara.moe",
    "modified_at": "2020-03-31T19:04:37.970Z"
  }
}