{
  "header": {
    "description": "Karaoke Mugen Tag File",
    "version": 1
  },
  "tag": {
    "i18n": {
      "eng": "takuya (Antic Cafe)"
    },
    "name": "takuya (Antic Cafe)",
    "tid": "0d2b535f-2cf1-450c-bbda-c98328299139",
    "types": [
      "songwriters",
      "8"
    ],
    "repository": "kara.moe",
    "modified_at": "2020-03-31T19:04:37.966Z"
  }
}