{
  "header": {
    "description": "Karaoke Mugen Tag File",
    "version": 1
  },
  "tag": {
    "i18n": {
      "eng": "Takuya Eguchi"
    },
    "name": "Takuya Eguchi",
    "tid": "7b2309a3-647f-4e4e-9c18-354e4f479a54",
    "types": [
      "singers",
      "2"
    ],
    "repository": "kara.moe",
    "modified_at": "2020-03-31T19:04:37.968Z"
  }
}