{
  "header": {
    "description": "Karaoke Mugen Tag File",
    "version": 1
  },
  "tag": {
    "i18n": {
      "eng": "Taku"
    },
    "modified_at": "2020-07-26T19:31:38.986Z",
    "name": "Taku",
    "repository": "kara.moe",
    "tid": "6a8e3104-80eb-4a10-ac04-7ebb62dca9c7",
    "types": [
      "songwriters",
      "8"
    ]
  }
}