{
  "header": {
    "description": "Karaoke Mugen Tag File",
    "version": 1
  },
  "tag": {
    "i18n": {
      "eng": "TAKURO"
    },
    "name": "TAKURO",
    "tid": "5e8891d8-e859-4836-89f6-e3719724db85",
    "types": [
      "songwriters",
      "8"
    ],
    "repository": "kara.moe",
    "modified_at": "2020-03-31T19:04:37.961Z"
  }
}