{
  "header": {
    "description": "Karaoke Mugen Tag File",
    "version": 1
  },
  "tag": {
    "aliases": [
      "Drinking at Home."
    ],
    "external_database_ids": {
      "anilist": 99753,
      "myanimelist": 36108,
      "kitsu": 13992
    },
    "i18n": {
      "eng": "Takunomi",
      "jpn": "たくのみ.",
      "kor": "집에서 한 잔",
      "qro": "Takunomi."
    },
    "modified_at": "2020-03-31T19:04:32.884Z",
    "name": "Takunomi.",
    "repository": "kara.moe",
    "tid": "d770a4ae-ae2b-419d-b16a-fef4259a838a",
    "types": [
      "series",
      "1"
    ]
  }
}