{
  "header": {
    "description": "Karaoke Mugen Tag File",
    "version": 1
  },
  "tag": {
    "i18n": {
      "eng": "Takurô Tamura"
    },
    "name": "Takurô Tamura",
    "tid": "775ea970-67a7-4edd-8664-5724b4dcf399",
    "types": [
      "songwriters",
      "8"
    ],
    "repository": "kara.moe",
    "modified_at": "2020-03-31T19:04:37.963Z"
  }
}