{
  "header": {
    "description": "Karaoke Mugen Tag File",
    "version": 1
  },
  "tag": {
    "aliases": [
      "ToS"
    ],
    "i18n": {
      "eng": "Tales of Symphonia",
      "jpn": "テイルズ オブ シンフォニア",
      "qro": "Tales of Symphonia"
    },
    "modified_at": "2020-03-31T19:04:32.894Z",
    "name": "Tales of Symphonia",
    "repository": "kara.moe",
    "tid": "d8db55c4-fbb0-4f89-a753-59b7c5194396",
    "types": [
      "series",
      "1"
    ]
  }
}