{
  "header": {
    "description": "Karaoke Mugen Tag File",
    "version": 1
  },
  "tag": {
    "i18n": {
      "eng": "Tales of Berseria",
      "jpn": "テイルズ オブ ベルセリア",
      "qro": "Tales of Berseria"
    },
    "modified_at": "2020-03-31T19:04:32.885Z",
    "name": "Tales of Berseria",
    "repository": "kara.moe",
    "tid": "aee07bcd-6247-4bf9-a042-593b18aeb231",
    "types": [
      "series",
      "1"
    ]
  }
}