{
  "header": {
    "description": "Karaoke Mugen Tag File",
    "version": 1
  },
  "tag": {
    "aliases": [
      "ToL"
    ],
    "i18n": {
      "eng": "Tales of Legendia",
      "jpn": "テイルズ オブ レジェンディア",
      "qro": "Tales of Legendia"
    },
    "modified_at": "2020-03-31T19:04:32.890Z",
    "name": "Tales of Legendia",
    "repository": "kara.moe",
    "tid": "c25ccd4b-1ed8-4468-a280-be321082a81e",
    "types": [
      "series",
      "1"
    ]
  }
}