{
  "header": {
    "description": "Karaoke Mugen Tag File",
    "version": 1
  },
  "tag": {
    "i18n": {
      "eng": "Tang Tian"
    },
    "name": "Tang Tian",
    "repository": "kara.moe",
    "tid": "99b50e22-0985-4da7-bbda-20d81a2be501",
    "types": [
      "songwriters",
      "8"
    ]
  }
}