{
  "header": {
    "description": "Karaoke Mugen Tag File",
    "version": 1
  },
  "tag": {
    "aliases": [
      "Tatakae! Chou Robot Seimeitai Transformers Victory",
      "Transformers V",
      "chou"
    ],
    "external_database_ids": {
      "anilist": 926,
      "myanimelist": 926,
      "kitsu": 824
    },
    "i18n": {
      "eng": "Transformers Victory",
      "jpn": "戦え! 超ロボット生命体トランスフォーマーV[ビクトリー]",
      "qro": "Tatakae! Chô Robot Seimeitai Transformers Victory"
    },
    "modified_at": "2020-03-31T19:04:32.910Z",
    "name": "Tatakae! Chô Robot Seimeitai Transformers Victory",
    "repository": "kara.moe",
    "tid": "cf88387f-591e-4335-94d5-b7751cd71534",
    "types": [
      "series",
      "1"
    ]
  }
}