{
  "header": {
    "description": "Karaoke Mugen Tag File",
    "version": 1
  },
  "tag": {
    "i18n": {
      "eng": "The Rising of the Shield Hero Season 2",
      "jpn": "盾の勇者の成り上がり Season2 ",
      "qro": "Tate no Yuusha no Nariagari 2nd Season"
    },
    "name": "Tate no Yuusha no Nariagari 2nd Season ",
    "repository": "kara.moe",
    "tid": "c7c6c21e-3e1c-41db-b0ba-09543ae768c9",
    "types": [
      "series",
      "1"
    ]
  }
}