{
  "header": {
    "description": "Karaoke Mugen Tag File",
    "version": 1
  },
  "tag": {
    "i18n": {
      "eng": "Tatsuya Kitadani"
    },
    "modified_at": "2021-09-02T22:08:18.466Z",
    "name": "Tatsuya Kitadani",
    "repository": "kara.moe",
    "tid": "58198589-4c3c-4d4a-8b4b-d8dc1c2ff6a2",
    "types": [
      "singers",
      "2"
    ]
  }
}