{
  "header": {
    "description": "Karaoke Mugen Tag File",
    "version": 1
  },
  "tag": {
    "i18n": {
      "eng": "Tatsurô Yamashita"
    },
    "name": "Tatsurô Yamashita",
    "tid": "0e220378-a030-4fdd-83e7-ee81747ba4d7",
    "types": [
      "singers",
      "2",
      "songwriters",
      "8"
    ],
    "repository": "kara.moe",
    "modified_at": "2020-03-31T19:04:38.010Z"
  }
}