{
  "header": {
    "description": "Karaoke Mugen Tag File",
    "version": 1
  },
  "tag": {
    "aliases": [
      "Hifumi,inc."
    ],
    "i18n": {
      "eng": "Tatsuya Takahashi"
    },
    "name": "Tatsuya Takahashi",
    "repository": "kara.moe",
    "tid": "fe0208d8-41c7-4521-b90c-ca1eec205256",
    "types": [
      "songwriters",
      "8"
    ]
  }
}