{
  "header": {
    "description": "Karaoke Mugen Tag File",
    "version": 1
  },
  "tag": {
    "i18n": {
      "eng": "Tatsuya Nishikawa"
    },
    "name": "Tatsuya Nishikawa",
    "tid": "761aa6b1-d611-4cc8-92fc-0d81478c2960",
    "types": [
      "songwriters",
      "8"
    ],
    "repository": "kara.moe",
    "modified_at": "2020-03-31T19:04:38.017Z"
  }
}