{
  "header": {
    "description": "Karaoke Mugen Tag File",
    "version": 1
  },
  "tag": {
    "i18n": {
      "eng": "Taura Stinson"
    },
    "name": "Taura Stinson",
    "repository": "kara.moe",
    "tid": "32803944-1244-4a81-807d-ea9dff967540",
    "types": [
      "songwriters",
      "8"
    ]
  }
}