{
  "header": {
    "description": "Karaoke Mugen Tag File",
    "version": 1
  },
  "tag": {
    "aliases": [
      "Galaxie Académie"
    ],
    "i18n": {
      "eng": "Team Galaxy",
      "fre": "Team Galaxy, le Collège de l'espace"
    },
    "modified_at": "2020-03-31T19:04:32.913Z",
    "name": "Team Galaxy",
    "repository": "kara.moe",
    "tid": "21d246fb-b07c-4b2f-b671-ad42d6b7677b",
    "types": [
      "series",
      "1"
    ]
  }
}