{
  "header": {
    "description": "Karaoke Mugen Tag File",
    "version": 1
  },
  "tag": {
    "i18n": {
      "eng": "TearBOT"
    },
    "name": "TearBOT",
    "tid": "faa4da6e-45c2-491e-80f1-bf44f457b228",
    "types": [
      "authors",
      "6"
    ],
    "repository": "kara.moe",
    "modified_at": "2020-03-31T19:04:38.033Z"
  }
}