{
  "header": {
    "description": "Karaoke Mugen Tag File",
    "version": 1
  },
  "tag": {
    "i18n": {
      "eng": "Telescreen"
    },
    "modified_at": "2021-02-20T00:45:53.595Z",
    "name": "Telescreen",
    "repository": "kara.moe",
    "tid": "f8671e1d-b304-4a8e-bde4-584cb7a8d82c",
    "types": [
      "creators",
      "4"
    ]
  }
}