{
  "header": {
    "description": "Karaoke Mugen Tag File",
    "version": 1
  },
  "tag": {
    "i18n": {
      "eng": "Tencent Video"
    },
    "name": "Tencent Video",
    "repository": "kara.moe",
    "tid": "1f20d61f-e8b1-479f-951c-769e227c1114",
    "types": [
      "creators",
      "4"
    ]
  }
}