{
  "header": {
    "description": "Karaoke Mugen Tag File",
    "version": 1
  },
  "tag": {
    "external_database_ids": {
      "anilist": 106286,
      "myanimelist": 38826,
      "kitsu": 42028
    },
    "i18n": {
      "eng": "Weathering With You",
      "fre": "Les Enfants du Temps",
      "jpn": "天気の子",
      "qro": "Tenki no Ko"
    },
    "modified_at": "2020-03-31T19:04:32.930Z",
    "name": "Tenki no Ko",
    "repository": "kara.moe",
    "tid": "fabb6c5b-c44a-4e26-8e6e-eca5bb28fd43",
    "types": [
      "series",
      "1"
    ]
  }
}