{
  "header": {
    "description": "Karaoke Mugen Tag File",
    "version": 1
  },
  "tag": {
    "aliases": [
      "O Príncipe do Tênis",
      "PoT",
      "PoT TV",
      "Prinţul Tenisului",
      "Tenisin Prensi",
      "Tennis no Ojisama",
      "Tennis no Ouji-sama",
      "TnO",
      "Принц тенниса",
      "נסיך הטניס",
      "أمير التنس",
      "เจ้าชายลูกสักหลาด"
    ],
    "external_database_ids": {
      "anilist": 22,
      "myanimelist": 22,
      "kitsu": 13
    },
    "i18n": {
      "eng": "The Prince of Tennis",
      "fre": "Prince du Tennis",
      "jpn": "テニスの王子様",
      "por": "The Prince of Tennis",
      "tha": "เดอะ ปริ้นซ์ ออฟ เทนนิส",
      "qro": "Tennis no Oujisama"
    },
    "modified_at": "2020-03-31T19:04:32.935Z",
    "name": "Tennis no Oujisama",
    "repository": "kara.moe",
    "tid": "f4b2f447-886d-49e5-a018-9c3d73af6a72",
    "types": [
      "series",
      "1",
      "franchises",
      "18"
    ]
  }
}