{
  "header": {
    "description": "Karaoke Mugen Tag File",
    "version": 1
  },
  "tag": {
    "i18n": {
      "eng": "Teppei Kobayashi"
    },
    "name": "Teppei Kobayashi",
    "tid": "140be5e9-a5fb-44ec-b79b-bdea1dbb7408",
    "types": [
      "songwriters",
      "8"
    ],
    "repository": "kara.moe",
    "modified_at": "2020-03-31T19:04:38.053Z"
  }
}