{
  "header": {
    "description": "Karaoke Mugen Tag File",
    "version": 1
  },
  "tag": {
    "i18n": {
      "eng": "Tera Terada"
    },
    "modified_at": "2020-08-15T15:35:14.858Z",
    "name": "Tera Terada",
    "repository": "kara.moe",
    "tid": "769a4d08-6f40-472c-9771-bbe9ec40a925",
    "types": [
      "creators",
      "4"
    ]
  }
}