{
  "header": {
    "description": "Karaoke Mugen Tag File",
    "version": 1
  },
  "tag": {
    "i18n": {
      "eng": "Tetsuo Kudô"
    },
    "name": "Tetsuo Kudô",
    "tid": "ce47006e-3639-4600-a642-612d98aee2ca",
    "types": [
      "songwriters",
      "8"
    ],
    "repository": "kara.moe",
    "modified_at": "2020-03-31T19:04:38.067Z"
  }
}