{
  "header": {
    "description": "Karaoke Mugen Tag File",
    "version": 1
  },
  "tag": {
    "i18n": {
      "eng": "Tetsu Kariya"
    },
    "name": "Tetsu Kariya",
    "tid": "3c2b606c-656c-42a1-977a-378f1986d872",
    "types": [
      "songwriters",
      "8"
    ],
    "repository": "kara.moe",
    "modified_at": "2020-03-31T19:04:38.063Z"
  }
}