{
  "header": {
    "description": "Karaoke Mugen Tag File",
    "version": 1
  },
  "tag": {
    "aliases": [
      "Tetsujin 28go (1963)",
      "Tetsujin 28gou (1963)",
      "28-gou"
    ],
    "external_database_ids": {
      "anilist": 2686,
      "myanimelist": 2686,
      "kitsu": 2448
    },
    "i18n": {
      "eng": "Gigantor (1963)",
      "fre": "Tetsujin 28-gô (1963)",
      "jpn": "鉄人28号 (1963)",
      "qro": "Tetsujin 28-gô (1963)"
    },
    "modified_at": "2020-03-31T19:04:32.943Z",
    "name": "Tetsujin 28-gô (1963)",
    "repository": "kara.moe",
    "tid": "2a9b7c16-34de-4fa7-8bab-bbe4a143e500",
    "types": [
      "series",
      "1"
    ]
  }
}