{
  "header": {
    "description": "Karaoke Mugen Tag File",
    "version": 1
  },
  "tag": {
    "i18n": {
      "eng": "Texlow"
    },
    "name": "Texlow",
    "repository": "kara.moe",
    "tid": "f1ac4439-b64a-4879-854b-29206103e099",
    "types": [
      "creators",
      "4"
    ]
  }
}