{
  "header": {
    "description": "Karaoke Mugen Tag File",
    "version": 1
  },
  "tag": {
    "i18n": {
      "afr": "Thai",
      "amh": "ታይኛ",
      "ara": "التايلاندية",
      "aze": "Tay",
      "bak": "Һай теле",
      "bel": "Тайская",
      "bul": "Тайландски",
      "ben": "থাই",
      "bos": "Thai",
      "cat": "Tailandesa",
      "cze": "Thajské",
      "wel": "Thai",
      "dan": "Thai",
      "ger": "Thai",
      "gre": "Ταϊλάνδης",
      "eng": "Thai",
      "epo": "Taja",
      "spa": "Tailandés",
      "est": "Tai",
      "baq": "Thai",
      "per": "تایلندی",
      "fin": "Thai",
      "fre": "Thai",
      "gle": "Téalainnis",
      "gla": "Cànan nan tàidh",
      "glg": "Tailandés",
      "guj": "થાઈ",
      "heb": "תאילנדי",
      "hin": "थाई",
      "hrv": "Tajlandski",
      "hat": "Thai",
      "hun": "Thai",
      "arm": "Թայերեն",
      "ind": "Thailand",
      "ice": "Thai",
      "ita": "Thai",
      "jpn": "タイ",
      "jav": "Thai",
      "geo": "ტაივანელი",
      "kaz": "Тай",
      "kan": "ಥಾಯ್",
      "kor": "태국",
      "kir": "Тайский",
      "lat": "Thai",
      "lit": "Tailando",
      "lav": "Taizemes",
      "mlg": "Thai",
      "mao": "Thai",
      "mac": "Тајландски",
      "mal": "തായ്",
      "mon": "Тайландын",
      "mar": "थाई",
      "may": "Thai",
      "mlt": "Korean",
      "nep": "थाई",
      "dut": "Thais",
      "nor": "Thai",
      "pan": "ਥਾਈ",
      "pol": "Tajski",
      "por": "Tailandês",
      "rum": "Thai",
      "rus": "Тайский",
      "sin": "තායි",
      "slo": "Thajský",
      "slv": "Tajski",
      "alb": "Thai",
      "srp": "Тајландски",
      "sun": "Thailand",
      "swe": "Thailändska",
      "swa": "Thai",
      "tam": "தாய்",
      "tel": "థాయ్",
      "tgk": "Таи",
      "tha": "ไทย",
      "tgl": "Thai",
      "tur": "Tay",
      "tat": "Тһай теле",
      "ukr": "Тайський",
      "urd": "تھائی",
      "uzb": "Thai",
      "vie": "Thái",
      "xho": "Isithai",
      "yid": "טייַלענדיש",
      "chi": "泰国"
    },
    "name": "tha",
    "tid": "f57b5ec1-6de8-4a86-a443-5cf15947fe14",
    "types": [
      "langs",
      "5"
    ],
    "repository": "kara.moe",
    "modified_at": "2020-03-31T19:04:38.083Z"
  }
}