{
  "header": {
    "description": "Karaoke Mugen Tag File",
    "version": 1
  },
  "tag": {
    "i18n": {
      "eng": "That Guy Adrian"
    },
    "modified_at": "2021-01-13T18:12:32.704Z",
    "name": "That Guy Adrian",
    "repository": "kara.moe",
    "tid": "be6da4cd-c7bb-4890-b490-50ea31cfd4ca",
    "types": [
      "creators",
      "4"
    ]
  }
}