{
  "header": {
    "description": "Karaoke Mugen Tag File",
    "version": 1
  },
  "tag": {
    "i18n": {
      "eng": "The Brow Beat"
    },
    "modified_at": "2021-06-24T10:41:19.922Z",
    "name": "The Brow Beat",
    "repository": "kara.moe",
    "tid": "7ebbe021-e2c6-4f43-aa90-b2469c2ab310",
    "types": [
      "singers",
      "2"
    ]
  }
}