{
  "header": {
    "description": "Karaoke Mugen Tag File",
    "version": 1
  },
  "tag": {
    "aliases": [
      "Idolmaster One For All",
      "iM@S One For All"
    ],
    "i18n": {
      "eng": "THE iDOLM@STER: One For All",
      "jpn": "アイドルマスター ワンフォーオール",
      "qro": "THE iDOLM@STER One For All"
    },
    "modified_at": "2020-03-31T19:04:32.956Z",
    "name": "THE iDOLM@STER One For All",
    "repository": "kara.moe",
    "tid": "ac4fdd38-773f-406f-bed3-4e2df22e82c1",
    "types": [
      "series",
      "1"
    ]
  }
}