{
  "header": {
    "description": "Karaoke Mugen Tag File",
    "version": 1
  },
  "tag": {
    "i18n": {
      "eng": "The Babystars"
    },
    "name": "The Babystars",
    "tid": "fcac1c48-721f-4a48-94bf-90647a774eb6",
    "types": [
      "singers",
      "2"
    ],
    "repository": "kara.moe",
    "modified_at": "2020-03-31T19:04:38.087Z"
  }
}