{
  "header": {
    "description": "Karaoke Mugen Tag File",
    "version": 1
  },
  "tag": {
    "i18n": {
      "eng": "The End Records"
    },
    "name": "The End Records",
    "repository": "kara.moe",
    "tid": "40eb1c17-d1af-481a-bbb8-342c703b44be",
    "types": [
      "creators",
      "4"
    ]
  }
}