{
  "header": {
    "description": "Karaoke Mugen Tag File",
    "version": 1
  },
  "tag": {
    "i18n": {
      "eng": "The R'SVP Voices"
    },
    "name": "The R'SVP Voices",
    "tid": "e5d79c8b-4941-4b66-962a-ce6099e051be",
    "types": [
      "singers",
      "2"
    ],
    "repository": "kara.moe",
    "modified_at": "2020-03-31T19:04:38.117Z"
  }
}