{
  "header": {
    "description": "Karaoke Mugen Tag File",
    "version": 1
  },
  "tag": {
    "i18n": {
      "eng": "The Who"
    },
    "name": "The Who",
    "tid": "ef8787e8-8bc2-494d-b501-340ee493ff71",
    "types": [
      "singers",
      "2"
    ],
    "repository": "kara.moe",
    "modified_at": "2020-03-31T19:04:38.126Z"
  }
}