{
  "header": {
    "description": "Karaoke Mugen Tag File",
    "version": 1
  },
  "tag": {
    "i18n": {
      "eng": "The Apples in Stereo"
    },
    "modified_at": "2020-09-27T12:05:13.082Z",
    "name": "The Apples in Stereo",
    "repository": "kara.moe",
    "tid": "65050dd6-2c98-410a-8236-abbce3d7b6e4",
    "types": [
      "singers",
      "2"
    ]
  }
}