{
  "header": {
    "description": "Karaoke Mugen Tag File",
    "version": 1
  },
  "tag": {
    "i18n": {
      "eng": "THE BACK HORN"
    },
    "name": "THE BACK HORN",
    "tid": "52a5ce7d-5f6c-4bd7-b148-83d06dffb72f",
    "types": [
      "singers",
      "2",
      "songwriters",
      "8"
    ],
    "repository": "kara.moe",
    "modified_at": "2020-03-31T19:04:38.088Z"
  }
}