{
  "header": {
    "description": "Karaoke Mugen Tag File",
    "version": 1
  },
  "tag": {
    "i18n": {
      "eng": "The Super Mario Brothers Super Show",
      "fre": "Super Mario Bros."
    },
    "modified_at": "2020-03-31T19:04:32.969Z",
    "name": "The Super Mario Brothers Super Show",
    "repository": "kara.moe",
    "tid": "53cdd80f-ed2a-4aef-ba23-6ff574461b86",
    "types": [
      "series",
      "1"
    ]
  }
}