{
  "header": {
    "description": "Karaoke Mugen Tag File",
    "version": 1
  },
  "tag": {
    "i18n": {
      "eng": "Thelma Aoyama"
    },
    "name": "Thelma Aoyama",
    "tid": "964ac2fd-25a7-44f9-9f37-c334ba858439",
    "types": [
      "singers",
      "2"
    ],
    "repository": "kara.moe",
    "modified_at": "2020-03-31T19:04:38.128Z"
  }
}