{
  "header": {
    "description": "Karaoke Mugen Tag File",
    "version": 1
  },
  "tag": {
    "i18n": {
      "eng": "Theodor Manswell Strömberg"
    },
    "modified_at": "1982-04-06",
    "name": "Theodor Manswell Strömberg",
    "repository": "kara.moe",
    "tid": "4d70f81f-6ef4-41e9-a4bc-4ca147b8e8ce",
    "types": [
      "songwriters",
      "8"
    ]
  }
}