{
  "header": {
    "description": "Karaoke Mugen Tag File",
    "version": 1
  },
  "tag": {
    "i18n": {
      "eng": "Thomas Hohenberger"
    },
    "name": "Thomas Hohenberger",
    "repository": "kara.moe",
    "tid": "cebabb2b-f9fa-4c08-a1bd-97d2d511f2cb",
    "types": [
      "singers",
      "2"
    ]
  }
}