{
  "header": {
    "description": "Karaoke Mugen Tag File",
    "version": 1
  },
  "tag": {
    "i18n": {
      "eng": "Thunder"
    },
    "name": "Thunder",
    "tid": "8c640ee5-75a7-40e6-8035-ff5febb472b9",
    "types": [
      "songwriters",
      "8"
    ],
    "repository": "kara.moe",
    "modified_at": "2020-03-31T19:04:38.134Z"
  }
}