{
  "header": {
    "description": "Karaoke Mugen Tag File",
    "version": 1
  },
  "tag": {
    "external_database_ids": {
      "anilist": 117197,
      "myanimelist": 41595,
      "kitsu": 43224
    },
    "i18n": {
      "eng": "Tiger & Bunny 2"
    },
    "name": "Tiger & Bunny 2",
    "repository": "kara.moe",
    "tid": "9c812b52-268a-4f26-8e18-e27dd3774445",
    "types": [
      "series",
      "1"
    ]
  }
}