{
  "header": {
    "description": "Karaoke Mugen Tag File",
    "version": 1
  },
  "tag": {
    "i18n": {
      "eng": "Tim James"
    },
    "modified_at": "2021-11-13T12:57:40.654Z",
    "name": "Tim James",
    "repository": "kara.moe",
    "tid": "ea508046-ffe1-4323-a1c6-faa73134338f",
    "types": [
      "songwriters",
      "8",
      "singers",
      "2"
    ]
  }
}