{
  "header": {
    "description": "Karaoke Mugen Tag File",
    "version": 1
  },
  "tag": {
    "aliases": [
      "Jikuu Boueisen",
      "Jikû Bôeisen",
      "T.P. Sakura",
      "TP Sakura"
    ],
    "i18n": {
      "eng": "Time Paladin Sakura",
      "jpn": "T.P.さくら〜タイムパラディンさくら〜時空防衛戦",
      "qro": "Time Paladin Sakura"
    },
    "modified_at": "2020-03-31T19:04:32.979Z",
    "name": "Time Paladin Sakura",
    "repository": "kara.moe",
    "tid": "1e08b55c-ee13-432a-89be-29a8c75954ad",
    "types": [
      "series",
      "1"
    ]
  }
}