{
  "header": {
    "description": "Karaoke Mugen Tag File",
    "version": 1
  },
  "tag": {
    "i18n": {
      "eng": "Titanic"
    },
    "name": "Titanic",
    "repository": "kara.moe",
    "tid": "52e4a777-05d8-49eb-8e62-c984748f0cc9",
    "types": [
      "series",
      "1"
    ]
  }
}