{
  "header": {
    "description": "Karaoke Mugen Tag File",
    "version": 1
  },
  "tag": {
    "aliases": [
      "Teresa Jane Davis"
    ],
    "i18n": {
      "eng": "TJ Davis"
    },
    "modified_at": "2021-11-02T23:54:21.301Z",
    "name": "TJ Davis",
    "repository": "kara.moe",
    "tid": "674a18cc-3d3b-4126-a12a-e82436325454",
    "types": [
      "singers",
      "2"
    ]
  }
}