{
  "header": {
    "description": "Karaoke Mugen Tag File",
    "version": 1
  },
  "tag": {
    "aliases": [
      "Tu Bian Yingxiong BABA"
    ],
    "external_database_ids": {
      "anilist": 97616,
      "myanimelist": 34009,
      "kitsu": 12536
    },
    "i18n": {
      "chi": "凸变英雄 BABA",
      "eng": "To Be Hero",
      "jpn": "トゥー・ビー・ヒーロー",
      "qro": "To Be Hero"
    },
    "modified_at": "2020-03-31T19:04:32.985Z",
    "name": "To Be Hero",
    "repository": "kara.moe",
    "tid": "f7ba541c-aefd-4c7c-b3dd-399fe5a528c7",
    "types": [
      "series",
      "1"
    ]
  }
}