{
  "header": {
    "description": "Karaoke Mugen Tag File",
    "version": 1
  },
  "tag": {
    "external_database_ids": {
      "anilist": 5667,
      "myanimelist": 5667,
      "kitsu": 4233
    },
    "i18n": {
      "eng": "To LOVE-Ru: Trouble OVA",
      "fre": "To LOVE Trouble OVA",
      "jpn": "To LOVEる -とらぶる-",
      "qro": "To LOVE-Ru: Trouble OVA"
    },
    "modified_at": "2020-03-31T19:04:32.988Z",
    "name": "To LOVE-Ru: Trouble OVA",
    "repository": "kara.moe",
    "tid": "6dcde937-4c61-4a79-8e9a-39467abf5cad",
    "types": [
      "series",
      "1"
    ]
  }
}