{
  "header": {
    "description": "Karaoke Mugen Tag File",
    "version": 1
  },
  "tag": {
    "aliases": [
      "To You, the Immortal 2nd Season"
    ],
    "external_database_ids": {
      "anilist": 138565,
      "kitsu": 45045,
      "myanimelist": 49709
    },
    "i18n": {
      "eng": "To Your Eternity Season 2",
      "qro": "Fumetsu no Anata e 2nd Season",
      "jpn": "不滅のあなたへ Season 2"
    },
    "name": "To Your Eternity Season 2",
    "repository": "kara.moe",
    "tid": "5f546939-b25f-46e1-95d7-41d84a7e0594",
    "types": [
      "series",
      "1"
    ]
  }
}