{
  "header": {
    "description": "Karaoke Mugen Tag File",
    "version": 1
  },
  "tag": {
    "i18n": {
      "eng": "tofubeats"
    },
    "name": "tofubeats",
    "tid": "f92593ae-2834-467d-9560-dea4dde167b0",
    "types": [
      "songwriters",
      "8"
    ],
    "repository": "kara.moe",
    "modified_at": "2020-03-31T19:04:38.155Z"
  }
}