{
  "header": {
    "description": "Karaoke Mugen Tag File",
    "version": 1
  },
  "tag": {
    "external_database_ids": {
      "anilist": 1555,
      "myanimelist": 1555,
      "kitsu": 1395
    },
    "i18n": {
      "eng": "Tokimeki Memorial",
      "jpn": "ときめきメモリアル Only Love",
      "qro": "Tokimeki Memorial ~Only Love~"
    },
    "modified_at": "2020-03-31T19:04:32.994Z",
    "name": "Tokimeki Memorial ~Only Love~",
    "repository": "kara.moe",
    "tid": "f7c48fcc-58a4-4d2c-893f-f6952120350c",
    "types": [
      "series",
      "1"
    ]
  }
}