{
  "header": {
    "description": "Karaoke Mugen Tag File",
    "version": 1
  },
  "tag": {
    "i18n": {
      "eng": "Tokiya Sugishita"
    },
    "name": "Tokiya Sugishita",
    "tid": "64a43452-25a0-4853-9ae3-95f7456c221f",
    "types": [
      "songwriters",
      "8"
    ],
    "repository": "kara.moe",
    "modified_at": "2020-03-31T19:04:38.163Z"
  }
}