{
  "header": {
    "description": "Karaoke Mugen Tag File",
    "version": 1
  },
  "tag": {
    "i18n": {
      "eng": "Tokusatsu"
    },
    "name": "Tokusatsu",
    "tid": "d3fac9ab-630d-402d-a392-3d2450c3e62e",
    "types": [
      "genres",
      "12"
    ],
    "short": "TKU",
    "repository": "kara.moe",
    "modified_at": "2020-03-31T19:04:38.167Z"
  }
}
