{
  "header": {
    "description": "Karaoke Mugen Tag File",
    "version": 1
  },
  "tag": {
    "i18n": {
      "eng": "Tokusatsu"
    },
    "modified_at": "2020-04-19T21:47:23.625Z",
    "name": "Tokusatsu",
    "repository": "kara.moe",
    "tid": "eee24839-be31-4ddb-9618-9d09b22b399c",
    "types": [
      "singers",
      "2"
    ]
  }
}