{
  "header": {
    "description": "Karaoke Mugen Tag File",
    "version": 1
  },
  "tag": {
    "aliases": [
      "season 2"
    ],
    "external_database_ids": {
      "anilist": 142853,
      "kitsu": 45607,
      "myanimelist": 50608
    },
    "i18n": {
      "qro": "Tokyo Revengers: Seiya Kessen-hen",
      "jpn": "東京リベンジャーズ 聖夜決戦編",
      "eng": "Tokyo Revengers: Christmas Showdown"
    },
    "name": "Tokyo Revengers: Seiya Kessen-hen",
    "repository": "kara.moe",
    "tid": "cf1da2f0-4e55-4a1e-8315-226b275db0d7",
    "types": [
      "series",
      "1"
    ]
  }
}