{
  "header": {
    "description": "Karaoke Mugen Tag File",
    "version": 1
  },
  "tag": {
    "aliases": [
      "Sekai Meisaku Gekijou",
      "Tom Sawyer no Bôken"
    ],
    "external_database_ids": {
      "anilist": 2577,
      "myanimelist": 2577,
      "kitsu": 2342
    },
    "i18n": {
      "ara": "توم سوير",
      "eng": "The Adventures of Tom Sawyer",
      "fre": "Tom Sawyer",
      "ger": "Tom Sawyers Abenteuer",
      "heb": "תום סויר",
      "ita": "Tom story",
      "jpn": "トム・ソーヤーの冒険",
      "pol": "Przygody Tomka Sawyera",
      "por": "As Aventuras de Tom Sawyer",
      "rus": "Приключения Тома Сойера",
      "qro": "Tom Sawyer no Bouken"
    },
    "modified_at": "2020-03-31T19:04:33.006Z",
    "name": "Tom Sawyer no Bouken",
    "repository": "kara.moe",
    "tid": "45c81f57-8d59-4d6f-a972-d7f1bdcbb7f5",
    "types": [
      "series",
      "1"
    ]
  }
}