{
  "header": {
    "description": "Karaoke Mugen Tag File",
    "version": 1
  },
  "tag": {
    "aliases": [
      "Tomoyo After ~It's a Wonderful Life~"
    ],
    "i18n": {
      "eng": "Tomoyo After: It's a Wonderful Life",
      "jpn": "智代アフター ～It’s a Wonderful Life～",
      "qro": "Tomoyo After"
    },
    "modified_at": "2020-03-31T19:04:33.007Z",
    "name": "Tomoyo After",
    "repository": "kara.moe",
    "tid": "70604798-a689-45cd-8120-a8a210a961b9",
    "types": [
      "series",
      "1"
    ]
  }
}