{
  "header": {
    "description": "Karaoke Mugen Tag File",
    "version": 1
  },
  "tag": {
    "i18n": {
      "eng": "Tomoya Koga"
    },
    "name": "Tomoya Koga",
    "tid": "bbe5ef88-bf34-4599-b5bf-630691bbb115",
    "types": [
      "songwriters",
      "8"
    ],
    "repository": "kara.moe",
    "modified_at": "2020-03-31T19:04:38.221Z"
  }
}