{
  "header": {
    "description": "Karaoke Mugen Tag File",
    "version": 1
  },
  "tag": {
    "i18n": {
      "eng": "Tomohiro Takeshita"
    },
    "name": "Tomohiro Takeshita",
    "tid": "69193923-1f90-41ea-83c8-4985f7f26869",
    "types": [
      "songwriters",
      "8"
    ],
    "repository": "kara.moe",
    "modified_at": "2020-03-31T19:04:38.196Z"
  }
}