{
  "header": {
    "description": "Karaoke Mugen Tag File",
    "version": 1
  },
  "tag": {
    "aliases": [
      "Tomoya_kmst"
    ],
    "i18n": {
      "eng": "Tomoya Kamishita",
      "jpn": "神下ともや"
    },
    "name": "Tomoya Kamishita",
    "repository": "kara.moe",
    "tid": "7d1a94e6-a64a-48d8-a6d7-a18b24917b2e",
    "types": [
      "creators",
      "4"
    ]
  }
}