{
  "header": {
    "description": "Karaoke Mugen Tag File",
    "version": 1
  },
  "tag": {
    "i18n": {
      "eng": "Tomoko Konparu"
    },
    "name": "Tomoko Konparu",
    "tid": "97bbf4f9-a773-4344-b0ef-01c6764ffcc3",
    "types": [
      "songwriters",
      "8"
    ],
    "repository": "kara.moe",
    "modified_at": "2020-03-31T19:04:38.209Z"
  }
}