{
  "header": {
    "description": "Karaoke Mugen Tag File",
    "version": 1
  },
  "tag": {
    "aliases": [
      "My Neighbor Seki"
    ],
    "external_database_ids": {
      "anilist": 18139,
      "myanimelist": 18139,
      "kitsu": 7761
    },
    "i18n": {
      "chi": "邻座同学是怪咖",
      "eng": "Tonari no Seki-kun: The Master of Killing Time",
      "fre": "Séki, mon voisin de classe",
      "jpn": "となりの関くん",
      "qro": "Tonari no Seki-kun"
    },
    "modified_at": "2020-03-31T19:04:33.007Z",
    "name": "Tonari no Seki-kun",
    "repository": "kara.moe",
    "tid": "af23e177-d06f-4b67-aea6-283ec5bfccab",
    "types": [
      "series",
      "1"
    ]
  }
}