{
  "header": {
    "description": "Karaoke Mugen Tag File",
    "version": 1
  },
  "tag": {
    "i18n": {
      "eng": "Tooru Kawabe"
    },
    "name": "Tooru Kawabe",
    "tid": "178b119a-58d6-48de-a95a-343f2ff8adc4",
    "types": [
      "songwriters",
      "8"
    ],
    "repository": "kara.moe",
    "modified_at": "2020-03-31T19:04:38.236Z"
  }
}