{
  "header": {
    "description": "Karaoke Mugen Tag File",
    "version": 1
  },
  "tag": {
    "i18n": {
      "eng": "Tooru Sakurai"
    },
    "name": "Tooru Sakurai",
    "tid": "d7992f24-e9bc-436a-8368-6d726005a8a1",
    "types": [
      "singers",
      "2"
    ],
    "repository": "kara.moe",
    "modified_at": "2020-03-31T19:04:38.237Z"
  }
}