{
  "header": {
    "description": "Karaoke Mugen Tag File",
    "version": 1
  },
  "tag": {
    "aliases": [
      "Tiger x Dragon",
      "TxD",
      "toradora",
      "Тигр против Дракона!",
      "Тигър срещу Дракон!",
      "ТораДора!",
      "虎X龙",
      "龙与虎",
      "龙虎斗"
    ],
    "external_database_ids": {
      "anilist": 4224,
      "myanimelist": 4224,
      "kitsu": 3532
    },
    "i18n": {
      "chi": "TIGER x DRAGON!",
      "eng": "Toradora!",
      "ita": "Toradora!",
      "jpn": "とらドラ!",
      "kor": "토라도라!",
      "per": "ببر و اژدها",
      "spa": "Toradora",
      "tha": "โทระโดระ: ยัยเสือใสกับนายหน้าโหด!",
      "qro": "Toradora!"
    },
    "modified_at": "2020-03-31T19:04:33.011Z",
    "name": "Toradora!",
    "repository": "kara.moe",
    "tid": "b0179770-b4ea-468c-82b5-09e4bfb57f08",
    "types": [
      "series",
      "1"
    ]
  }
}