{
  "header": {
    "description": "Karaoke Mugen Tag File",
    "version": 1
  },
  "tag": {
    "i18n": {
      "eng": "Toshio Yamanôchi"
    },
    "name": "Toshio Yamanôchi",
    "tid": "1b3d79d6-f337-4d07-b18f-4dbdc7284d8b",
    "types": [
      "songwriters",
      "8"
    ],
    "repository": "kara.moe",
    "modified_at": "2020-03-31T19:04:38.262Z"
  }
}