{
  "header": {
    "description": "Karaoke Mugen Tag File",
    "version": 1
  },
  "tag": {
    "i18n": {
      "eng": "Toshihiro Tanaka"
    },
    "name": "Toshihiro Tanaka",
    "tid": "f16a65a6-bb7d-43a2-97b2-55a516897537",
    "types": [
      "songwriters",
      "8"
    ],
    "repository": "kara.moe",
    "modified_at": "2020-03-31T19:04:38.251Z"
  }
}