{
  "header": {
    "description": "Karaoke Mugen Tag File",
    "version": 1
  },
  "tag": {
    "i18n": {
      "eng": "Toshiharu Sakurai"
    },
    "modified_at": "2020-07-19T14:34:18.442Z",
    "name": "Toshiharu Sakurai",
    "repository": "kara.moe",
    "tid": "4f809704-5178-4646-a2ef-14e5b7f8a50c",
    "types": [
      "singers",
      "2"
    ]
  }
}