{
  "header": {
    "description": "Karaoke Mugen Tag File",
    "version": 1
  },
  "tag": {
    "i18n": {
      "eng": "Toshiyuki Morikawa"
    },
    "name": "Toshiyuki Morikawa",
    "tid": "996959ed-c6e0-4eb9-b2f3-411a9122dfd0",
    "types": [
      "singers",
      "2"
    ],
    "repository": "kara.moe",
    "modified_at": "2020-03-31T19:04:38.268Z"
  }
}