{
  "header": {
    "description": "Karaoke Mugen Tag File",
    "version": 1
  },
  "tag": {
    "i18n": {
      "eng": "Toshihiko Takamizawa"
    },
    "name": "Toshihiko Takamizawa",
    "tid": "ed778281-a46b-4736-bf32-1e53d4b38e55",
    "types": [
      "songwriters",
      "8"
    ],
    "repository": "kara.moe",
    "modified_at": "2020-03-31T19:04:38.249Z"
  }
}