{
  "header": {
    "description": "Karaoke Mugen Tag File",
    "version": 1
  },
  "tag": {
    "aliases": [
      "Tôken Ranbu"
    ],
    "i18n": {
      "eng": "Touken Ranbu ONLINE",
      "jpn": "刀剣乱舞",
      "qro": "Touken Ranbu ONLINE"
    },
    "modified_at": "2020-03-31T19:04:33.020Z",
    "name": "Touken Ranbu ONLINE",
    "repository": "kara.moe",
    "tid": "2a6cd521-5e0c-4396-b2b2-c2098ad45657",
    "types": [
      "series",
      "1"
    ]
  }
}