{
  "header": {
    "description": "Karaoke Mugen Tag File",
    "version": 1
  },
  "tag": {
    "aliases": [
      "TRKB Hanamaru",
      "Tôken Ranbu Hanamaru"
    ],
    "external_database_ids": {
      "anilist": 21741,
      "myanimelist": 33023,
      "kitsu": 11995
    },
    "i18n": {
      "eng": "Touken Ranbu: Hanamaru",
      "jpn": "刀剣乱舞-花丸-",
      "kor": "도검난무 하나마루",
      "qro": "Touken Ranbu Hanamaru"
    },
    "modified_at": "2020-03-31T19:04:33.019Z",
    "name": "Touken Ranbu Hanamaru",
    "repository": "kara.moe",
    "tid": "387472c1-ec8a-41c4-9e5a-29c836768b10",
    "types": [
      "series",
      "1"
    ]
  }
}