{
  "header": {
    "description": "Karaoke Mugen Tag File",
    "version": 1
  },
  "tag": {
    "i18n": {
      "eng": "TOY'S FACTORY"
    },
    "name": "TOY'S FACTORY",
    "tid": "6697d31b-7f60-4d11-b237-8eb72740fd8a",
    "types": [
      "creators",
      "4"
    ],
    "repository": "kara.moe",
    "modified_at": "2020-03-31T19:04:38.279Z"
  }
}