{
  "header": {
    "description": "Karaoke Mugen Tag File",
    "version": 1
  },
  "tag": {
    "i18n": {
      "eng": "TPK"
    },
    "name": "TPK",
    "tid": "1a26f5ce-9f55-463a-8aac-e4c4bb82cd28",
    "types": [
      "songwriters",
      "8"
    ],
    "repository": "kara.moe",
    "modified_at": "2020-03-31T19:04:38.281Z"
  }
}