{
  "header": {
    "description": "Karaoke Mugen Tag File",
    "version": 1
  },
  "tag": {
    "i18n": {
      "eng": "Trevor Horn"
    },
    "modified_at": "2020-08-18T22:19:31.192Z",
    "name": "Trevor Horn",
    "repository": "kara.moe",
    "tid": "cf986fb4-0d38-41ee-b27f-b17c15229203",
    "types": [
      "songwriters",
      "8"
    ]
  }
}