{
  "header": {
    "description": "Karaoke Mugen Tag File",
    "version": 1
  },
  "tag": {
    "aliases": [
      "Trickster Edogawa Ranpo Shounen Tanteidan yori",
      "Trickster Edogawa Ranpo Shônen Tanteidan yori",
      "Trickster: Edogawa Ranpo \"Shounen Tanteidan\" yori",
      "shounen",
      "tanteidan"
    ],
    "external_database_ids": {
      "anilist": 110208,
      "myanimelist": 34197,
      "kitsu": 13089
    },
    "i18n": {
      "eng": "Trickster",
      "jpn": "TRICKSTER -江戸川乱歩「少年探偵団」より- ",
      "qro": "Trickster: Edogawa Ranpo \"Shônen Tanteidan\" yori"
    },
    "modified_at": "2020-03-31T19:04:33.023Z",
    "name": "Trickster: Edogawa Ranpo \"Shônen Tanteidan\" yori",
    "repository": "kara.moe",
    "tid": "a5376793-f41f-4226-bd55-86fa897952ef",
    "types": [
      "series",
      "1"
    ]
  }
}