{
  "header": {
    "description": "Karaoke Mugen Tag File",
    "version": 1
  },
  "tag": {
    "i18n": {
      "eng": "TRIGGER"
    },
    "name": "TRIGGER",
    "tid": "9a515ca0-48ae-4ded-ac8f-3cccc586794a",
    "types": [
      "creators",
      "4"
    ],
    "repository": "kara.moe",
    "modified_at": "2020-03-31T19:04:38.289Z"
  }
}