{
  "header": {
    "description": "Karaoke Mugen Tag File",
    "version": 1
  },
  "tag": {
    "i18n": {
      "eng": "TRIGGER"
    },
    "name": "TRIGGER",
    "repository": "kara.moe",
    "tid": "68344dd3-3510-4fcd-b8dd-3e796391a880",
    "types": [
      "singergroups",
      "17"
    ]
  }
}