{
  "header": {
    "description": "Karaoke Mugen Tag File",
    "version": 1
  },
  "tag": {
    "i18n": {
      "eng": "Tripshots"
    },
    "name": "Tripshots",
    "tid": "792374e4-b0d0-42da-a728-9320f1ad3613",
    "types": [
      "songwriters",
      "8",
      "creators",
      "4"
    ],
    "repository": "kara.moe",
    "modified_at": "2020-03-31T19:04:38.294Z"
  }
}