{
  "header": {
    "description": "Karaoke Mugen Tag File",
    "version": 1
  },
  "tag": {
    "aliases": [
      "Miho Karasawa"
    ],
    "i18n": {
      "eng": "TRUE"
    },
    "modified_at": "2021-01-28T15:17:11.557Z",
    "name": "TRUE",
    "repository": "kara.moe",
    "tid": "61c5e3d4-6a0e-46b6-b622-06f5bc6d3294",
    "types": [
      "singers",
      "2",
      "songwriters",
      "8"
    ]
  }
}