{
  "header": {
    "description": "Karaoke Mugen Tag File",
    "version": 1
  },
  "tag": {
    "aliases": [
      "Monogatari Series"
    ],
    "external_database_ids": {
      "anilist": 20918,
      "myanimelist": 28025,
      "kitsu": 9961
    },
    "i18n": {
      "eng": "Tsukimonogatari: Yotsugi Doll",
      "fre": "Tsukimonogatari",
      "jpn": "憑物語 よつぎドール",
      "qro": "Tsukimonogatari"
    },
    "modified_at": "2020-03-31T19:04:33.030Z",
    "name": "Tsukimonogatari",
    "repository": "kara.moe",
    "tid": "bce014d5-0629-4a5c-a801-2a166a06fcd7",
    "types": [
      "series",
      "1"
    ]
  }
}