{
  "header": {
    "description": "Karaoke Mugen Tag File",
    "version": 1
  },
  "tag": {
    "i18n": {
      "eng": "Tsuyoshi Ishiguro"
    },
    "name": "Tsuyoshi Ishiguro",
    "repository": "kara.moe",
    "tid": "dfec5d6e-54e4-4446-a080-a81c4f0de683",
    "types": [
      "songwriters",
      "8"
    ]
  }
}