{
  "header": {
    "description": "Karaoke Mugen Tag File",
    "version": 1
  },
  "tag": {
    "i18n": {
      "eng": "Tsuyoshi Kawakami"
    },
    "name": "Tsuyoshi Kawakami",
    "repository": "kara.moe",
    "tid": "5f77163f-4fcc-4e75-b65a-81ff051ac39a",
    "types": [
      "songwriters",
      "8"
    ]
  }
}