{
  "header": {
    "description": "Karaoke Mugen Tag File",
    "version": 1
  },
  "tag": {
    "i18n": {
      "eng": "Tuff Gong"
    },
    "name": "Tuff Gong",
    "repository": "kara.moe",
    "tid": "40e79918-379f-43d3-980b-75550b6a5f14",
    "types": [
      "creators",
      "4"
    ]
  }
}