{
  "header": {
    "description": "Karaoke Mugen Tag File",
    "version": 1
  },
  "tag": {
    "aliases": [
      "TaG",
      "كاندام 'بالمقلوب",
      "∀ガンダム",
      "倒A高达"
    ],
    "external_database_ids": {
      "anilist": 95,
      "myanimelist": 95,
      "kitsu": 74
    },
    "i18n": {
      "eng": "Turn A Gundam",
      "jpn": "∀GUNDAM",
      "qro": "Turn A Gundam"
    },
    "modified_at": "2020-03-31T19:04:33.035Z",
    "name": "Turn A Gundam",
    "repository": "kara.moe",
    "tid": "b3299119-2267-4f03-9a95-32a768596a32",
    "types": [
      "series",
      "1"
    ]
  }
}