{
  "header": {
    "description": "Karaoke Mugen Tag File",
    "version": 1
  },
  "tag": {
    "i18n": {
      "afr": "Twi",
      "amh": "Twi",
      "ara": "Twi",
      "aze": "Тви",
      "bak": "Ти теле",
      "bel": "Тві",
      "bul": "Twi",
      "ben": "টোয়াই",
      "bos": "Mogu",
      "cat": "Twi",
      "cze": "Twi",
      "wel": "Twi",
      "dan": "Twi",
      "ger": "Twi",
      "gre": "Twi",
      "eng": "Twi",
      "epo": "Twi",
      "spa": "Twi",
      "est": "Twi",
      "baq": "Twi",
      "per": "Twi",
      "fin": "Twi",
      "fre": "Twi",
      "gle": "Twi",
      "gla": "Twi",
      "glg": "Twi",
      "guj": "ટ્વાઇ",
      "heb": "Twi",
      "hin": "Twi",
      "hrv": "Twi",
      "hat": "Twi",
      "hun": "Hajni",
      "arm": "Twi",
      "ind": "Twi",
      "ice": "Tví",
      "ita": "Twi",
      "jpn": "Twi",
      "jav": "Twi",
      "geo": "Twi",
      "kaz": "Тви",
      "kan": "Twi",
      "kor": "Twi",
      "kir": "Тви",
      "lat": "Twi",
      "lit": "Twi",
      "lav": "Twi",
      "mlg": "Twi",
      "mao": "Tiwi",
      "mac": "Twi",
      "mal": "ട്വിname",
      "mon": "Twi",
      "mar": "त्वीname",
      "may": "Amharic",
      "mlt": "Twi",
      "nep": "तुइname",
      "dut": "Twi",
      "nor": "Twi'",
      "pan": "Twi",
      "pol": "Twi",
      "por": "Twi",
      "rum": "Twi",
      "rus": "Тви",
      "sin": "Twi",
      "slo": "Twi",
      "slv": "Twi",
      "alb": "Twi",
      "srp": "Тви",
      "sun": "Online",
      "swe": "Twi",
      "swa": "Twi",
      "tam": "ட்வி",
      "tel": "ట్విname",
      "tgk": "Тви",
      "tha": "ภาษาทรี name",
      "tgl": "Twi",
      "tur": "Twi",
      "tat": "Тви теле",
      "ukr": "Тві",
      "urd": "Twi",
      "uzb": "Twi",
      "vie": "Th",
      "xho": "Twiname",
      "yid": "Twi",
      "chi": "Twi"
    },
    "name": "twi",
    "tid": "80e769ae-5c21-47b2-8524-b9300b2ddc2a",
    "types": [
      "langs",
      "5"
    ],
    "repository": "kara.moe",
    "modified_at": "2020-03-31T19:04:38.334Z"
  }
}