{
  "header": {
    "description": "Karaoke Mugen Tag File",
    "version": 1
  },
  "tag": {
    "i18n": {
      "eng": "Twilight Frontier"
    },
    "name": "Twilight Frontier",
    "tid": "2d5ffee5-8576-4a31-acc8-450d85e12d29",
    "types": [
      "creators",
      "4"
    ],
    "repository": "kara.moe",
    "modified_at": "2020-03-31T19:04:38.334Z"
  }
}