{
  "header": {
    "description": "Karaoke Mugen Tag File",
    "version": 1
  },
  "tag": {
    "i18n": {
      "eng": "TYPHOON GRAPHICS"
    },
    "name": "TYPHOON GRAPHICS",
    "tid": "1aff73c2-ef9e-4d01-9ec8-6be8d094da2d",
    "types": [
      "creators",
      "4"
    ],
    "repository": "kara.moe",
    "modified_at": "2020-03-31T19:04:38.338Z"
  }
}