{
  "header": {
    "description": "Karaoke Mugen Tag File",
    "version": 1
  },
  "tag": {
    "external_database_ids": {
      "anilist": 97908,
      "myanimelist": 34498,
      "kitsu": 12794
    },
    "i18n": {
      "eng": "Fireworks",
      "jpn": "打ち上げ花火, 下から見るか? 横から見るか?",
      "qro": "Uchiage Hanabi Shita kara Miru ka? Yoko kara Miru ka?"
    },
    "modified_at": "2020-09-23T07:47:42.017Z",
    "name": "Uchiage Hanabi Shita kara Miru ka? Yoko kara Miru ka?",
    "repository": "kara.moe",
    "tid": "ea78c72c-2cf7-44f3-bc77-0fa7a2f75da8",
    "types": [
      "series",
      "1"
    ]
  }
}