{
  "header": {
    "description": "Karaoke Mugen Tag File",
    "version": 1
  },
  "tag": {
    "i18n": {
      "eng": "My Master Has No Tail",
      "qro": "Uchi no Shishou wa Shippo ga Nai",
      "jpn": "うちの師匠はしっぽがない"
    },
    "name": "Uchi no Shishô wa Shippo ga Nai",
    "repository": "kara.moe",
    "tid": "43c8c753-9f83-4858-af69-1ede7643ba2c",
    "types": [
      "series",
      "1"
    ]
  }
}