{
  "header": {
    "description": "Karaoke Mugen Tag File",
    "version": 1
  },
  "tag": {
    "aliases": [
      "Uchuu Kara no Message: Ginga Taisen",
      "uchuu"
    ],
    "i18n": {
      "eng": "Message from Space: Galactic Wars",
      "fre": "San Ku Kaï",
      "jpn": "宇宙からのメッセージ・銀河大戦",
      "qro": "Uchû Kara no Message: Ginga Taisen"
    },
    "modified_at": "2020-03-31T19:04:33.043Z",
    "name": "Uchû Kara no Message: Ginga Taisen",
    "repository": "kara.moe",
    "tid": "7a7bc519-47a0-4ce0-9e34-710829d9ba19",
    "types": [
      "series",
      "1"
    ]
  }
}