{
  "header": {
    "description": "Karaoke Mugen Tag File",
    "version": 1
  },
  "tag": {
    "i18n": {
      "eng": "Ultra-Rare"
    },
    "name": "Ultra-Rare",
    "tid": "9bb92679-e1ed-4f87-b7c2-53efdfae1e33",
    "types": [
      "singers",
      "2"
    ],
    "repository": "kara.moe",
    "modified_at": "2020-03-31T19:04:38.360Z"
  }
}