{
  "header": {
    "description": "Karaoke Mugen Tag File",
    "version": 1
  },
  "tag": {
    "i18n": {
      "eng": "Ultraman Tiga",
      "jpn": "ウルトラマンティガ",
      "qro": "Ultraman Tiga"
    },
    "modified_at": "2020-03-31T19:04:33.068Z",
    "name": "Ultraman Tiga",
    "repository": "kara.moe",
    "tid": "db02b6e6-678a-4e37-9e8d-9dbf84004d45",
    "types": [
      "series",
      "1"
    ]
  }
}