{
  "header": {
    "description": "Karaoke Mugen Tag File",
    "version": 1
  },
  "tag": {
    "i18n": {
      "eng": "Universal Sigma"
    },
    "name": "Universal Sigma",
    "tid": "1f1b05bf-c184-4940-a123-50786df72617",
    "types": [
      "creators",
      "4"
    ],
    "repository": "kara.moe",
    "modified_at": "2020-03-31T19:04:38.371Z"
  }
}