{
  "header": {
    "description": "Karaoke Mugen Tag File",
    "version": 1
  },
  "tag": {
    "aliases": [
      "あんきも",
      "Ankimo"
    ],
    "i18n": {
      "eng": "Unlucky Morpheus"
    },
    "name": "Unlucky Morpheus",
    "repository": "kara.moe",
    "tid": "3408850b-72bd-474e-a367-78b81522fb32",
    "types": [
      "singergroups",
      "17",
      "creators",
      "4"
    ]
  }
}