{
  "header": {
    "description": "Karaoke Mugen Tag File",
    "version": 1
  },
  "tag": {
    "aliases": [
      "Lamu OVA"
    ],
    "external_database_ids": {
      "anilist": 1919,
      "myanimelist": 1919,
      "kitsu": 1729
    },
    "i18n": {
      "eng": "Urusei Yatsura OVA: Inaba the Dream Maker",
      "fre": "Lamu OVA : Inaba the Dream Maker",
      "jpn": "Urusei Yatsura OVA: Yume no Shikakenin, Inaba-kun Tôjô! Lum no Mirai wa Dounaruccha!",
      "qro": "Urusei Yatsura ~ Inaba the Dream Maker"
    },
    "modified_at": "2020-03-31T19:04:33.077Z",
    "name": "Urusei Yatsura ~ Inaba the Dream Maker",
    "repository": "kara.moe",
    "tid": "da48828d-cca3-4399-a27d-9124f3a958b2",
    "types": [
      "series",
      "1"
    ]
  }
}