{
  "header": {
    "description": "Karaoke Mugen Tag File",
    "version": 1
  },
  "tag": {
    "aliases": [
      "Lum TV",
      "Those Obnoxious Aliens",
      "UY",
      "Uru",
      "Urusei Yatsura TV",
      "Несносные пришельцы"
    ],
    "external_database_ids": {
      "anilist": 1293,
      "myanimelist": 1293,
      "kitsu": 1166
    },
    "i18n": {
      "eng": "Urusei Yatsura",
      "fre": "Lamu",
      "ita": "Lamù la ragazza dello spazio",
      "jpn": "うる星やつら",
      "por": "Turma do Barulho",
      "spa": "Lamu - Lum, La Chica Invasora",
      "qro": "Urusei Yatsura"
    },
    "modified_at": "2020-03-31T19:04:33.078Z",
    "name": "Urusei Yatsura",
    "repository": "kara.moe",
    "tid": "586300dc-7488-4530-8d86-e7db5e474dec",
    "types": [
      "series",
      "1",
      "franchises",
      "18"
    ]
  }
}