{
  "header": {
    "description": "Karaoke Mugen Tag File",
    "version": 1
  },
  "tag": {
    "i18n": {
      "eng": "USA for Africa"
    },
    "modified_at": "2021-10-02T15:45:46.697Z",
    "name": "USA for Africa",
    "repository": "kara.moe",
    "tid": "38cd3b9a-cde9-4bad-aa5b-1e5a900a49de",
    "types": [
      "singers",
      "2"
    ]
  }
}