{
  "header": {
    "description": "Karaoke Mugen Tag File",
    "version": 1
  },
  "tag": {
    "i18n": {
      "eng": "Uso Uzaki"
    },
    "name": "Uso Uzaki",
    "repository": "kara.moe",
    "tid": "3ac0f36b-8e7b-4c51-b172-b923ebaabf97",
    "types": [
      "creators",
      "4"
    ]
  }
}