{
  "header": {
    "description": "Karaoke Mugen Tag File",
    "version": 1
  },
  "tag": {
    "aliases": [
      "UtaPri 3"
    ],
    "external_database_ids": {
      "anilist": 20662,
      "myanimelist": 21439,
      "kitsu": 8143
    },
    "i18n": {
      "eng": "Uta no Prince-sama: Revolutions",
      "jpn": "うたの☆プリンスさまっ♪ マジLOVEレボリューションズ",
      "fre": "Uta no Prince-sama: Maji Love Revolutions (Saison 3)",
      "chi": "歌之王子殿下 真爱REVOLUTIONS",
      "qro": "Uta no Prince-sama Maji LOVE Revolutions"
    },
    "modified_at": "2020-08-29T11:47:31.429Z",
    "name": "Uta no Prince-sama Maji LOVE Revolutions",
    "repository": "kara.moe",
    "tid": "ba7ccb9d-b9ba-4d89-8544-5ef3cddaca9e",
    "types": [
      "series",
      "1"
    ]
  }
}