{
  "header": {
    "description": "Karaoke Mugen Tag File",
    "version": 1
  },
  "tag": {
    "i18n": {
      "eng": "Utaibito Hane"
    },
    "name": "Utaibito Hane",
    "repository": "kara.moe",
    "tid": "83f23e63-9304-45da-aa0c-a8a9732de69a",
    "types": [
      "singers",
      "2"
    ]
  }
}