{
  "header": {
    "description": "Karaoke Mugen Tag File",
    "version": 1
  },
  "tag": {
    "aliases": [
      "Sasaki Shirou ",
      " 佐々木士郎"
    ],
    "i18n": {
      "eng": "Utamaru"
    },
    "name": "Utamaru",
    "repository": "kara.moe",
    "tid": "2ebeeb58-9d36-4c55-a1ed-1c4c106496e8",
    "types": [
      "singers",
      "2",
      "songwriters",
      "8"
    ]
  }
}