{
  "header": {
    "description": "Karaoke Mugen Tag File",
    "version": 1
  },
  "tag": {
    "i18n": {
      "eng": "Valerio Zelli"
    },
    "name": "Valerio Zelli",
    "repository": "kara.moe",
    "tid": "0892887a-1f61-42d1-a2c6-b2f4210e4de3",
    "types": [
      "songwriters",
      "8"
    ]
  }
}