{
  "header": {
    "description": "Karaoke Mugen Tag File",
    "version": 1
  },
  "tag": {
    "i18n": {
      "eng": "Valérie Barouille"
    },
    "name": "Valérie Barouille",
    "tid": "42d68622-0bf9-455b-8cf9-2fe4176b212d",
    "types": [
      "singers",
      "2"
    ],
    "repository": "kara.moe",
    "modified_at": "2020-03-31T19:04:38.397Z"
  }
}