{
  "header": {
    "description": "Karaoke Mugen Tag File",
    "version": 1
  },
  "tag": {
    "aliases": [
      "Vampire Kishi",
      "Vampire Knight 1",
      "vk",
      "vk1",
      "Рицар Вампир",
      "Рыцарь вампир",
      "吸血鬼骑士"
    ],
    "external_database_ids": {
      "anilist": 3457,
      "myanimelist": 3457,
      "kitsu": 7753
    },
    "i18n": {
      "bul": "Рицарят Вампир",
      "eng": "Vampire Knight",
      "fre": "Vampire Knight",
      "ger": "Vampire Knight",
      "hun": "Vampire Knight",
      "jpn": "ヴァンパイア騎士",
      "pol": "Vampire Knight",
      "qro": "Vampire Knight"
    },
    "modified_at": "2020-03-31T19:04:33.095Z",
    "name": "Vampire Knight",
    "repository": "kara.moe",
    "tid": "18fa1f52-30db-4ab0-adfd-03b784366207",
    "types": [
      "series",
      "1",
      "franchises",
      "18"
    ]
  }
}