{
  "header": {
    "description": "Karaoke Mugen Tag File",
    "version": 1
  },
  "tag": {
    "i18n": {
      "eng": "Vanina Vinitzvi"
    },
    "modified_at": "2021-06-05T20:46:28.148Z",
    "name": "Vanina Vinitzvi",
    "repository": "kara.moe",
    "tid": "a174d466-acd2-4ae9-af7c-013e9a7e03fd",
    "types": [
      "singers",
      "2"
    ]
  }
}