{
  "header": {
    "description": "Karaoke Mugen Tag File",
    "version": 1
  },
  "tag": {
    "i18n": {
      "eng": "Velvet.kodhy"
    },
    "name": "Velvet.kodhy",
    "tid": "eb2842f6-7f45-432b-b067-8f3dda4ea9d3",
    "types": [
      "singers",
      "2"
    ],
    "repository": "kara.moe",
    "modified_at": "2020-03-31T19:04:38.405Z"
  }
}