{
  "header": {
    "description": "Karaoke Mugen Tag File",
    "version": 1
  },
  "tag": {
    "i18n": {
      "eng": "Vengaboys"
    },
    "name": "Vengaboys",
    "repository": "kara.moe",
    "tid": "62a207d6-d4b4-42b0-b430-a17be3500f9e",
    "types": [
      "singers",
      "2"
    ]
  }
}