{
  "header": {
    "description": "Karaoke Mugen Tag File",
    "version": 1
  },
  "tag": {
    "i18n": {
      "eng": "VESPERBELL"
    },
    "name": "VESPERBELL",
    "repository": "kara.moe",
    "tid": "05b625bb-2313-4b6e-95c8-8ba98ba8a79e",
    "types": [
      "singers",
      "2"
    ]
  }
}