{
  "header": {
    "description": "Karaoke Mugen Tag File",
    "version": 1
  },
  "tag": {
    "i18n": {
      "eng": "Vince Clarke"
    },
    "modified_at": "2020-07-03T20:55:39.675Z",
    "name": "Vince Clarke",
    "repository": "kara.moe",
    "tid": "115e54b6-2727-495a-bc9d-34b413923c1a",
    "types": [
      "songwriters",
      "8"
    ]
  }
}