{
  "header": {
    "description": "Karaoke Mugen Tag File",
    "version": 1
  },
  "tag": {
    "i18n": {
      "eng": "Vladimir Cosma"
    },
    "name": "Vladimir Cosma",
    "tid": "0549d703-f4ab-4278-81a9-e1c2798f87a0",
    "types": [
      "songwriters",
      "8"
    ],
    "repository": "kara.moe",
    "modified_at": "2020-03-31T19:04:38.423Z"
  }
}