{
  "header": {
    "description": "Karaoke Mugen Tag File",
    "version": 1
  },
  "tag": {
    "i18n": {
      "eng": "Vladimiro Albera"
    },
    "modified_at": "2021-09-18T20:59:24.178Z",
    "name": "Vladimiro Albera",
    "repository": "kara.moe",
    "tid": "96ef363f-7e0f-4539-8aaa-d6ba0c612a40",
    "types": [
      "songwriters",
      "8"
    ]
  }
}