{
  "header": {
    "description": "Karaoke Mugen Tag File",
    "version": 1
  },
  "tag": {
    "i18n": {
      "eng": "VY1v4"
    },
    "name": "VY1v4",
    "repository": "kara.moe",
    "tid": "6ab4df8d-c727-47ef-bc4a-43347358101d",
    "types": [
      "singers",
      "2"
    ]
  }
}