{
  "header": {
    "description": "Karaoke Mugen Tag File",
    "version": 1
  },
  "tag": {
    "i18n": {
      "eng": "Wakako Yajima"
    },
    "name": "Wakako Yajima",
    "tid": "6b403ce4-4a54-4f8f-b730-c7792b200c6b",
    "types": [
      "songwriters",
      "8"
    ],
    "repository": "kara.moe",
    "modified_at": "2020-03-31T19:04:38.436Z"
  }
}