{
  "header": {
    "description": "Karaoke Mugen Tag File",
    "version": 1
  },
  "tag": {
    "i18n": {
      "eng": "Walküre"
    },
    "name": "Walküre",
    "tid": "6fb7f972-4cac-4be9-83b8-cdcdb6700b5c",
    "types": [
      "singers",
      "2"
    ],
    "repository": "kara.moe",
    "modified_at": "2020-03-31T19:04:38.439Z"
  }
}