{
  "header": {
    "description": "Karaoke Mugen Tag File",
    "version": 1
  },
  "tag": {
    "aliases": [
      "WoF"
    ],
    "i18n": {
      "eng": "Wand of Fortune",
      "jpn": "ワンドオブフォーチュン",
      "qro": "Wand of Fortune"
    },
    "modified_at": "2020-03-31T19:04:33.115Z",
    "name": "Wand of Fortune",
    "repository": "kara.moe",
    "tid": "237fc048-16f8-4c0c-aafb-699a2e8dc542",
    "types": [
      "series",
      "1",
      "franchises",
      "18"
    ]
  }
}