{
  "header": {
    "description": "Karaoke Mugen Tag File",
    "version": 1
  },
  "tag": {
    "i18n": {
      "eng": "Wataru Toshima"
    },
    "name": "Wataru Toshima",
    "tid": "21caa30f-8990-4888-b288-ebe879cb9a98",
    "types": [
      "singers",
      "2"
    ],
    "repository": "kara.moe",
    "modified_at": "2020-03-31T19:04:38.455Z"
  }
}