{
  "header": {
    "description": "Karaoke Mugen Tag File",
    "version": 1
  },
  "tag": {
    "i18n": {
      "eng": "Wén Dǔzhì",
      "chi": "文篤志"
    },
    "modified_at": "2021-03-13T14:16:08.236Z",
    "name": "Wén Dǔzhì",
    "repository": "kara.moe",
    "tid": "95a73c88-039b-43f0-9e8e-780ace559b46",
    "types": [
      "songwriters",
      "8"
    ]
  }
}