{
  "header": {
    "description": "Karaoke Mugen Tag File",
    "version": 1
  },
  "tag": {
    "i18n": {
      "eng": "Wham!"
    },
    "name": "Wham!",
    "repository": "kara.moe",
    "tid": "c6d39d56-c1ba-4bc0-a83c-c83dfd674a08",
    "types": [
      "singergroups",
      "17",
      "singers",
      "2"
    ]
  }
}