{
  "header": {
    "description": "Karaoke Mugen Tag File",
    "version": 1
  },
  "tag": {
    "i18n": {
      "eng": "WHITE ASH"
    },
    "name": "WHITE ASH",
    "tid": "87a82815-b32b-4194-9534-1cbacf777128",
    "types": [
      "singers",
      "2",
      "songwriters",
      "8"
    ],
    "repository": "kara.moe",
    "modified_at": "2020-03-31T19:04:38.463Z"
  }
}