{
  "header": {
    "description": "Karaoke Mugen Tag File",
    "version": 1
  },
  "tag": {
    "i18n": {
      "eng": "William J. Regan"
    },
    "name": "William J. Regan",
    "repository": "kara.moe",
    "tid": "5eb73728-5d87-45fc-a16b-1ecc1ec8e980",
    "types": [
      "songwriters",
      "8"
    ]
  }
}