{
  "header": {
    "description": "Karaoke Mugen Tag File",
    "version": 1
  },
  "tag": {
    "i18n": {
      "eng": "Will Stetson"
    },
    "name": "Will Stetson",
    "repository": "kara.moe",
    "tid": "e57f0e97-3394-4b77-82e9-e4973f92ccb4",
    "types": [
      "singers",
      "2"
    ]
  }
}