{
  "header": {
    "description": "Karaoke Mugen Tag File",
    "version": 1
  },
  "tag": {
    "i18n": {
      "eng": "William Coryn"
    },
    "name": "William Coryn",
    "repository": "kara.moe",
    "tid": "f1c8faaa-c044-4fc0-a27d-558520048498",
    "types": [
      "singers",
      "2"
    ]
  }
}