{
  "header": {
    "description": "Karaoke Mugen Tag File",
    "version": 1
  },
  "tag": {
    "aliases": [
      "Ветер: Дыхание сердца"
    ],
    "external_database_ids": {
      "anilist": 546,
      "myanimelist": 546,
      "kitsu": 504
    },
    "i18n": {
      "eng": "Wind: A Breath of Heart (TV)",
      "jpn": "Wind -a breath of heart- (2004)",
      "qro": "Wind: A Breath of Heart (2004)"
    },
    "modified_at": "2020-07-19T20:07:47.376Z",
    "name": "Wind: A Breath of Heart (2004)",
    "repository": "kara.moe",
    "tid": "53e5d667-8bac-44d8-95bb-faae2ddbf7a7",
    "types": [
      "series",
      "1"
    ]
  }
}