{
  "header": {
    "description": "Karaoke Mugen Tag File",
    "version": 1
  },
  "tag": {
    "i18n": {
      "eng": "Windy-S"
    },
    "name": "Windy-S",
    "tid": "525b4957-bea0-403b-9075-ca85d0a01ddc",
    "types": [
      "singers",
      "2"
    ],
    "repository": "kara.moe",
    "modified_at": "2020-03-31T19:04:38.471Z"
  }
}