{
  "header": {
    "description": "Karaoke Mugen Tag File",
    "version": 1
  },
  "tag": {
    "i18n": {
      "eng": "Wink XY"
    },
    "name": "Wink XY",
    "repository": "kara.moe",
    "tid": "3f30e9aa-8609-43c0-b4ba-fc9d686b215f",
    "types": [
      "singers",
      "2"
    ]
  }
}