{
  "header": {
    "description": "Karaoke Mugen Tag File",
    "version": 1
  },
  "tag": {
    "i18n": {
      "eng": "WITCHCRAFT"
    },
    "name": "WITCHCRAFT",
    "tid": "da886af6-b46d-4b9f-9d1f-d377da52361e",
    "types": [
      "creators",
      "4"
    ],
    "repository": "kara.moe",
    "modified_at": "2020-03-31T19:04:38.474Z"
  }
}