{
  "header": {
    "description": "Karaoke Mugen Tag File",
    "version": 1
  },
  "tag": {
    "i18n": {
      "afr": "Wolof",
      "amh": "Wolof",
      "ara": "الولوف",
      "aze": "Волоф",
      "bak": "Волоф теле",
      "bel": "Wolof",
      "bul": "Волоф",
      "ben": "উওলোফ",
      "bos": "Volof",
      "cat": "Wolof",
      "cze": "Wolof",
      "wel": "Wolof",
      "dan": "Wolof",
      "ger": "Wolof",
      "gre": "Γουόλοφ",
      "eng": "Wolof",
      "epo": "Banjar",
      "spa": "Wolof",
      "est": "Wolof",
      "baq": "Wolofera",
      "per": "Wolof",
      "fin": "Wolof",
      "fre": "Wolof",
      "gle": "Wolof",
      "gla": "Wolof",
      "glg": "Wólof",
      "guj": "વોલોફ",
      "heb": "וולוף",
      "hin": "वोलोफ",
      "hrv": "Volof",
      "hat": "Wolof",
      "hun": "Volof",
      "arm": "Վոլոֆերեն",
      "ind": "Bahasa Wolof",
      "ice": "Íslenska",
      "ita": "Wolof",
      "jpn": "登",
      "jav": "Wolof",
      "geo": "ქართული",
      "kaz": "Волоф",
      "kan": "ವೋಲೋಫ್",
      "kor": "올로프",
      "kir": "Волоф",
      "lat": "Wolof",
      "lit": "Wolof",
      "lav": "Wolof",
      "mlg": "Wolof",
      "mao": "Wolof",
      "mac": "Wolof",
      "mal": "വലഫ്",
      "mon": "Wolof",
      "mar": "हिन्दी",
      "may": "Sebuah",
      "mlt": "Wolof",
      "nep": "हिन्दी",
      "dut": "Wolof",
      "nor": "Wolof",
      "pan": "ਵੋਲੋਫ਼",
      "pol": "Wolof",
      "por": "Wolof",
      "rum": "Wolof",
      "rus": "Волоф",
      "sin": "Wolof",
      "slo": "Html",
      "slv": "Wolof",
      "alb": "Sindisht",
      "srp": "Волоф",
      "sun": "Wolof",
      "swe": "Wolof",
      "swa": "Kiswahili",
      "tam": "ஒலூஃப்",
      "tel": "వొలాఫ్",
      "tgk": "Волоф",
      "tha": "ภาษาวอลอฟ name",
      "tgl": "Wolof",
      "tur": "Wolof",
      "tat": "Волоф теле",
      "ukr": "Волоф",
      "urd": "وولوف",
      "uzb": "Wolof",
      "vie": "Tiếng",
      "xho": "Wolof",
      "yid": "וואָלאָף",
      "chi": "沃洛夫语"
    },
    "name": "wol",
    "tid": "c228c333-176e-412e-9f5a-0925fbf2bd62",
    "types": [
      "langs",
      "5"
    ],
    "repository": "kara.moe",
    "modified_at": "2020-03-31T19:04:38.476Z"
  }
}