{
  "header": {
    "description": "Karaoke Mugen Tag File",
    "version": 1
  },
  "tag": {
    "i18n": {
      "eng": "Wolf Team"
    },
    "name": "Wolf Team",
    "tid": "a2b130fa-7274-404a-9e88-500cc3862d0b",
    "types": [
      "creators",
      "4"
    ],
    "repository": "kara.moe",
    "modified_at": "2020-03-31T19:04:38.477Z"
  }
}