{
  "header": {
    "description": "Karaoke Mugen Tag File",
    "version": 1
  },
  "tag": {
    "i18n": {
      "eng": "Woo Min Lee"
    },
    "name": "Woo Min Lee",
    "repository": "kara.moe",
    "tid": "d7fc78df-3080-4345-8e71-bdac7bd0aa87",
    "types": [
      "songwriters",
      "8"
    ]
  }
}