{
  "header": {
    "description": "Karaoke Mugen Tag File",
    "version": 1
  },
  "tag": {
    "i18n": {
      "eng": "WWE Monday Night RAW"
    },
    "modified_at": "2020-07-16T17:15:41.255Z",
    "name": "WWE Monday Night RAW",
    "repository": "kara.moe",
    "tid": "6922a01d-a529-474d-83b8-56d3eb3b60dc",
    "types": [
      "series",
      "1"
    ]
  }
}