{
  "header": {
    "description": "Karaoke Mugen Tag File",
    "version": 1
  },
  "tag": {
    "i18n": {
      "eng": " X-Men: The Animated Series"
    },
    "modified_at": "2020-03-31T19:04:33.144Z",
    "name": "X-Men",
    "repository": "kara.moe",
    "tid": "7099721f-df3b-4b83-8df5-0e5d85edc162",
    "types": [
      "series",
      "1"
    ]
  }
}