{
  "header": {
    "description": "Karaoke Mugen Tag File",
    "version": 1
  },
  "tag": {
    "i18n": {
      "eng": "Xavier Fagnon"
    },
    "name": "Xavier Fagnon",
    "tid": "db3f560a-b05d-4306-ad11-855425b51be0",
    "types": [
      "singers",
      "2"
    ],
    "repository": "kara.moe",
    "modified_at": "2020-03-31T19:04:38.486Z"
  }
}