{
  "header": {
    "description": "Karaoke Mugen Tag File",
    "version": 1
  },
  "tag": {
    "i18n": {
      "eng": "Xióng Kě",
      "chi": "熊可"
    },
    "modified_at": "2021-03-13T16:56:10.858Z",
    "name": "Xióng Kě",
    "repository": "kara.moe",
    "tid": "a2037067-5ed6-467b-9433-5476f750a3c2",
    "types": [
      "songwriters",
      "8"
    ]
  }
}