{
  "header": {
    "description": "Karaoke Mugen Tag File",
    "version": 1
  },
  "tag": {
    "aliases": [
      "Freshly Baked!! Ja-pan!",
      "Vua bánh mì",
      "Y!!J",
      "YJ",
      "Yakitate",
      "Yakitate Japan",
      "Свежевыпеченный!! Япония!",
      "Японская свежая выпечка",
      "ישר מהתנור! יפן!"
    ],
    "external_database_ids": {
      "anilist": 28,
      "myanimelist": 28,
      "kitsu": 19
    },
    "i18n": {
      "chi": "日式麵包王",
      "eng": "Yakitate!! Japan",
      "fre": "Yakitate!! Ja-pan",
      "jpn": "焼きたて!! ジャぱん",
      "por": "Amassando Ja-pão",
      "tha": "แชมเปี้ยน เจปัง สูตรดังเขย่าโลก!!",
      "qro": "Yakitate!! Japan"
    },
    "modified_at": "2020-06-21T23:45:31.966Z",
    "name": "Yakitate!! Japan",
    "repository": "kara.moe",
    "tid": "8ccb2d2d-9b28-4a3c-aa37-b8b9e4e4f080",
    "types": [
      "series",
      "1"
    ]
  }
}