{
  "header": {
    "description": "Karaoke Mugen Tag File",
    "version": 1
  },
  "tag": {
    "i18n": {
      "eng": "Yama△"
    },
    "name": "Yama△",
    "tid": "875bd7fd-9599-4be0-ab86-f5668fac586a",
    "types": [
      "songwriters",
      "8"
    ],
    "repository": "kara.moe",
    "modified_at": "2020-03-31T19:04:38.500Z"
  }
}