{
  "header": {
    "description": "Karaoke Mugen Tag File",
    "version": 1
  },
  "tag": {
    "aliases": [
      "Traveller of Darkness",
      "Yami To Boushi To Hon No Tabibito",
      "Yami the Hat and the Travelers of the Books",
      "YamiBou",
      "YtBtHnT",
      "boushi"
    ],
    "external_database_ids": {
      "anilist": 497,
      "myanimelist": 497,
      "kitsu": 457
    },
    "i18n": {
      "eng": "Traveller Yami, Hat and Book",
      "jpn": "ヤミと帽子と本の旅人",
      "qro": "Yami to Bôshi to Hon no Tabibito"
    },
    "modified_at": "2020-03-31T19:04:33.160Z",
    "name": "Yami to Bôshi to Hon no Tabibito",
    "repository": "kara.moe",
    "tid": "c68cc8bd-9508-44f8-9c5f-a2aed0b453b8",
    "types": [
      "series",
      "1"
    ]
  }
}