{
  "header": {
    "description": "Karaoke Mugen Tag File",
    "version": 1
  },
  "tag": {
    "i18n": {
      "eng": "Yang Animation Artist"
    },
    "name": "Yang Animation Artist",
    "repository": "kara.moe",
    "tid": "e248581e-2932-4479-81b3-1f2aad4d4056",
    "types": [
      "creators",
      "4"
    ],
    "modified_at": "2020-03-31T19:04:38.509Z"
  }
}