{
  "header": {
    "description": "Karaoke Mugen Tag File",
    "version": 1
  },
  "tag": {
    "i18n": {
      "eng": "Yanosuke"
    },
    "name": "Yanosuke",
    "tid": "d3f4b228-00b9-4842-98db-1aeb87e991ea",
    "types": [
      "songwriters",
      "8"
    ],
    "repository": "kara.moe",
    "modified_at": "2020-03-31T19:04:38.512Z"
  }
}