{
  "header": {
    "description": "Karaoke Mugen Tag File",
    "version": 1
  },
  "tag": {
    "i18n": {
      "eng": "Yasunori Mochizuki"
    },
    "name": "Yasunori Mochizuki",
    "tid": "973a5509-6c17-4a2f-a9f0-02e61b3defc0",
    "types": [
      "songwriters",
      "8"
    ],
    "repository": "kara.moe",
    "modified_at": "2020-03-31T19:04:38.528Z"
  }
}