{
  "header": {
    "description": "Karaoke Mugen Tag File",
    "version": 1
  },
  "tag": {
    "i18n": {
      "eng": "Yasutaka Mizushima"
    },
    "name": "Yasutaka Mizushima",
    "repository": "kara.moe",
    "tid": "22a5db16-6526-4796-89f5-77fdcf0d1aac",
    "types": [
      "songwriters",
      "8"
    ],
    "modified_at": "2020-03-31T19:04:38.536Z"
  }
}