{
  "header": {
    "description": "Karaoke Mugen Tag File",
    "version": 1
  },
  "tag": {
    "i18n": {
      "eng": "Yasu Ichiban"
    },
    "name": "Yasu Ichiban",
    "tid": "f0af9a77-435a-471b-b44e-8c1766b6c257",
    "types": [
      "songwriters",
      "8"
    ],
    "repository": "kara.moe",
    "modified_at": "2020-03-31T19:04:38.515Z"
  }
}