{
  "header": {
    "description": "Karaoke Mugen Tag File",
    "version": 1
  },
  "tag": {
    "aliases": [
      "Yayoi Gotou"
    ],
    "i18n": {
      "eng": "Yayoi Gotô"
    },
    "modified_at": "2021-03-08T21:36:54.056Z",
    "name": "Yayoi Gotô",
    "repository": "kara.moe",
    "tid": "400ee4e6-4808-4949-85c2-50b50c4410df",
    "types": [
      "singers",
      "2"
    ]
  }
}