{
  "header": {
    "description": "Karaoke Mugen Tag File",
    "version": 1
  },
  "tag": {
    "i18n": {
      "eng": "YeLLOW Generation"
    },
    "name": "YeLLOW Generation",
    "tid": "bc7665f2-a1fc-40aa-ac27-3f4a89b42456",
    "types": [
      "singers",
      "2",
      "songwriters",
      "8"
    ],
    "repository": "kara.moe",
    "modified_at": "2020-03-31T19:04:38.540Z"
  }
}