{
  "header": {
    "description": "Karaoke Mugen Tag File",
    "version": 1
  },
  "tag": {
    "i18n": {
      "afr": "Jiddisj",
      "amh": "ይታያል",
      "ara": "اليديشية",
      "aze": "Yəhudi",
      "bak": "Идиш",
      "bel": "Ідыш",
      "bul": "Идиш",
      "ben": "য়িদ্দিশ",
      "bos": "Jidiš",
      "cat": "El jiddisch",
      "cze": "Jidiš",
      "wel": "Iddeweg",
      "dan": "Jiddisch",
      "ger": "Jiddisch",
      "gre": "Γίντις",
      "eng": "Yiddish",
      "epo": "La jida",
      "spa": "Yiddish",
      "est": "Jidiši",
      "baq": "Yiddish",
      "per": "یدی",
      "fin": "Jiddish",
      "fre": "Yiddish",
      "gle": "Giúdais",
      "gla": "Sin leugh e iùdhais",
      "glg": "Yiddish",
      "guj": "યિદ્દિશ",
      "heb": "יידיש",
      "hin": "येहुदी",
      "hrv": "Jidiš",
      "hat": "Yiddish",
      "hun": "Jiddis",
      "arm": "Իդիշ",
      "ind": "Yiddish",
      "ice": "Jiddíska",
      "ita": "Yiddish",
      "jpn": "Yiddish",
      "jav": "Yiddish",
      "geo": "იდიში",
      "kaz": "Идиш",
      "kan": "ಯಡ್ಡಿಶ್",
      "kor": "Yiddish",
      "kir": "Идиш",
      "lat": "Vernaculorum",
      "lit": "Jidiš",
      "lav": "Jidiša",
      "mlg": "Yiddish",
      "mao": "Yiddish",
      "mac": "Јидиш",
      "mal": "യിദ്ദിഷ്",
      "mon": "Еймен хэл",
      "mar": "हिलिगेनॉन",
      "may": "Yiddish",
      "mlt": "}",
      "nep": "यिद्दिस",
      "dut": "Jiddisch",
      "nor": "Jiddisch",
      "pan": "ਯਿੱਦੀ",
      "pol": "Jidysz",
      "por": "Iídiche",
      "rum": "Idiș",
      "rus": "Идиш",
      "sin": "යුදෙව්",
      "slo": "Jidiš",
      "slv": "Jidiš",
      "alb": "Jidish",
      "srp": "Јидиш",
      "sun": "Mari",
      "swe": "Jiddisch",
      "swa": "Yiddish",
      "tam": "இத்திஷ்",
      "tel": "Yiddish",
      "tgk": "Идишӣ",
      "tha": "ภาษายิดดิช name",
      "tgl": "Yiddish",
      "tur": "Yidiş",
      "tat": "Идиш",
      "ukr": "Ідиш",
      "urd": "یدش",
      "uzb": "Idish",
      "vie": "Yiddish",
      "xho": "Yiddishname",
      "yid": "ייִדיש",
      "chi": "犹太语"
    },
    "name": "yid",
    "tid": "41a4b38b-adac-43ff-914c-d36b8f8f7d04",
    "types": [
      "langs",
      "5"
    ],
    "repository": "kara.moe",
    "modified_at": "2020-03-31T19:04:38.546Z"
  }
}