{
  "header": {
    "description": "Karaoke Mugen Tag File",
    "version": 1
  },
  "tag": {
    "external_database_ids": {
      "anilist": 98249,
      "myanimelist": 34792,
      "kitsu": 13253
    },
    "i18n": {
      "eng": "Lu Over the Wall",
      "fre": "Lou et l'Île aux Sirènes",
      "jpn": "夜明け告げるルーのうた",
      "qro": "Yoake Tsugeru Lu no Uta"
    },
    "modified_at": "2020-03-31T19:04:33.164Z",
    "name": "Yoake Tsugeru Lu no Uta",
    "repository": "kara.moe",
    "tid": "c209e1f3-077d-4460-a883-789dd5d985f3",
    "types": [
      "series",
      "1"
    ]
  }
}