{
  "header": {
    "description": "Karaoke Mugen Tag File",
    "version": 1
  },
  "tag": {
    "i18n": {
      "jpn": "よだ",
      "qro": "yoda"
    },
    "name": "yoda",
    "repository": "kara.moe",
    "tid": "fa5639a2-c9f5-44cb-9b94-76c2af0e018a",
    "types": [
      "creators",
      "4"
    ]
  }
}