{
  "header": {
    "description": "Karaoke Mugen Tag File",
    "version": 1
  },
  "tag": {
    "i18n": {
      "eng": "Yoko Nakahara"
    },
    "name": "Yoko Nakahara",
    "tid": "311f557d-22cb-489d-b9e2-91b99661e8ab",
    "types": [
      "songwriters",
      "8"
    ],
    "repository": "kara.moe",
    "modified_at": "2020-03-31T19:04:38.554Z"
  }
}