{
  "header": {
    "description": "Karaoke Mugen Tag File",
    "version": 1
  },
  "tag": {
    "i18n": {
      "eng": "Yoma"
    },
    "modified_at": "2021-09-04T19:09:37.185Z",
    "name": "Yoma",
    "repository": "kara.moe",
    "tid": "301194c1-52d7-4535-b321-7fc095816d14",
    "types": [
      "songwriters",
      "8"
    ]
  }
}