{
  "header": {
    "description": "Karaoke Mugen Tag File",
    "version": 1
  },
  "tag": {
    "i18n": {
      "eng": "Yoohei Kawakami"
    },
    "name": "Yoohei Kawakami",
    "repository": "kara.moe",
    "tid": "e23180ef-301d-44bf-a25d-818ad729fb38",
    "types": [
      "singers",
      "2"
    ]
  }
}