{
  "header": {
    "description": "Karaoke Mugen Tag File",
    "version": 1
  },
  "tag": {
    "i18n": {
      "eng": "YOPPY"
    },
    "name": "YOPPY",
    "tid": "4bade579-d481-4dd5-af53-6a8c7663d1d1",
    "types": [
      "songwriters",
      "8"
    ],
    "repository": "kara.moe",
    "modified_at": "2020-03-31T19:04:38.563Z"
  }
}