{
  "header": {
    "description": "Karaoke Mugen Tag File",
    "version": 1
  },
  "tag": {
    "external_database_ids": {
      "anilist": 97917,
      "myanimelist": 34537,
      "kitsu": 13138
    },
    "i18n": {
      "eng": "The Night Is Short, Walk On Girl",
      "jpn": "夜は短し歩けよ乙女",
      "chi": "春宵苦短,少女前进吧!",
      "kor": "밤은 짧아 걸어 아가씨야",
      "qro": "Yoru wa Mijikashi Aruke yo Otome"
    },
    "modified_at": "2020-07-21T20:22:02.677Z",
    "name": "Yoru wa Mijikashi Aruke yo Otome",
    "repository": "kara.moe",
    "tid": "18c329f0-89c5-482e-8917-efa45f52e8f8",
    "types": [
      "series",
      "1"
    ]
  }
}