{
  "header": {
    "description": "Karaoke Mugen Tag File",
    "version": 1
  },
  "tag": {
    "i18n": {
      "eng": "Yoshimi"
    },
    "name": "Yoshimi",
    "tid": "6cf73b44-0706-49da-b1c9-1d947765f376",
    "types": [
      "songwriters",
      "8"
    ],
    "repository": "kara.moe",
    "modified_at": "2020-03-31T19:04:38.603Z"
  }
}