{
  "header": {
    "description": "Karaoke Mugen Tag File",
    "version": 1
  },
  "tag": {
    "i18n": {
      "eng": "Yoshiharu Abe"
    },
    "name": "Yoshiharu Abe",
    "repository": "kara.moe",
    "tid": "d2180790-9527-438a-bcb3-a0c0a86583dd",
    "types": [
      "songwriters",
      "8"
    ],
    "modified_at": "2020-03-31T19:04:38.578Z"
  }
}