{
  "header": {
    "description": "Karaoke Mugen Tag File",
    "version": 1
  },
  "tag": {
    "aliases": [
      "Nanjou"
    ],
    "i18n": {
      "eng": "Yoshino Nanjô"
    },
    "name": "Yoshino Nanjô",
    "repository": "kara.moe",
    "tid": "7779578c-3d4e-4aa5-8f54-77023879e8e6",
    "types": [
      "singers",
      "2",
      "songwriters",
      "8"
    ]
  }
}