{
  "header": {
    "description": "Karaoke Mugen Tag File",
    "version": 1
  },
  "tag": {
    "i18n": {
      "eng": "Yoshiyuki Oosawa"
    },
    "name": "Yoshiyuki Oosawa",
    "tid": "9032ba62-bbf7-4643-bc2f-cadf146acc49",
    "types": [
      "singers",
      "2",
      "songwriters",
      "8"
    ],
    "repository": "kara.moe",
    "modified_at": "2020-03-31T19:04:38.618Z"
  }
}