{
  "header": {
    "description": "Karaoke Mugen Tag File",
    "version": 1
  },
  "tag": {
    "i18n": {
      "eng": "Yoshitaka Takezawa"
    },
    "name": "Yoshitaka Takezawa",
    "tid": "05953a52-6202-4947-8625-65f1b596df0d",
    "types": [
      "songwriters",
      "8"
    ],
    "repository": "kara.moe",
    "modified_at": "2020-03-31T19:04:38.612Z"
  }
}