{
  "header": {
    "description": "Karaoke Mugen Tag File",
    "version": 1
  },
  "tag": {
    "i18n": {
      "eng": "Yoshiko Sakakibara"
    },
    "name": "Yoshiko Sakakibara",
    "tid": "72839199-3ad0-4e8e-98e1-6ab51349ec8e",
    "types": [
      "singers",
      "2"
    ],
    "repository": "kara.moe",
    "modified_at": "2020-03-31T19:04:38.596Z"
  }
}