{
  "header": {
    "description": "Karaoke Mugen Tag File",
    "version": 1
  },
  "tag": {
    "i18n": {
      "eng": "Yoshiaki Dewa"
    },
    "name": "Yoshiaki Dewa",
    "tid": "c01fe3d2-92cb-4a8d-90c1-9de20842e57b",
    "types": [
      "songwriters",
      "8"
    ],
    "repository": "kara.moe",
    "modified_at": "2020-03-31T19:04:38.568Z"
  }
}