{
  "header": {
    "description": "Karaoke Mugen Tag File",
    "version": 1
  },
  "tag": {
    "i18n": {
      "eng": "Yôjirô Noda"
    },
    "name": "Yôjirô Noda",
    "repository": "kara.moe",
    "tid": "3c83fdee-20dc-4a11-ba73-90658ce6f406",
    "types": [
      "singers",
      "2",
      "songwriters",
      "8"
    ]
  }
}