{
  "header": {
    "description": "Karaoke Mugen Tag File",
    "version": 1
  },
  "tag": {
    "aliases": [
      "Welcome to the Classroom of the Elite",
      "Youjitsu",
      "Youkoso Jitsuryoku Shijou Shugi no Kyoushitsu e",
      "youkoso",
      "shijou",
      "kyoushitsu"
    ],
    "external_database_ids": {
      "anilist": 98659,
      "myanimelist": 35507,
      "kitsu": 13503
    },
    "i18n": {
      "eng": "Classroom of the Elite",
      "jpn": "ようこそ実力至上主義の教室へ",
      "kor": "어서오세요 실력지상주의의 교실에",
      "qro": "Yôkoso Jitsuryoku Shijô Shugi no Kyôshitsu e"
    },
    "modified_at": "2020-03-31T19:04:33.174Z",
    "name": "Yôkoso Jitsuryoku Shijô Shugi no Kyôshitsu e",
    "repository": "kara.moe",
    "tid": "65fa7b8f-2d3b-4553-a025-7a85b85ffd42",
    "types": [
      "series",
      "1"
    ]
  }
}