{
  "header": {
    "description": "Karaoke Mugen Tag File",
    "version": 1
  },
  "tag": {
    "i18n": {
      "eng": "Yôko Aki",
      "qro": "Yôko Aki",
      "jpn": "阿木燿子"
    },
    "name": "Yôko Aki",
    "repository": "kara.moe",
    "tid": "932de15c-25f7-4858-a66c-4341445f5536",
    "types": [
      "songwriters",
      "8"
    ]
  }
}