{
  "header": {
    "description": "Karaoke Mugen Tag File",
    "version": 1
  },
  "tag": {
    "aliases": [
      "Youko Gunjima"
    ],
    "i18n": {
      "eng": "Yôko Gunjima"
    },
    "modified_at": "2020-08-17T15:11:24.059Z",
    "name": "Yôko Gunjima",
    "repository": "kara.moe",
    "tid": "3ad4dc06-0d1d-4873-a844-74b7684a4faa",
    "types": [
      "songwriters",
      "8"
    ]
  }
}