{
  "header": {
    "description": "Karaoke Mugen Tag File",
    "version": 1
  },
  "tag": {
    "aliases": [
      "YBJ",
      "ヤング ブラックジャック"
    ],
    "external_database_ids": {
      "anilist": 21187,
      "myanimelist": 30740,
      "kitsu": 10914
    },
    "i18n": {
      "eng": "Young Black Jack",
      "jpn": "ヤング ブラック・ジャック",
      "qro": "Young Black Jack"
    },
    "modified_at": "2020-03-31T19:04:33.174Z",
    "name": "Young Black Jack",
    "repository": "kara.moe",
    "tid": "b078e18d-d4be-479d-ad08-c69fd8122f96",
    "types": [
      "series",
      "1"
    ]
  }
}