{
  "header": {
    "description": "Karaoke Mugen Tag File",
    "version": 1
  },
  "tag": {
    "i18n": {
      "eng": "yousa"
    },
    "modified_at": "2021-03-23T21:55:23.835Z",
    "name": "yousa",
    "repository": "kara.moe",
    "tid": "d47abd96-d672-4eee-8042-89dd7a540186",
    "types": [
      "singers",
      "2"
    ]
  }
}