{
  "header": {
    "description": "Karaoke Mugen Tag File",
    "version": 1
  },
  "tag": {
    "i18n": {
      "eng": "Yôsuke Satô"
    },
    "name": "Yôsuke Satô",
    "tid": "6de1ba6b-edd0-4579-a195-b2be236d314b",
    "types": [
      "songwriters",
      "8"
    ],
    "repository": "kara.moe",
    "modified_at": "2020-03-31T19:04:38.658Z"
  }
}