{
  "header": {
    "description": "Karaoke Mugen Tag File",
    "version": 1
  },
  "tag": {
    "aliases": [
      "yqhnu"
    ],
    "external_database_ids": {
      "anilist": 8457,
      "myanimelist": 8457,
      "kitsu": 5343
    },
    "i18n": {
      "eng": "Yozakura Quartet: Hoshi no Umi",
      "jpn": "夜桜四重奏 ~ホシノウミ~",
      "qro": "Yozakura Quartet: Hoshi no Umi"
    },
    "modified_at": "2020-11-30T22:28:18.825Z",
    "name": "Yozakura Quartet: Hoshi no Umi",
    "repository": "kara.moe",
    "tid": "404f41bc-e6c9-42ff-8e1a-76405f995c17",
    "types": [
      "series",
      "1"
    ]
  }
}