{
  "header": {
    "description": "Karaoke Mugen Tag File",
    "version": 1
  },
  "tag": {
    "i18n": {
      "eng": "Yua Shinno"
    },
    "name": "Yua Shinno",
    "repository": "kara.moe",
    "tid": "84458ae6-27a9-4f44-99ff-e5d301587edb",
    "types": [
      "songwriters",
      "8"
    ]
  }
}