{
  "header": {
    "description": "Karaoke Mugen Tag File",
    "version": 1
  },
  "tag": {
    "i18n": {
      "eng": "YUC'e"
    },
    "name": "YUC'e",
    "tid": "066aa6f0-9f2f-403b-8850-263632cdf206",
    "types": [
      "songwriters",
      "8"
    ],
    "repository": "kara.moe",
    "modified_at": "2020-03-31T19:04:38.667Z"
  }
}