{
  "header": {
    "description": "Karaoke Mugen Tag File",
    "version": 1
  },
  "tag": {
    "i18n": {
      "eng": "Yucca"
    },
    "name": "Yucca",
    "tid": "17e5aba6-82e7-4c28-867b-8bcf996fa368",
    "types": [
      "singers",
      "2"
    ],
    "repository": "kara.moe",
    "modified_at": "2020-03-31T19:04:38.667Z"
  }
}