{
  "header": {
    "description": "Karaoke Mugen Tag File",
    "version": 1
  },
  "tag": {
    "i18n": {
      "eng": "Yui Ishikawa"
    },
    "name": "Yui Ishikawa",
    "tid": "b22eb916-87f8-48df-88de-d46dd0c54846",
    "types": [
      "singers",
      "2"
    ],
    "repository": "kara.moe",
    "modified_at": "2020-03-31T19:04:38.672Z"
  }
}