{
  "header": {
    "description": "Karaoke Mugen Tag File",
    "version": 1
  },
  "tag": {
    "i18n": {
      "eng": "Yuiko"
    },
    "name": "Yuiko",
    "repository": "kara.moe",
    "tid": "2b823a67-ed52-42e4-a872-2348e45d5286",
    "types": [
      "singers",
      "2"
    ]
  }
}