{
  "header": {
    "description": "Karaoke Mugen Tag File",
    "version": 1
  },
  "tag": {
    "i18n": {
      "eng": "YUKA (moumoon)"
    },
    "name": "YUKA (moumoon)",
    "tid": "014f90a1-c480-4c9c-8b1e-4723ebd061fe",
    "types": [
      "songwriters",
      "8",
      "singers",
      "2"
    ],
    "repository": "kara.moe",
    "modified_at": "2020-03-31T19:04:38.686Z"
  }
}