{
  "header": {
    "description": "Karaoke Mugen Tag File",
    "version": 1
  },
  "tag": {
    "i18n": {
      "eng": "Yukari Tamura"
    },
    "name": "Yukari Tamura",
    "tid": "944dbf1d-42c3-482d-94c2-f5bc6474a573",
    "types": [
      "singers",
      "2"
    ],
    "repository": "kara.moe",
    "modified_at": "2020-03-31T19:04:38.700Z"
  }
}