{
  "header": {
    "description": "Karaoke Mugen Tag File",
    "version": 1
  },
  "tag": {
    "i18n": {
      "jpn": "平井 佑果",
      "qro": "Yuka Hirai"
    },
    "name": "Yuka Hirai",
    "repository": "kara.moe",
    "tid": "64808016-a626-4e4d-bf97-44244d363020",
    "types": [
      "songwriters",
      "8"
    ]
  }
}