{
  "header": {
    "description": "Karaoke Mugen Tag File",
    "version": 1
  },
  "tag": {
    "i18n": {
      "eng": "Yuka Tsujiyoko"
    },
    "name": "Yuka Tsujiyoko",
    "tid": "48b14145-512e-456e-b91d-9b5d08ec0347",
    "types": [
      "songwriters",
      "8"
    ],
    "repository": "kara.moe",
    "modified_at": "2020-03-31T19:04:38.694Z"
  }
}