{
  "header": {
    "description": "Karaoke Mugen Tag File",
    "version": 1
  },
  "tag": {
    "i18n": {
      "eng": "Yuka Saitô"
    },
    "name": "Yuka Saitô",
    "tid": "6051ef3a-9afb-49de-b91c-89139ff9e812",
    "types": [
      "singers",
      "2"
    ],
    "repository": "kara.moe",
    "modified_at": "2020-03-31T19:04:38.692Z"
  }
}