{
  "header": {
    "description": "Karaoke Mugen Tag File",
    "version": 1
  },
  "tag": {
    "i18n": {
      "eng": "YukaDD"
    },
    "name": "YukaDD",
    "repository": "kara.moe",
    "tid": "32e6381d-b026-4141-b9fe-5df554865525",
    "types": [
      "singers",
      "2"
    ]
  }
}