{
  "header": {
    "description": "Karaoke Mugen Tag File",
    "version": 1
  },
  "tag": {
    "i18n": {
      "eng": "Yuki Kanno"
    },
    "name": "Yuki Kanno",
    "tid": "45f63098-2704-4604-b8b6-79a97b251843",
    "types": [
      "singers",
      "2"
    ],
    "repository": "kara.moe",
    "modified_at": "2020-03-31T19:04:38.707Z"
  }
}