{
  "header": {
    "description": "Karaoke Mugen Tag File",
    "version": 1
  },
  "tag": {
    "i18n": {
      "eng": "Yukiko Mori"
    },
    "name": "Yukiko Mori",
    "tid": "0f0f9ddc-c5d0-4438-bdc8-c4b99ffa6d5e",
    "types": [
      "songwriters",
      "8"
    ],
    "repository": "kara.moe",
    "modified_at": "2020-03-31T19:04:38.723Z"
  }
}