{
  "header": {
    "description": "Karaoke Mugen Tag File",
    "version": 1
  },
  "tag": {
    "i18n": {
      "eng": "Yukiko Iwai"
    },
    "name": "Yukiko Iwai",
    "tid": "590c9e49-e50b-44cb-bfdf-7d33c2a585a5",
    "types": [
      "singers",
      "2"
    ],
    "repository": "kara.moe",
    "modified_at": "2020-03-31T19:04:38.722Z"
  }
}