{
  "header": {
    "description": "Karaoke Mugen Tag File",
    "version": 1
  },
  "tag": {
    "i18n": {
      "eng": "Yuki Minase"
    },
    "name": "Yuki Minase",
    "repository": "kara.moe",
    "tid": "27b1e1db-6643-4f70-8715-1adf5023b58c",
    "types": [
      "singers",
      "2"
    ]
  }
}