{
  "header": {
    "description": "Karaoke Mugen Tag File",
    "version": 1
  },
  "tag": {
    "i18n": {
      "eng": "Yumeha Kôda"
    },
    "name": "Yumeha Kôda",
    "tid": "fd4434b6-05e7-4bd0-9a61-eeeb163b1ba1",
    "types": [
      "singers",
      "2"
    ],
    "repository": "kara.moe",
    "modified_at": "2020-03-31T19:04:38.734Z"
  }
}