{
  "header": {
    "description": "Karaoke Mugen Tag File",
    "version": 1
  },
  "tag": {
    "i18n": {
      "jpn": "夢ノ咲ドリームスターズ",
      "qro": "Yumenosaki Dream Stars"
    },
    "name": "Yumenosaki Dream Stars",
    "repository": "kara.moe",
    "tid": "d0dcf0b4-313a-4787-a873-da48244f3075",
    "types": [
      "singergroups",
      "17"
    ]
  }
}