{
  "header": {
    "description": "Karaoke Mugen Tag File",
    "version": 1
  },
  "tag": {
    "i18n": {
      "eng": "Yume Takeuchi"
    },
    "modified_at": "2021-09-08T21:12:54.735Z",
    "name": "Yume Takeuchi",
    "repository": "kara.moe",
    "tid": "6e7c9e1e-e433-4d6f-a717-b9532c7e2b6f",
    "types": [
      "singers",
      "2"
    ]
  }
}