{
  "header": {
    "description": "Karaoke Mugen Tag File",
    "version": 1
  },
  "tag": {
    "i18n": {
      "eng": "Yumi Kinoshita"
    },
    "name": "Yumi Kinoshita",
    "tid": "b9ac5016-8610-44de-9b44-b457bcabea11",
    "types": [
      "singers",
      "2"
    ],
    "repository": "kara.moe",
    "modified_at": "2020-03-31T19:04:38.741Z"
  }
}