{
  "header": {
    "description": "Karaoke Mugen Tag File",
    "version": 1
  },
  "tag": {
    "i18n": {
      "eng": "Yumiko Kosaka"
    },
    "name": "Yumiko Kosaka",
    "tid": "73371fea-fd63-4dd7-8901-5da08ea6d8ed",
    "types": [
      "singers",
      "2",
      "songwriters",
      "8"
    ],
    "repository": "kara.moe",
    "modified_at": "2020-03-31T19:04:38.749Z"
  }
}