{
  "header": {
    "description": "Karaoke Mugen Tag File",
    "version": 1
  },
  "tag": {
    "i18n": {
      "eng": "Yumiko Kishinami"
    },
    "modified_at": "2021-07-03T20:27:20.613Z",
    "name": "Yumiko Kishinami",
    "repository": "kara.moe",
    "tid": "4a287d74-0e05-4ee2-bd5e-ebbd8c9d8b24",
    "types": [
      "songwriters",
      "8"
    ]
  }
}