{
  "header": {
    "description": "Karaoke Mugen Tag File",
    "version": 1
  },
  "tag": {
    "aliases": [
      "STAR☆ANIS",
      "STAR ANIS"
    ],
    "i18n": {
      "eng": "Yuna Ichikura"
    },
    "modified_at": "2020-11-22T18:06:09.201Z",
    "name": "Yuna Ichikura",
    "repository": "kara.moe",
    "tid": "2a2e195a-bc93-49dc-b43f-69a7e515b2b1",
    "types": [
      "singers",
      "2"
    ]
  }
}