{
  "header": {
    "description": "Karaoke Mugen Tag File",
    "version": 1
  },
  "tag": {
    "aliases": [
      "YouKnowMe"
    ],
    "i18n": {
      "eng": "Yunomi-P",
      "jpn": "ゆのみP"
    },
    "name": "Yunomi-P",
    "repository": "kara.moe",
    "tid": "5ea1b98e-421a-4ea4-87e8-ab8e0428ef99",
    "types": [
      "creators",
      "4"
    ]
  }
}