{
  "header": {
    "description": "Karaoke Mugen Tag File",
    "version": 1
  },
  "tag": {
    "external_database_ids": {
      "anilist": 12437,
      "kitsu": 6731,
      "myanimelist": 12437
    },
    "i18n": {
      "eng": "Yuri Seijin Naoko-san",
      "jpn": "百合星人ナオコサン",
      "qro": "Yuri Seijin Naoko-san"
    },
    "name": "Yuri Seijin Naoko-san",
    "repository": "kara.moe",
    "tid": "9ed2c2dc-7d6e-4046-afa2-670993c60aba",
    "types": [
      "series",
      "1"
    ]
  }
}