{
  "header": {
    "description": "Karaoke Mugen Tag File",
    "version": 1
  },
  "tag": {
    "i18n": {
      "eng": "Yuri Komori"
    },
    "name": "Yuri Komori",
    "repository": "kara.moe",
    "tid": "f818d231-0b49-4b4b-a977-8d5b2cdce16c",
    "types": [
      "singers",
      "2"
    ]
  }
}