{
  "header": {
    "description": "Karaoke Mugen Tag File",
    "version": 1
  },
  "tag": {
    "i18n": {
      "eng": "Yurika (Area-ZERO)"
    },
    "name": "Yurika (Area-ZERO)",
    "tid": "ddf4648f-6a44-42fc-8ce4-b059e6afd023",
    "types": [
      "singers",
      "2"
    ],
    "repository": "kara.moe",
    "modified_at": "2020-03-31T19:04:38.766Z"
  }
}