{
  "header": {
    "description": "Karaoke Mugen Tag File",
    "version": 1
  },
  "tag": {
    "i18n": {
      "eng": "Yurina Fukuhara"
    },
    "name": "Yurina Fukuhara",
    "tid": "a5d1be9a-e30b-4fda-b4a6-e8075441144e",
    "types": [
      "singers",
      "2"
    ],
    "repository": "kara.moe",
    "modified_at": "2020-03-31T19:04:38.771Z"
  }
}