{
  "header": {
    "description": "Karaoke Mugen Tag File",
    "version": 1
  },
  "tag": {
    "i18n": {
      "eng": "Yuro Mashima"
    },
    "name": "Yuro Mashima",
    "repository": "kara.moe",
    "tid": "72172118-7105-46b0-9ea0-bd879f13794c",
    "types": [
      "songwriters",
      "8"
    ]
  }
}