{
  "header": {
    "description": "Karaoke Mugen Tag File",
    "version": 1
  },
  "tag": {
    "aliases": [
      "Yurukyan",
      "camp"
    ],
    "external_database_ids": {
      "anilist": 104459,
      "kitsu": 41976,
      "myanimelist": 38474
    },
    "i18n": {
      "eng": "Laid-Back Camp (season 2)",
      "fre": "Yuru Camp – Au grand air (saison 2)",
      "jpn": "ゆるキャン△ SEASON2",
      "qro": "Yuru Camp△ season 2"
    },
    "name": "Yuru Camp△ season 2",
    "repository": "kara.moe",
    "tid": "cddc5b56-d991-4df8-a100-35c6a57bfbfe",
    "types": [
      "series",
      "1"
    ]
  }
}