{
  "header": {
    "description": "Karaoke Mugen Tag File",
    "version": 1
  },
  "tag": {
    "aliases": [
      "Yuru Yuri Nachuyachumi! Plus",
      "nachuyachumi plus"
    ],
    "external_database_ids": {
      "anilist": 21214,
      "myanimelist": 30902,
      "kitsu": 11022
    },
    "i18n": {
      "eng": "Yuru Yuri Nachuyachumi!+",
      "jpn": "ゆるゆり なちゅやちゅみ!+",
      "qro": "Yuru Yuri Nachuyachumi!+"
    },
    "modified_at": "2020-03-31T19:04:33.191Z",
    "name": "Yuru Yuri Nachuyachumi!+",
    "repository": "kara.moe",
    "tid": "9b5726a0-31cb-4500-bc90-78bb6b751ee3",
    "types": [
      "series",
      "1"
    ]
  }
}