{
  "header": {
    "description": "Karaoke Mugen Tag File",
    "version": 1
  },
  "tag": {
    "i18n": {
      "eng": "Yuta Yamada"
    },
    "name": "Yuta Yamada",
    "repository": "kara.moe",
    "tid": "a7292c00-dd82-43ed-b379-a0cbf708b0ff",
    "types": [
      "songwriters",
      "8",
      "singers",
      "2"
    ]
  }
}