{
  "header": {
    "description": "Karaoke Mugen Tag File",
    "version": 1
  },
  "tag": {
    "i18n": {
      "eng": "Yûgiri"
    },
    "name": "Yûgiri",
    "tid": "09357348-4418-485d-898d-0994ed4f6967",
    "types": [
      "songwriters",
      "8"
    ],
    "repository": "kara.moe",
    "modified_at": "2020-03-31T19:04:38.787Z"
  }
}