{
  "header": {
    "description": "Karaoke Mugen Tag File",
    "version": 1
  },
  "tag": {
    "i18n": {
      "eng": "Yûichi Jose"
    },
    "name": "Yûichi Jose",
    "repository": "kara.moe",
    "tid": "38a241ee-b6ae-4705-8434-386aaf3867d8",
    "types": [
      "singers",
      "2"
    ]
  }
}