{
  "header": {
    "description": "Karaoke Mugen Tag File",
    "version": 1
  },
  "tag": {
    "i18n": {
      "eng": "Yûichi Ichikawa"
    },
    "name": "Yûichi Ichikawa",
    "tid": "04ea83eb-b6cd-4a3a-9d67-6f9fbb40e33c",
    "types": [
      "songwriters",
      "8"
    ],
    "repository": "kara.moe",
    "modified_at": "2020-03-31T19:04:38.790Z"
  }
}