{
  "header": {
    "description": "Karaoke Mugen Tag File",
    "version": 1
  },
  "tag": {
    "i18n": {
      "eng": "Yûichi Ikuzawa"
    },
    "name": "Yûichi Ikuzawa",
    "tid": "edc24936-e760-4fff-ba6e-b941684eed1a",
    "types": [
      "singers",
      "2",
      "songwriters",
      "8"
    ],
    "repository": "kara.moe",
    "modified_at": "2020-03-31T19:04:38.791Z"
  }
}