{
  "header": {
    "description": "Karaoke Mugen Tag File",
    "version": 1
  },
  "tag": {
    "i18n": {
      "eng": "Yûji Hamasaki"
    },
    "name": "Yûji Hamasaki",
    "tid": "4e7493d8-f0f4-4c00-9828-0b081aef9ed1",
    "types": [
      "songwriters",
      "8"
    ],
    "repository": "kara.moe",
    "modified_at": "2020-03-31T19:04:38.795Z"
  }
}