{
  "header": {
    "description": "Karaoke Mugen Tag File",
    "version": 1
  },
  "tag": {
    "i18n": {
      "eng": "Yûki Misao"
    },
    "name": "Yûki Misao",
    "tid": "141fdefe-8346-413a-82ad-a21b9871dbfd",
    "types": [
      "songwriters",
      "8"
    ],
    "repository": "kara.moe",
    "modified_at": "2020-03-31T19:04:38.810Z"
  }
}