{
  "header": {
    "description": "Karaoke Mugen Tag File",
    "version": 1
  },
  "tag": {
    "i18n": {
      "eng": "Yûki Shirai"
    },
    "name": "Yûki Shirai",
    "tid": "d077f16e-8e17-40ff-9860-1f8ebd9ad5a5",
    "types": [
      "songwriters",
      "8"
    ],
    "repository": "kara.moe",
    "modified_at": "2020-03-31T19:04:38.815Z"
  }
}