{
  "header": {
    "description": "Karaoke Mugen Tag File",
    "version": 1
  },
  "tag": {
    "i18n": {
      "eng": "Yûkô Kusunoki"
    },
    "name": "Yûkô Kusunoki",
    "tid": "e1006275-b73b-45d4-b9e1-a583f35b729e",
    "types": [
      "singers",
      "2"
    ],
    "repository": "kara.moe",
    "modified_at": "2020-03-31T19:04:38.827Z"
  }
}