{
  "header": {
    "description": "Karaoke Mugen Tag File",
    "version": 1
  },
  "tag": {
    "i18n": {
      "eng": "Yûki Yonai"
    },
    "name": "Yûki Yonai",
    "tid": "6eafaead-7482-4b91-b711-8c4c410e4dbc",
    "types": [
      "singers",
      "2"
    ],
    "repository": "kara.moe",
    "modified_at": "2020-03-31T19:04:38.818Z"
  }
}