{
  "header": {
    "description": "Karaoke Mugen Tag File",
    "version": 1
  },
  "tag": {
    "i18n": {
      "eng": "Yûka Maeda"
    },
    "name": "Yûka Maeda",
    "tid": "f9a46260-312a-486e-8328-85203945e533",
    "types": [
      "singers",
      "2"
    ],
    "repository": "kara.moe",
    "modified_at": "2020-03-31T19:04:38.801Z"
  }
}