{
  "header": {
    "description": "Karaoke Mugen Tag File",
    "version": 1
  },
  "tag": {
    "i18n": {
      "eng": "Yûko Yamaji"
    },
    "name": "Yûko Yamaji",
    "tid": "deae8e2c-346e-4efd-b6b1-fa0b4809ced2",
    "types": [
      "singers",
      "2"
    ],
    "repository": "kara.moe",
    "modified_at": "2020-03-31T19:04:38.826Z"
  }
}