{
  "header": {
    "description": "Karaoke Mugen Tag File",
    "version": 1
  },
  "tag": {
    "aliases": [
      "Yuusuke Kobayashi"
    ],
    "i18n": {
      "eng": "Yûsuke Kobayashi"
    },
    "modified_at": "2020-04-18T17:55:44.281Z",
    "name": "Yûsuke Kobayashi",
    "repository": "kara.moe",
    "tid": "faf6af97-472d-494c-890b-0e19a74414a0",
    "types": [
      "singers",
      "2"
    ]
  }
}