{
  "header": {
    "description": "Karaoke Mugen Tag File",
    "version": 1
  },
  "tag": {
    "aliases": [
      "Yuusha Keisatsu J-Decker",
      "yuusha"
    ],
    "external_database_ids": {
      "anilist": 5075,
      "myanimelist": 5075,
      "kitsu": 3916
    },
    "i18n": {
      "eng": "Brave Police J-Decker",
      "jpn": "勇者警察ジェイデッカー",
      "qro": "Yûsha Keisatsu J-Decker"
    },
    "modified_at": "2020-06-21T23:45:31.966Z",
    "name": "Yûsha Keisatsu J-Decker",
    "repository": "kara.moe",
    "tid": "d207f488-14c3-48a5-9ade-0a96d22c0f6a",
    "types": [
      "series",
      "1"
    ]
  }
}