{
  "header": {
    "description": "Karaoke Mugen Tag File",
    "version": 1
  },
  "tag": {
    "aliases": [
      "Brave Caesar",
      "Brave Exkaiser",
      "Brave Fighter Exkizer",
      "Exkaizer",
      "Yuusha Exkaiser",
      "yuusha"
    ],
    "external_database_ids": {
      "anilist": 3325,
      "myanimelist": 3325,
      "kitsu": 2937
    },
    "i18n": {
      "eng": "Brave Exkaiser",
      "jpn": "勇者エクスカイザー",
      "qro": "Yûsha Exkaiser"
    },
    "modified_at": "2020-06-21T23:45:31.966Z",
    "name": "Yûsha Exkaiser",
    "repository": "kara.moe",
    "tid": "29564d8a-ce16-4d8f-a1c5-4dcbdfb87e17",
    "types": [
      "series",
      "1"
    ]
  }
}