{
  "header": {
    "description": "Karaoke Mugen Tag File",
    "version": 1
  },
  "tag": {
    "i18n": {
      "eng": "Yûsuke Katô"
    },
    "name": "Yûsuke Katô",
    "tid": "3dddfa51-de14-4da0-8baf-2b40c94f3eb2",
    "types": [
      "songwriters",
      "8"
    ],
    "repository": "kara.moe",
    "modified_at": "2020-03-31T19:04:38.832Z"
  }
}