{
  "header": {
    "description": "Karaoke Mugen Tag File",
    "version": 1
  },
  "tag": {
    "i18n": {
      "eng": "Yûto Uemura"
    },
    "name": "Yûto Uemura",
    "tid": "245ca20c-34e9-4c98-b395-af71dd88fc81",
    "types": [
      "singers",
      "2"
    ],
    "repository": "kara.moe",
    "modified_at": "2020-03-31T19:04:38.849Z"
  }
}