{
  "header": {
    "description": "Karaoke Mugen Tag File",
    "version": 1
  },
  "tag": {
    "i18n": {
      "eng": "Yûto Suzuki"
    },
    "name": "Yûto Suzuki",
    "tid": "779a54f5-8133-4a26-8a63-78e373cd8e05",
    "types": [
      "singers",
      "2"
    ],
    "repository": "kara.moe",
    "modified_at": "2020-03-31T19:04:38.848Z"
  }
}