{
  "header": {
    "description": "Karaoke Mugen Tag File",
    "version": 1
  },
  "tag": {
    "i18n": {
      "eng": "Yuzu Viridio"
    },
    "name": "Yuzu Viridio",
    "repository": "kara.moe",
    "tid": "cfd13f1b-8e42-4047-b2ff-fe1c1833d6bf",
    "types": [
      "creators",
      "4"
    ]
  }
}