{
  "header": {
    "description": "Karaoke Mugen Tag File",
    "version": 1
  },
  "tag": {
    "external_database_ids": {
      "anilist": 20486,
      "myanimelist": 20533,
      "kitsu": 8030
    },
    "i18n": {
      "eng": "Z/X: Ignition",
      "jpn": "Z/X IGNITION",
      "qro": "Z X Ignition"
    },
    "modified_at": "2020-03-31T19:04:33.202Z",
    "name": "Z X Ignition",
    "repository": "kara.moe",
    "tid": "bbc2fd84-d3fd-4c7d-9975-91f9eefd499c",
    "types": [
      "series",
      "1"
    ]
  }
}