{
  "header": {
    "description": "Karaoke Mugen Tag File",
    "version": 1
  },
  "tag": {
    "aliases": [
      "Terror in Tokyo",
      "ZanTerro",
      "Zankyou no Terror",
      "Ехото на терора",
      "Резонанс Ужаса",
      "Терористичен екот",
      "Эхо Террора",
      "zankyou"
    ],
    "external_database_ids": {
      "anilist": 20661,
      "myanimelist": 23283,
      "kitsu": 8342
    },
    "i18n": {
      "bul": "Екот на терор",
      "chi": "东京残响",
      "eng": "Terror in Resonance",
      "fre": "Terror in Resonance",
      "ger": "Terror in Tokio",
      "jpn": "残響のテロル",
      "per": "ترور طنین انداز",
      "rus": "Резонансный террор",
      "qro": "Zankyô no Terror"
    },
    "modified_at": "2020-03-31T19:04:33.203Z",
    "name": "Zankyô no Terror",
    "repository": "kara.moe",
    "tid": "eea0126f-ea58-4fd2-ae16-ab0203bc0b49",
    "types": [
      "series",
      "1"
    ]
  }
}