{
  "header": {
    "description": "Karaoke Mugen Tag File",
    "version": 1
  },
  "tag": {
    "i18n": {
      "eng": "Zbigniew Stawecki"
    },
    "name": "Zbigniew Stawecki",
    "tid": "1fbcb793-d278-44e2-b9e3-0b9d56829da7",
    "types": [
      "songwriters",
      "8"
    ],
    "repository": "kara.moe",
    "modified_at": "2020-03-31T19:04:38.866Z"
  }
}