{
  "header": {
    "description": "Karaoke Mugen Tag File",
    "version": 1
  },
  "tag": {
    "aliases": [
      "Monster Strike X MADHOUSE"
    ],
    "i18n": {
      "jpn": "絶望粉砕少女∞アミダ",
      "qro": "Zetsubou Funsai Shoujo ∞ Amida"
    },
    "name": "Zetsubou Funsai Shoujo ∞ Amida",
    "repository": "kara.moe",
    "tid": "13b9ae9d-76cb-4d8e-9c3a-747b64878315",
    "types": [
      "series",
      "1"
    ]
  }
}