{
  "header": {
    "description": "Karaoke Mugen Tag File",
    "version": 1
  },
  "tag": {
    "aliases": [
      "Natsume2",
      "Zoku Natsume Yuujinchou",
      "le pacte des yokaï 2",
      "le pacte des yôkai 2",
      "ny2",
      "nyc2",
      "zny",
      "znyc",
      "ادامه ی کتابٍ دوستان ناتسومه",
      "زاکو ناتسومه یوجینچو",
      "续.夏目友人帐",
      "yuujinchou"
    ],
    "external_database_ids": {
      "anilist": 5300,
      "myanimelist": 5300,
      "kitsu": 4044
    },
    "i18n": {
      "chi": "续 夏目友人帐",
      "eng": "Natsume's Book of Friends 2nd Season",
      "fre": "Zoku Natsume Yûjinchô",
      "jpn": "続 夏目友人帳",
      "tha": "นัตสึเมะกับบันทึกพิศวง ภาค 2",
      "qro": "Zoku Natsume Yûjinchô"
    },
    "modified_at": "2020-03-31T19:04:33.212Z",
    "name": "Zoku Natsume Yûjinchô",
    "repository": "kara.moe",
    "tid": "f81b4778-3efa-41e4-a8cd-093d0ed2a17e",
    "types": [
      "series",
      "1"
    ]
  }
}