{
  "header": {
    "description": "Karaoke Mugen Tag File",
    "version": 1
  },
  "tag": {
    "aliases": [
      "Goodbye Teacher Despair Extreme",
      "SZS S2",
      "Sayonara Zetsubou Sensei 2",
      "So Long Mr. Despair Extreme",
      "Zoku Sayonara Zetsubou Sensei",
      "szs2",
      "zszs",
      "Прощай безрадостный сенсей II: Финиш",
      "俗·再见! 绝望先生",
      "绝望老师 第2季 ~俗",
      "속・안녕 절망선생",
      "zetsubou-sensei"
    ],
    "external_database_ids": {
      "anilist": 3228,
      "myanimelist": 3228,
      "kitsu": 2871
    },
    "i18n": {
      "eng": "Goodbye Mr. Despair ‒ 2nd Season",
      "fre": "Sayonara Monsieur Désespoir (saison 2)",
      "jpn": "俗・さよなら絶望先生",
      "qro": "Zoku Sayonara Zetsubô-sensei"
    },
    "modified_at": "2020-03-31T19:04:33.214Z",
    "name": "Zoku Sayonara Zetsubô-sensei",
    "repository": "kara.moe",
    "tid": "09a588fe-07b4-4734-b1dc-122fe0caaed2",
    "types": [
      "series",
      "1"
    ]
  }
}