{
  "header": {
    "description": "Karaoke Mugen Tag File",
    "version": 1
  },
  "tag": {
    "i18n": {
      "eng": "ZSunder"
    },
    "name": "ZSunder",
    "repository": "kara.moe",
    "tid": "58590e29-3ab0-4d9c-bd90-5a4d7854ee0f",
    "types": [
      "songwriters",
      "8"
    ]
  }
}